%!PS-Adobe-3.0 EPSF-3.0
%%BoundingBox: 0 0 244 196
%%LanguageLevel: 2
%%Creator: OriginLab Corporation
%%Title: (C:\Users\Rong\Desktop\energyv8all.eps)
%%CreationDate: Mon Oct 03 17:54:46 2022
%%EndComments

/OriginLab::PSL1 128 dict dup begin def
/Save0 save def
%%BeginResource: procset OriginLab::PSL1
/wd{1 index where{pop pop pop}{bind def}ifelse}bind def
/setcmykcolor{1 sub 4 1 roll 3{3 index add neg dup 0 lt{pop 0}if 3 1 roll}repeat setrgbcolor pop}wd
/selectfont{dup type/arraytype eq{exch findfont exch makefont setfont}{exch findfont exch scalefont setfont}ifelse}wd
/xshow{1 index length 0 le{}{currentpoint exch 3 index length 1 sub 0 exch 1 exch{dup 5 index exch 1 getinterval show 3 index exch get add 2 copy exch moveto}for pop pop}ifelse pop pop}wd
/grayimage/image load def/rgbtogray{cvx exec dup length 3 idiv 1 sub 0 exch 1 exch{dup 3 mul dup 3 index exch get 255 div .3 mul exch
 1 add dup 4 index exch get 255 div .59 mul exch 1 add 4 index exch get 255 div .11 mul add add
 255 mul dup 255 gt{255}if round cvi 2 index 3 1 roll put}for dup length 3 idiv 0 exch getinterval}bind def
/colorimage{0 setgray pop pop cvlit/rgbtogray cvx 2 packedarray cvx grayimage}wd
/bd{bind def}bind def/ld{load def}bd/ed{exch def}bd/xd{cvx def}bd
/np/newpath ld/a/arc ld/m/moveto ld/l/lineto ld/c/curveto ld/rm/rmoveto ld/rl/rlineto ld/rc/rcurveto ld/cp/closepath ld/cpt/currentpoint ld
/tr/translate ld/sc/scale ld/ro/rotate ld/t/transform ld/it/itransform ld/dt/dtransform ld/idt/idtransform ld
/mtx/matrix ld/cmtx/currentmatrix ld/dmtx/defaultmatrix ld/smtx/setmatrix ld/catmtx/concatmatrix ld
/sw/setlinewidth ld/scap/setlinecap ld/sj/setlinejoin ld/sm/setmiterlimit ld/sd/setdash ld/rgb/setrgbcolor ld/crgb/currentrgbcolor ld/cmyk/setcmykcolor ld/gs/gsave ld/gr/grestore ld
/st/stroke ld/fi/fill ld/eofi/eofill ld/cl/clip ld/eocl/eoclip ld
/glyphshowEmulation{matrix currentmatrix exch currentfont dup/FontMatrix get concat currentpoint translate
 dup/Metrics get 2 index get 0 4 2 roll gsave/CharProcs get exch 2 copy known not{pop/.notdef}if
 get exec fill grestore moveto setmatrix} bind def
/isWord2010 false def
currentsystemparams /PrinterName known{currentsystemparams /PrinterName get (Access Softek) eq {/isWord2010 true def} if } if
isWord2010{/glyphshowCommand/glyphshowEmulation ld}{/glyphshowCommand/glyphshow ld}ifelse
/df/definefont ld/ff/findfont ld/sf/setfont ld/scf/scalefont ld/self/selectfont ld/cf/currentfont ld
/s/show ld/xs/xshow ld/gls/glyphshowCommand ld/xgls{cpt 3 1 roll add exch 3 -1 roll gls m}bd
/xglsh{cpt 3 1 roll add exch 3 -1 roll glyphshowCommand m}bd
/cd/currentdict ld/i/index ld
/DrawBox{4 2 roll m 1 index 0 rl 0 exch rl neg 0 rl cp}bd
/plus.re { 6 { 3 index } repeat moveto 0 exch rlineto 0 rlineto pop pop neg 0 exch rlineto pop lineto closepath } def
/DrawBcc{4 2 roll m 2 copy 0 lt exch 0 lt xor{dup 0 exch rl exch 0 rl neg 0 exch rl}{exch dup 0 rl exch 0 exch rl neg 0 rl}ifelse cp}bd
/rectline{dup type/arraytype eq{dup length 0 exch 4 exch 4 sub{0 1 3{3 copy add get 4 1 roll pop}for pop 5 1 roll DrawBox}for pop}{DrawBox}ifelse}bd
/rectpath{dup type/arraytype eq{dup length 0 exch 4 exch 4 sub{0 1 3{3 copy add get 4 1 roll pop}for pop 5 1 roll DrawBcc}for pop}{DrawBcc}ifelse}bd
/pathproc{[{/m cvx}{/l cvx}{/c cvx}{/cp cvx}pathforall]cvx}bd
/L1img/image ld/L1idx[{0}
 {dup 7 and 3 1 roll -3 bitshift get exch 7 sub 1 mul bitshift  1 and}bind 1 index dup
 {dup 1 and 3 1 roll -1 bitshift get exch 1 sub 4 mul bitshift 15 and}bind 1 index dup dup
 {get}bind]def
/image{dup type/dicttype eq {dup/ImgCS get 0 get/Indexed eq}{false}ifelse
 {begin Width Height 8 ImageMatrix {rgb_string rgb_lookup
 cd/DataSource get dup type/filetype eq
 {mystring readstring pop}{exec}ifelse
 dup length 0 ne
 {L1idx BitsPerComponent get 0 1 Width 1 sub
 {3 copy exch exec exch 3 mul exch
 3 mul dup 5 index exch get exch 1 add dup 6 index exch get exch 1 add 6 index exch get
 7 index exch 4 index 2 add exch put 6 index exch 3 index 1 add exch put 5 index exch 2 index exch put pop
 }for pop pop pop }{pop pop pop ()}ifelse }false 3 colorimage end} {dup type/dicttype eq
 {{dup mark exch L1img pop pop}stopped{cleartomark begin Width Height BitsPerComponent ImageMatrix
 {cd/DataSource get dup type/filetype eq {mystring readstring pop}{exec}ifelse
 }false 3 colorimage end} if}{L1img}ifelse}ifelse
 }bd
/L1imgmask/imagemask ld/imagemask{dup type/dicttype eq
 {{dup mark exch L1imgmask pop pop}stopped {cleartomark begin Width Height polarityflag ImageMatrix
 {cd/DataSource get dup type/filetype eq {mystring readstring pop}{exec}ifelse
 }L1imgmask end}if}{L1imgmask}ifelse
 }bd
% Gradient function
/GradientStep 1 150 div def
/GradientStartRGB { /R1 exch def /G1 exch def /B1 exch def } def
/GradientEndRGB { /R2 exch def /G2 exch def /B2 exch def
/GradientSteps GradientLength GradientStep div def
/GradientRStep R2 R1 sub GradientSteps div def
/GradientGStep G2 G1 sub GradientSteps div def
/GradientBStep B2 B1 sub GradientSteps div def
} def
/GradientStepRGB { /R1 R1 GradientRStep add def
/G1 G1 GradientGStep add def
/B1 B1 GradientBStep add def
R1 G1 B1 setrgbcolor
} def
%%EndResource
/rectclip{np rectpath clip np}wd
/rectfill{gs np rectpath fi gr}wd
/rectstroke{gs np dup type/arraytype eq{dup length 6 eq}{false}ifelse{1 index type/arraytype eq{exch}{5 1 roll}ifelse rectline concat st}{rectline st}ifelse gr}wd
%%BeginResource: procset OriginLab::Image
/OriginLab::Image 32 dict dup begin
/BinProc{[currentfile mystring /readstring cvx /pop cvx] cvx bind}bd
/HexProc{[currentfile mystring /readhexstring cvx /pop cvx] cvx bind}bd
/Ascii85Proc{currentfile /ASCII85Decode filter}bd
/LZWA85{currentfile /ASCII85Decode filter /LZWDecode filter}bd
/ImgProcArray[/BinProc /HexProc /Ascii85Proc /LZWA85]def
/ImgDict{/ImgDict 16 dict def ImgDict dup begin /ImageType 1 def /MultipleDataSource false def end}bd
/L2Dec{{[1 0]}{[0 1]}ifelse}bd
/BegImg{ /Img_sv save def
 /ImgDir ed ImgProcArray exch get /ImgProc exch ld
 dup /polarityflag ed L2Dec /polarity ed /smoothflag ed
 tr /dx 2 index def /dy 1 index abs def sc
 string /mystring ed /bpc ed /ih ed /iw ed
 }bd
/EndImg {Img_sv restore}bd
/DoXImg{ /rgb_lookup ed /hival ed ImgDict dup begin
 [/Indexed /DeviceRGB hival rgb_lookup] /L1img where{pop/ImgCS ed}{setcolorspace}ifelse
 /rgb_string iw 3 mul string def
 /Width iw def
 /Height ih def
 /Decode [0 1 bpc{2 mul}repeat 1 sub] def
 /ImageMatrix
  ImgDir 0 eq{[iw 0 0 ih 0 0]}if
  ImgDir 1 eq{[iw neg 0 0 ih iw 0]}if
  ImgDir 2 eq{[iw 0 0 ih neg 0 ih]}if
  ImgDir 3 eq{[iw neg 0 0 ih neg iw ih]}if
  def
 /DataSource ImgProc def
 /BitsPerComponent bpc def
 /Interpolate smoothflag def
 end image}bd
/DoImg{ ImgDict dup begin
 [/DeviceRGB] /L1img where{pop/ImgCS ed}{setcolorspace}ifelse
 /rgb_string iw 3 mul string def
 /Width iw def
 /Height ih def
 /Decode [0 1 0 1 0 1] def
 /ImageMatrix
  ImgDir 0 eq{[iw 0 0 ih 0 0]}if
  ImgDir 1 eq{[iw neg 0 0 ih iw 0]}if
  ImgDir 2 eq{[iw 0 0 ih neg 0 ih]}if
  ImgDir 3 eq{[iw neg 0 0 ih neg iw ih]}if
  def
 /DataSource ImgProc def
 /BitsPerComponent 8 def
 /Interpolate smoothflag def
 end image}bd
end def
%%EndResource
/initmtx mtx cmtx def
%%BeginFont: /MC1_Arial
12 dict begin
/FontInfo 8 dict dup begin
/ItalicAngle 0 def
/UnderlinePosition -217.00 def
/UnderlineThickness 150.00 def
/StrikeoutPosition 530.00 def
/StrikeoutThickness 102.00 def
/isFixedPitch false def
end readonly def
/FontName /MC1_Arial def
/FontType 3 def
/FontMatrix [1 2048 div 0 0 1 2048 div 0 0] def
/FontBBox [-1361 -665 4096 2129] def
/Encoding 256 array def 0 1 255{Encoding exch/.notdef put}for
Encoding 32/s32 put
Encoding 39/s39 put
Encoding 45/s45 put
Encoding 46/s46 put
Encoding 48/s48 put
Encoding 49/s49 put
Encoding 50/s50 put
Encoding 51/s51 put
Encoding 52/s52 put
Encoding 53/s53 put
Encoding 54/s54 put
Encoding 55/s55 put
Encoding 56/s56 put
Encoding 57/s57 put
Encoding 61/s61 put
Encoding 65/s65 put
Encoding 67/s67 put
Encoding 68/s68 put
Encoding 69/s69 put
Encoding 70/s70 put
Encoding 71/s71 put
Encoding 72/s72 put
Encoding 73/s73 put
Encoding 76/s76 put
Encoding 77/s77 put
Encoding 78/s78 put
Encoding 79/s79 put
Encoding 80/s80 put
Encoding 84/s84 put
Encoding 86/s86 put
Encoding 97/s97 put
Encoding 99/s99 put
Encoding 101/s101 put
Encoding 103/s103 put
Encoding 104/s104 put
Encoding 105/s105 put
Encoding 108/s108 put
Encoding 109/s109 put
Encoding 110/s110 put
Encoding 111/s111 put
Encoding 112/s112 put
Encoding 114/s114 put
Encoding 115/s115 put
Encoding 116/s116 put
Encoding 118/s118 put
Encoding 120/s120 put
/BoundingBoxes 47 dict def
BoundingBoxes begin
/s32 [0 -434 569 1854] def
/s39 [0 -434 391 1854] def
/s45 [0 -434 682 1854] def
/s46 [0 -434 569 1854] def
/s48 [0 -434 1139 1854] def
/s49 [0 -434 1139 1854] def
/s50 [0 -434 1139 1854] def
/s51 [0 -434 1139 1854] def
/s52 [0 -434 1139 1854] def
/s53 [0 -434 1139 1854] def
/s54 [0 -434 1139 1854] def
/s55 [0 -434 1139 1854] def
/s56 [0 -434 1139 1854] def
/s57 [0 -434 1139 1854] def
/s61 [0 -434 1196 1854] def
/s65 [-3 -434 1366 1854] def
/s67 [0 -434 1479 1854] def
/s68 [0 -434 1479 1854] def
/s69 [0 -434 1366 1854] def
/s70 [0 -434 1251 1854] def
/s71 [0 -434 1593 1854] def
/s72 [0 -434 1479 1854] def
/s73 [0 -434 569 1854] def
/s76 [0 -434 1139 1854] def
/s77 [0 -434 1706 1854] def
/s78 [0 -434 1479 1854] def
/s79 [0 -434 1593 1854] def
/s80 [0 -434 1366 1854] def
/s84 [0 -434 1251 1854] def
/s86 [0 -434 1366 1854] def
/s97 [0 -434 1139 1854] def
/s99 [0 -434 1024 1854] def
/s101 [0 -434 1139 1854] def
/s103 [0 -434 1139 1854] def
/s104 [0 -434 1139 1854] def
/s105 [0 -434 455 1854] def
/s108 [0 -434 455 1854] def
/s109 [0 -434 1706 1854] def
/s110 [0 -434 1139 1854] def
/s111 [0 -434 1139 1854] def
/s112 [0 -434 1139 1854] def
/s114 [0 -434 682 1854] def
/s115 [0 -434 1024 1854] def
/s116 [0 -434 569 1854] def
/s118 [0 -434 1024 1854] def
/s120 [0 -434 1024 1854] def
end
/Metrics 47 dict def
 Metrics begin
/s32 569 def
/s39 391 def
/s45 682 def
/s46 569 def
/s48 1139 def
/s49 1139 def
/s50 1139 def
/s51 1139 def
/s52 1139 def
/s53 1139 def
/s54 1139 def
/s55 1139 def
/s56 1139 def
/s57 1139 def
/s61 1196 def
/s65 1366 def
/s67 1479 def
/s68 1479 def
/s69 1366 def
/s70 1251 def
/s71 1593 def
/s72 1479 def
/s73 569 def
/s76 1139 def
/s77 1706 def
/s78 1479 def
/s79 1593 def
/s80 1366 def
/s84 1251 def
/s86 1366 def
/s97 1139 def
/s99 1024 def
/s101 1139 def
/s103 1139 def
/s104 1139 def
/s105 455 def
/s108 455 def
/s109 1706 def
/s110 1139 def
/s111 1139 def
/s112 1139 def
/s114 682 def
/s115 1024 def
/s116 569 def
/s118 1024 def
/s120 1024 def
end
/CharProcs 47 dict def
CharProcs begin
/.notdef {} def
/s39 {
136 947 m
90 1221 136 947 90 1221 c
90 1466 90 1221 90 1466 c
295 1466 90 1466 295 1466 c
295 1221 295 1466 295 1221 c
247 947 295 1221 247 947 c
136 947 247 947 136 947 c
closepath } bind def
/s45 {
65 440 m
65 621 65 440 65 621 c
618 621 65 621 618 621 c
618 440 618 621 618 440 c
65 440 618 440 65 440 c
closepath } bind def
/s46 {
186 0 m
186 205 186 0 186 205 c
391 205 186 205 391 205 c
391 0 391 205 391 0 c
186 0 391 0 186 0 c
closepath } bind def
/s48 {
85 723 m
85 896.33 102.83 1035.83 138.5 1141.5 c
174.17 1247.17 227.17 1328.67 297.5 1386 c
367.83 1443.33 456.33 1472 563 1472 c
641.67 1472 710.67 1456.17 770 1424.5 c
829.33 1392.83 878.33 1347.17 917 1287.5 c
955.67 1227.83 986 1155.17 1008 1069.5 c
1030 983.83 1041 868.33 1041 723 c
1041 551 1023.33 412.17 988 306.5 c
952.67 200.83 899.83 119.17 829.5 61.5 c
759.17 3.83 670.33 -25 563 -25 c
421.67 -25 310.67 25.67 230 127 c
133.33 249 85 447.67 85 723 c
closepath 270 723 m
270 482.33 298.17 322.17 354.5 242.5 c
410.83 162.83 480.33 123 563 123 c
645.67 123 715.17 163 771.5 243 c
827.83 323 856 483 856 723 c
856 964.33 827.83 1124.67 771.5 1204 c
715.17 1283.33 645 1323 561 1323 c
478.33 1323 412.33 1288 363 1218 c
301 1128.67 270 963.67 270 723 c
closepath } bind def
/s49 {
763 0 m
583 0 763 0 583 0 c
583 1147 583 0 583 1147 c
539.67 1105.67 482.83 1064.33 412.5 1023 c
342.17 981.67 279 950.67 223 930 c
223 1104 223 930 223 1104 c
323.67 1151.33 411.67 1208.67 487 1276 c
562.33 1343.33 615.67 1408.67 647 1472 c
763 1472 647 1472 763 1472 c
763 0 763 1472 763 0 c
closepath } bind def
/s50 {
1031 173 m
1031 0 1031 173 1031 0 c
62 0 1031 0 62 0 c
60.67 43.33 67.67 85 83 125 c
107.67 191 147.17 256 201.5 320 c
255.83 384 334.33 458 437 542 c
596.33 672.67 704 776.17 760 852.5 c
816 928.83 844 1001 844 1069 c
844 1140.33 818.5 1200.5 767.5 1249.5 c
716.5 1298.5 650 1323 568 1323 c
481.33 1323 412 1297 360 1245 c
308 1193 281.67 1121 281 1029 c
96 1048 281 1029 96 1048 c
108.67 1186 156.33 1291.17 239 1363.5 c
321.67 1435.83 432.67 1472 572 1472 c
712.67 1472 824 1433 906 1355 c
988 1277 1029 1180.33 1029 1065 c
1029 1006.33 1017 948.67 993 892 c
969 835.33 929.17 775.67 873.5 713 c
817.83 650.33 725.33 564.33 596 455 c
488 364.33 418.67 302.83 388 270.5 c
357.33 238.17 332 205.67 312 173 c
1031 173 312 173 1031 173 c
closepath } bind def
/s51 {
86 387 m
266 411 86 387 266 411 c
286.67 309 321.83 235.5 371.5 190.5 c
421.17 145.5 481.67 123 553 123 c
637.67 123 709.17 152.33 767.5 211 c
825.83 269.67 855 342.33 855 429 c
855 511.67 828 579.83 774 633.5 c
720 687.17 651.33 714 568 714 c
534 714 491.67 707.33 441 694 c
461 852 441 694 461 852 c
473 850.67 482.67 850 490 850 c
566.67 850 635.67 870 697 910 c
758.33 950 789 1011.67 789 1095 c
789 1161 766.67 1215.67 722 1259 c
677.33 1302.33 619.67 1324 549 1324 c
479 1324 420.67 1302 374 1258 c
327.33 1214 297.33 1148 284 1060 c
104 1092 284 1060 104 1092 c
126 1212.67 176 1306.17 254 1372.5 c
332 1438.83 429 1472 545 1472 c
625 1472 698.67 1454.83 766 1420.5 c
833.33 1386.17 884.83 1339.33 920.5 1280 c
956.17 1220.67 974 1157.67 974 1091 c
974 1027.67 957 970 923 918 c
889 866 838.67 824.67 772 794 c
858.67 774 926 732.5 974 669.5 c
1022 606.5 1046 527.67 1046 433 c
1046 305 999.33 196.5 906 107.5 c
812.67 18.5 694.67 -26 552 -26 c
423.33 -26 316.5 12.33 231.5 89 c
146.5 165.67 98 265 86 387 c
closepath } bind def
/s52 {
662 0 m
662 351 662 0 662 351 c
26 351 662 351 26 351 c
26 516 26 351 26 516 c
695 1466 26 516 695 1466 c
842 1466 695 1466 842 1466 c
842 516 842 1466 842 516 c
1040 516 842 516 1040 516 c
1040 351 1040 516 1040 351 c
842 351 1040 351 842 351 c
842 0 842 351 842 0 c
662 0 842 0 662 0 c
closepath 662 516 m
662 1177 662 516 662 1177 c
203 516 662 1177 203 516 c
662 516 203 516 662 516 c
closepath } bind def
/s53 {
85 384 m
274 400 85 384 274 400 c
288 308 320.5 238.83 371.5 192.5 c
422.5 146.17 484 123 556 123 c
642.67 123 716 155.67 776 221 c
836 286.33 866 373 866 481 c
866 583.67 837.17 664.67 779.5 724 c
721.83 783.33 646.33 813 553 813 c
495 813 442.67 799.83 396 773.5 c
349.33 747.17 312.67 713 286 671 c
117 693 286 671 117 693 c
259 1446 117 693 259 1446 c
988 1446 259 1446 988 1446 c
988 1274 988 1446 988 1274 c
403 1274 988 1274 403 1274 c
324 880 403 1274 324 880 c
412 941.33 504.33 972 601 972 c
729 972 837 927.67 925 839 c
1013 750.33 1057 636.33 1057 497 c
1057 364.33 1018.33 249.67 941 153 c
847 34.33 718.67 -25 556 -25 c
422.67 -25 313.83 12.33 229.5 87 c
145.17 161.67 97 260.67 85 384 c
closepath } bind def
/s54 {
1019 1107 m
840 1093 1019 1107 840 1093 c
824 1163.67 801.33 1215 772 1247 c
723.33 1298.33 663.33 1324 592 1324 c
534.67 1324 484.33 1308 441 1276 c
384.33 1234.67 339.67 1174.33 307 1095 c
274.33 1015.67 257.33 902.67 256 756 c
299.33 822 352.33 871 415 903 c
477.67 935 543.33 951 612 951 c
732 951 834.17 906.83 918.5 818.5 c
1002.83 730.17 1045 616 1045 476 c
1045 384 1025.17 298.5 985.5 219.5 c
945.83 140.5 891.33 80 822 38 c
752.67 -4 674 -25 586 -25 c
436 -25 313.67 30.17 219 140.5 c
124.33 250.83 77 432.67 77 686 c
77 969.33 129.33 1175.33 234 1304 c
325.33 1416 448.33 1472 603 1472 c
718.33 1472 812.83 1439.67 886.5 1375 c
960.17 1310.33 1004.33 1221 1019 1107 c
closepath 284 475 m
284 413 297.17 353.67 323.5 297 c
349.83 240.33 386.67 197.17 434 167.5 c
481.33 137.83 531 123 583 123 c
659 123 724.33 153.67 779 215 c
833.67 276.33 861 359.67 861 465 c
861 566.33 834 646.17 780 704.5 c
726 762.83 658 792 576 792 c
494.67 792 425.67 762.83 369 704.5 c
312.33 646.17 284 569.67 284 475 c
closepath } bind def
/s55 {
97 1274 m
97 1447 97 1274 97 1447 c
1046 1447 97 1447 1046 1447 c
1046 1307 1046 1447 1046 1307 c
952.67 1207.67 860.17 1075.67 768.5 911 c
676.83 746.33 606 577 556 403 c
520 280.33 497 146 487 0 c
302 0 487 0 302 0 c
304 115.33 326.67 254.67 370 418 c
413.33 581.33 475.5 738.83 556.5 890.5 c
637.5 1042.17 723.67 1170 815 1274 c
97 1274 815 1274 97 1274 c
closepath } bind def
/s56 {
362 795 m
287.33 822.33 232 861.33 196 912 c
160 962.67 142 1023.33 142 1094 c
142 1200.67 180.33 1290.33 257 1363 c
333.67 1435.67 435.67 1472 563 1472 c
691 1472 794 1434.83 872 1360.5 c
950 1286.17 989 1195.67 989 1089 c
989 1021 971.17 961.83 935.5 911.5 c
899.83 861.17 845.67 822.33 773 795 c
863 765.67 931.5 718.33 978.5 653 c
1025.5 587.67 1049 509.67 1049 419 c
1049 293.67 1004.67 188.33 916 103 c
827.33 17.67 710.67 -25 566 -25 c
421.33 -25 304.67 17.83 216 103.5 c
127.33 189.17 83 296 83 424 c
83 519.33 107.17 599.17 155.5 663.5 c
203.83 727.83 272.67 771.67 362 795 c
closepath 326 1100 m
326 1030.67 348.33 974 393 930 c
437.67 886 495.67 864 567 864 c
636.33 864 693.17 885.83 737.5 929.5 c
781.83 973.17 804 1026.67 804 1090 c
804 1156 781.17 1211.5 735.5 1256.5 c
689.83 1301.5 633 1324 565 1324 c
496.33 1324 439.33 1302 394 1258 c
348.67 1214 326 1161.33 326 1100 c
closepath 268 423 m
268 371.67 280.17 322 304.5 274 c
328.83 226 365 188.83 413 162.5 c
461 136.17 512.67 123 568 123 c
654 123 725 150.67 781 206 c
837 261.33 865 331.67 865 417 c
865 503.67 836.17 575.33 778.5 632 c
720.83 688.67 648.67 717 562 717 c
477.33 717 407.17 689 351.5 633 c
295.83 577 268 507 268 423 c
closepath } bind def
/s57 {
112 339 m
285 355 112 339 285 355 c
299.67 273.67 327.67 214.67 369 178 c
410.33 141.33 463.33 123 528 123 c
583.33 123 631.83 135.67 673.5 161 c
715.17 186.33 749.33 220.17 776 262.5 c
802.67 304.83 825 362 843 434 c
861 506 870 579.33 870 654 c
870 662 869.67 674 869 690 c
833 632.67 783.83 586.17 721.5 550.5 c
659.17 514.83 591.67 497 519 497 c
397.67 497 295 541 211 629 c
127 717 85 833 85 977 c
85 1125.67 128.83 1245.33 216.5 1336 c
304.17 1426.67 414 1472 546 1472 c
641.33 1472 728.5 1446.33 807.5 1395 c
886.5 1343.67 946.5 1270.5 987.5 1175.5 c
1028.5 1080.5 1049 943 1049 763 c
1049 575.67 1028.67 426.5 988 315.5 c
947.33 204.5 886.83 120 806.5 62 c
726.17 4 632 -25 524 -25 c
409.33 -25 315.67 6.83 243 70.5 c
170.33 134.17 126.67 223.67 112 339 c
closepath 849 986 m
849 1089.33 821.5 1171.33 766.5 1232 c
711.5 1292.67 645.33 1323 568 1323 c
488 1323 418.33 1290.33 359 1225 c
299.67 1159.67 270 1075 270 971 c
270 877.67 298.17 801.83 354.5 743.5 c
410.83 685.17 480.33 656 563 656 c
646.33 656 714.83 685.17 768.5 743.5 c
822.17 801.83 849 882.67 849 986 c
closepath } bind def
/s61 {
1082 862 m
114 862 1082 862 114 862 c
114 1030 114 862 114 1030 c
1082 1030 114 1030 1082 1030 c
1082 862 1082 1030 1082 862 c
closepath 1082 417 m
114 417 1082 417 114 417 c
114 585 114 417 114 585 c
1082 585 114 585 1082 585 c
1082 417 1082 585 1082 417 c
closepath } bind def
/s65 {
-3 0 m
560 1466 -3 0 560 1466 c
769 1466 560 1466 769 1466 c
1369 0 769 1466 1369 0 c
1148 0 1369 0 1148 0 c
977 444 1148 0 977 444 c
364 444 977 444 364 444 c
203 0 364 444 203 0 c
-3 0 203 0 -3 0 c
closepath 420 602 m
917 602 420 602 917 602 c
764 1008 917 602 764 1008 c
717.33 1131.33 682.67 1232.67 660 1312 c
641.33 1218 615 1124.67 581 1032 c
420 602 581 1032 420 602 c
closepath } bind def
/s67 {
1204 514 m
1398 465 1204 514 1398 465 c
1357.33 305.67 1284.17 184.17 1178.5 100.5 c
1072.83 16.83 943.67 -25 791 -25 c
633 -25 504.5 7.17 405.5 71.5 c
306.5 135.83 231.17 229 179.5 351 c
127.83 473 102 604 102 744 c
102 896.67 131.17 1029.83 189.5 1143.5 c
247.83 1257.17 330.83 1343.5 438.5 1402.5 c
546.17 1461.5 664.67 1491 794 1491 c
940.67 1491 1064 1453.67 1164 1379 c
1264 1304.33 1333.67 1199.33 1373 1064 c
1182 1019 1373 1064 1182 1019 c
1148 1125.67 1098.67 1203.33 1034 1252 c
969.33 1300.67 888 1325 790 1325 c
677.33 1325 583.17 1298 507.5 1244 c
431.83 1190 378.67 1117.5 348 1026.5 c
317.33 935.5 302 841.67 302 745 c
302 620.33 320.17 511.5 356.5 418.5 c
392.83 325.5 449.33 256 526 210 c
602.67 164 685.67 141 775 141 c
883.67 141 975.67 172.33 1051 235 c
1126.33 297.67 1177.33 390.67 1204 514 c
closepath } bind def
/s68 {
158 0 m
158 1466 158 0 158 1466 c
663 1466 158 1466 663 1466 c
777 1466 864 1459 924 1445 c
1008 1425.67 1079.67 1390.67 1139 1340 c
1216.33 1274.67 1274.17 1191.17 1312.5 1089.5 c
1350.83 987.83 1370 871.67 1370 741 c
1370 629.67 1357 531 1331 445 c
1305 359 1271.67 287.83 1231 231.5 c
1190.33 175.17 1145.83 130.83 1097.5 98.5 c
1049.17 66.17 990.83 41.67 922.5 25 c
854.17 8.33 775.67 0 687 0 c
158 0 687 0 158 0 c
closepath 352 173 m
665 173 352 173 665 173 c
761.67 173 837.5 182 892.5 200 c
947.5 218 991.33 243.33 1024 276 c
1070 322 1105.83 383.83 1131.5 461.5 c
1157.17 539.17 1170 633.33 1170 744 c
1170 897.33 1144.83 1015.17 1094.5 1097.5 c
1044.17 1179.83 983 1235 911 1263 c
859 1283 775.33 1293 660 1293 c
352 1293 660 1293 352 1293 c
352 173 352 1293 352 173 c
closepath } bind def
/s69 {
162 0 m
162 1466 162 0 162 1466 c
1222 1466 162 1466 1222 1466 c
1222 1293 1222 1466 1222 1293 c
356 1293 1222 1293 356 1293 c
356 844 356 1293 356 844 c
1167 844 356 844 1167 844 c
1167 672 1167 844 1167 672 c
356 672 1167 672 356 672 c
356 173 356 672 356 173 c
1256 173 356 173 1256 173 c
1256 0 1256 173 1256 0 c
162 0 1256 0 162 0 c
closepath } bind def
/s70 {
168 0 m
168 1466 168 0 168 1466 c
1157 1466 168 1466 1157 1466 c
1157 1293 1157 1466 1157 1293 c
362 1293 1157 1293 362 1293 c
362 839 362 1293 362 839 c
1050 839 362 839 1050 839 c
1050 666 1050 839 1050 666 c
362 666 1050 666 362 666 c
362 0 362 666 362 0 c
168 0 362 0 168 0 c
closepath } bind def
/s71 {
844 575 m
844 747 844 575 844 747 c
1465 748 844 747 1465 748 c
1465 204 1465 748 1465 204 c
1369.67 128 1271.33 70.83 1170 32.5 c
1068.67 -5.83 964.67 -25 858 -25 c
714 -25 583.17 5.83 465.5 67.5 c
347.83 129.17 259 218.33 199 335 c
139 451.67 109 582 109 726 c
109 868.67 138.83 1001.83 198.5 1125.5 c
258.17 1249.17 344 1341 456 1401 c
568 1461 697 1491 843 1491 c
949 1491 1044.83 1473.83 1130.5 1439.5 c
1216.17 1405.17 1283.33 1357.33 1332 1296 c
1380.67 1234.67 1417.67 1154.67 1443 1056 c
1268 1008 1443 1056 1268 1008 c
1246 1082.67 1218.67 1141.33 1186 1184 c
1153.33 1226.67 1106.67 1260.83 1046 1286.5 c
985.33 1312.17 918 1325 844 1325 c
755.33 1325 678.67 1311.5 614 1284.5 c
549.33 1257.5 497.17 1222 457.5 1178 c
417.83 1134 387 1085.67 365 1033 c
327.67 942.33 309 844 309 738 c
309 607.33 331.5 498 376.5 410 c
421.5 322 487 256.67 573 214 c
659 171.33 750.33 150 847 150 c
931 150 1013 166.17 1093 198.5 c
1173 230.83 1233.67 265.33 1275 302 c
1275 575 1275 302 1275 575 c
844 575 1275 575 844 575 c
closepath } bind def
/s72 {
164 0 m
164 1466 164 0 164 1466 c
358 1466 164 1466 358 1466 c
358 864 358 1466 358 864 c
1120 864 358 864 1120 864 c
1120 1466 1120 864 1120 1466 c
1314 1466 1120 1466 1314 1466 c
1314 0 1314 1466 1314 0 c
1120 0 1314 0 1120 0 c
1120 691 1120 0 1120 691 c
358 691 1120 691 358 691 c
358 0 358 691 358 0 c
164 0 358 0 164 0 c
closepath } bind def
/s73 {
191 0 m
191 1466 191 0 191 1466 c
385 1466 191 1466 385 1466 c
385 0 385 1466 385 0 c
191 0 385 0 191 0 c
closepath } bind def
/s76 {
150 0 m
150 1466 150 0 150 1466 c
344 1466 150 1466 344 1466 c
344 173 344 1466 344 173 c
1066 173 344 173 1066 173 c
1066 0 1066 173 1066 0 c
150 0 1066 0 150 0 c
closepath } bind def
/s77 {
152 0 m
152 1466 152 0 152 1466 c
444 1466 152 1466 444 1466 c
791 428 444 1466 791 428 c
823 331.33 846.33 259 861 211 c
877.67 264.33 903.67 342.67 939 446 c
1290 1466 939 446 1290 1466 c
1551 1466 1290 1466 1551 1466 c
1551 0 1551 1466 1551 0 c
1364 0 1551 0 1364 0 c
1364 1227 1364 0 1364 1227 c
938 0 1364 1227 938 0 c
763 0 938 0 763 0 c
339 1248 763 0 339 1248 c
339 0 339 1248 339 0 c
152 0 339 0 152 0 c
closepath } bind def
/s78 {
156 0 m
156 1466 156 0 156 1466 c
355 1466 156 1466 355 1466 c
1125 315 355 1466 1125 315 c
1125 1466 1125 315 1125 1466 c
1311 1466 1125 1466 1311 1466 c
1311 0 1311 1466 1311 0 c
1112 0 1311 0 1112 0 c
342 1152 1112 0 342 1152 c
342 0 342 1152 342 0 c
156 0 342 0 156 0 c
closepath } bind def
/s79 {
99 714 m
99 957.33 164.33 1147.83 295 1285.5 c
425.67 1423.17 594.33 1492 801 1492 c
936.33 1492 1058.33 1459.67 1167 1395 c
1275.67 1330.33 1358.5 1240.17 1415.5 1124.5 c
1472.5 1008.83 1501 877.67 1501 731 c
1501 582.33 1471 449.33 1411 332 c
1351 214.67 1266 125.83 1156 65.5 c
1046 5.17 927.33 -25 800 -25 c
662 -25 538.67 8.33 430 75 c
321.33 141.67 239 232.67 183 348 c
127 463.33 99 585.33 99 714 c
closepath 299 711 m
299 534.33 346.5 395.17 441.5 293.5 c
536.5 191.83 655.67 141 799 141 c
945 141 1065.17 192.33 1159.5 295 c
1253.83 397.67 1301 543.33 1301 732 c
1301 851.33 1280.83 955.5 1240.5 1044.5 c
1200.17 1133.5 1141.17 1202.5 1063.5 1251.5 c
985.83 1300.5 898.67 1325 802 1325 c
664.67 1325 546.5 1277.83 447.5 1183.5 c
348.5 1089.17 299 931.67 299 711 c
closepath } bind def
/s80 {
158 0 m
158 1466 158 0 158 1466 c
711 1466 158 1466 711 1466 c
808.33 1466 882.67 1461.33 934 1452 c
1006 1440 1066.33 1417.17 1115 1383.5 c
1163.67 1349.83 1202.83 1302.67 1232.5 1242 c
1262.17 1181.33 1277 1114.67 1277 1042 c
1277 917.33 1237.33 811.83 1158 725.5 c
1078.67 639.17 935.33 596 728 596 c
352 596 728 596 352 596 c
352 0 352 596 352 0 c
158 0 352 0 158 0 c
closepath 352 769 m
731 769 352 769 731 769 c
856.33 769 945.33 792.33 998 839 c
1050.67 885.67 1077 951.33 1077 1036 c
1077 1097.33 1061.5 1149.83 1030.5 1193.5 c
999.5 1237.17 958.67 1266 908 1280 c
875.33 1288.67 815 1293 727 1293 c
352 1293 727 1293 352 1293 c
352 769 352 1293 352 769 c
closepath } bind def
/s84 {
531 0 m
531 1293 531 0 531 1293 c
48 1293 531 1293 48 1293 c
48 1466 48 1293 48 1466 c
1210 1466 48 1466 1210 1466 c
1210 1293 1210 1466 1210 1293 c
725 1293 1210 1293 725 1293 c
725 0 725 1293 725 0 c
531 0 725 0 531 0 c
closepath } bind def
/s86 {
577 0 m
9 1466 577 0 9 1466 c
219 1466 9 1466 219 1466 c
600 401 219 1466 600 401 c
630.67 315.67 656.33 235.67 677 161 c
699.67 241 726 321 756 401 c
1152 1466 756 401 1152 1466 c
1350 1466 1152 1466 1350 1466 c
776 0 1350 1466 776 0 c
577 0 776 0 577 0 c
closepath } bind def
/s97 {
828 131 m
761.33 74.33 697.17 34.33 635.5 11 c
573.83 -12.33 507.67 -24 437 -24 c
320.33 -24 230.67 4.5 168 61.5 c
105.33 118.5 74 191.33 74 280 c
74 332 85.83 379.5 109.5 422.5 c
133.17 465.5 164.17 500 202.5 526 c
240.83 552 284 571.67 332 585 c
367.33 594.33 420.67 603.33 492 612 c
637.33 629.33 744.33 650 813 674 c
813.67 698.67 814 714.33 814 721 c
814 794.33 797 846 763 876 c
717 916.67 648.67 937 558 937 c
473.33 937 410.83 922.17 370.5 892.5 c
330.17 862.83 300.33 810.33 281 735 c
105 759 281 735 105 759 c
121 834.33 147.33 895.17 184 941.5 c
220.67 987.83 273.67 1023.5 343 1048.5 c
412.33 1073.5 492.67 1086 584 1086 c
674.67 1086 748.33 1075.33 805 1054 c
861.67 1032.67 903.33 1005.83 930 973.5 c
956.67 941.17 975.33 900.33 986 851 c
992 820.33 995 765 995 685 c
995 445 995 685 995 445 c
995 277.67 998.83 171.83 1006.5 127.5 c
1014.17 83.17 1029.33 40.67 1052 0 c
864 0 1052 0 864 0 c
845.33 37.33 833.33 81 828 131 c
closepath 813 533 m
747.67 506.33 649.67 483.67 519 465 c
445 454.33 392.67 442.33 362 429 c
331.33 415.67 307.67 396.17 291 370.5 c
274.33 344.83 266 316.33 266 285 c
266 237 284.17 197 320.5 165 c
356.83 133 410 117 480 117 c
549.33 117 611 132.17 665 162.5 c
719 192.83 758.67 234.33 784 287 c
803.33 327.67 813 387.67 813 467 c
813 533 813 467 813 533 c
closepath } bind def
/s99 {
828 389 m
1005 366 828 389 1005 366 c
985.67 244 936.17 148.5 856.5 79.5 c
776.83 10.5 679 -24 563 -24 c
417.67 -24 300.83 23.5 212.5 118.5 c
124.17 213.5 80 349.67 80 527 c
80 641.67 99 742 137 828 c
175 914 232.83 978.5 310.5 1021.5 c
388.17 1064.5 472.67 1086 564 1086 c
679.33 1086 773.67 1056.83 847 998.5 c
920.33 940.17 967.33 857.33 988 750 c
813 723 988 750 813 723 c
796.33 794.33 766.83 848 724.5 884 c
682.17 920 631 938 571 938 c
480.33 938 406.67 905.5 350 840.5 c
293.33 775.5 265 672.67 265 532 c
265 389.33 292.33 285.67 347 221 c
401.67 156.33 473 124 561 124 c
631.67 124 690.67 145.67 738 189 c
785.33 232.33 815.33 299 828 389 c
closepath } bind def
/s101 {
862 342 m
1048 319 862 342 1048 319 c
1018.67 210.33 964.33 126 885 66 c
805.67 6 704.33 -24 581 -24 c
425.67 -24 302.5 23.83 211.5 119.5 c
120.5 215.17 75 349.33 75 522 c
75 700.67 121 839.33 213 938 c
305 1036.67 424.33 1086 571 1086 c
713 1086 829 1037.67 919 941 c
1009 844.33 1054 708.33 1054 533 c
1054 522.33 1053.67 506.33 1053 485 c
261 485 1053 485 261 485 c
267.67 368.33 300.67 279 360 217 c
419.33 155 493.33 124 582 124 c
648 124 704.33 141.33 751 176 c
797.67 210.67 834.67 266 862 342 c
closepath 271 633 m
864 633 271 633 864 633 c
856 722.33 833.33 789.33 796 834 c
738.67 903.33 664.33 938 573 938 c
490.33 938 420.83 910.33 364.5 855 c
308.17 799.67 277 725.67 271 633 c
closepath } bind def
/s103 {
102 -88 m
277 -114 102 -88 277 -114 c
284.33 -168 304.67 -207.33 338 -232 c
382.67 -265.33 443.67 -282 521 -282 c
604.33 -282 668.67 -265.33 714 -232 c
759.33 -198.67 790 -152 806 -92 c
815.33 -55.33 819.67 21.67 819 139 c
740.33 46.33 642.33 0 525 0 c
379 0 266 52.67 186 158 c
106 263.33 66 389.67 66 537 c
66 638.33 84.33 731.83 121 817.5 c
157.67 903.17 210.83 969.33 280.5 1016 c
350.17 1062.67 432 1086 526 1086 c
651.33 1086 754.67 1035.33 836 934 c
836 1062 836 934 836 1062 c
1002 1062 836 1062 1002 1062 c
1002 144 1002 1062 1002 144 c
1002 -21.33 985.17 -138.5 951.5 -207.5 c
917.83 -276.5 864.5 -331 791.5 -371 c
718.5 -411 628.67 -431 522 -431 c
395.33 -431 293 -402.5 215 -345.5 c
137 -288.5 99.33 -202.67 102 -88 c
closepath 251 550 m
251 410.67 278.67 309 334 245 c
389.33 181 458.67 149 542 149 c
624.67 149 694 180.83 750 244.5 c
806 308.17 834 408 834 544 c
834 674 805.17 772 747.5 838 c
689.83 904 620.33 937 539 937 c
459 937 391 904.5 335 839.5 c
279 774.5 251 678 251 550 c
closepath } bind def
/s104 {
135 0 m
135 1466 135 0 135 1466 c
315 1466 135 1466 315 1466 c
315 940 315 1466 315 940 c
399 1037.33 505 1086 633 1086 c
711.67 1086 780 1070.5 838 1039.5 c
896 1008.5 937.5 965.67 962.5 911 c
987.5 856.33 1000 777 1000 673 c
1000 0 1000 673 1000 0 c
820 0 1000 0 820 0 c
820 673 820 0 820 673 c
820 763 800.5 828.5 761.5 869.5 c
722.5 910.5 667.33 931 596 931 c
542.67 931 492.5 917.17 445.5 889.5 c
398.5 861.83 365 824.33 345 777 c
325 729.67 315 664.33 315 581 c
315 0 315 581 315 0 c
135 0 315 0 135 0 c
closepath } bind def
/s105 {
136 1259 m
136 1466 136 1259 136 1466 c
316 1466 136 1466 316 1466 c
316 1259 316 1466 316 1259 c
136 1259 316 1259 136 1259 c
closepath 136 0 m
136 1062 136 0 136 1062 c
316 1062 136 1062 316 1062 c
316 0 316 1062 316 0 c
136 0 316 0 136 0 c
closepath } bind def
/s108 {
131 0 m
131 1466 131 0 131 1466 c
311 1466 131 1466 311 1466 c
311 0 311 1466 311 0 c
131 0 311 0 131 0 c
closepath } bind def
/s109 {
135 0 m
135 1062 135 0 135 1062 c
296 1062 135 1062 296 1062 c
296 913 296 1062 296 913 c
329.33 965 373.67 1006.83 429 1038.5 c
484.33 1070.17 547.33 1086 618 1086 c
696.67 1086 761.17 1069.67 811.5 1037 c
861.83 1004.33 897.33 958.67 918 900 c
1002 1024 1111.33 1086 1246 1086 c
1351.33 1086 1432.33 1056.83 1489 998.5 c
1545.67 940.17 1574 850.33 1574 729 c
1574 0 1574 729 1574 0 c
1395 0 1574 0 1395 0 c
1395 669 1395 0 1395 669 c
1395 741 1389.17 792.83 1377.5 824.5 c
1365.83 856.17 1344.67 881.67 1314 901 c
1283.33 920.33 1247.33 930 1206 930 c
1131.33 930 1069.33 905.17 1020 855.5 c
970.67 805.83 946 726.33 946 617 c
946 0 946 617 946 0 c
766 0 946 0 766 0 c
766 690 766 0 766 690 c
766 770 751.33 830 722 870 c
692.67 910 644.67 930 578 930 c
527.33 930 480.5 916.67 437.5 890 c
394.5 863.33 363.33 824.33 344 773 c
324.67 721.67 315 647.67 315 551 c
315 0 315 551 315 0 c
135 0 315 0 135 0 c
closepath } bind def
/s110 {
135 0 m
135 1062 135 0 135 1062 c
297 1062 135 1062 297 1062 c
297 911 297 1062 297 911 c
375 1027.67 487.67 1086 635 1086 c
699 1086 757.83 1074.5 811.5 1051.5 c
865.17 1028.5 905.33 998.33 932 961 c
958.67 923.67 977.33 879.33 988 828 c
994.67 794.67 998 736.33 998 653 c
998 0 998 653 998 0 c
818 0 998 0 818 0 c
818 646 818 0 818 646 c
818 719.33 811 774.17 797 810.5 c
783 846.83 758.17 875.83 722.5 897.5 c
686.83 919.17 645 930 597 930 c
520.33 930 454.17 905.67 398.5 857 c
342.83 808.33 315 716 315 580 c
315 0 315 580 315 0 c
135 0 315 0 135 0 c
closepath } bind def
/s111 {
68 531 m
68 727.67 122.67 873.33 232 968 c
323.33 1046.67 434.67 1086 566 1086 c
712 1086 831.33 1038.17 924 942.5 c
1016.67 846.83 1063 714.67 1063 546 c
1063 409.33 1042.5 301.83 1001.5 223.5 c
960.5 145.17 900.83 84.33 822.5 41 c
744.17 -2.33 658.67 -24 566 -24 c
417.33 -24 297.17 23.67 205.5 119 c
113.83 214.33 68 351.67 68 531 c
closepath 253 531 m
253 395 282.67 293.17 342 225.5 c
401.33 157.83 476 124 566 124 c
655.33 124 729.67 158 789 226 c
848.33 294 878 397.67 878 537 c
878 668.33 848.17 767.83 788.5 835.5 c
728.83 903.17 654.67 937 566 937 c
476 937 401.33 903.33 342 836 c
282.67 768.67 253 667 253 531 c
closepath } bind def
/s112 {
135 -407 m
135 1062 135 -407 135 1062 c
299 1062 135 1062 299 1062 c
299 924 299 1062 299 924 c
337.67 978 381.33 1018.5 430 1045.5 c
478.67 1072.5 537.67 1086 607 1086 c
697.67 1086 777.67 1062.67 847 1016 c
916.33 969.33 968.67 903.5 1004 818.5 c
1039.33 733.5 1057 640.33 1057 539 c
1057 430.33 1037.5 332.5 998.5 245.5 c
959.5 158.5 902.83 91.83 828.5 45.5 c
754.17 -0.83 676 -24 594 -24 c
534 -24 480.17 -11.33 432.5 14 c
384.83 39.33 345.67 71.33 315 110 c
315 -407 315 110 315 -407 c
135 -407 315 -407 135 -407 c
closepath 298 525 m
298 388.33 325.67 287.33 381 222 c
436.33 156.67 503.33 124 582 124 c
662 124 730.5 157.83 787.5 225.5 c
844.5 293.17 873 398 873 540 c
873 675.33 845.17 776.67 789.5 844 c
733.83 911.33 667.33 945 590 945 c
513.33 945 445.5 909.17 386.5 837.5 c
327.5 765.83 298 661.67 298 525 c
closepath } bind def
/s114 {
133 0 m
133 1062 133 0 133 1062 c
295 1062 133 1062 295 1062 c
295 901 295 1062 295 901 c
336.33 976.33 374.5 1026 409.5 1050 c
444.5 1074 483 1086 525 1086 c
585.67 1086 647.33 1066.67 710 1028 c
648 861 710 1028 648 861 c
604 887 560 900 516 900 c
476.67 900 441.33 888.17 410 864.5 c
378.67 840.83 356.33 808 343 766 c
323 702 313 632 313 556 c
313 0 313 556 313 0 c
133 0 313 0 133 0 c
closepath } bind def
/s115 {
63 317 m
241 345 63 317 241 345 c
251 273.67 278.83 219 324.5 181 c
370.17 143 434 124 516 124 c
598.67 124 660 140.83 700 174.5 c
740 208.17 760 247.67 760 293 c
760 333.67 742.33 365.67 707 389 c
682.33 405 621 425.33 523 450 c
391 483.33 299.5 512.17 248.5 536.5 c
197.5 560.83 158.83 594.5 132.5 637.5 c
106.17 680.5 93 728 93 780 c
93 827.33 103.83 871.17 125.5 911.5 c
147.17 951.83 176.67 985.33 214 1012 c
242 1032.67 280.17 1050.17 328.5 1064.5 c
376.83 1078.83 428.67 1086 484 1086 c
567.33 1086 640.5 1074 703.5 1050 c
766.5 1026 813 993.5 843 952.5 c
873 911.5 893.67 856.67 905 788 c
729 764 905 788 729 764 c
721 818.67 697.83 861.33 659.5 892 c
621.17 922.67 567 938 497 938 c
414.33 938 355.33 924.33 320 897 c
284.67 869.67 267 837.67 267 801 c
267 777.67 274.33 756.67 289 738 c
303.67 718.67 326.67 702.67 358 690 c
376 683.33 429 668 517 644 c
644.33 610 733.17 582.17 783.5 560.5 c
833.83 538.83 873.33 507.33 902 466 c
930.67 424.67 945 373.33 945 312 c
945 252 927.5 195.5 892.5 142.5 c
857.5 89.5 807 48.5 741 19.5 c
675 -9.5 600.33 -24 517 -24 c
379 -24 273.83 4.67 201.5 62 c
129.17 119.33 83 204.33 63 317 c
closepath } bind def
/s116 {
528 161 m
554 2 528 161 554 2 c
503.33 -8.67 458 -14 418 -14 c
352.67 -14 302 -3.67 266 17 c
230 37.67 204.67 64.83 190 98.5 c
175.33 132.17 168 203 168 311 c
168 922 168 311 168 922 c
36 922 168 922 36 922 c
36 1062 36 922 36 1062 c
168 1062 36 1062 168 1062 c
168 1325 168 1062 168 1325 c
347 1433 168 1325 347 1433 c
347 1062 347 1433 347 1062 c
528 1062 347 1062 528 1062 c
528 922 528 1062 528 922 c
347 922 528 922 347 922 c
347 301 347 922 347 301 c
347 249.67 350.17 216.67 356.5 202 c
362.83 187.33 373.17 175.67 387.5 167 c
401.83 158.33 422.33 154 449 154 c
469 154 495.33 156.33 528 161 c
closepath } bind def
/s118 {
430 0 m
26 1062 430 0 26 1062 c
216 1062 26 1062 216 1062 c
444 426 216 1062 444 426 c
468.67 357.33 491.33 286 512 212 c
528 268 550.33 335.33 579 414 c
815 1062 579 414 815 1062 c
1000 1062 815 1062 1000 1062 c
598 0 1000 1062 598 0 c
430 0 598 0 430 0 c
closepath } bind def
/s120 {
15 0 m
403 552 15 0 403 552 c
44 1062 403 552 44 1062 c
269 1062 44 1062 269 1062 c
432 813 269 1062 432 813 c
462.67 765.67 487.33 726 506 694 c
535.33 738 562.33 777 587 811 c
766 1062 587 811 766 1062 c
981 1062 766 1062 981 1062 c
614 562 981 1062 614 562 c
1009 0 614 562 1009 0 c
788 0 1009 0 788 0 c
570 330 788 0 570 330 c
512 419 570 330 512 419 c
233 0 512 419 233 0 c
15 0 233 0 15 0 c
closepath } bind def
end
/BuildGlyph {
 exch dup /Metrics get 2 index get 0 setcharwidth
/CharProcs get exch 2 copy known not{pop/.notdef}if get exec fill}bind def
/BuildChar {
1 index /Encoding get exch get
1 index /BuildGlyph get exec
} bind def
currentdict end /MC1_Arial exch definefont pop
%%EndFont
%%BeginFont: /MC2_Arial
12 dict begin
/FontInfo 8 dict dup begin
/ItalicAngle 0 def
/UnderlinePosition -217.00 def
/UnderlineThickness 150.00 def
/StrikeoutPosition 530.00 def
/StrikeoutThickness 102.00 def
/isFixedPitch false def
end readonly def
/FontName /MC2_Arial def
/FontType 3 def
/FontMatrix [1 2048 div 0 0 1 2048 div 0 0] def
/FontBBox [-1361 -665 4096 2129] def
/Encoding 256 array def 0 1 255{Encoding exch/.notdef put}for
Encoding 32/s32 put
Encoding 40/s40 put
Encoding 41/s41 put
Encoding 69/s69 put
Encoding 77/s77 put
Encoding 86/s86 put
Encoding 101/s101 put
Encoding 103/s103 put
Encoding 110/s110 put
Encoding 114/s114 put
Encoding 121/s121 put
/BoundingBoxes 12 dict def
BoundingBoxes begin
/s32 [0 -434 569 1854] def
/s40 [0 -434 682 1854] def
/s41 [0 -434 682 1854] def
/s69 [0 -434 1366 1854] def
/s77 [0 -434 1706 1854] def
/s86 [0 -434 1366 1854] def
/s101 [0 -434 1139 1854] def
/s103 [0 -434 1139 1854] def
/s110 [0 -434 1139 1854] def
/s114 [0 -434 682 1854] def
/s121 [0 -434 1024 1854] def
end
/Metrics 12 dict def
 Metrics begin
/s32 569 def
/s40 682 def
/s41 682 def
/s69 1366 def
/s77 1706 def
/s86 1366 def
/s101 1139 def
/s103 1139 def
/s110 1139 def
/s114 682 def
/s121 1024 def
end
/CharProcs 12 dict def
CharProcs begin
/.notdef {} def
/s40 {
479 -431 m
379.67 -305.67 295.67 -159 227 9 c
158.33 177 124 351 124 531 c
124 689.67 149.67 841.67 201 987 c
261 1155.67 353.67 1323.67 479 1491 c
608 1491 479 1491 608 1491 c
527.33 1352.33 474 1253.33 448 1194 c
407.33 1102 375.33 1006 352 906 c
323.33 781.33 309 656 309 530 c
309 209.33 408.67 -111 608 -431 c
479 -431 608 -431 479 -431 c
closepath } bind def
/s41 {
253 -431 m
124 -431 253 -431 124 -431 c
323.33 -111 423 209.33 423 530 c
423 655.33 408.67 779.67 380 903 c
357.33 1003 325.67 1099 285 1191 c
259 1251 205.33 1351 124 1491 c
253 1491 124 1491 253 1491 c
378.33 1323.67 471 1155.67 531 987 c
582.33 841.67 608 689.67 608 531 c
608 351 573.5 177 504.5 9 c
435.5 -159 351.67 -305.67 253 -431 c
closepath } bind def
/s69 {
162 0 m
162 1466 162 0 162 1466 c
1222 1466 162 1466 1222 1466 c
1222 1293 1222 1466 1222 1293 c
356 1293 1222 1293 356 1293 c
356 844 356 1293 356 844 c
1167 844 356 844 1167 844 c
1167 672 1167 844 1167 672 c
356 672 1167 672 356 672 c
356 173 356 672 356 173 c
1256 173 356 173 1256 173 c
1256 0 1256 173 1256 0 c
162 0 1256 0 162 0 c
closepath } bind def
/s77 {
152 0 m
152 1466 152 0 152 1466 c
444 1466 152 1466 444 1466 c
791 428 444 1466 791 428 c
823 331.33 846.33 259 861 211 c
877.67 264.33 903.67 342.67 939 446 c
1290 1466 939 446 1290 1466 c
1551 1466 1290 1466 1551 1466 c
1551 0 1551 1466 1551 0 c
1364 0 1551 0 1364 0 c
1364 1227 1364 0 1364 1227 c
938 0 1364 1227 938 0 c
763 0 938 0 763 0 c
339 1248 763 0 339 1248 c
339 0 339 1248 339 0 c
152 0 339 0 152 0 c
closepath } bind def
/s86 {
577 0 m
9 1466 577 0 9 1466 c
219 1466 9 1466 219 1466 c
600 401 219 1466 600 401 c
630.67 315.67 656.33 235.67 677 161 c
699.67 241 726 321 756 401 c
1152 1466 756 401 1152 1466 c
1350 1466 1152 1466 1350 1466 c
776 0 1350 1466 776 0 c
577 0 776 0 577 0 c
closepath } bind def
/s101 {
862 342 m
1048 319 862 342 1048 319 c
1018.67 210.33 964.33 126 885 66 c
805.67 6 704.33 -24 581 -24 c
425.67 -24 302.5 23.83 211.5 119.5 c
120.5 215.17 75 349.33 75 522 c
75 700.67 121 839.33 213 938 c
305 1036.67 424.33 1086 571 1086 c
713 1086 829 1037.67 919 941 c
1009 844.33 1054 708.33 1054 533 c
1054 522.33 1053.67 506.33 1053 485 c
261 485 1053 485 261 485 c
267.67 368.33 300.67 279 360 217 c
419.33 155 493.33 124 582 124 c
648 124 704.33 141.33 751 176 c
797.67 210.67 834.67 266 862 342 c
closepath 271 633 m
864 633 271 633 864 633 c
856 722.33 833.33 789.33 796 834 c
738.67 903.33 664.33 938 573 938 c
490.33 938 420.83 910.33 364.5 855 c
308.17 799.67 277 725.67 271 633 c
closepath } bind def
/s103 {
102 -88 m
277 -114 102 -88 277 -114 c
284.33 -168 304.67 -207.33 338 -232 c
382.67 -265.33 443.67 -282 521 -282 c
604.33 -282 668.67 -265.33 714 -232 c
759.33 -198.67 790 -152 806 -92 c
815.33 -55.33 819.67 21.67 819 139 c
740.33 46.33 642.33 0 525 0 c
379 0 266 52.67 186 158 c
106 263.33 66 389.67 66 537 c
66 638.33 84.33 731.83 121 817.5 c
157.67 903.17 210.83 969.33 280.5 1016 c
350.17 1062.67 432 1086 526 1086 c
651.33 1086 754.67 1035.33 836 934 c
836 1062 836 934 836 1062 c
1002 1062 836 1062 1002 1062 c
1002 144 1002 1062 1002 144 c
1002 -21.33 985.17 -138.5 951.5 -207.5 c
917.83 -276.5 864.5 -331 791.5 -371 c
718.5 -411 628.67 -431 522 -431 c
395.33 -431 293 -402.5 215 -345.5 c
137 -288.5 99.33 -202.67 102 -88 c
closepath 251 550 m
251 410.67 278.67 309 334 245 c
389.33 181 458.67 149 542 149 c
624.67 149 694 180.83 750 244.5 c
806 308.17 834 408 834 544 c
834 674 805.17 772 747.5 838 c
689.83 904 620.33 937 539 937 c
459 937 391 904.5 335 839.5 c
279 774.5 251 678 251 550 c
closepath } bind def
/s110 {
135 0 m
135 1062 135 0 135 1062 c
297 1062 135 1062 297 1062 c
297 911 297 1062 297 911 c
375 1027.67 487.67 1086 635 1086 c
699 1086 757.83 1074.5 811.5 1051.5 c
865.17 1028.5 905.33 998.33 932 961 c
958.67 923.67 977.33 879.33 988 828 c
994.67 794.67 998 736.33 998 653 c
998 0 998 653 998 0 c
818 0 998 0 818 0 c
818 646 818 0 818 646 c
818 719.33 811 774.17 797 810.5 c
783 846.83 758.17 875.83 722.5 897.5 c
686.83 919.17 645 930 597 930 c
520.33 930 454.17 905.67 398.5 857 c
342.83 808.33 315 716 315 580 c
315 0 315 580 315 0 c
135 0 315 0 135 0 c
closepath } bind def
/s114 {
133 0 m
133 1062 133 0 133 1062 c
295 1062 133 1062 295 1062 c
295 901 295 1062 295 901 c
336.33 976.33 374.5 1026 409.5 1050 c
444.5 1074 483 1086 525 1086 c
585.67 1086 647.33 1066.67 710 1028 c
648 861 710 1028 648 861 c
604 887 560 900 516 900 c
476.67 900 441.33 888.17 410 864.5 c
378.67 840.83 356.33 808 343 766 c
323 702 313 632 313 556 c
313 0 313 556 313 0 c
133 0 313 0 133 0 c
closepath } bind def
/s121 {
127 -409 m
107 -240 127 -409 107 -240 c
146.33 -250.67 180.67 -256 210 -256 c
250 -256 282 -249.33 306 -236 c
330 -222.67 349.67 -204 365 -180 c
376.33 -162 394.67 -117.33 420 -46 c
423.33 -36 428.67 -21.33 436 -2 c
33 1062 436 -2 33 1062 c
227 1062 33 1062 227 1062 c
448 447 227 1062 448 447 c
476.67 369 502.33 287 525 201 c
545.67 283.67 570.33 364.33 599 443 c
826 1062 599 443 826 1062 c
1006 1062 826 1062 1006 1062 c
602 -18 1006 1062 602 -18 c
558.67 -134.67 525 -215 501 -259 c
469 -318.33 432.33 -361.83 391 -389.5 c
349.67 -417.17 300.33 -431 243 -431 c
208.33 -431 169.67 -423.67 127 -409 c
closepath } bind def
end
/BuildGlyph {
 exch dup /Metrics get 2 index get 0 setcharwidth
/CharProcs get exch 2 copy known not{pop/.notdef}if get exec fill}bind def
/BuildChar {
1 index /Encoding get exch get
1 index /BuildGlyph get exec
} bind def
currentdict end /MC2_Arial exch definefont pop
%%EndFont
%%BeginFont: /MC3_Symbol
12 dict begin
/FontInfo 8 dict dup begin
/ItalicAngle 0 def
/UnderlinePosition -223.00 def
/UnderlineThickness 100.00 def
/StrikeoutPosition 530.00 def
/StrikeoutThickness 102.00 def
/isFixedPitch false def
end readonly def
/FontName /MC3_Symbol def
/FontType 3 def
/FontMatrix [1 2048 div 0 0 1 2048 div 0 0] def
/FontBBox [-1 -450 2279 2059] def
/Encoding 256 array def 0 1 255{Encoding exch/.notdef put}for
Encoding 32/s32 put
Encoding 40/s40 put
Encoding 41/s41 put
Encoding 68/s68 put
Encoding 116/s116 put
/BoundingBoxes 6 dict def
BoundingBoxes begin
/s32 [0 -450 512 2059] def
/s40 [0 -450 682 2059] def
/s41 [0 -450 682 2059] def
/s68 [0 -450 1253 2059] def
/s116 [0 -450 899 2059] def
end
/Metrics 6 dict def
 Metrics begin
/s32 512 def
/s40 682 def
/s41 682 def
/s68 1253 def
/s116 899 def
end
/CharProcs 6 dict def
CharProcs begin
/.notdef {} def
/s40 {
636 -399 m
636 -442 636 -399 636 -442 c
462 -355.33 326.5 -228.17 229.5 -60.5 c
132.5 107.17 84 290.67 84 490 c
84 697.33 135 886.17 237 1056.5 c
339 1226.83 472 1348.67 636 1422 c
636 1380 636 1422 636 1380 c
554 1334.67 486.67 1272.67 434 1194 c
381.33 1115.33 342 1015.5 316 894.5 c
290 773.5 277 647.33 277 516 c
277 367.33 289 233 313 113 c
337 -7 373.67 -106.5 423 -185.5 c
472.33 -264.5 543.33 -335.67 636 -399 c
closepath } bind def
/s41 {
45 1380 m
45 1422 45 1380 45 1422 c
219 1336 354.5 1209.17 451.5 1041.5 c
548.5 873.83 597 690.33 597 491 c
597 283.67 546 94.67 444 -76 c
342 -246.67 209 -368.67 45 -442 c
45 -399 45 -442 45 -399 c
127.67 -353.67 195.33 -291.67 248 -213 c
300.67 -134.33 339.83 -34.67 365.5 86 c
391.17 206.67 404 333 404 465 c
404 613 392.17 747.17 368.5 867.5 c
344.83 987.83 308.17 1087.5 258.5 1166.5 c
208.83 1245.5 137.67 1316.67 45 1380 c
closepath } bind def
/s68 {
1226 0 m
26 0 1226 0 26 0 c
654 1387 26 0 654 1387 c
1226 0 654 1387 1226 0 c
closepath 990 82 m
591 1049 990 82 591 1049 c
151 82 591 1049 151 82 c
990 82 151 82 990 82 c
closepath } bind def
/s116 {
813 916 m
813 769 813 916 813 769 c
501 769 813 769 501 769 c
478.33 549.67 467 399.33 467 318 c
467 253.33 479.17 206.5 503.5 177.5 c
527.83 148.5 558.33 134 595 134 c
622.33 134 646 143.33 666 162 c
686 180.67 700.67 212.67 710 258 c
745 258 710 258 745 258 c
733.67 148.67 709.33 73.17 672 31.5 c
634.67 -10.17 591 -31 541 -31 c
488.33 -31 444.33 -7.17 409 40.5 c
373.67 88.17 356 173.33 356 296 c
356 392.67 368 550.33 392 769 c
298 769 392 769 298 769 c
244 769 201.67 759.17 171 739.5 c
140.33 719.83 110 682.67 80 628 c
43 628 80 628 43 628 c
91 756 134 836 172 868 c
210 900 264 916 334 916 c
813 916 334 916 813 916 c
closepath } bind def
end
/BuildGlyph {
 exch dup /Metrics get 2 index get 0 setcharwidth
/CharProcs get exch 2 copy known not{pop/.notdef}if get exec fill}bind def
/BuildChar {
1 index /Encoding get exch get
1 index /BuildGlyph get exec
} bind def
currentdict end /MC3_Symbol exch definefont pop
%%EndFont
/clipproc{clippath{[{/m cvx}{/l cvx}{/c cvx}{/cp cvx}pathforall}stopped
{cleartomark[pathbbox exch 3 i sub exch 2 i sub/rectpath cvx}if]np}bd
/iclmtx mtx cmtx def/iclpath clipproc xd/clinit{pathproc initclip np iclpath cl np exec}bd
/clmove{pathproc 3 1 roll clippath pathproc 2 i neg 2 i neg tr initclip np exec cl tr np exec}bd
/clrect[gs np iclpath{pathbbox}stopped{0 0 243.84 195.11 }if gr]def
/cloper{mtx cmtx iclmtx smtx exch exec smtx}bd
/cland{{exch cvx exec}cloper}bd
/clcopy{{exch clinit cvx exec}cloper}bd
/cldiff{{exch pathbbox 4 -1 roll clrect 0 get 2 copy gt{exch}if pop 4 1 roll
 3 -1 roll clrect 1 get 2 copy gt{exch}if pop 3 1 roll
 2 -1 roll clrect 2 get 2 copy lt{exch}if pop 2 1 roll
 1 -1 roll clrect 3 get 2 copy lt{exch}if pop 1 1 roll
 exch 3 i sub exch 2 i sub rectpath cvx exec}cloper}bd
/icl{{clinit}cloper}bd
0.851093 0.854606 sc

/initmtx mtx cmtx def
initmtx smtx
[1.0000 0.0000 0.0000 1.0000 0.0000 0.0000 ] concat
 [0.281988 -0 0 -0.28084 0 228.302] concat
gs
121 735 m
418 735 l
1 sw
1 sj
2 scap
st
152 735 m
152 732 l
0 scap
st
162 735 m
162 732 l
st
172 735 m
172 732 l
st
182 735 m
182 732 l
st
193 735 m
193 732 l
st
213 735 m
213 732 l
st
223 735 m
223 732 l
st
234 735 m
234 732 l
st
244 735 m
244 732 l
st
254 735 m
254 732 l
st
275 735 m
275 732 l
st
285 735 m
285 732 l
st
295 735 m
295 732 l
st
305 735 m
305 732 l
st
316 735 m
316 732 l
st
336 735 m
336 732 l
st
346 735 m
346 732 l
st
357 735 m
357 732 l
st
367 735 m
367 732 l
st
377 735 m
377 732 l
st
394 735 m
394 732 l
st
401 735 m
401 732 l
st
408 735 m
408 732 l
st
415 735 m
415 732 l
st
141 735 m
141 728 l
st
203 735 m
203 728 l
st
264 735 m
264 728 l
st
326 735 m
326 728 l
st
387 735 m
387 728 l
st
121 18 m
418 18 l
2 scap
st
152 18 m
152 21 l
0 scap
st
162 18 m
162 21 l
st
172 18 m
172 21 l
st
182 18 m
182 21 l
st
193 18 m
193 21 l
st
213 18 m
213 21 l
st
223 18 m
223 21 l
st
234 18 m
234 21 l
st
244 18 m
244 21 l
st
254 18 m
254 21 l
st
275 18 m
275 21 l
st
285 18 m
285 21 l
st
295 18 m
295 21 l
st
305 18 m
305 21 l
st
316 18 m
316 21 l
st
336 18 m
336 21 l
st
346 18 m
346 21 l
st
357 18 m
357 21 l
st
367 18 m
367 21 l
st
377 18 m
377 21 l
st
394 18 m
394 21 l
st
401 18 m
401 21 l
st
408 18 m
408 21 l
st
415 18 m
415 21 l
st
141 18 m
141 25 l
st
203 18 m
203 25 l
st
264 18 m
264 25 l
st
326 18 m
326 25 l
st
387 18 m
387 25 l
st
121 735 m
121 18 l
2 scap
st
121 726 m
124 726 l
0 scap
st
121 717 m
124 717 l
st
121 708 m
124 708 l
st
121 699 m
124 699 l
st
121 681 m
124 681 l
st
121 672 m
124 672 l
st
121 663 m
124 663 l
st
121 654 m
124 654 l
st
121 636 m
124 636 l
st
121 627 m
124 627 l
st
121 618 m
124 618 l
st
121 610 m
124 610 l
st
121 592 m
124 592 l
st
121 583 m
124 583 l
st
121 574 m
124 574 l
st
121 565 m
124 565 l
st
121 547 m
124 547 l
st
121 538 m
124 538 l
st
121 529 m
124 529 l
st
121 520 m
124 520 l
st
121 502 m
124 502 l
st
121 493 m
124 493 l
st
121 484 m
124 484 l
st
121 475 m
124 475 l
st
121 457 m
124 457 l
st
121 448 m
124 448 l
st
121 439 m
124 439 l
st
121 430 m
124 430 l
st
121 412 m
124 412 l
st
121 403 m
124 403 l
st
121 394 m
124 394 l
st
121 385 m
124 385 l
st
121 368 m
124 368 l
st
121 359 m
124 359 l
st
121 350 m
124 350 l
st
121 341 m
124 341 l
st
121 323 m
124 323 l
st
121 314 m
124 314 l
st
121 305 m
124 305 l
st
121 296 m
124 296 l
st
121 278 m
124 278 l
st
121 269 m
124 269 l
st
121 260 m
124 260 l
st
121 251 m
124 251 l
st
121 233 m
124 233 l
st
121 224 m
124 224 l
st
121 215 m
124 215 l
st
121 206 m
124 206 l
st
121 188 m
124 188 l
st
121 179 m
124 179 l
st
121 170 m
124 170 l
st
121 161 m
124 161 l
st
121 143 m
124 143 l
st
121 135 m
124 135 l
st
121 126 m
124 126 l
st
121 117 m
124 117 l
st
121 99 m
124 99 l
st
121 90 m
124 90 l
st
121 81 m
124 81 l
st
121 72 m
124 72 l
st
121 54 m
124 54 l
st
121 45 m
124 45 l
st
121 36 m
124 36 l
st
121 27 m
124 27 l
st
121 735 m
128 735 l
st
121 690 m
128 690 l
st
121 645 m
128 645 l
st
121 601 m
128 601 l
st
121 556 m
128 556 l
st
121 511 m
128 511 l
st
121 466 m
128 466 l
st
121 421 m
128 421 l
st
121 376 m
128 376 l
st
121 332 m
128 332 l
st
121 287 m
128 287 l
st
121 242 m
128 242 l
st
121 197 m
128 197 l
st
121 152 m
128 152 l
st
121 108 m
128 108 l
st
121 63 m
128 63 l
st
121 18 m
128 18 l
st
418 735 m
418 18 l
2 scap
st
418 726 m
415 726 l
0 scap
st
418 717 m
415 717 l
st
418 708 m
415 708 l
st
418 699 m
415 699 l
st
418 681 m
415 681 l
st
418 672 m
415 672 l
st
418 663 m
415 663 l
st
418 654 m
415 654 l
st
418 636 m
415 636 l
st
418 627 m
415 627 l
st
418 618 m
415 618 l
st
418 610 m
415 610 l
st
418 592 m
415 592 l
st
418 583 m
415 583 l
st
418 574 m
415 574 l
st
418 565 m
415 565 l
st
418 547 m
415 547 l
st
418 538 m
415 538 l
st
418 529 m
415 529 l
st
418 520 m
415 520 l
st
418 502 m
415 502 l
st
418 493 m
415 493 l
st
418 484 m
415 484 l
st
418 475 m
415 475 l
st
418 457 m
415 457 l
st
418 448 m
415 448 l
st
418 439 m
415 439 l
st
418 430 m
415 430 l
st
418 412 m
415 412 l
st
418 403 m
415 403 l
st
418 394 m
415 394 l
st
418 385 m
415 385 l
st
418 368 m
415 368 l
st
418 359 m
415 359 l
st
418 350 m
415 350 l
st
418 341 m
415 341 l
st
418 323 m
415 323 l
st
418 314 m
415 314 l
st
418 305 m
415 305 l
st
418 296 m
415 296 l
st
418 278 m
415 278 l
st
418 269 m
415 269 l
st
418 260 m
415 260 l
st
418 251 m
415 251 l
st
418 233 m
415 233 l
st
418 224 m
415 224 l
st
418 215 m
415 215 l
st
418 206 m
415 206 l
st
418 188 m
415 188 l
st
418 179 m
415 179 l
st
418 170 m
415 170 l
st
418 161 m
415 161 l
st
418 143 m
415 143 l
st
418 135 m
415 135 l
st
418 126 m
415 126 l
st
418 117 m
415 117 l
st
418 99 m
415 99 l
st
418 90 m
415 90 l
st
418 81 m
415 81 l
st
418 72 m
415 72 l
st
418 54 m
415 54 l
st
418 45 m
415 45 l
st
418 36 m
415 36 l
st
418 27 m
415 27 l
st
418 735 m
411 735 l
st
418 690 m
411 690 l
st
418 645 m
411 645 l
st
418 601 m
411 601 l
st
418 556 m
411 556 l
st
418 511 m
411 511 l
st
418 466 m
411 466 l
st
418 421 m
411 421 l
st
418 376 m
411 376 l
st
418 332 m
411 332 l
st
418 287 m
411 287 l
st
418 242 m
411 242 l
st
418 197 m
411 197 l
st
418 152 m
411 152 l
st
418 108 m
411 108 l
st
418 63 m
411 63 l
st
418 18 m
411 18 l
st
gs
gr
gs
gr
gs
1 -1 sc
/MC1_Arial 31 self 120 -767 m
(0.0)[17 9 17 ] xs
1 -1 sc
gr
gs
gr
gs
gr
gs
1 -1 sc
/MC1_Arial 31 self 182 -767 m
(0.3)[17 9 17 ] xs
1 -1 sc
gr
gs
gr
gs
gr
gs
1 -1 sc
/MC1_Arial 31 self 243 -767 m
(0.6)[17 9 17 ] xs
1 -1 sc
gr
gs
gr
gs
gr
gs
1 -1 sc
/MC1_Arial 31 self 305 -767 m
(0.9)[17 9 17 ] xs
1 -1 sc
gr
gs
gr
gs
gr
gs
1 -1 sc
/MC1_Arial 31 self 366 -767 m
(1.2)[17 9 17 ] xs
1 -1 sc
gr
gs
gr
gs
gr
gs
1 -1 sc
/MC1_Arial 31 self 43 -745 m
(-26.4)[10 17 17 9 17 ] xs
1 -1 sc
gr
gs
gr
gs
gr
gs
1 -1 sc
/MC1_Arial 31 self 43 -700 m
(-26.3)[10 17 17 9 17 ] xs
1 -1 sc
gr
gs
gr
gs
gr
gs
1 -1 sc
/MC1_Arial 31 self 43 -655 m
(-26.2)[10 17 17 9 17 ] xs
1 -1 sc
gr
gs
gr
gs
gr
gs
1 -1 sc
/MC1_Arial 31 self 43 -611 m
(-26.1)[10 17 17 9 17 ] xs
1 -1 sc
gr
gs
gr
gs
gr
gs
1 -1 sc
/MC1_Arial 31 self 43 -566 m
(-26.0)[10 17 17 9 17 ] xs
1 -1 sc
gr
gs
gr
gs
gr
gs
1 -1 sc
/MC1_Arial 31 self 43 -521 m
(-25.9)[10 17 17 9 17 ] xs
1 -1 sc
gr
gs
gr
gs
gr
gs
1 -1 sc
/MC1_Arial 31 self 43 -476 m
(-25.8)[10 17 17 9 17 ] xs
1 -1 sc
gr
gs
gr
gs
gr
gs
1 -1 sc
/MC1_Arial 31 self 43 -431 m
(-25.7)[10 17 17 9 17 ] xs
1 -1 sc
gr
gs
gr
gs
gr
gs
1 -1 sc
/MC1_Arial 31 self 43 -386 m
(-25.6)[10 17 17 9 17 ] xs
1 -1 sc
gr
gs
gr
gs
gr
gs
1 -1 sc
/MC1_Arial 31 self 43 -342 m
(-25.5)[10 17 17 9 17 ] xs
1 -1 sc
gr
gs
gr
gs
gr
gs
1 -1 sc
/MC1_Arial 31 self 43 -297 m
(-25.4)[10 17 17 9 17 ] xs
1 -1 sc
gr
gs
gr
gs
gr
gs
1 -1 sc
/MC1_Arial 31 self 43 -252 m
(-25.3)[10 17 17 9 17 ] xs
1 -1 sc
gr
gs
gr
gs
gr
gs
1 -1 sc
/MC1_Arial 31 self 43 -207 m
(-25.2)[10 17 17 9 17 ] xs
1 -1 sc
gr
gs
gr
gs
gr
gs
1 -1 sc
/MC1_Arial 31 self 43 -162 m
(-25.1)[10 17 17 9 17 ] xs
1 -1 sc
gr
gs
gr
gs
gr
gs
1 -1 sc
/MC1_Arial 31 self 43 -118 m
(-25.0)[10 17 17 9 17 ] xs
1 -1 sc
gr
gs
gr
gs
gr
gs
1 -1 sc
/MC1_Arial 31 self 43 -73 m
(-24.9)[10 17 17 9 17 ] xs
1 -1 sc
gr
gs
gr
gs
gr
gs
1 -1 sc
/MC1_Arial 31 self 43 -28 m
(-24.8)[10 17 17 9 17 ] xs
1 -1 sc
gr
gs
gr
gs
gr
gs
gr
gs
gr
gs
gr
gs
gr
gs
gr
gs
gr
gs
gr
gs
gr
gs
gr
gs
gr
gs
gr
gs
gr
gs
gr
gs
gr
gs
gr
gs
gr
gs
gr
gs
gr
gs
gr
gs
gr
gs
gr
gs
gr
gs
gr
gs
gr
gs
gr
gs
gr
gs
gr
gs
gr
gs
gr
gs
gr
gs
gr
gs
gr
gs
gr
gs
gr
gs
gr
gs
gr
gs
gr
gs
gr
gs
gr
gs
gr
gs
gr
gs
gr
gs
gr
gs
gr
gs
gr
gs
gr
gs
gr
gs
gr
gs
gr
gs
gr
gs
gr
gs
gr
gs
gr
gs
gr
gs
gr
gs
gr
gs
gr
gs
gr
gs
gr
gs
gr
gs
gr
gs
gr
gs
gr
gs
gr
gs
gr
gs
gr
gs
gr
gs
gr
gs
gr
gs
gr
gs
gr
gs
gr
gs
gr
gs
gr
gs
gr
gs
gr
gs
gr
gs
gr
gs
gr
gs
gr
gs
gr
gs
gr
gs
gr
gs
gr
gs
gr
gs
gr
gs
gr
gs
gr
gs
gr
gs
gr
gs
gr
gs
gr
gs
gr
gs
gr
gs
gr
gs
gr
gs
gr
gs
gr
gs
gr
gs
gr
gs
gr
gs
gr
gs
gr
gs
gr
gs
gr
gs
gr
gs
gr
gs
gr
gs
gr
gs
gr
gs
gr
gs
gr
gs
gr
gs
gr
gs
gr
gs
gr
417 735 m
713 735 l
2 scap
st
448 735 m
448 732 l
0 scap
st
458 735 m
458 732 l
st
468 735 m
468 732 l
st
478 735 m
478 732 l
st
488 735 m
488 732 l
st
509 735 m
509 732 l
st
519 735 m
519 732 l
st
529 735 m
529 732 l
st
539 735 m
539 732 l
st
550 735 m
550 732 l
st
570 735 m
570 732 l
st
580 735 m
580 732 l
st
591 735 m
591 732 l
st
601 735 m
601 732 l
st
611 735 m
611 732 l
st
631 735 m
631 732 l
st
642 735 m
642 732 l
st
652 735 m
652 732 l
st
662 735 m
662 732 l
st
672 735 m
672 732 l
st
689 735 m
689 732 l
st
696 735 m
696 732 l
st
703 735 m
703 732 l
st
710 735 m
710 732 l
st
437 735 m
437 728 l
st
499 735 m
499 728 l
st
560 735 m
560 728 l
st
621 735 m
621 728 l
st
682 735 m
682 728 l
st
417 18 m
713 18 l
2 scap
st
448 18 m
448 21 l
0 scap
st
458 18 m
458 21 l
st
468 18 m
468 21 l
st
478 18 m
478 21 l
st
488 18 m
488 21 l
st
509 18 m
509 21 l
st
519 18 m
519 21 l
st
529 18 m
529 21 l
st
539 18 m
539 21 l
st
550 18 m
550 21 l
st
570 18 m
570 21 l
st
580 18 m
580 21 l
st
591 18 m
591 21 l
st
601 18 m
601 21 l
st
611 18 m
611 21 l
st
631 18 m
631 21 l
st
642 18 m
642 21 l
st
652 18 m
652 21 l
st
662 18 m
662 21 l
st
672 18 m
672 21 l
st
689 18 m
689 21 l
st
696 18 m
696 21 l
st
703 18 m
703 21 l
st
710 18 m
710 21 l
st
437 18 m
437 25 l
st
499 18 m
499 25 l
st
560 18 m
560 25 l
st
621 18 m
621 25 l
st
682 18 m
682 25 l
st
417 735 m
417 18 l
2 scap
st
417 726 m
420 726 l
0 scap
st
417 717 m
420 717 l
st
417 708 m
420 708 l
st
417 699 m
420 699 l
st
417 681 m
420 681 l
st
417 672 m
420 672 l
st
417 663 m
420 663 l
st
417 654 m
420 654 l
st
417 636 m
420 636 l
st
417 627 m
420 627 l
st
417 618 m
420 618 l
st
417 610 m
420 610 l
st
417 592 m
420 592 l
st
417 583 m
420 583 l
st
417 574 m
420 574 l
st
417 565 m
420 565 l
st
417 547 m
420 547 l
st
417 538 m
420 538 l
st
417 529 m
420 529 l
st
417 520 m
420 520 l
st
417 502 m
420 502 l
st
417 493 m
420 493 l
st
417 484 m
420 484 l
st
417 475 m
420 475 l
st
417 457 m
420 457 l
st
417 448 m
420 448 l
st
417 439 m
420 439 l
st
417 430 m
420 430 l
st
417 412 m
420 412 l
st
417 403 m
420 403 l
st
417 394 m
420 394 l
st
417 385 m
420 385 l
st
417 368 m
420 368 l
st
417 359 m
420 359 l
st
417 350 m
420 350 l
st
417 341 m
420 341 l
st
417 323 m
420 323 l
st
417 314 m
420 314 l
st
417 305 m
420 305 l
st
417 296 m
420 296 l
st
417 278 m
420 278 l
st
417 269 m
420 269 l
st
417 260 m
420 260 l
st
417 251 m
420 251 l
st
417 233 m
420 233 l
st
417 224 m
420 224 l
st
417 215 m
420 215 l
st
417 206 m
420 206 l
st
417 188 m
420 188 l
st
417 179 m
420 179 l
st
417 170 m
420 170 l
st
417 161 m
420 161 l
st
417 143 m
420 143 l
st
417 135 m
420 135 l
st
417 126 m
420 126 l
st
417 117 m
420 117 l
st
417 99 m
420 99 l
st
417 90 m
420 90 l
st
417 81 m
420 81 l
st
417 72 m
420 72 l
st
417 54 m
420 54 l
st
417 45 m
420 45 l
st
417 36 m
420 36 l
st
417 27 m
420 27 l
st
417 735 m
424 735 l
st
417 690 m
424 690 l
st
417 645 m
424 645 l
st
417 601 m
424 601 l
st
417 556 m
424 556 l
st
417 511 m
424 511 l
st
417 466 m
424 466 l
st
417 421 m
424 421 l
st
417 376 m
424 376 l
st
417 332 m
424 332 l
st
417 287 m
424 287 l
st
417 242 m
424 242 l
st
417 197 m
424 197 l
st
417 152 m
424 152 l
st
417 108 m
424 108 l
st
417 63 m
424 63 l
st
417 18 m
424 18 l
st
713 735 m
713 18 l
2 scap
st
713 726 m
710 726 l
0 scap
st
713 717 m
710 717 l
st
713 708 m
710 708 l
st
713 699 m
710 699 l
st
713 681 m
710 681 l
st
713 672 m
710 672 l
st
713 663 m
710 663 l
st
713 654 m
710 654 l
st
713 636 m
710 636 l
st
713 627 m
710 627 l
st
713 618 m
710 618 l
st
713 610 m
710 610 l
st
713 592 m
710 592 l
st
713 583 m
710 583 l
st
713 574 m
710 574 l
st
713 565 m
710 565 l
st
713 547 m
710 547 l
st
713 538 m
710 538 l
st
713 529 m
710 529 l
st
713 520 m
710 520 l
st
713 502 m
710 502 l
st
713 493 m
710 493 l
st
713 484 m
710 484 l
st
713 475 m
710 475 l
st
713 457 m
710 457 l
st
713 448 m
710 448 l
st
713 439 m
710 439 l
st
713 430 m
710 430 l
st
713 412 m
710 412 l
st
713 403 m
710 403 l
st
713 394 m
710 394 l
st
713 385 m
710 385 l
st
713 368 m
710 368 l
st
713 359 m
710 359 l
st
713 350 m
710 350 l
st
713 341 m
710 341 l
st
713 323 m
710 323 l
st
713 314 m
710 314 l
st
713 305 m
710 305 l
st
713 296 m
710 296 l
st
713 278 m
710 278 l
st
713 269 m
710 269 l
st
713 260 m
710 260 l
st
713 251 m
710 251 l
st
713 233 m
710 233 l
st
713 224 m
710 224 l
st
713 215 m
710 215 l
st
713 206 m
710 206 l
st
713 188 m
710 188 l
st
713 179 m
710 179 l
st
713 170 m
710 170 l
st
713 161 m
710 161 l
st
713 143 m
710 143 l
st
713 135 m
710 135 l
st
713 126 m
710 126 l
st
713 117 m
710 117 l
st
713 99 m
710 99 l
st
713 90 m
710 90 l
st
713 81 m
710 81 l
st
713 72 m
710 72 l
st
713 54 m
710 54 l
st
713 45 m
710 45 l
st
713 36 m
710 36 l
st
713 27 m
710 27 l
st
713 735 m
706 735 l
st
713 690 m
706 690 l
st
713 645 m
706 645 l
st
713 601 m
706 601 l
st
713 556 m
706 556 l
st
713 511 m
706 511 l
st
713 466 m
706 466 l
st
713 421 m
706 421 l
st
713 376 m
706 376 l
st
713 332 m
706 332 l
st
713 287 m
706 287 l
st
713 242 m
706 242 l
st
713 197 m
706 197 l
st
713 152 m
706 152 l
st
713 108 m
706 108 l
st
713 63 m
706 63 l
st
713 18 m
706 18 l
st
gs
gr
gs
gr
gs
1 -1 sc
/MC1_Arial 31 self 416 -767 m
(0.0)[17 9 17 ] xs
1 -1 sc
gr
gs
gr
gs
gr
gs
1 -1 sc
/MC1_Arial 31 self 478 -767 m
(0.3)[17 9 17 ] xs
1 -1 sc
gr
gs
gr
gs
gr
gs
1 -1 sc
/MC1_Arial 31 self 539 -767 m
(0.6)[17 9 17 ] xs
1 -1 sc
gr
gs
gr
gs
gr
gs
1 -1 sc
/MC1_Arial 31 self 600 -767 m
(0.9)[17 9 17 ] xs
1 -1 sc
gr
gs
gr
gs
gr
gs
1 -1 sc
/MC1_Arial 31 self 661 -767 m
(1.2)[17 9 17 ] xs
1 -1 sc
gr
gs
gr
gs
gr
gs
gr
gs
gr
gs
gr
gs
gr
gs
gr
gs
gr
gs
gr
gs
gr
gs
gr
gs
gr
gs
gr
gs
gr
gs
gr
gs
gr
gs
gr
gs
gr
gs
gr
gs
gr
gs
gr
gs
gr
gs
gr
gs
gr
gs
gr
gs
gr
gs
gr
gs
gr
gs
gr
gs
gr
gs
gr
gs
gr
gs
gr
gs
gr
gs
gr
gs
gr
gs
gr
713 735 m
1010 735 l
2 scap
st
749 735 m
749 732 l
0 scap
st
765 735 m
765 732 l
st
781 735 m
781 732 l
st
813 735 m
813 732 l
st
829 735 m
829 732 l
st
845 735 m
845 732 l
st
878 735 m
878 732 l
st
894 735 m
894 732 l
st
910 735 m
910 732 l
st
942 735 m
942 732 l
st
958 735 m
958 732 l
st
974 735 m
974 732 l
st
1007 735 m
1007 732 l
st
732 735 m
732 728 l
st
797 735 m
797 728 l
st
862 735 m
862 728 l
st
926 735 m
926 728 l
st
991 735 m
991 728 l
st
713 18 m
1010 18 l
2 scap
st
749 18 m
749 21 l
0 scap
st
765 18 m
765 21 l
st
781 18 m
781 21 l
st
813 18 m
813 21 l
st
829 18 m
829 21 l
st
845 18 m
845 21 l
st
878 18 m
878 21 l
st
894 18 m
894 21 l
st
910 18 m
910 21 l
st
942 18 m
942 21 l
st
958 18 m
958 21 l
st
974 18 m
974 21 l
st
1007 18 m
1007 21 l
st
732 18 m
732 25 l
st
797 18 m
797 25 l
st
862 18 m
862 25 l
st
926 18 m
926 25 l
st
991 18 m
991 25 l
st
713 735 m
713 18 l
2 scap
st
713 726 m
716 726 l
0 scap
st
713 717 m
716 717 l
st
713 708 m
716 708 l
st
713 699 m
716 699 l
st
713 681 m
716 681 l
st
713 672 m
716 672 l
st
713 663 m
716 663 l
st
713 654 m
716 654 l
st
713 636 m
716 636 l
st
713 627 m
716 627 l
st
713 618 m
716 618 l
st
713 610 m
716 610 l
st
713 592 m
716 592 l
st
713 583 m
716 583 l
st
713 574 m
716 574 l
st
713 565 m
716 565 l
st
713 547 m
716 547 l
st
713 538 m
716 538 l
st
713 529 m
716 529 l
st
713 520 m
716 520 l
st
713 502 m
716 502 l
st
713 493 m
716 493 l
st
713 484 m
716 484 l
st
713 475 m
716 475 l
st
713 457 m
716 457 l
st
713 448 m
716 448 l
st
713 439 m
716 439 l
st
713 430 m
716 430 l
st
713 412 m
716 412 l
st
713 403 m
716 403 l
st
713 394 m
716 394 l
st
713 385 m
716 385 l
st
713 368 m
716 368 l
st
713 359 m
716 359 l
st
713 350 m
716 350 l
st
713 341 m
716 341 l
st
713 323 m
716 323 l
st
713 314 m
716 314 l
st
713 305 m
716 305 l
st
713 296 m
716 296 l
st
713 278 m
716 278 l
st
713 269 m
716 269 l
st
713 260 m
716 260 l
st
713 251 m
716 251 l
st
713 233 m
716 233 l
st
713 224 m
716 224 l
st
713 215 m
716 215 l
st
713 206 m
716 206 l
st
713 188 m
716 188 l
st
713 179 m
716 179 l
st
713 170 m
716 170 l
st
713 161 m
716 161 l
st
713 143 m
716 143 l
st
713 135 m
716 135 l
st
713 126 m
716 126 l
st
713 117 m
716 117 l
st
713 99 m
716 99 l
st
713 90 m
716 90 l
st
713 81 m
716 81 l
st
713 72 m
716 72 l
st
713 54 m
716 54 l
st
713 45 m
716 45 l
st
713 36 m
716 36 l
st
713 27 m
716 27 l
st
713 735 m
720 735 l
st
713 690 m
720 690 l
st
713 645 m
720 645 l
st
713 601 m
720 601 l
st
713 556 m
720 556 l
st
713 511 m
720 511 l
st
713 466 m
720 466 l
st
713 421 m
720 421 l
st
713 376 m
720 376 l
st
713 332 m
720 332 l
st
713 287 m
720 287 l
st
713 242 m
720 242 l
st
713 197 m
720 197 l
st
713 152 m
720 152 l
st
713 108 m
720 108 l
st
713 63 m
720 63 l
st
713 18 m
720 18 l
st
1010 735 m
1010 18 l
2 scap
st
1010 726 m
1007 726 l
0 scap
st
1010 717 m
1007 717 l
st
1010 708 m
1007 708 l
st
1010 699 m
1007 699 l
st
1010 681 m
1007 681 l
st
1010 672 m
1007 672 l
st
1010 663 m
1007 663 l
st
1010 654 m
1007 654 l
st
1010 636 m
1007 636 l
st
1010 627 m
1007 627 l
st
1010 618 m
1007 618 l
st
1010 610 m
1007 610 l
st
1010 592 m
1007 592 l
st
1010 583 m
1007 583 l
st
1010 574 m
1007 574 l
st
1010 565 m
1007 565 l
st
1010 547 m
1007 547 l
st
1010 538 m
1007 538 l
st
1010 529 m
1007 529 l
st
1010 520 m
1007 520 l
st
1010 502 m
1007 502 l
st
1010 493 m
1007 493 l
st
1010 484 m
1007 484 l
st
1010 475 m
1007 475 l
st
1010 457 m
1007 457 l
st
1010 448 m
1007 448 l
st
1010 439 m
1007 439 l
st
1010 430 m
1007 430 l
st
1010 412 m
1007 412 l
st
1010 403 m
1007 403 l
st
1010 394 m
1007 394 l
st
1010 385 m
1007 385 l
st
1010 368 m
1007 368 l
st
1010 359 m
1007 359 l
st
1010 350 m
1007 350 l
st
1010 341 m
1007 341 l
st
1010 323 m
1007 323 l
st
1010 314 m
1007 314 l
st
1010 305 m
1007 305 l
st
1010 296 m
1007 296 l
st
1010 278 m
1007 278 l
st
1010 269 m
1007 269 l
st
1010 260 m
1007 260 l
st
1010 251 m
1007 251 l
st
1010 233 m
1007 233 l
st
1010 224 m
1007 224 l
st
1010 215 m
1007 215 l
st
1010 206 m
1007 206 l
st
1010 188 m
1007 188 l
st
1010 179 m
1007 179 l
st
1010 170 m
1007 170 l
st
1010 161 m
1007 161 l
st
1010 143 m
1007 143 l
st
1010 135 m
1007 135 l
st
1010 126 m
1007 126 l
st
1010 117 m
1007 117 l
st
1010 99 m
1007 99 l
st
1010 90 m
1007 90 l
st
1010 81 m
1007 81 l
st
1010 72 m
1007 72 l
st
1010 54 m
1007 54 l
st
1010 45 m
1007 45 l
st
1010 36 m
1007 36 l
st
1010 27 m
1007 27 l
st
1010 735 m
1003 735 l
st
1010 690 m
1003 690 l
st
1010 645 m
1003 645 l
st
1010 601 m
1003 601 l
st
1010 556 m
1003 556 l
st
1010 511 m
1003 511 l
st
1010 466 m
1003 466 l
st
1010 421 m
1003 421 l
st
1010 376 m
1003 376 l
st
1010 332 m
1003 332 l
st
1010 287 m
1003 287 l
st
1010 242 m
1003 242 l
st
1010 197 m
1003 197 l
st
1010 152 m
1003 152 l
st
1010 108 m
1003 108 l
st
1010 63 m
1003 63 l
st
1010 18 m
1003 18 l
st
gs
gr
gs
gr
gs
1 -1 sc
/MC1_Arial 31 self 711 -767 m
(0.0)[17 9 17 ] xs
1 -1 sc
gr
gs
gr
gs
gr
gs
1 -1 sc
/MC1_Arial 31 self 776 -767 m
(0.1)[17 9 17 ] xs
1 -1 sc
gr
gs
gr
gs
gr
gs
1 -1 sc
/MC1_Arial 31 self 841 -767 m
(0.2)[17 9 17 ] xs
1 -1 sc
gr
gs
gr
gs
gr
gs
1 -1 sc
/MC1_Arial 31 self 905 -767 m
(0.3)[17 9 17 ] xs
1 -1 sc
gr
gs
gr
gs
gr
gs
1 -1 sc
/MC1_Arial 31 self 970 -767 m
(0.4)[17 9 17 ] xs
1 -1 sc
gr
gs
gr
gs
gr
gs
gr
gs
gr
gs
gr
gs
gr
gs
gr
gs
gr
gs
gr
gs
gr
gs
gr
gs
gr
gs
gr
gs
gr
gs
gr
gs
gr
gs
gr
gs
gr
gs
gr
gs
gr
gs
gr
gs
gr
gs
gr
gs
gr
gs
gr
gs
gr
gs
np
295 639 6 0 360  a
cp
2 sw
1 scap
st
np
244 634 6 0 360  a
cp
st
np
346 646 6 0 360  a
cp
st
np
398 657 6 0 360  a
cp
st
np
193 629 6 0 360  a
cp
st
np
172 629 6 0 360  a
cp
st
np
271 635 6 0 360  a
cp
st
np
212 629 6 0 360  a
cp
st
np
223 632 6 0 360  a
cp
st
gr
gs
295 637 m
295 633 l
2 sw
1 scap
st
291 637 m
299 637 l
st
295 641 m
295 645 l
st
291 641 m
299 641 l
st
244 632 m
244 628 l
st
240 632 m
248 632 l
st
244 635 m
244 640 l
st
240 635 m
248 635 l
st
346 644 m
346 640 l
st
342 644 m
350 644 l
st
346 649 m
346 652 l
st
342 649 m
350 649 l
st
398 654 m
398 651 l
st
394 654 m
402 654 l
st
398 660 m
398 663 l
st
394 660 m
402 660 l
st
193 627 m
193 623 l
st
189 627 m
197 627 l
st
193 631 m
193 635 l
st
189 631 m
197 631 l
st
172 626 m
172 623 l
st
168 626 m
176 626 l
st
172 631 m
172 635 l
st
168 631 m
176 631 l
st
271 632 m
271 629 l
st
267 632 m
275 632 l
st
271 638 m
271 641 l
st
267 638 m
275 638 l
st
212 627 m
212 623 l
st
208 627 m
216 627 l
st
212 630 m
212 635 l
st
208 630 m
216 630 l
st
223 630 m
223 626 l
st
219 630 m
227 630 l
st
223 634 m
223 638 l
st
219 634 m
227 634 l
st
gr
gs
141 628 m
149 628 l
2 sw
1 0 0 rgb
1 scap
st
159 629 m
167 629 l
st
177 629 m
185 629 l
st
195 630 m
203 630 l
st
203 630 m
203 630 l
st
213 631 m
221 631 l
st
231 632 m
234 632 l
st
234 632 m
239 632 l
st
249 633 m
257 634 l
st
267 635 m
275 636 l
st
285 638 m
293 639 l
st
303 640 m
311 641 l
st
321 642 m
326 643 l
st
326 643 m
329 644 l
st
339 646 m
346 647 l
st
356 649 m
357 649 l
st
357 649 m
364 650 l
st
374 652 m
382 654 l
st
392 656 m
399 658 l
st
409 660 m
417 662 l
st
gr
gs
141 633 m
149 628 l
149 618 l
141 613 l
132 618 l
132 628 l
cp
gs
0 1 0 rgb
eofi
gr
0 1 0 rgb
1 scap
st
gr
gs
141 614 m
141 614 l
2 sw
0 1 0 rgb
1 scap
st
134 614 m
148 614 l
st
141 632 m
141 632 l
st
134 632 m
148 632 l
st
gr
gs
141 685 m
150 691 l
146 703 l
135 703 l
131 691 l
cp
gs
0 0 1 rgb
eofi
gr
0 0 1 rgb
1 scap
st
gr
gs
141 677 m
141 685 l
2 sw
0 0 1 rgb
1 scap
st
134 677 m
148 677 l
st
141 713 m
141 703 l
st
134 713 m
148 713 l
st
gr
gs
1003 18 m
2 sw
0.502 0.502 0.502 rgb
1 scap
259 629 10 10 rectstroke
239 622 10 10 rectstroke
188 621 10 10 rectstroke
167 623 10 10 rectstroke
213 624 10 10 rectstroke
gr
gs
264 632 m
264 628 l
2 sw
0.502 0.502 0.502 rgb
1 scap
st
260 632 m
268 632 l
st
264 636 m
264 640 l
st
260 636 m
268 636 l
st
244 625 m
244 621 l
st
240 625 m
248 625 l
st
244 629 m
244 633 l
st
240 629 m
248 629 l
st
193 624 m
193 620 l
st
189 624 m
197 624 l
st
193 628 m
193 632 l
st
189 628 m
197 628 l
st
172 626 m
172 622 l
st
168 626 m
176 626 l
st
172 630 m
172 634 l
st
168 630 m
176 630 l
st
218 627 m
218 623 l
st
214 627 m
222 627 l
st
218 630 m
218 635 l
st
214 630 m
222 630 l
st
gr
gs
192 632 m
199 625 l
206 632 l
199 639 l
cp
2 sw
0 1 1 rgb
1 scap
st
250 638 m
257 631 l
264 638 l
257 645 l
cp
st
226 632 m
233 625 l
240 632 l
233 639 l
cp
st
175 633 m
182 626 l
189 633 l
182 640 l
cp
st
205 632 m
212 625 l
219 632 l
212 639 l
cp
st
gr
gs
199 629 m
199 625 l
2 sw
0 1 1 rgb
1 scap
st
195 629 m
203 629 l
st
199 634 m
199 639 l
st
195 634 m
203 634 l
st
257 635 m
257 631 l
st
253 635 m
261 635 l
st
257 641 m
257 645 l
st
253 641 m
261 641 l
st
233 629 m
233 625 l
st
229 629 m
237 629 l
st
233 635 m
233 639 l
st
229 635 m
237 635 l
st
182 630 m
182 626 l
st
178 630 m
186 630 l
st
182 636 m
182 640 l
st
178 636 m
186 636 l
st
212 628 m
212 625 l
st
208 628 m
216 628 l
st
212 636 m
212 639 l
st
208 636 m
216 636 l
st
gr
gs
141 618 m
143 624 l
150 624 l
144 629 l
146 636 l
141 631 l
135 636 l
137 629 l
131 624 l
138 624 l
cp
gs
1 0 0 rgb
eofi
gr
1 0 0 rgb
1 scap
st
gr
gs
141 627 m
141 618 l
2 sw
1 0 0 rgb
1 scap
st
134 627 m
148 627 l
st
141 630 m
141 631 l
st
134 630 m
148 630 l
st
gr
gs
np
693 128 6 0 360  a
cp
2 sw
1 scap
st
np
591 119 6 0 360  a
cp
st
np
539 113 6 0 360  a
cp
st
np
642 123 6 0 360  a
cp
st
np
488 105 6 0 360  a
cp
st
np
468 106 6 0 360  a
cp
st
np
566 118 6 0 360  a
cp
st
np
508 107 6 0 360  a
cp
st
np
519 110 6 0 360  a
cp
st
np
478 114 6 0 360  a
cp
st
gr
gs
693 124 m
693 122 l
2 sw
1 scap
st
689 124 m
697 124 l
st
693 131 m
693 134 l
st
689 131 m
697 131 l
st
591 116 m
591 113 l
st
587 116 m
595 116 l
st
591 123 m
591 125 l
st
587 123 m
595 123 l
st
539 109 m
539 107 l
st
535 109 m
543 109 l
st
539 116 m
539 119 l
st
535 116 m
543 116 l
st
642 120 m
642 117 l
st
638 120 m
646 120 l
st
642 127 m
642 129 l
st
638 127 m
646 127 l
st
488 99 m
488 99 l
st
484 99 m
492 99 l
st
488 111 m
488 111 l
st
484 111 m
492 111 l
st
468 99 m
468 100 l
st
464 99 m
472 99 l
st
468 113 m
468 112 l
st
464 113 m
472 113 l
st
566 114 m
566 112 l
st
562 114 m
570 114 l
st
566 121 m
566 124 l
st
562 121 m
570 121 l
st
508 102 m
508 101 l
st
504 102 m
512 102 l
st
508 112 m
508 113 l
st
504 112 m
512 112 l
st
519 106 m
519 104 l
st
515 106 m
523 106 l
st
519 114 m
519 116 l
st
515 114 m
523 114 l
st
478 108 m
478 108 l
st
474 108 m
482 108 l
st
478 121 m
478 120 l
st
474 121 m
482 121 l
st
gr
gs
437 103 m
445 104 l
2 sw
1 0 0 rgb
1 scap
st
455 105 m
463 106 l
st
473 106 m
481 107 l
st
491 108 m
499 109 l
st
499 109 m
499 109 l
st
509 110 m
517 111 l
st
527 112 m
529 112 l
st
529 112 m
535 113 l
st
545 114 m
553 114 l
st
563 115 m
571 116 l
st
581 117 m
589 118 l
st
599 119 m
607 120 l
st
617 121 m
621 121 l
st
621 121 m
625 121 l
st
635 122 m
643 123 l
st
653 124 m
661 125 l
st
671 126 m
679 127 l
st
689 128 m
696 128 l
st
706 129 m
713 130 l
st
713 130 m
706 129 l
st
gr
gs
437 55 m
445 50 l
445 40 l
437 35 l
428 40 l
428 50 l
cp
gs
0 1 0 rgb
eofi
gr
0 1 0 rgb
1 scap
st
gr
gs
437 40 m
437 36 l
2 sw
0 1 0 rgb
1 scap
st
430 40 m
444 40 l
st
437 49 m
437 54 l
st
430 49 m
444 49 l
st
gr
gs
437 174 m
446 180 l
442 192 l
431 192 l
427 180 l
cp
gs
0 0 1 rgb
eofi
gr
0 0 1 rgb
1 scap
st
gr
gs
437 161 m
437 174 l
2 sw
0 0 1 rgb
1 scap
st
430 161 m
444 161 l
st
437 206 m
437 192 l
st
430 206 m
444 206 l
st
gr
gs
471 109 m
478 102 l
485 109 l
478 116 l
cp
2 sw
0 1 1 rgb
1 scap
st
gr
gs
478 99 m
478 102 l
2 sw
0 1 1 rgb
1 scap
st
474 99 m
482 99 l
st
478 120 m
478 116 l
st
474 120 m
482 120 l
st
gr
gs
437 93 m
439 99 l
446 99 l
440 104 l
442 111 l
437 106 l
431 111 l
433 104 l
427 99 l
434 99 l
cp
gs
1 0 0 rgb
eofi
gr
1 0 0 rgb
1 scap
st
gr
gs
437 99 m
437 93 l
2 sw
1 0 0 rgb
1 scap
st
430 99 m
444 99 l
st
437 108 m
437 106 l
st
430 108 m
444 108 l
st
gr
gs
790 209 m
797 202 l
804 209 l
797 216 l
cp
2 sw
0 1 1 rgb
1 scap
st
822 205 m
829 198 l
836 205 l
829 212 l
cp
st
855 208 m
862 201 l
869 208 l
862 215 l
cp
st
887 206 m
894 199 l
901 206 l
894 213 l
cp
st
919 216 m
926 209 l
933 216 l
926 223 l
cp
st
984 216 m
991 209 l
998 216 l
991 223 l
cp
st
gr
gs
797 196 m
797 202 l
2 sw
0 1 1 rgb
1 scap
st
793 196 m
801 196 l
st
797 222 m
797 216 l
st
793 222 m
801 222 l
st
829 190 m
829 198 l
st
825 190 m
833 190 l
st
829 219 m
829 212 l
st
825 219 m
833 219 l
st
862 197 m
862 201 l
st
858 197 m
866 197 l
st
862 218 m
862 215 l
st
858 218 m
866 218 l
st
894 192 m
894 199 l
st
890 192 m
898 192 l
st
894 220 m
894 213 l
st
890 220 m
898 220 l
st
926 207 m
926 209 l
st
922 207 m
930 207 l
st
926 226 m
926 223 l
st
922 226 m
930 226 l
st
991 206 m
991 209 l
st
987 206 m
995 206 l
st
991 226 m
991 223 l
st
987 226 m
995 226 l
st
gr
gs
732 200 m
740 201 l
2 sw
1 0 0 rgb
1 scap
st
750 201 m
758 202 l
st
768 202 m
776 203 l
st
786 203 m
794 204 l
st
794 204 m
794 204 l
st
804 205 m
812 205 l
st
822 206 m
825 206 l
st
825 206 m
830 206 l
st
840 207 m
848 207 l
st
858 208 m
866 209 l
st
876 209 m
884 210 l
st
894 210 m
902 211 l
st
912 212 m
917 212 l
st
917 212 m
920 212 l
st
930 213 m
938 213 l
st
948 214 m
956 215 l
st
966 215 m
974 216 l
st
984 216 m
992 217 l
st
1002 217 m
1010 218 l
st
1010 218 m
1002 217 l
st
gr
gs
732 179 m
739 174 l
739 166 l
732 161 l
724 166 l
724 174 l
cp
gs
0 1 0 rgb
eofi
gr
0 1 0 rgb
1 scap
st
gr
gs
732 161 m
732 161 l
2 sw
0 1 0 rgb
1 scap
st
725 161 m
739 161 l
st
732 179 m
732 179 l
st
725 179 m
739 179 l
st
gr
gs
np
797 190 6 0 360  a
cp
2 sw
1 scap
st
np
829 202 6 0 360  a
cp
st
np
862 208 6 0 360  a
cp
st
np
894 205 6 0 360  a
cp
st
np
991 204 6 0 360  a
cp
st
gr
gs
797 181 m
797 184 l
2 sw
1 scap
st
793 181 m
801 181 l
st
797 200 m
797 196 l
st
793 200 m
801 200 l
st
829 196 m
829 196 l
st
825 196 m
833 196 l
st
829 208 m
829 208 l
st
825 208 m
833 208 l
st
862 202 m
862 202 l
st
858 202 m
866 202 l
st
862 214 m
862 214 l
st
858 214 m
866 214 l
st
894 199 m
894 199 l
st
890 199 m
898 199 l
st
894 212 m
894 211 l
st
890 212 m
898 212 l
st
991 197 m
991 198 l
st
987 197 m
995 197 l
st
991 211 m
991 210 l
st
987 211 m
995 211 l
st
gr
gs
732 192 m
734 198 l
740 198 l
735 202 l
737 208 l
732 204 l
726 208 l
728 202 l
723 198 l
729 198 l
cp
gs
1 0 0 rgb
eofi
gr
1 0 0 rgb
1 scap
st
gr
gs
732 192 m
732 192 l
2 sw
1 0 0 rgb
1 scap
st
725 192 m
739 192 l
st
732 210 m
732 204 l
st
725 210 m
739 210 l
st
gr
gs
gs
1 -1 sc
26 -453 tr
90 ro
/MC2_Arial 36 self 0 0 m
(Energy \(MeV\))[24 20 20 12 20 18 10 12 30 20 24 12 ] xs
1 -1 sc
gr
gr
gs
gs
gr
gs
173 57 m
180 52 l
180 44 l
173 39 l
165 44 l
165 52 l
cp
gs
0 1 0 rgb
eofi
gr
0 1 0 rgb
1 scap
st
gr
1 -1 sc
/MC1_Arial 31 self 208 -59 m
(GFMC)[24 19 25 22 ] xs
1 -1 sc
gs
gr
gs
173 78 m
181 84 l
178 94 l
167 94 l
164 84 l
cp
gs
0 0 1 rgb
eofi
gr
0 0 1 rgb
1 scap
st
gr
1 -1 sc
208 -98 m
(AFDMC)[21 19 22 25 22 ] xs
1 -1 sc
gs
gr
gs
173 117 m
175 123 l
181 123 l
176 127 l
178 133 l
173 129 l
167 133 l
169 127 l
164 123 l
170 123 l
cp
gs
1 0 0 rgb
eofi
gr
1 0 0 rgb
1 scap
st
gr
1 -1 sc
208 -137 m
(PIMC)[21 9 25 22 ] xs
1 -1 sc
gs
gr
gs
2 sw
0.502 0.502 0.502 rgb
1 scap
168 164 10 10 rectstroke
gr
1 -1 sc
/MC3_Symbol 31 self 208 -180 m
(t)[13 ] xs
1 -1 sc
1 -1 sc
/MC1_Arial 31 self 221 -180 m
( = 0.15 MeV)[9 18 9 17 9 17 17 9 25 16 21 ] xs
1 -1 sc
1 -1 sc
/MC1_Arial 21 self 388 -167 m
(-1)[7 12 ] xs
1 -1 sc
gs
gr
gs
np
173 212 5 0 360  a
cp
2 sw
1 scap
st
gr
1 -1 sc
/MC3_Symbol 31 self 208 -223 m
(t)[13 ] xs
1 -1 sc
1 -1 sc
/MC1_Arial 31 self 221 -223 m
( = 0.20 MeV)[9 18 9 17 9 17 17 9 25 16 21 ] xs
1 -1 sc
1 -1 sc
/MC1_Arial 21 self 388 -210 m
(-1)[7 12 ] xs
1 -1 sc
gs
gr
gs
166 255 m
173 248 l
180 255 l
173 262 l
cp
2 sw
0 1 1 rgb
1 scap
st
gr
1 -1 sc
/MC3_Symbol 31 self 208 -266 m
(t)[13 ] xs
1 -1 sc
1 -1 sc
/MC1_Arial 31 self 221 -266 m
( = 0.30 MeV)[9 18 9 17 9 17 17 9 25 16 21 ] xs
1 -1 sc
1 -1 sc
/MC1_Arial 21 self 388 -253 m
(-1)[7 12 ] xs
1 -1 sc
gs
gr
gs
gs
138 294 m
146 294 l
2 sw
1 0 0 rgb
1 scap
st
156 294 m
164 294 l
st
174 294 m
182 294 l
st
192 294 m
200 294 l
st
gr
gr
1 -1 sc
/MC1_Arial 31 self 208 -305 m
(Extrapolation)[21 14 9 10 16 17 16 7 16 9 7 16 17 ] xs
1 -1 sc
gr
gs
1 -1 sc
/MC1_Arial 32 self 237 -595 m
(Argonne v6')[21 11 17 17 18 18 17 9 15 18 6 ] xs
1 -1 sc
gr
gs
1 -1 sc
/MC1_Arial 32 self 448 -594 m
(Local Chiral N)[18 17 16 17 7 9 23 18 7 11 17 7 9 23 ] xs
1 -1 sc
1 -1 sc
/MC1_Arial 22 self 647 -581 m
(2)[12 ] xs
1 -1 sc
1 -1 sc
/MC1_Arial 32 self 659 -594 m
(LO)[18 25 ] xs
1 -1 sc
gr
gs
1 -1 sc
/MC1_Arial 32 self 831 -594 m
(Argonne v8')[21 11 17 17 18 18 17 9 15 18 6 ] xs
1 -1 sc
gr
gs
1 -1 sc
/MC1_Arial 36 self 366 -805 m
(Time step )[21 7 31 20 10 18 10 20 20 10 ] xs
1 -1 sc
1 -1 sc
/MC3_Symbol 36 self 533 -805 m
(Dt )[22 15 9 ] xs
1 -1 sc
1 -1 sc
579 -805 m
(\()[12 ] xs
1 -1 sc
1 -1 sc
/MC1_Arial 36 self 591 -805 m
(10)[20 20 ] xs
1 -1 sc
1 -1 sc
/MC1_Arial 24 self 631 -790 m
(-3 )[8 13 7 ] xs
1 -1 sc
1 -1 sc
/MC1_Arial 36 self 659 -805 m
(MeV)[29 20 24 ] xs
1 -1 sc
1 -1 sc
/MC1_Arial 24 self 732 -790 m
(-1)[8 13 ] xs
1 -1 sc
1 -1 sc
/MC3_Symbol 36 self 753 -805 m
(\))[12 ] xs
1 -1 sc
gr
gs
1 -1 sc
/MC1_Arial 35 self 915 -59 m
(4)[19 ] xs
1 -1 sc
1 -1 sc
/MC1_Arial 51 self 934 -80 m
(He)[37 28 ] xs
1 -1 sc
gr
gr
gs
gr
Save0 restore end
showpage
%%EOF
