%!PS-Adobe-3.0 EPSF-3.0
%%BoundingBox: 0 0 842 595
%%LanguageLevel: 2
%%Creator: OriginLab Corporation
%%Title: (C:\Users\Rong\Desktop\Fig1DMC.eps)
%%CreationDate: Fri Oct 17 10:11:07 2014
%%EndComments

/OriginLab::PSL1 128 dict dup begin def
/Save0 save def
%%BeginResource: procset OriginLab::PSL1
/wd{1 index where{pop pop pop}{bind def}ifelse}bind def
/setcmykcolor{1 sub 4 1 roll 3{3 index add neg dup 0 lt{pop 0}if 3 1 roll}repeat setrgbcolor pop}wd
/selectfont{dup type/arraytype eq{exch findfont exch makefont setfont}{exch findfont exch scalefont setfont}ifelse}wd
/xshow{1 index length 0 le{}{currentpoint exch 3 index length 1 sub 0 exch 1 exch{dup 5 index exch 1 getinterval show 3 index exch get add 2 copy exch moveto}for pop pop}ifelse pop pop}wd
/glyphshow{matrix currentmatrix exch currentfont dup/FontMatrix get concat currentpoint translate
 dup/Metrics get 2 index get 0 4 2 roll gsave/CharProcs get exch 2 copy known not{pop/.notdef}if
 get exec fill grestore moveto setmatrix}wd
/grayimage/image load def/rgbtogray{cvx exec dup length 3 idiv 1 sub 0 exch 1 exch{dup 3 mul dup 3 index exch get 255 div .3 mul exch
 1 add dup 4 index exch get 255 div .59 mul exch 1 add 4 index exch get 255 div .11 mul add add
 255 mul dup 255 gt{255}if round cvi 2 index 3 1 roll put}for dup length 3 idiv 0 exch getinterval}bind def
/colorimage{0 setgray pop pop cvlit/rgbtogray cvx 2 packedarray cvx grayimage}wd
/bd{bind def}bind def/ld{load def}bd/ed{exch def}bd/xd{cvx def}bd
/np/newpath ld/a/arc ld/m/moveto ld/l/lineto ld/c/curveto ld/rm/rmoveto ld/rl/rlineto ld/rc/rcurveto ld/cp/closepath ld/cpt/currentpoint ld
/tr/translate ld/sc/scale ld/ro/rotate ld/t/transform ld/it/itransform ld/dt/dtransform ld/idt/idtransform ld
/mtx/matrix ld/cmtx/currentmatrix ld/dmtx/defaultmatrix ld/smtx/setmatrix ld/catmtx/concatmatrix ld
/sw/setlinewidth ld/scap/setlinecap ld/sj/setlinejoin ld/sm/setmiterlimit ld/sd/setdash ld/rgb/setrgbcolor ld/crgb/currentrgbcolor ld/cmyk/setcmykcolor ld/gs/gsave ld/gr/grestore ld
/st/stroke ld/fi/fill ld/eofi/eofill ld/cl/clip ld/eocl/eoclip ld
/df/definefont ld/ff/findfont ld/sf/setfont ld/scf/scalefont ld/self/selectfont ld/cf/currentfont ld
/s/show ld/xs/xshow ld/gls/glyphshow ld/xgls{cpt 3 1 roll add exch 3 -1 roll gls m}bd
/cd/currentdict ld/i/index ld
/DrawBox{4 2 roll m 1 index 0 rl 0 exch rl neg 0 rl cp}bd
/plus.re { 6 { 3 index } repeat moveto 0 exch rlineto 0 rlineto pop pop neg 0 exch rlineto pop lineto closepath } def
/DrawBcc{4 2 roll m 2 copy 0 lt exch 0 lt xor{dup 0 exch rl exch 0 rl neg 0 exch rl}{exch dup 0 rl exch 0 exch rl neg 0 rl}ifelse cp}bd
/rectline{dup type/arraytype eq{dup length 0 exch 4 exch 4 sub{0 1 3{3 copy add get 4 1 roll pop}for pop 5 1 roll DrawBox}for pop}{DrawBox}ifelse}bd
/rectpath{dup type/arraytype eq{dup length 0 exch 4 exch 4 sub{0 1 3{3 copy add get 4 1 roll pop}for pop 5 1 roll DrawBcc}for pop}{DrawBcc}ifelse}bd
/pathproc{[{/m cvx}{/l cvx}{/c cvx}{/cp cvx}pathforall]cvx}bd
/L1img/image ld/L1idx[{0}
 {dup 7 and 3 1 roll -3 bitshift get exch 7 sub 1 mul bitshift  1 and}bind 1 index dup
 {dup 1 and 3 1 roll -1 bitshift get exch 1 sub 4 mul bitshift 15 and}bind 1 index dup dup
 {get}bind]def
/image{dup type/dicttype eq {dup/ImgCS get 0 get/Indexed eq}{false}ifelse
 {begin Width Height 8 ImageMatrix {rgb_string rgb_lookup
 cd/DataSource get dup type/filetype eq
 {mystring readstring pop}{exec}ifelse
 dup length 0 ne
 {L1idx BitsPerComponent get 0 1 Width 1 sub
 {3 copy exch exec exch 3 mul exch
 3 mul dup 5 index exch get exch 1 add dup 6 index exch get exch 1 add 6 index exch get
 7 index exch 4 index 2 add exch put 6 index exch 3 index 1 add exch put 5 index exch 2 index exch put pop
 }for pop pop pop }{pop pop pop ()}ifelse }false 3 colorimage end} {dup type/dicttype eq
 {{dup mark exch L1img pop pop}stopped{cleartomark begin Width Height BitsPerComponent ImageMatrix
 {cd/DataSource get dup type/filetype eq {mystring readstring pop}{exec}ifelse
 }false 3 colorimage end} if}{L1img}ifelse}ifelse
 }bd
/L1imgmask/imagemask ld/imagemask{dup type/dicttype eq
 {{dup mark exch L1imgmask pop pop}stopped {cleartomark begin Width Height polarityflag ImageMatrix
 {cd/DataSource get dup type/filetype eq {mystring readstring pop}{exec}ifelse
 }L1imgmask end}if}{L1imgmask}ifelse
 }bd
% Gradient function
/GradientStep 1 150 div def
/GradientStartRGB { /R1 exch def /G1 exch def /B1 exch def } def
/GradientEndRGB { /R2 exch def /G2 exch def /B2 exch def
/GradientSteps GradientLength GradientStep div def
/GradientRStep R2 R1 sub GradientSteps div def
/GradientGStep G2 G1 sub GradientSteps div def
/GradientBStep B2 B1 sub GradientSteps div def
} def
/GradientStepRGB { /R1 R1 GradientRStep add def
/G1 G1 GradientGStep add def
/B1 B1 GradientBStep add def
R1 G1 B1 setrgbcolor
} def
%%EndResource
/rectclip{np rectpath clip np}wd
/rectfill{gs np rectpath fi gr}wd
/rectstroke{gs np dup type/arraytype eq{dup length 6 eq}{false}ifelse{1 index type/arraytype eq{exch}{5 1 roll}ifelse rectline concat st}{rectline st}ifelse gr}wd
%%BeginResource: procset OriginLab::Image
/OriginLab::Image 32 dict dup begin
/BinProc{[currentfile mystring /readstring cvx /pop cvx] cvx bind}bd
/HexProc{[currentfile mystring /readhexstring cvx /pop cvx] cvx bind}bd
/Ascii85Proc{currentfile /ASCII85Decode filter}bd
/LZWA85{currentfile /ASCII85Decode filter /LZWDecode filter}bd
/ImgProcArray[/BinProc /HexProc /Ascii85Proc /LZWA85]def
/ImgDict{/ImgDict 16 dict def ImgDict dup begin /ImageType 1 def /MultipleDataSource false def end}bd
/L2Dec{{[1 0]}{[0 1]}ifelse}bd
/BegImg{ /Img_sv save def
 /ImgDir ed ImgProcArray exch get /ImgProc exch ld
 dup /polarityflag ed L2Dec /polarity ed /smoothflag ed
 tr /dx 2 index def /dy 1 index abs def sc
 string /mystring ed /bpc ed /ih ed /iw ed
 }bd
/EndImg {Img_sv restore}bd
/DoXImg{ /rgb_lookup ed /hival ed ImgDict dup begin
 [/Indexed /DeviceRGB hival rgb_lookup] /L1img where{pop/ImgCS ed}{setcolorspace}ifelse
 /rgb_string iw 3 mul string def
 /Width iw def
 /Height ih def
 /Decode [0 1 bpc{2 mul}repeat 1 sub] def
 /ImageMatrix
  ImgDir 0 eq{[iw 0 0 ih 0 0]}if
  ImgDir 1 eq{[iw neg 0 0 ih iw 0]}if
  ImgDir 2 eq{[iw 0 0 ih neg 0 ih]}if
  ImgDir 3 eq{[iw neg 0 0 ih neg iw ih]}if
  def
 /DataSource ImgProc def
 /BitsPerComponent bpc def
 /Interpolate smoothflag def
 end image}bd
/DoImg{ ImgDict dup begin
 [/DeviceRGB] /L1img where{pop/ImgCS ed}{setcolorspace}ifelse
 /rgb_string iw 3 mul string def
 /Width iw def
 /Height ih def
 /Decode [0 1 0 1 0 1] def
 /ImageMatrix
  ImgDir 0 eq{[iw 0 0 ih 0 0]}if
  ImgDir 1 eq{[iw neg 0 0 ih iw 0]}if
  ImgDir 2 eq{[iw 0 0 ih neg 0 ih]}if
  ImgDir 3 eq{[iw neg 0 0 ih neg iw ih]}if
  def
 /DataSource ImgProc def
 /BitsPerComponent 8 def
 /Interpolate smoothflag def
 end image}bd
end def
%%EndResource
/initmtx mtx cmtx def
%%BeginFont: /MC1_Arial
12 dict begin
/FontInfo 8 dict dup begin
/ItalicAngle 0 def
/UnderlinePosition -217.00 def
/UnderlineThickness 150.00 def
/StrikeoutPosition 530.00 def
/StrikeoutThickness 102.00 def
/isFixedPitch false def
end readonly def
/FontName /MC1_Arial def
/FontType 3 def
/FontMatrix [1 2048 div 0 0 1 2048 div 0 0] def
/FontBBox [-1361 -665 4096 2129] def
/Encoding 256 array def 0 1 255{Encoding exch/.notdef put}for
Encoding 32/s32 put
Encoding 46/s46 put
Encoding 48/s48 put
Encoding 49/s49 put
Encoding 50/s50 put
Encoding 51/s51 put
Encoding 52/s52 put
Encoding 53/s53 put
Encoding 54/s54 put
Encoding 55/s55 put
Encoding 56/s56 put
Encoding 57/s57 put
Encoding 78/s78 put
Encoding 91/s91 put
Encoding 93/s93 put
Encoding 97/s97 put
Encoding 101/s101 put
Encoding 102/s102 put
Encoding 103/s103 put
Encoding 109/s109 put
Encoding 114/s114 put
Encoding 118/s118 put
/BoundingBoxes 23 dict def
BoundingBoxes begin
/s32 [0 -434 569 1854] def
/s46 [0 -434 569 1854] def
/s48 [0 -434 1139 1854] def
/s49 [0 -434 1139 1854] def
/s50 [0 -434 1139 1854] def
/s51 [0 -434 1139 1854] def
/s52 [0 -434 1139 1854] def
/s53 [0 -434 1139 1854] def
/s54 [0 -434 1139 1854] def
/s55 [0 -434 1139 1854] def
/s56 [0 -434 1139 1854] def
/s57 [0 -434 1139 1854] def
/s78 [0 -434 1479 1854] def
/s91 [0 -434 569 1854] def
/s93 [0 -434 569 1854] def
/s97 [0 -434 1139 1854] def
/s101 [0 -434 1139 1854] def
/s102 [0 -434 569 1854] def
/s103 [0 -434 1139 1854] def
/s109 [0 -434 1706 1854] def
/s114 [0 -434 682 1854] def
/s118 [0 -434 1024 1854] def
end
/Metrics 23 dict def
 Metrics begin
/s32 569 def
/s46 569 def
/s48 1139 def
/s49 1139 def
/s50 1139 def
/s51 1139 def
/s52 1139 def
/s53 1139 def
/s54 1139 def
/s55 1139 def
/s56 1139 def
/s57 1139 def
/s78 1479 def
/s91 569 def
/s93 569 def
/s97 1139 def
/s101 1139 def
/s102 569 def
/s103 1139 def
/s109 1706 def
/s114 682 def
/s118 1024 def
end
/CharProcs 23 dict def
CharProcs begin
/.notdef {} def
/s46 {
186 0 m
186 205 186 0 186 205 c
391 205 186 205 391 205 c
391 0 391 205 391 0 c
186 0 391 0 186 0 c
closepath } bind def
/s48 {
85 723 m
85 896.33 102.83 1035.83 138.5 1141.5 c
174.17 1247.17 227.17 1328.67 297.5 1386 c
367.83 1443.33 456.33 1472 563 1472 c
641.67 1472 710.67 1456.17 770 1424.5 c
829.33 1392.83 878.33 1347.17 917 1287.5 c
955.67 1227.83 986 1155.17 1008 1069.5 c
1030 983.83 1041 868.33 1041 723 c
1041 551 1023.33 412.17 988 306.5 c
952.67 200.83 899.83 119.17 829.5 61.5 c
759.17 3.83 670.33 -25 563 -25 c
421.67 -25 310.67 25.67 230 127 c
133.33 249 85 447.67 85 723 c
closepath 270 723 m
270 482.33 298.17 322.17 354.5 242.5 c
410.83 162.83 480.33 123 563 123 c
645.67 123 715.17 163 771.5 243 c
827.83 323 856 483 856 723 c
856 964.33 827.83 1124.67 771.5 1204 c
715.17 1283.33 645 1323 561 1323 c
478.33 1323 412.33 1288 363 1218 c
301 1128.67 270 963.67 270 723 c
closepath } bind def
/s49 {
763 0 m
583 0 763 0 583 0 c
583 1147 583 0 583 1147 c
539.67 1105.67 482.83 1064.33 412.5 1023 c
342.17 981.67 279 950.67 223 930 c
223 1104 223 930 223 1104 c
323.67 1151.33 411.67 1208.67 487 1276 c
562.33 1343.33 615.67 1408.67 647 1472 c
763 1472 647 1472 763 1472 c
763 0 763 1472 763 0 c
closepath } bind def
/s50 {
1031 173 m
1031 0 1031 173 1031 0 c
62 0 1031 0 62 0 c
60.67 43.33 67.67 85 83 125 c
107.67 191 147.17 256 201.5 320 c
255.83 384 334.33 458 437 542 c
596.33 672.67 704 776.17 760 852.5 c
816 928.83 844 1001 844 1069 c
844 1140.33 818.5 1200.5 767.5 1249.5 c
716.5 1298.5 650 1323 568 1323 c
481.33 1323 412 1297 360 1245 c
308 1193 281.67 1121 281 1029 c
96 1048 281 1029 96 1048 c
108.67 1186 156.33 1291.17 239 1363.5 c
321.67 1435.83 432.67 1472 572 1472 c
712.67 1472 824 1433 906 1355 c
988 1277 1029 1180.33 1029 1065 c
1029 1006.33 1017 948.67 993 892 c
969 835.33 929.17 775.67 873.5 713 c
817.83 650.33 725.33 564.33 596 455 c
488 364.33 418.67 302.83 388 270.5 c
357.33 238.17 332 205.67 312 173 c
1031 173 312 173 1031 173 c
closepath } bind def
/s51 {
86 387 m
266 411 86 387 266 411 c
286.67 309 321.83 235.5 371.5 190.5 c
421.17 145.5 481.67 123 553 123 c
637.67 123 709.17 152.33 767.5 211 c
825.83 269.67 855 342.33 855 429 c
855 511.67 828 579.83 774 633.5 c
720 687.17 651.33 714 568 714 c
534 714 491.67 707.33 441 694 c
461 852 441 694 461 852 c
473 850.67 482.67 850 490 850 c
566.67 850 635.67 870 697 910 c
758.33 950 789 1011.67 789 1095 c
789 1161 766.67 1215.67 722 1259 c
677.33 1302.33 619.67 1324 549 1324 c
479 1324 420.67 1302 374 1258 c
327.33 1214 297.33 1148 284 1060 c
104 1092 284 1060 104 1092 c
126 1212.67 176 1306.17 254 1372.5 c
332 1438.83 429 1472 545 1472 c
625 1472 698.67 1454.83 766 1420.5 c
833.33 1386.17 884.83 1339.33 920.5 1280 c
956.17 1220.67 974 1157.67 974 1091 c
974 1027.67 957 970 923 918 c
889 866 838.67 824.67 772 794 c
858.67 774 926 732.5 974 669.5 c
1022 606.5 1046 527.67 1046 433 c
1046 305 999.33 196.5 906 107.5 c
812.67 18.5 694.67 -26 552 -26 c
423.33 -26 316.5 12.33 231.5 89 c
146.5 165.67 98 265 86 387 c
closepath } bind def
/s52 {
662 0 m
662 351 662 0 662 351 c
26 351 662 351 26 351 c
26 516 26 351 26 516 c
695 1466 26 516 695 1466 c
842 1466 695 1466 842 1466 c
842 516 842 1466 842 516 c
1040 516 842 516 1040 516 c
1040 351 1040 516 1040 351 c
842 351 1040 351 842 351 c
842 0 842 351 842 0 c
662 0 842 0 662 0 c
closepath 662 516 m
662 1177 662 516 662 1177 c
203 516 662 1177 203 516 c
662 516 203 516 662 516 c
closepath } bind def
/s53 {
85 384 m
274 400 85 384 274 400 c
288 308 320.5 238.83 371.5 192.5 c
422.5 146.17 484 123 556 123 c
642.67 123 716 155.67 776 221 c
836 286.33 866 373 866 481 c
866 583.67 837.17 664.67 779.5 724 c
721.83 783.33 646.33 813 553 813 c
495 813 442.67 799.83 396 773.5 c
349.33 747.17 312.67 713 286 671 c
117 693 286 671 117 693 c
259 1446 117 693 259 1446 c
988 1446 259 1446 988 1446 c
988 1274 988 1446 988 1274 c
403 1274 988 1274 403 1274 c
324 880 403 1274 324 880 c
412 941.33 504.33 972 601 972 c
729 972 837 927.67 925 839 c
1013 750.33 1057 636.33 1057 497 c
1057 364.33 1018.33 249.67 941 153 c
847 34.33 718.67 -25 556 -25 c
422.67 -25 313.83 12.33 229.5 87 c
145.17 161.67 97 260.67 85 384 c
closepath } bind def
/s54 {
1019 1107 m
840 1093 1019 1107 840 1093 c
824 1163.67 801.33 1215 772 1247 c
723.33 1298.33 663.33 1324 592 1324 c
534.67 1324 484.33 1308 441 1276 c
384.33 1234.67 339.67 1174.33 307 1095 c
274.33 1015.67 257.33 902.67 256 756 c
299.33 822 352.33 871 415 903 c
477.67 935 543.33 951 612 951 c
732 951 834.17 906.83 918.5 818.5 c
1002.83 730.17 1045 616 1045 476 c
1045 384 1025.17 298.5 985.5 219.5 c
945.83 140.5 891.33 80 822 38 c
752.67 -4 674 -25 586 -25 c
436 -25 313.67 30.17 219 140.5 c
124.33 250.83 77 432.67 77 686 c
77 969.33 129.33 1175.33 234 1304 c
325.33 1416 448.33 1472 603 1472 c
718.33 1472 812.83 1439.67 886.5 1375 c
960.17 1310.33 1004.33 1221 1019 1107 c
closepath 284 475 m
284 413 297.17 353.67 323.5 297 c
349.83 240.33 386.67 197.17 434 167.5 c
481.33 137.83 531 123 583 123 c
659 123 724.33 153.67 779 215 c
833.67 276.33 861 359.67 861 465 c
861 566.33 834 646.17 780 704.5 c
726 762.83 658 792 576 792 c
494.67 792 425.67 762.83 369 704.5 c
312.33 646.17 284 569.67 284 475 c
closepath } bind def
/s55 {
97 1274 m
97 1447 97 1274 97 1447 c
1046 1447 97 1447 1046 1447 c
1046 1307 1046 1447 1046 1307 c
952.67 1207.67 860.17 1075.67 768.5 911 c
676.83 746.33 606 577 556 403 c
520 280.33 497 146 487 0 c
302 0 487 0 302 0 c
304 115.33 326.67 254.67 370 418 c
413.33 581.33 475.5 738.83 556.5 890.5 c
637.5 1042.17 723.67 1170 815 1274 c
97 1274 815 1274 97 1274 c
closepath } bind def
/s56 {
362 795 m
287.33 822.33 232 861.33 196 912 c
160 962.67 142 1023.33 142 1094 c
142 1200.67 180.33 1290.33 257 1363 c
333.67 1435.67 435.67 1472 563 1472 c
691 1472 794 1434.83 872 1360.5 c
950 1286.17 989 1195.67 989 1089 c
989 1021 971.17 961.83 935.5 911.5 c
899.83 861.17 845.67 822.33 773 795 c
863 765.67 931.5 718.33 978.5 653 c
1025.5 587.67 1049 509.67 1049 419 c
1049 293.67 1004.67 188.33 916 103 c
827.33 17.67 710.67 -25 566 -25 c
421.33 -25 304.67 17.83 216 103.5 c
127.33 189.17 83 296 83 424 c
83 519.33 107.17 599.17 155.5 663.5 c
203.83 727.83 272.67 771.67 362 795 c
closepath 326 1100 m
326 1030.67 348.33 974 393 930 c
437.67 886 495.67 864 567 864 c
636.33 864 693.17 885.83 737.5 929.5 c
781.83 973.17 804 1026.67 804 1090 c
804 1156 781.17 1211.5 735.5 1256.5 c
689.83 1301.5 633 1324 565 1324 c
496.33 1324 439.33 1302 394 1258 c
348.67 1214 326 1161.33 326 1100 c
closepath 268 423 m
268 371.67 280.17 322 304.5 274 c
328.83 226 365 188.83 413 162.5 c
461 136.17 512.67 123 568 123 c
654 123 725 150.67 781 206 c
837 261.33 865 331.67 865 417 c
865 503.67 836.17 575.33 778.5 632 c
720.83 688.67 648.67 717 562 717 c
477.33 717 407.17 689 351.5 633 c
295.83 577 268 507 268 423 c
closepath } bind def
/s57 {
112 339 m
285 355 112 339 285 355 c
299.67 273.67 327.67 214.67 369 178 c
410.33 141.33 463.33 123 528 123 c
583.33 123 631.83 135.67 673.5 161 c
715.17 186.33 749.33 220.17 776 262.5 c
802.67 304.83 825 362 843 434 c
861 506 870 579.33 870 654 c
870 662 869.67 674 869 690 c
833 632.67 783.83 586.17 721.5 550.5 c
659.17 514.83 591.67 497 519 497 c
397.67 497 295 541 211 629 c
127 717 85 833 85 977 c
85 1125.67 128.83 1245.33 216.5 1336 c
304.17 1426.67 414 1472 546 1472 c
641.33 1472 728.5 1446.33 807.5 1395 c
886.5 1343.67 946.5 1270.5 987.5 1175.5 c
1028.5 1080.5 1049 943 1049 763 c
1049 575.67 1028.67 426.5 988 315.5 c
947.33 204.5 886.83 120 806.5 62 c
726.17 4 632 -25 524 -25 c
409.33 -25 315.67 6.83 243 70.5 c
170.33 134.17 126.67 223.67 112 339 c
closepath 849 986 m
849 1089.33 821.5 1171.33 766.5 1232 c
711.5 1292.67 645.33 1323 568 1323 c
488 1323 418.33 1290.33 359 1225 c
299.67 1159.67 270 1075 270 971 c
270 877.67 298.17 801.83 354.5 743.5 c
410.83 685.17 480.33 656 563 656 c
646.33 656 714.83 685.17 768.5 743.5 c
822.17 801.83 849 882.67 849 986 c
closepath } bind def
/s78 {
156 0 m
156 1466 156 0 156 1466 c
355 1466 156 1466 355 1466 c
1125 315 355 1466 1125 315 c
1125 1466 1125 315 1125 1466 c
1311 1466 1125 1466 1311 1466 c
1311 0 1311 1466 1311 0 c
1112 0 1311 0 1112 0 c
342 1152 1112 0 342 1152 c
342 0 342 1152 342 0 c
156 0 342 0 156 0 c
closepath } bind def
/s91 {
139 -407 m
139 1466 139 -407 139 1466 c
536 1466 139 1466 536 1466 c
536 1317 536 1466 536 1317 c
319 1317 536 1317 319 1317 c
319 -258 319 1317 319 -258 c
536 -258 319 -258 536 -258 c
536 -407 536 -258 536 -407 c
139 -407 536 -407 139 -407 c
closepath } bind def
/s93 {
436 -407 m
39 -407 436 -407 39 -407 c
39 -258 39 -407 39 -258 c
256 -258 39 -258 256 -258 c
256 1317 256 -258 256 1317 c
39 1317 256 1317 39 1317 c
39 1466 39 1317 39 1466 c
436 1466 39 1466 436 1466 c
436 -407 436 1466 436 -407 c
closepath } bind def
/s97 {
828 131 m
761.33 74.33 697.17 34.33 635.5 11 c
573.83 -12.33 507.67 -24 437 -24 c
320.33 -24 230.67 4.5 168 61.5 c
105.33 118.5 74 191.33 74 280 c
74 332 85.83 379.5 109.5 422.5 c
133.17 465.5 164.17 500 202.5 526 c
240.83 552 284 571.67 332 585 c
367.33 594.33 420.67 603.33 492 612 c
637.33 629.33 744.33 650 813 674 c
813.67 698.67 814 714.33 814 721 c
814 794.33 797 846 763 876 c
717 916.67 648.67 937 558 937 c
473.33 937 410.83 922.17 370.5 892.5 c
330.17 862.83 300.33 810.33 281 735 c
105 759 281 735 105 759 c
121 834.33 147.33 895.17 184 941.5 c
220.67 987.83 273.67 1023.5 343 1048.5 c
412.33 1073.5 492.67 1086 584 1086 c
674.67 1086 748.33 1075.33 805 1054 c
861.67 1032.67 903.33 1005.83 930 973.5 c
956.67 941.17 975.33 900.33 986 851 c
992 820.33 995 765 995 685 c
995 445 995 685 995 445 c
995 277.67 998.83 171.83 1006.5 127.5 c
1014.17 83.17 1029.33 40.67 1052 0 c
864 0 1052 0 864 0 c
845.33 37.33 833.33 81 828 131 c
closepath 813 533 m
747.67 506.33 649.67 483.67 519 465 c
445 454.33 392.67 442.33 362 429 c
331.33 415.67 307.67 396.17 291 370.5 c
274.33 344.83 266 316.33 266 285 c
266 237 284.17 197 320.5 165 c
356.83 133 410 117 480 117 c
549.33 117 611 132.17 665 162.5 c
719 192.83 758.67 234.33 784 287 c
803.33 327.67 813 387.67 813 467 c
813 533 813 467 813 533 c
closepath } bind def
/s101 {
862 342 m
1048 319 862 342 1048 319 c
1018.67 210.33 964.33 126 885 66 c
805.67 6 704.33 -24 581 -24 c
425.67 -24 302.5 23.83 211.5 119.5 c
120.5 215.17 75 349.33 75 522 c
75 700.67 121 839.33 213 938 c
305 1036.67 424.33 1086 571 1086 c
713 1086 829 1037.67 919 941 c
1009 844.33 1054 708.33 1054 533 c
1054 522.33 1053.67 506.33 1053 485 c
261 485 1053 485 261 485 c
267.67 368.33 300.67 279 360 217 c
419.33 155 493.33 124 582 124 c
648 124 704.33 141.33 751 176 c
797.67 210.67 834.67 266 862 342 c
closepath 271 633 m
864 633 271 633 864 633 c
856 722.33 833.33 789.33 796 834 c
738.67 903.33 664.33 938 573 938 c
490.33 938 420.83 910.33 364.5 855 c
308.17 799.67 277 725.67 271 633 c
closepath } bind def
/s102 {
178 0 m
178 922 178 0 178 922 c
19 922 178 922 19 922 c
19 1062 19 922 19 1062 c
178 1062 19 1062 178 1062 c
178 1175 178 1062 178 1175 c
178 1246.33 184.33 1299.33 197 1334 c
214.33 1380.67 244.83 1418.5 288.5 1447.5 c
332.17 1476.5 393.33 1491 472 1491 c
522.67 1491 578.67 1485 640 1473 c
613 1316 640 1473 613 1316 c
575.67 1322.67 540.33 1326 507 1326 c
452.33 1326 413.67 1314.33 391 1291 c
368.33 1267.67 357 1224 357 1160 c
357 1062 357 1160 357 1062 c
564 1062 357 1062 564 1062 c
564 922 564 1062 564 922 c
357 922 564 922 357 922 c
357 0 357 922 357 0 c
178 0 357 0 178 0 c
closepath } bind def
/s103 {
102 -88 m
277 -114 102 -88 277 -114 c
284.33 -168 304.67 -207.33 338 -232 c
382.67 -265.33 443.67 -282 521 -282 c
604.33 -282 668.67 -265.33 714 -232 c
759.33 -198.67 790 -152 806 -92 c
815.33 -55.33 819.67 21.67 819 139 c
740.33 46.33 642.33 0 525 0 c
379 0 266 52.67 186 158 c
106 263.33 66 389.67 66 537 c
66 638.33 84.33 731.83 121 817.5 c
157.67 903.17 210.83 969.33 280.5 1016 c
350.17 1062.67 432 1086 526 1086 c
651.33 1086 754.67 1035.33 836 934 c
836 1062 836 934 836 1062 c
1002 1062 836 1062 1002 1062 c
1002 144 1002 1062 1002 144 c
1002 -21.33 985.17 -138.5 951.5 -207.5 c
917.83 -276.5 864.5 -331 791.5 -371 c
718.5 -411 628.67 -431 522 -431 c
395.33 -431 293 -402.5 215 -345.5 c
137 -288.5 99.33 -202.67 102 -88 c
closepath 251 550 m
251 410.67 278.67 309 334 245 c
389.33 181 458.67 149 542 149 c
624.67 149 694 180.83 750 244.5 c
806 308.17 834 408 834 544 c
834 674 805.17 772 747.5 838 c
689.83 904 620.33 937 539 937 c
459 937 391 904.5 335 839.5 c
279 774.5 251 678 251 550 c
closepath } bind def
/s109 {
135 0 m
135 1062 135 0 135 1062 c
296 1062 135 1062 296 1062 c
296 913 296 1062 296 913 c
329.33 965 373.67 1006.83 429 1038.5 c
484.33 1070.17 547.33 1086 618 1086 c
696.67 1086 761.17 1069.67 811.5 1037 c
861.83 1004.33 897.33 958.67 918 900 c
1002 1024 1111.33 1086 1246 1086 c
1351.33 1086 1432.33 1056.83 1489 998.5 c
1545.67 940.17 1574 850.33 1574 729 c
1574 0 1574 729 1574 0 c
1395 0 1574 0 1395 0 c
1395 669 1395 0 1395 669 c
1395 741 1389.17 792.83 1377.5 824.5 c
1365.83 856.17 1344.67 881.67 1314 901 c
1283.33 920.33 1247.33 930 1206 930 c
1131.33 930 1069.33 905.17 1020 855.5 c
970.67 805.83 946 726.33 946 617 c
946 0 946 617 946 0 c
766 0 946 0 766 0 c
766 690 766 0 766 690 c
766 770 751.33 830 722 870 c
692.67 910 644.67 930 578 930 c
527.33 930 480.5 916.67 437.5 890 c
394.5 863.33 363.33 824.33 344 773 c
324.67 721.67 315 647.67 315 551 c
315 0 315 551 315 0 c
135 0 315 0 135 0 c
closepath } bind def
/s114 {
133 0 m
133 1062 133 0 133 1062 c
295 1062 133 1062 295 1062 c
295 901 295 1062 295 901 c
336.33 976.33 374.5 1026 409.5 1050 c
444.5 1074 483 1086 525 1086 c
585.67 1086 647.33 1066.67 710 1028 c
648 861 710 1028 648 861 c
604 887 560 900 516 900 c
476.67 900 441.33 888.17 410 864.5 c
378.67 840.83 356.33 808 343 766 c
323 702 313 632 313 556 c
313 0 313 556 313 0 c
133 0 313 0 133 0 c
closepath } bind def
/s118 {
430 0 m
26 1062 430 0 26 1062 c
216 1062 26 1062 216 1062 c
444 426 216 1062 444 426 c
468.67 357.33 491.33 286 512 212 c
528 268 550.33 335.33 579 414 c
815 1062 579 414 815 1062 c
1000 1062 815 1062 1000 1062 c
598 0 1000 1062 598 0 c
430 0 598 0 430 0 c
closepath } bind def
end
/BuildGlyph {
 exch dup /Metrics get 2 index get 0 setcharwidth
/CharProcs get exch 2 copy known not{pop/.notdef}if get exec fill}bind def
/BuildChar {
1 index /Encoding get exch get
1 index /BuildGlyph get exec
} bind def
currentdict end /MC1_Arial exch definefont pop
%%EndFont
%%BeginFont: /MC2_Symbol
12 dict begin
/FontInfo 8 dict dup begin
/ItalicAngle 0 def
/UnderlinePosition -223.00 def
/UnderlineThickness 100.00 def
/StrikeoutPosition 530.00 def
/StrikeoutThickness 102.00 def
/isFixedPitch false def
end readonly def
/FontName /MC2_Symbol def
/FontType 3 def
/FontMatrix [1 2048 div 0 0 1 2048 div 0 0] def
/FontBBox [-1 -450 2279 2059] def
/Encoding 256 array def 0 1 255{Encoding exch/.notdef put}for
Encoding 32/s32 put
/BoundingBoxes 3 dict def
BoundingBoxes begin
/s32 [0 -450 512 2059] def
/s61554 [0 -450 0 2059] def
end
/Metrics 3 dict def
 Metrics begin
/s32 512 def
/s61554 0 def
end
/CharProcs 3 dict def
CharProcs begin
/.notdef {} def
/s61554 {
307 55 m
307 -62 307 55 307 -62 c
307 -226.67 296.67 -353.33 276 -442 c
105 -442 276 -442 105 -442 c
119 -399.33 128 -364.67 132 -338 c
138.67 -292.67 142 -235.67 142 -167 c
142 474 142 -167 142 474 c
142 612 185.33 725 272 813 c
358.67 900.33 468 944 600 944 c
750.67 944 865.33 890 944 782 c
1004.67 698 1035 603 1035 497 c
1035 377.67 998 267.67 924 167 c
826 35 702 -31 552 -31 c
498 -31 449 -23 405 -7 c
375.67 4.33 343 25 307 55 c
closepath 307 357 m
307 265.67 315.17 202 331.5 166 c
347.83 130 377.67 99.5 421 74.5 c
464.33 49.5 513.67 37 569 37 c
652.33 37 723 69.67 781 135 c
839 200.33 868 289.33 868 402 c
868 486.67 850.17 565.17 814.5 637.5 c
778.83 709.83 733.33 763.33 678 798 c
622.67 832.67 564.33 850 503 850 c
426.33 850 371.33 820.33 338 761 c
317.33 725.67 307 647.33 307 526 c
307 357 307 526 307 357 c
closepath } bind def
end
/BuildGlyph {
 exch dup /Metrics get 2 index get 0 setcharwidth
/CharProcs get exch 2 copy known not{pop/.notdef}if get exec fill}bind def
/BuildChar {
1 index /Encoding get exch get
1 index /BuildGlyph get exec
} bind def
currentdict end /MC2_Symbol exch definefont pop
%%EndFont
%%BeginFont: /MC3_Arial
12 dict begin
/FontInfo 8 dict dup begin
/ItalicAngle 0 def
/UnderlinePosition -217.00 def
/UnderlineThickness 150.00 def
/StrikeoutPosition 530.00 def
/StrikeoutThickness 102.00 def
/isFixedPitch false def
end readonly def
/FontName /MC3_Arial def
/FontType 3 def
/FontMatrix [1 2048 div 0 0 1 2048 div 0 0] def
/FontBBox [-1361 -665 4096 2129] def
/Encoding 256 array def 0 1 255{Encoding exch/.notdef put}for
Encoding 32/s32 put
Encoding 40/s40 put
Encoding 41/s41 put
Encoding 45/s45 put
Encoding 51/s51 put
Encoding 91/s91 put
Encoding 93/s93 put
Encoding 102/s102 put
Encoding 109/s109 put
Encoding 114/s114 put
/BoundingBoxes 11 dict def
BoundingBoxes begin
/s32 [0 -434 569 1854] def
/s40 [0 -434 682 1854] def
/s41 [0 -434 682 1854] def
/s45 [0 -434 682 1854] def
/s51 [0 -434 1139 1854] def
/s91 [0 -434 569 1854] def
/s93 [0 -434 569 1854] def
/s102 [0 -434 569 1854] def
/s109 [0 -434 1706 1854] def
/s114 [0 -434 682 1854] def
end
/Metrics 11 dict def
 Metrics begin
/s32 569 def
/s40 682 def
/s41 682 def
/s45 682 def
/s51 1139 def
/s91 569 def
/s93 569 def
/s102 569 def
/s109 1706 def
/s114 682 def
end
/CharProcs 11 dict def
CharProcs begin
/.notdef {} def
/s40 {
479 -431 m
379.67 -305.67 295.67 -159 227 9 c
158.33 177 124 351 124 531 c
124 689.67 149.67 841.67 201 987 c
261 1155.67 353.67 1323.67 479 1491 c
608 1491 479 1491 608 1491 c
527.33 1352.33 474 1253.33 448 1194 c
407.33 1102 375.33 1006 352 906 c
323.33 781.33 309 656 309 530 c
309 209.33 408.67 -111 608 -431 c
479 -431 608 -431 479 -431 c
closepath } bind def
/s41 {
253 -431 m
124 -431 253 -431 124 -431 c
323.33 -111 423 209.33 423 530 c
423 655.33 408.67 779.67 380 903 c
357.33 1003 325.67 1099 285 1191 c
259 1251 205.33 1351 124 1491 c
253 1491 124 1491 253 1491 c
378.33 1323.67 471 1155.67 531 987 c
582.33 841.67 608 689.67 608 531 c
608 351 573.5 177 504.5 9 c
435.5 -159 351.67 -305.67 253 -431 c
closepath } bind def
/s45 {
65 440 m
65 621 65 440 65 621 c
618 621 65 621 618 621 c
618 440 618 621 618 440 c
65 440 618 440 65 440 c
closepath } bind def
/s51 {
86 387 m
266 411 86 387 266 411 c
286.67 309 321.83 235.5 371.5 190.5 c
421.17 145.5 481.67 123 553 123 c
637.67 123 709.17 152.33 767.5 211 c
825.83 269.67 855 342.33 855 429 c
855 511.67 828 579.83 774 633.5 c
720 687.17 651.33 714 568 714 c
534 714 491.67 707.33 441 694 c
461 852 441 694 461 852 c
473 850.67 482.67 850 490 850 c
566.67 850 635.67 870 697 910 c
758.33 950 789 1011.67 789 1095 c
789 1161 766.67 1215.67 722 1259 c
677.33 1302.33 619.67 1324 549 1324 c
479 1324 420.67 1302 374 1258 c
327.33 1214 297.33 1148 284 1060 c
104 1092 284 1060 104 1092 c
126 1212.67 176 1306.17 254 1372.5 c
332 1438.83 429 1472 545 1472 c
625 1472 698.67 1454.83 766 1420.5 c
833.33 1386.17 884.83 1339.33 920.5 1280 c
956.17 1220.67 974 1157.67 974 1091 c
974 1027.67 957 970 923 918 c
889 866 838.67 824.67 772 794 c
858.67 774 926 732.5 974 669.5 c
1022 606.5 1046 527.67 1046 433 c
1046 305 999.33 196.5 906 107.5 c
812.67 18.5 694.67 -26 552 -26 c
423.33 -26 316.5 12.33 231.5 89 c
146.5 165.67 98 265 86 387 c
closepath } bind def
/s91 {
139 -407 m
139 1466 139 -407 139 1466 c
536 1466 139 1466 536 1466 c
536 1317 536 1466 536 1317 c
319 1317 536 1317 319 1317 c
319 -258 319 1317 319 -258 c
536 -258 319 -258 536 -258 c
536 -407 536 -258 536 -407 c
139 -407 536 -407 139 -407 c
closepath } bind def
/s93 {
436 -407 m
39 -407 436 -407 39 -407 c
39 -258 39 -407 39 -258 c
256 -258 39 -258 256 -258 c
256 1317 256 -258 256 1317 c
39 1317 256 1317 39 1317 c
39 1466 39 1317 39 1466 c
436 1466 39 1466 436 1466 c
436 -407 436 1466 436 -407 c
closepath } bind def
/s102 {
178 0 m
178 922 178 0 178 922 c
19 922 178 922 19 922 c
19 1062 19 922 19 1062 c
178 1062 19 1062 178 1062 c
178 1175 178 1062 178 1175 c
178 1246.33 184.33 1299.33 197 1334 c
214.33 1380.67 244.83 1418.5 288.5 1447.5 c
332.17 1476.5 393.33 1491 472 1491 c
522.67 1491 578.67 1485 640 1473 c
613 1316 640 1473 613 1316 c
575.67 1322.67 540.33 1326 507 1326 c
452.33 1326 413.67 1314.33 391 1291 c
368.33 1267.67 357 1224 357 1160 c
357 1062 357 1160 357 1062 c
564 1062 357 1062 564 1062 c
564 922 564 1062 564 922 c
357 922 564 922 357 922 c
357 0 357 922 357 0 c
178 0 357 0 178 0 c
closepath } bind def
/s109 {
135 0 m
135 1062 135 0 135 1062 c
296 1062 135 1062 296 1062 c
296 913 296 1062 296 913 c
329.33 965 373.67 1006.83 429 1038.5 c
484.33 1070.17 547.33 1086 618 1086 c
696.67 1086 761.17 1069.67 811.5 1037 c
861.83 1004.33 897.33 958.67 918 900 c
1002 1024 1111.33 1086 1246 1086 c
1351.33 1086 1432.33 1056.83 1489 998.5 c
1545.67 940.17 1574 850.33 1574 729 c
1574 0 1574 729 1574 0 c
1395 0 1574 0 1395 0 c
1395 669 1395 0 1395 669 c
1395 741 1389.17 792.83 1377.5 824.5 c
1365.83 856.17 1344.67 881.67 1314 901 c
1283.33 920.33 1247.33 930 1206 930 c
1131.33 930 1069.33 905.17 1020 855.5 c
970.67 805.83 946 726.33 946 617 c
946 0 946 617 946 0 c
766 0 946 0 766 0 c
766 690 766 0 766 690 c
766 770 751.33 830 722 870 c
692.67 910 644.67 930 578 930 c
527.33 930 480.5 916.67 437.5 890 c
394.5 863.33 363.33 824.33 344 773 c
324.67 721.67 315 647.67 315 551 c
315 0 315 551 315 0 c
135 0 315 0 135 0 c
closepath } bind def
/s114 {
133 0 m
133 1062 133 0 133 1062 c
295 1062 133 1062 295 1062 c
295 901 295 1062 295 901 c
336.33 976.33 374.5 1026 409.5 1050 c
444.5 1074 483 1086 525 1086 c
585.67 1086 647.33 1066.67 710 1028 c
648 861 710 1028 648 861 c
604 887 560 900 516 900 c
476.67 900 441.33 888.17 410 864.5 c
378.67 840.83 356.33 808 343 766 c
323 702 313 632 313 556 c
313 0 313 556 313 0 c
133 0 313 0 133 0 c
closepath } bind def
end
/BuildGlyph {
 exch dup /Metrics get 2 index get 0 setcharwidth
/CharProcs get exch 2 copy known not{pop/.notdef}if get exec fill}bind def
/BuildChar {
1 index /Encoding get exch get
1 index /BuildGlyph get exec
} bind def
currentdict end /MC3_Arial exch definefont pop
%%EndFont
/clipproc{clippath{[{/m cvx}{/l cvx}{/c cvx}{/cp cvx}pathforall}stopped
{cleartomark[pathbbox exch 3 i sub exch 2 i sub/rectpath cvx}if]np}bd
/iclmtx mtx cmtx def/iclpath clipproc xd/clinit{pathproc initclip np iclpath cl np exec}bd
/clmove{pathproc 3 1 roll clippath pathproc 2 i neg 2 i neg tr initclip np exec cl tr np exec}bd
/clrect[gs np iclpath{pathbbox}stopped{0 0 841.92 594.96 }if gr]def
/cloper{mtx cmtx iclmtx smtx exch exec smtx}bd
/cland{{exch cvx exec}cloper}bd
/clcopy{{exch clinit cvx exec}cloper}bd
/cldiff{{exch pathbbox 4 -1 roll clrect 0 get 2 copy gt{exch}if pop 4 1 roll
 3 -1 roll clrect 1 get 2 copy gt{exch}if pop 3 1 roll
 2 -1 roll clrect 2 get 2 copy lt{exch}if pop 2 1 roll
 1 -1 roll clrect 3 get 2 copy lt{exch}if pop 1 1 roll
 exch 3 i sub exch 2 i sub rectpath cvx exec}cloper}bd
/icl{{clinit}cloper}bd
0.472562 0.473792 sc

/initmtx mtx cmtx def
initmtx smtx
[1.0000 0.0000 0.0000 1.0000 0.0000 0.0000 ] concat
 [0.507874 -0 0 -0.506562 0 1255.75] concat
gs
628 2067 m
3020 2067 l
7 sw
1 sj
1 scap
st
696 2067 m
696 2050 l
st
765 2067 m
765 2050 l
st
833 2067 m
833 2050 l
st
901 2067 m
901 2050 l
st
970 2067 m
970 2050 l
st
1038 2067 m
1038 2050 l
st
1106 2067 m
1106 2050 l
st
1175 2067 m
1175 2050 l
st
1243 2067 m
1243 2050 l
st
1380 2067 m
1380 2050 l
st
1448 2067 m
1448 2050 l
st
1516 2067 m
1516 2050 l
st
1585 2067 m
1585 2050 l
st
1653 2067 m
1653 2050 l
st
1721 2067 m
1721 2050 l
st
1790 2067 m
1790 2050 l
st
1858 2067 m
1858 2050 l
st
1927 2067 m
1927 2050 l
st
2063 2067 m
2063 2050 l
st
2132 2067 m
2132 2050 l
st
2200 2067 m
2200 2050 l
st
2268 2067 m
2268 2050 l
st
2337 2067 m
2337 2050 l
st
2405 2067 m
2405 2050 l
st
2473 2067 m
2473 2050 l
st
2542 2067 m
2542 2050 l
st
2610 2067 m
2610 2050 l
st
2747 2067 m
2747 2050 l
st
2815 2067 m
2815 2050 l
st
2883 2067 m
2883 2050 l
st
2952 2067 m
2952 2050 l
st
3020 2067 m
3020 2050 l
st
628 2067 m
628 2033 l
st
1311 2067 m
1311 2033 l
st
1995 2067 m
1995 2033 l
st
2678 2067 m
2678 2033 l
st
628 287 m
3020 287 l
st
696 287 m
696 304 l
st
765 287 m
765 304 l
st
833 287 m
833 304 l
st
901 287 m
901 304 l
st
970 287 m
970 304 l
st
1038 287 m
1038 304 l
st
1106 287 m
1106 304 l
st
1175 287 m
1175 304 l
st
1243 287 m
1243 304 l
st
1380 287 m
1380 304 l
st
1448 287 m
1448 304 l
st
1516 287 m
1516 304 l
st
1585 287 m
1585 304 l
st
1653 287 m
1653 304 l
st
1721 287 m
1721 304 l
st
1790 287 m
1790 304 l
st
1858 287 m
1858 304 l
st
1927 287 m
1927 304 l
st
2063 287 m
2063 304 l
st
2132 287 m
2132 304 l
st
2200 287 m
2200 304 l
st
2268 287 m
2268 304 l
st
2337 287 m
2337 304 l
st
2405 287 m
2405 304 l
st
2473 287 m
2473 304 l
st
2542 287 m
2542 304 l
st
2610 287 m
2610 304 l
st
2747 287 m
2747 304 l
st
2815 287 m
2815 304 l
st
2883 287 m
2883 304 l
st
2952 287 m
2952 304 l
st
3020 287 m
3020 304 l
st
628 287 m
628 321 l
st
1311 287 m
1311 321 l
st
1995 287 m
1995 321 l
st
2678 287 m
2678 321 l
st
628 2067 m
628 287 l
st
628 2035 m
645 2035 l
st
628 2003 m
645 2003 l
st
628 1972 m
645 1972 l
st
628 1908 m
645 1908 l
st
628 1876 m
645 1876 l
st
628 1844 m
645 1844 l
st
628 1781 m
645 1781 l
st
628 1749 m
645 1749 l
st
628 1717 m
645 1717 l
st
628 1654 m
645 1654 l
st
628 1622 m
645 1622 l
st
628 1590 m
645 1590 l
st
628 1527 m
645 1527 l
st
628 1495 m
645 1495 l
st
628 1463 m
645 1463 l
st
628 1399 m
645 1399 l
st
628 1368 m
645 1368 l
st
628 1336 m
645 1336 l
st
628 1272 m
645 1272 l
st
628 1241 m
645 1241 l
st
628 1209 m
645 1209 l
st
628 1145 m
645 1145 l
st
628 1113 m
645 1113 l
st
628 1082 m
645 1082 l
st
628 1018 m
645 1018 l
st
628 986 m
645 986 l
st
628 954 m
645 954 l
st
628 891 m
645 891 l
st
628 859 m
645 859 l
st
628 827 m
645 827 l
st
628 764 m
645 764 l
st
628 732 m
645 732 l
st
628 700 m
645 700 l
st
628 637 m
645 637 l
st
628 605 m
645 605 l
st
628 573 m
645 573 l
st
628 509 m
645 509 l
st
628 478 m
645 478 l
st
628 446 m
645 446 l
st
628 382 m
645 382 l
st
628 350 m
645 350 l
st
628 319 m
645 319 l
st
628 2067 m
662 2067 l
st
628 1940 m
662 1940 l
st
628 1813 m
662 1813 l
st
628 1686 m
662 1686 l
st
628 1558 m
662 1558 l
st
628 1431 m
662 1431 l
st
628 1304 m
662 1304 l
st
628 1177 m
662 1177 l
st
628 1050 m
662 1050 l
st
628 923 m
662 923 l
st
628 795 m
662 795 l
st
628 668 m
662 668 l
st
628 541 m
662 541 l
st
628 414 m
662 414 l
st
3020 2067 m
3020 287 l
st
3020 2035 m
3003 2035 l
st
3020 2003 m
3003 2003 l
st
3020 1972 m
3003 1972 l
st
3020 1908 m
3003 1908 l
st
3020 1876 m
3003 1876 l
st
3020 1844 m
3003 1844 l
st
3020 1781 m
3003 1781 l
st
3020 1749 m
3003 1749 l
st
3020 1717 m
3003 1717 l
st
3020 1654 m
3003 1654 l
st
3020 1622 m
3003 1622 l
st
3020 1590 m
3003 1590 l
st
3020 1527 m
3003 1527 l
st
3020 1495 m
3003 1495 l
st
3020 1463 m
3003 1463 l
st
3020 1399 m
3003 1399 l
st
3020 1368 m
3003 1368 l
st
3020 1336 m
3003 1336 l
st
3020 1272 m
3003 1272 l
st
3020 1241 m
3003 1241 l
st
3020 1209 m
3003 1209 l
st
3020 1145 m
3003 1145 l
st
3020 1113 m
3003 1113 l
st
3020 1082 m
3003 1082 l
st
3020 1018 m
3003 1018 l
st
3020 986 m
3003 986 l
st
3020 954 m
3003 954 l
st
3020 891 m
3003 891 l
st
3020 859 m
3003 859 l
st
3020 827 m
3003 827 l
st
3020 764 m
3003 764 l
st
3020 732 m
3003 732 l
st
3020 700 m
3003 700 l
st
3020 637 m
3003 637 l
st
3020 605 m
3003 605 l
st
3020 573 m
3003 573 l
st
3020 509 m
3003 509 l
st
3020 478 m
3003 478 l
st
3020 446 m
3003 446 l
st
3020 382 m
3003 382 l
st
3020 350 m
3003 350 l
st
3020 319 m
3003 319 l
st
3020 2067 m
2986 2067 l
st
3020 1940 m
2986 1940 l
st
3020 1813 m
2986 1813 l
st
3020 1686 m
2986 1686 l
st
3020 1558 m
2986 1558 l
st
3020 1431 m
2986 1431 l
st
3020 1304 m
2986 1304 l
st
3020 1177 m
2986 1177 l
st
3020 1050 m
2986 1050 l
st
3020 923 m
2986 923 l
st
3020 795 m
2986 795 l
st
3020 668 m
2986 668 l
st
3020 541 m
2986 541 l
st
3020 414 m
2986 414 l
st
gs
gr
gs
gr
gs
1 -1 sc
/MC1_Arial 75 self 607 -2164 m
(0)[42 ] xs
1 -1 sc
gr
gs
gr
gs
gr
gs
1 -1 sc
/MC1_Arial 75 self 1290 -2164 m
(1)[42 ] xs
1 -1 sc
gr
gs
gr
gs
gr
gs
1 -1 sc
/MC1_Arial 75 self 1974 -2164 m
(2)[42 ] xs
1 -1 sc
gr
gs
gr
gs
gr
gs
1 -1 sc
/MC1_Arial 75 self 2657 -2164 m
(3)[42 ] xs
1 -1 sc
gr
gs
gr
gs
gr
gs
1 -1 sc
/MC1_Arial 75 self 443 -2090 m
(0.00)[42 21 42 42 ] xs
1 -1 sc
gr
gs
gr
gs
gr
gs
1 -1 sc
/MC1_Arial 75 self 443 -1963 m
(0.01)[42 21 42 42 ] xs
1 -1 sc
gr
gs
gr
gs
gr
gs
1 -1 sc
/MC1_Arial 75 self 443 -1836 m
(0.02)[42 21 42 42 ] xs
1 -1 sc
gr
gs
gr
gs
gr
gs
1 -1 sc
/MC1_Arial 75 self 443 -1709 m
(0.03)[42 21 42 42 ] xs
1 -1 sc
gr
gs
gr
gs
gr
gs
1 -1 sc
/MC1_Arial 75 self 443 -1581 m
(0.04)[42 21 42 42 ] xs
1 -1 sc
gr
gs
gr
gs
gr
gs
1 -1 sc
/MC1_Arial 75 self 443 -1454 m
(0.05)[42 21 42 42 ] xs
1 -1 sc
gr
gs
gr
gs
gr
gs
1 -1 sc
/MC1_Arial 75 self 443 -1327 m
(0.06)[42 21 42 42 ] xs
1 -1 sc
gr
gs
gr
gs
gr
gs
1 -1 sc
/MC1_Arial 75 self 443 -1200 m
(0.07)[42 21 42 42 ] xs
1 -1 sc
gr
gs
gr
gs
gr
gs
1 -1 sc
/MC1_Arial 75 self 443 -1073 m
(0.08)[42 21 42 42 ] xs
1 -1 sc
gr
gs
gr
gs
gr
gs
1 -1 sc
/MC1_Arial 75 self 443 -946 m
(0.09)[42 21 42 42 ] xs
1 -1 sc
gr
gs
gr
gs
gr
gs
1 -1 sc
/MC1_Arial 75 self 443 -818 m
(0.10)[42 21 42 42 ] xs
1 -1 sc
gr
gs
gr
gs
gr
gs
1 -1 sc
/MC1_Arial 75 self 443 -691 m
(0.11)[42 21 42 42 ] xs
1 -1 sc
gr
gs
gr
gs
gr
gs
1 -1 sc
/MC1_Arial 75 self 443 -564 m
(0.12)[42 21 42 42 ] xs
1 -1 sc
gr
gs
gr
gs
gr
gs
1 -1 sc
/MC1_Arial 75 self 443 -437 m
(0.13)[42 21 42 42 ] xs
1 -1 sc
gr
gs
gr
gs
gr
gs
gr
gs
gr
gs
gr
gs
gr
gs
gr
gs
gr
gs
gr
gs
gr
gs
gr
gs
gr
gs
gr
gs
gr
gs
gr
gs
gr
gs
gr
gs
gr
gs
gr
gs
gr
gs
gr
gs
gr
gs
pathproc 628 287 2393 1781 np rectpath
/eocl cland
np exec
668 487 m
698 517 l
2 sw
0 0 1 rgb
st
698 487 m
668 517 l
st
722 567 m
752 597 l
st
752 567 m
722 597 l
st
777 600 m
807 630 l
st
807 600 m
777 630 l
st
832 668 m
862 698 l
st
862 668 m
832 698 l
st
886 718 m
916 748 l
st
916 718 m
886 748 l
st
941 778 m
971 808 l
st
971 778 m
941 808 l
st
996 826 m
1026 856 l
st
1026 826 m
996 856 l
st
1050 926 m
1080 956 l
st
1080 926 m
1050 956 l
st
1105 995 m
1135 1025 l
st
1135 995 m
1105 1025 l
st
1160 1066 m
1190 1096 l
st
1190 1066 m
1160 1096 l
st
1214 1164 m
1244 1194 l
st
1244 1164 m
1214 1194 l
st
1269 1268 m
1299 1298 l
st
1299 1268 m
1269 1298 l
st
1324 1382 m
1354 1412 l
st
1354 1382 m
1324 1412 l
st
1378 1473 m
1408 1503 l
st
1408 1473 m
1378 1503 l
st
1433 1572 m
1463 1602 l
st
1463 1572 m
1433 1602 l
st
1488 1651 m
1518 1681 l
st
1518 1651 m
1488 1681 l
st
1542 1725 m
1572 1755 l
st
1572 1725 m
1542 1755 l
st
1597 1781 m
1627 1811 l
st
1627 1781 m
1597 1811 l
st
1652 1830 m
1682 1860 l
st
1682 1830 m
1652 1860 l
st
1706 1873 m
1736 1903 l
st
1736 1873 m
1706 1903 l
st
1761 1907 m
1791 1937 l
st
1791 1907 m
1761 1937 l
st
1816 1939 m
1846 1969 l
st
1846 1939 m
1816 1969 l
st
1871 1964 m
1901 1994 l
st
1901 1964 m
1871 1994 l
st
1925 1983 m
1955 2013 l
st
1955 1983 m
1925 2013 l
st
1980 1999 m
2010 2029 l
st
2010 1999 m
1980 2029 l
st
2035 2011 m
2065 2041 l
st
2065 2011 m
2035 2041 l
st
2089 2021 m
2119 2051 l
st
2119 2021 m
2089 2051 l
st
2144 2027 m
2174 2057 l
st
2174 2027 m
2144 2057 l
st
2199 2032 m
2229 2062 l
st
2229 2032 m
2199 2062 l
st
2253 2036 m
2283 2066 l
st
2283 2036 m
2253 2066 l
st
2308 2040 m
2338 2070 l
st
2338 2040 m
2308 2070 l
st
2363 2043 m
2393 2073 l
st
2393 2043 m
2363 2073 l
st
2417 2045 m
2447 2075 l
st
2447 2045 m
2417 2075 l
st
2472 2047 m
2502 2077 l
st
2502 2047 m
2472 2077 l
st
2527 2049 m
2557 2079 l
st
2557 2049 m
2527 2079 l
st
2581 2050 m
2611 2080 l
st
2611 2050 m
2581 2080 l
st
2636 2050 m
2666 2080 l
st
2666 2050 m
2636 2080 l
st
2691 2051 m
2721 2081 l
st
2721 2051 m
2691 2081 l
st
2745 2051 m
2775 2081 l
st
2775 2051 m
2745 2081 l
st
2800 2051 m
2830 2081 l
st
2830 2051 m
2800 2081 l
st
2855 2052 m
2885 2082 l
st
2885 2052 m
2855 2082 l
st
2909 2052 m
2939 2082 l
st
2939 2052 m
2909 2082 l
st
2964 2052 m
2994 2082 l
st
2994 2052 m
2964 2082 l
st
3019 2052 m
3049 2082 l
st
3049 2052 m
3019 2082 l
st
gr
gs
pathproc 628 287 2393 1781 np rectpath
/eocl cland
np exec
np
683 684 14 0 360  a
cp
gs
1 1 1 rgb
eofi
gr
2 sw
0 1 0 rgb
st
np
737 741 14 0 360  a
cp
gs
1 1 1 rgb
eofi
gr
st
np
792 752 14 0 360  a
cp
gs
1 1 1 rgb
eofi
gr
st
np
847 760 14 0 360  a
cp
gs
1 1 1 rgb
eofi
gr
st
np
901 828 14 0 360  a
cp
gs
1 1 1 rgb
eofi
gr
st
np
956 874 14 0 360  a
cp
gs
1 1 1 rgb
eofi
gr
st
np
1011 923 14 0 360  a
cp
gs
1 1 1 rgb
eofi
gr
st
np
1065 993 14 0 360  a
cp
gs
1 1 1 rgb
eofi
gr
st
np
1120 1064 14 0 360  a
cp
gs
1 1 1 rgb
eofi
gr
st
np
1175 1147 14 0 360  a
cp
gs
1 1 1 rgb
eofi
gr
st
np
1229 1239 14 0 360  a
cp
gs
1 1 1 rgb
eofi
gr
st
np
1284 1331 14 0 360  a
cp
gs
1 1 1 rgb
eofi
gr
st
np
1339 1423 14 0 360  a
cp
gs
1 1 1 rgb
eofi
gr
st
np
1393 1508 14 0 360  a
cp
gs
1 1 1 rgb
eofi
gr
st
np
1448 1588 14 0 360  a
cp
gs
1 1 1 rgb
eofi
gr
st
np
1503 1655 14 0 360  a
cp
gs
1 1 1 rgb
eofi
gr
st
np
1557 1718 14 0 360  a
cp
gs
1 1 1 rgb
eofi
gr
st
np
1612 1774 14 0 360  a
cp
gs
1 1 1 rgb
eofi
gr
st
np
1667 1829 14 0 360  a
cp
gs
1 1 1 rgb
eofi
gr
st
np
1721 1873 14 0 360  a
cp
gs
1 1 1 rgb
eofi
gr
st
np
1776 1907 14 0 360  a
cp
gs
1 1 1 rgb
eofi
gr
st
np
1831 1936 14 0 360  a
cp
gs
1 1 1 rgb
eofi
gr
st
np
1886 1965 14 0 360  a
cp
gs
1 1 1 rgb
eofi
gr
st
np
1940 1985 14 0 360  a
cp
gs
1 1 1 rgb
eofi
gr
st
np
1995 2006 14 0 360  a
cp
gs
1 1 1 rgb
eofi
gr
st
np
2050 2021 14 0 360  a
cp
gs
1 1 1 rgb
eofi
gr
st
np
2104 2031 14 0 360  a
cp
gs
1 1 1 rgb
eofi
gr
st
np
2159 2041 14 0 360  a
cp
gs
1 1 1 rgb
eofi
gr
st
np
2214 2048 14 0 360  a
cp
gs
1 1 1 rgb
eofi
gr
st
np
2268 2054 14 0 360  a
cp
gs
1 1 1 rgb
eofi
gr
st
np
2323 2057 14 0 360  a
cp
gs
1 1 1 rgb
eofi
gr
st
np
2378 2060 14 0 360  a
cp
gs
1 1 1 rgb
eofi
gr
st
np
2432 2062 14 0 360  a
cp
gs
1 1 1 rgb
eofi
gr
st
np
2487 2064 14 0 360  a
cp
gs
1 1 1 rgb
eofi
gr
st
np
2542 2065 14 0 360  a
cp
gs
1 1 1 rgb
eofi
gr
st
np
2596 2066 14 0 360  a
cp
gs
1 1 1 rgb
eofi
gr
st
np
2651 2066 14 0 360  a
cp
gs
1 1 1 rgb
eofi
gr
st
np
2706 2066 14 0 360  a
cp
gs
1 1 1 rgb
eofi
gr
st
np
2760 2067 14 0 360  a
cp
gs
1 1 1 rgb
eofi
gr
st
np
2815 2067 14 0 360  a
cp
gs
1 1 1 rgb
eofi
gr
st
np
2870 2067 14 0 360  a
cp
gs
1 1 1 rgb
eofi
gr
st
np
2924 2067 14 0 360  a
cp
gs
1 1 1 rgb
eofi
gr
st
np
2979 2067 14 0 360  a
cp
gs
1 1 1 rgb
eofi
gr
st
np
3034 2067 14 0 360  a
cp
gs
1 1 1 rgb
eofi
gr
st
gr
gs
pathproc 628 287 2393 1781 np rectpath
/eocl cland
np exec
683 397 m
683 423 l
2 sw
1 0 0 rgb
st
670 410 m
696 410 l
st
737 441 m
737 467 l
st
724 454 m
750 454 l
st
792 518 m
792 544 l
st
779 531 m
805 531 l
st
847 617 m
847 643 l
st
834 630 m
860 630 l
st
901 637 m
901 663 l
st
888 650 m
914 650 l
st
956 660 m
956 686 l
st
943 673 m
969 673 l
st
1011 744 m
1011 770 l
st
998 757 m
1024 757 l
st
1065 819 m
1065 845 l
st
1052 832 m
1078 832 l
st
1120 914 m
1120 940 l
st
1107 927 m
1133 927 l
st
1175 1043 m
1175 1069 l
st
1162 1056 m
1188 1056 l
st
1229 1171 m
1229 1197 l
st
1216 1184 m
1242 1184 l
st
1284 1279 m
1284 1305 l
st
1271 1292 m
1297 1292 l
st
1339 1379 m
1339 1405 l
st
1326 1392 m
1352 1392 l
st
1393 1474 m
1393 1500 l
st
1380 1487 m
1406 1487 l
st
1448 1562 m
1448 1588 l
st
1435 1575 m
1461 1575 l
st
1503 1646 m
1503 1672 l
st
1490 1659 m
1516 1659 l
st
1557 1713 m
1557 1739 l
st
1544 1726 m
1570 1726 l
st
1612 1776 m
1612 1802 l
st
1599 1789 m
1625 1789 l
st
1667 1831 m
1667 1857 l
st
1654 1844 m
1680 1844 l
st
1721 1878 m
1721 1904 l
st
1708 1891 m
1734 1891 l
st
1776 1916 m
1776 1942 l
st
1763 1929 m
1789 1929 l
st
1831 1947 m
1831 1973 l
st
1818 1960 m
1844 1960 l
st
1886 1971 m
1886 1997 l
st
1873 1984 m
1899 1984 l
st
1940 1991 m
1940 2017 l
st
1927 2004 m
1953 2004 l
st
1995 2006 m
1995 2032 l
st
1982 2019 m
2008 2019 l
st
2050 2015 m
2050 2041 l
st
2037 2028 m
2063 2028 l
st
2104 2024 m
2104 2050 l
st
2091 2037 m
2117 2037 l
st
2159 2033 m
2159 2059 l
st
2146 2046 m
2172 2046 l
st
2214 2038 m
2214 2064 l
st
2201 2051 m
2227 2051 l
st
2268 2042 m
2268 2068 l
st
2255 2055 m
2281 2055 l
st
2323 2045 m
2323 2071 l
st
2310 2058 m
2336 2058 l
st
2378 2047 m
2378 2073 l
st
2365 2060 m
2391 2060 l
st
2432 2049 m
2432 2075 l
st
2419 2062 m
2445 2062 l
st
2487 2050 m
2487 2076 l
st
2474 2063 m
2500 2063 l
st
2542 2052 m
2542 2078 l
st
2529 2065 m
2555 2065 l
st
2596 2053 m
2596 2079 l
st
2583 2066 m
2609 2066 l
st
2651 2053 m
2651 2079 l
st
2638 2066 m
2664 2066 l
st
2706 2053 m
2706 2079 l
st
2693 2066 m
2719 2066 l
st
2760 2053 m
2760 2079 l
st
2747 2066 m
2773 2066 l
st
2815 2054 m
2815 2080 l
st
2802 2067 m
2828 2067 l
st
2870 2054 m
2870 2080 l
st
2857 2067 m
2883 2067 l
st
2924 2054 m
2924 2080 l
st
2911 2067 m
2937 2067 l
st
2979 2054 m
2979 2080 l
st
2966 2067 m
2992 2067 l
st
3034 2054 m
3034 2080 l
st
3021 2067 m
3047 2067 l
st
gr
gs
pathproc 628 287 2393 1781 np rectpath
/eocl cland
np exec
683 314 m
683 398 l
3 sw
1 0 0 rgb
st
677 314 m
689 314 l
st
683 506 m
683 422 l
st
677 506 m
689 506 l
st
737 392 m
737 442 l
st
731 392 m
743 392 l
st
737 516 m
737 466 l
st
731 516 m
743 516 l
st
792 489 m
792 519 l
st
786 489 m
798 489 l
st
792 573 m
792 543 l
st
786 573 m
798 573 l
st
847 598 m
847 618 l
st
841 598 m
853 598 l
st
847 662 m
847 642 l
st
841 662 m
853 662 l
st
901 625 m
901 638 l
st
895 625 m
907 625 l
st
901 674 m
901 662 l
st
895 674 m
907 674 l
st
956 652 m
956 661 l
st
950 652 m
962 652 l
st
956 694 m
956 685 l
st
950 694 m
962 694 l
st
1011 738 m
1011 745 l
st
1005 738 m
1017 738 l
st
1011 775 m
1011 769 l
st
1005 775 m
1017 775 l
st
1065 816 m
1065 820 l
st
1059 816 m
1071 816 l
st
1065 847 m
1065 844 l
st
1059 847 m
1071 847 l
st
1120 913 m
1120 915 l
st
1114 913 m
1126 913 l
st
1120 941 m
1120 939 l
st
1114 941 m
1126 941 l
st
1175 1044 m
1175 1044 l
st
1169 1044 m
1181 1044 l
st
1175 1068 m
1175 1068 l
st
1169 1068 m
1181 1068 l
st
1229 1174 m
1229 1172 l
st
1223 1174 m
1235 1174 l
st
1229 1194 m
1229 1196 l
st
1223 1194 m
1235 1194 l
st
1284 1283 m
1284 1280 l
st
1278 1283 m
1290 1283 l
st
1284 1300 m
1284 1304 l
st
1278 1300 m
1290 1300 l
st
1339 1385 m
1339 1380 l
st
1333 1385 m
1345 1385 l
st
1339 1399 m
1339 1404 l
st
1333 1399 m
1345 1399 l
st
1393 1481 m
1393 1475 l
st
1387 1481 m
1399 1481 l
st
1393 1493 m
1393 1499 l
st
1387 1493 m
1399 1493 l
st
1448 1569 m
1448 1563 l
st
1442 1569 m
1454 1569 l
st
1448 1581 m
1448 1587 l
st
1442 1581 m
1454 1581 l
st
1503 1654 m
1503 1647 l
st
1497 1654 m
1509 1654 l
st
1503 1664 m
1503 1671 l
st
1497 1664 m
1509 1664 l
st
1557 1722 m
1557 1714 l
st
1551 1722 m
1563 1722 l
st
1557 1730 m
1557 1738 l
st
1551 1730 m
1563 1730 l
st
1612 1786 m
1612 1777 l
st
1606 1786 m
1618 1786 l
st
1612 1793 m
1612 1801 l
st
1606 1793 m
1618 1793 l
st
1667 1841 m
1667 1832 l
st
1661 1841 m
1673 1841 l
st
1667 1847 m
1667 1856 l
st
1661 1847 m
1673 1847 l
st
1721 1888 m
1721 1879 l
st
1715 1888 m
1727 1888 l
st
1721 1893 m
1721 1903 l
st
1715 1893 m
1727 1893 l
st
1776 1927 m
1776 1917 l
st
1770 1927 m
1782 1927 l
st
1776 1932 m
1776 1941 l
st
1770 1932 m
1782 1932 l
st
1831 1958 m
1831 1948 l
st
1825 1958 m
1837 1958 l
st
1831 1961 m
1831 1972 l
st
1825 1961 m
1837 1961 l
st
1886 1982 m
1886 1972 l
st
1880 1982 m
1892 1982 l
st
1886 1986 m
1886 1996 l
st
1880 1986 m
1892 1986 l
st
1940 2002 m
1940 1992 l
st
1934 2002 m
1946 2002 l
st
1940 2005 m
1940 2016 l
st
1934 2005 m
1946 2005 l
st
1995 2018 m
1995 2007 l
st
1989 2018 m
2001 2018 l
st
1995 2020 m
1995 2031 l
st
1989 2020 m
2001 2020 l
st
2050 2027 m
2050 2016 l
st
2044 2027 m
2056 2027 l
st
2050 2029 m
2050 2040 l
st
2044 2029 m
2056 2029 l
st
2104 2037 m
2104 2049 l
st
2098 2037 m
2110 2037 l
st
2104 2038 m
2104 2049 l
st
2098 2038 m
2110 2038 l
st
2159 2045 m
2159 2034 l
st
2153 2045 m
2165 2045 l
st
2159 2047 m
2159 2058 l
st
2153 2047 m
2165 2047 l
st
2214 2050 m
2214 2039 l
st
2208 2050 m
2220 2050 l
st
2214 2051 m
2214 2063 l
st
2208 2051 m
2220 2051 l
st
2268 2054 m
2268 2043 l
st
2262 2054 m
2274 2054 l
st
2268 2055 m
2268 2067 l
st
2262 2055 m
2274 2055 l
st
2323 2058 m
2323 2070 l
st
2317 2058 m
2329 2058 l
st
2323 2058 m
2323 2070 l
st
2317 2058 m
2329 2058 l
st
2378 2060 m
2378 2072 l
st
2372 2060 m
2384 2060 l
st
2378 2061 m
2378 2072 l
st
2372 2061 m
2384 2061 l
st
2432 2061 m
2432 2050 l
st
2426 2061 m
2438 2061 l
st
2432 2062 m
2432 2074 l
st
2426 2062 m
2438 2062 l
st
2487 2063 m
2487 2075 l
st
2481 2063 m
2493 2063 l
st
2487 2063 m
2487 2075 l
st
2481 2063 m
2493 2063 l
st
2542 2065 m
2542 2077 l
st
2536 2065 m
2548 2065 l
st
2542 2065 m
2542 2077 l
st
2536 2065 m
2548 2065 l
st
2596 2065 m
2596 2054 l
st
2590 2065 m
2602 2065 l
st
2596 2066 m
2596 2078 l
st
2590 2066 m
2602 2066 l
st
2651 2066 m
2651 2078 l
st
2645 2066 m
2657 2066 l
st
2651 2066 m
2651 2078 l
st
2645 2066 m
2657 2066 l
st
2706 2066 m
2706 2078 l
st
2700 2066 m
2712 2066 l
st
2706 2066 m
2706 2078 l
st
2700 2066 m
2712 2066 l
st
2760 2066 m
2760 2078 l
st
2754 2066 m
2766 2066 l
st
2760 2067 m
2760 2078 l
st
2754 2067 m
2766 2067 l
st
2815 2067 m
2815 2079 l
st
2809 2067 m
2821 2067 l
st
2815 2067 m
2815 2079 l
st
2809 2067 m
2821 2067 l
st
2870 2067 m
2870 2079 l
st
2864 2067 m
2876 2067 l
st
2870 2067 m
2870 2079 l
st
2864 2067 m
2876 2067 l
st
2924 2067 m
2924 2079 l
st
2918 2067 m
2930 2067 l
st
2924 2067 m
2924 2079 l
st
2918 2067 m
2930 2067 l
st
2979 2067 m
2979 2079 l
st
2973 2067 m
2985 2067 l
st
2979 2067 m
2979 2079 l
st
2973 2067 m
2985 2067 l
st
3034 2067 m
3034 2079 l
st
3028 2067 m
3040 2067 l
st
3034 2067 m
3034 2079 l
st
3028 2067 m
3040 2067 l
st
gr
gs
pathproc 628 287 2393 1781 np rectpath
/eocl cland
np exec
683 616 m
683 671 l
3 sw
0 1 0 rgb
st
677 616 m
689 616 l
st
683 751 m
683 697 l
st
677 751 m
689 751 l
st
737 700 m
737 728 l
st
731 700 m
743 700 l
st
737 782 m
737 754 l
st
731 782 m
743 782 l
st
792 720 m
792 739 l
st
786 720 m
798 720 l
st
792 783 m
792 765 l
st
786 783 m
798 783 l
st
847 734 m
847 747 l
st
841 734 m
853 734 l
st
847 786 m
847 773 l
st
841 786 m
853 786 l
st
901 808 m
901 815 l
st
895 808 m
907 808 l
st
901 848 m
901 841 l
st
895 848 m
907 848 l
st
956 857 m
956 861 l
st
950 857 m
962 857 l
st
956 890 m
956 887 l
st
950 890 m
962 890 l
st
1011 909 m
1011 910 l
st
1005 909 m
1017 909 l
st
1011 938 m
1011 936 l
st
1005 938 m
1017 938 l
st
1065 981 m
1065 980 l
st
1059 981 m
1071 981 l
st
1065 1006 m
1065 1006 l
st
1059 1006 m
1071 1006 l
st
1120 1053 m
1120 1051 l
st
1114 1053 m
1126 1053 l
st
1120 1074 m
1120 1077 l
st
1114 1074 m
1126 1074 l
st
1175 1138 m
1175 1134 l
st
1169 1138 m
1181 1138 l
st
1175 1156 m
1175 1160 l
st
1169 1156 m
1181 1156 l
st
1229 1231 m
1229 1226 l
st
1223 1231 m
1235 1231 l
st
1229 1247 m
1229 1252 l
st
1223 1247 m
1235 1247 l
st
1284 1324 m
1284 1318 l
st
1278 1324 m
1290 1324 l
st
1284 1338 m
1284 1344 l
st
1278 1338 m
1290 1338 l
st
1339 1418 m
1339 1410 l
st
1333 1418 m
1345 1418 l
st
1339 1429 m
1339 1436 l
st
1333 1429 m
1345 1429 l
st
1393 1502 m
1393 1495 l
st
1387 1502 m
1399 1502 l
st
1393 1513 m
1393 1521 l
st
1387 1513 m
1399 1513 l
st
1448 1583 m
1448 1575 l
st
1442 1583 m
1454 1583 l
st
1448 1593 m
1448 1601 l
st
1442 1593 m
1454 1593 l
st
1503 1651 m
1503 1642 l
st
1497 1651 m
1509 1651 l
st
1503 1660 m
1503 1668 l
st
1497 1660 m
1509 1660 l
st
1557 1714 m
1557 1705 l
st
1551 1714 m
1563 1714 l
st
1557 1722 m
1557 1731 l
st
1551 1722 m
1563 1722 l
st
1612 1770 m
1612 1761 l
st
1606 1770 m
1618 1770 l
st
1612 1777 m
1612 1787 l
st
1606 1777 m
1618 1777 l
st
1667 1826 m
1667 1816 l
st
1661 1826 m
1673 1826 l
st
1667 1832 m
1667 1842 l
st
1661 1832 m
1673 1832 l
st
1721 1870 m
1721 1860 l
st
1715 1870 m
1727 1870 l
st
1721 1875 m
1721 1886 l
st
1715 1875 m
1727 1875 l
st
1776 1904 m
1776 1894 l
st
1770 1904 m
1782 1904 l
st
1776 1909 m
1776 1920 l
st
1770 1909 m
1782 1909 l
st
1831 1934 m
1831 1923 l
st
1825 1934 m
1837 1934 l
st
1831 1938 m
1831 1949 l
st
1825 1938 m
1837 1938 l
st
1886 1963 m
1886 1952 l
st
1880 1963 m
1892 1963 l
st
1886 1966 m
1886 1978 l
st
1880 1966 m
1892 1966 l
st
1940 1984 m
1940 1972 l
st
1934 1984 m
1946 1984 l
st
1940 1987 m
1940 1998 l
st
1934 1987 m
1946 1987 l
st
1995 2004 m
1995 1993 l
st
1989 2004 m
2001 2004 l
st
1995 2007 m
1995 2019 l
st
1989 2007 m
2001 2007 l
st
2050 2020 m
2050 2008 l
st
2044 2020 m
2056 2020 l
st
2050 2022 m
2050 2034 l
st
2044 2022 m
2056 2022 l
st
2104 2030 m
2104 2018 l
st
2098 2030 m
2110 2030 l
st
2104 2033 m
2104 2044 l
st
2098 2033 m
2110 2033 l
st
2159 2040 m
2159 2028 l
st
2153 2040 m
2165 2040 l
st
2159 2042 m
2159 2054 l
st
2153 2042 m
2165 2042 l
st
2214 2047 m
2214 2035 l
st
2208 2047 m
2220 2047 l
st
2214 2049 m
2214 2061 l
st
2208 2049 m
2220 2049 l
st
2268 2054 m
2268 2067 l
st
2262 2054 m
2274 2054 l
st
2268 2055 m
2268 2067 l
st
2262 2055 m
2274 2055 l
st
2323 2056 m
2323 2044 l
st
2317 2056 m
2329 2056 l
st
2323 2058 m
2323 2070 l
st
2317 2058 m
2329 2058 l
st
2378 2059 m
2378 2047 l
st
2372 2059 m
2384 2059 l
st
2378 2061 m
2378 2073 l
st
2372 2061 m
2384 2061 l
st
2432 2061 m
2432 2049 l
st
2426 2061 m
2438 2061 l
st
2432 2062 m
2432 2075 l
st
2426 2062 m
2438 2062 l
st
2487 2063 m
2487 2051 l
st
2481 2063 m
2493 2063 l
st
2487 2064 m
2487 2077 l
st
2481 2064 m
2493 2064 l
st
2542 2064 m
2542 2052 l
st
2536 2064 m
2548 2064 l
st
2542 2065 m
2542 2078 l
st
2536 2065 m
2548 2065 l
st
2596 2065 m
2596 2053 l
st
2590 2065 m
2602 2065 l
st
2596 2066 m
2596 2079 l
st
2590 2066 m
2602 2066 l
st
2651 2066 m
2651 2079 l
st
2645 2066 m
2657 2066 l
st
2651 2066 m
2651 2079 l
st
2645 2066 m
2657 2066 l
st
2706 2066 m
2706 2079 l
st
2700 2066 m
2712 2066 l
st
2706 2067 m
2706 2079 l
st
2700 2067 m
2712 2067 l
st
2760 2066 m
2760 2054 l
st
2754 2066 m
2766 2066 l
st
2760 2067 m
2760 2080 l
st
2754 2067 m
2766 2067 l
st
2870 2067 m
2870 2080 l
st
2864 2067 m
2876 2067 l
st
2870 2067 m
2870 2080 l
st
2864 2067 m
2876 2067 l
st
2924 2066 m
2924 2054 l
st
2918 2066 m
2930 2066 l
st
2924 2067 m
2924 2080 l
st
2918 2067 m
2930 2067 l
st
2979 2066 m
2979 2054 l
st
2973 2066 m
2985 2066 l
st
2979 2067 m
2979 2080 l
st
2973 2067 m
2985 2067 l
st
3034 2067 m
3034 2080 l
st
3028 2067 m
3040 2067 l
st
3034 2067 m
3034 2080 l
st
3028 2067 m
3040 2067 l
st
gr
gs
pathproc 628 287 2393 1781 np rectpath
/eocl cland
np exec
683 532 m
696 547 l
5 sw
st
712 565 m
725 580 l
st
743 597 m
759 609 l
st
778 623 m
792 633 l
st
808 650 m
822 665 l
st
838 682 m
853 696 l
st
871 711 m
886 724 l
st
904 739 m
920 752 l
st
938 766 m
954 778 l
st
970 795 m
983 810 l
st
999 827 m
1014 844 l
st
1026 863 m
1037 880 l
st
1050 899 m
1061 916 l
st
1074 935 m
1086 952 l
st
1099 970 m
1111 987 l
st
1124 1007 m
1134 1024 l
st
1145 1044 m
1156 1062 l
st
1167 1082 m
1177 1099 l
st
1188 1120 m
1197 1138 l
st
1207 1158 m
1216 1176 l
st
1227 1197 m
1236 1214 l
st
1248 1235 m
1257 1252 l
st
1268 1273 m
1277 1290 l
st
1289 1311 m
1298 1328 l
st
1309 1349 m
1319 1366 l
st
1330 1387 m
1339 1404 l
st
1351 1424 m
1361 1441 l
st
1373 1461 m
1383 1478 l
st
1395 1497 m
1405 1514 l
st
1418 1534 m
1428 1551 l
st
1441 1571 m
1451 1587 l
st
1464 1606 m
1476 1622 l
st
1489 1641 m
1502 1658 l
st
1516 1676 m
1528 1691 l
st
1543 1710 m
1555 1725 l
st
1570 1742 m
1584 1757 l
st
1601 1774 m
1614 1788 l
st
1631 1804 m
1645 1818 l
st
1662 1834 m
1678 1848 l
st
1696 1863 m
1711 1876 l
st
1731 1890 m
1747 1901 l
st
1767 1913 m
1784 1924 l
st
1805 1935 m
1822 1945 l
st
1843 1956 m
1861 1964 l
st
1882 1974 m
1901 1982 l
st
1922 1989 m
1941 1996 l
st
1963 2003 m
1983 2009 l
st
2005 2015 m
2025 2020 l
st
2047 2024 m
2067 2028 l
st
2089 2032 m
2109 2036 l
st
2132 2039 m
2152 2042 l
st
2175 2045 m
2195 2047 l
st
2218 2049 m
2237 2051 l
st
2260 2052 m
2280 2054 l
st
2303 2056 m
2323 2057 l
st
2346 2058 m
2366 2059 l
st
2389 2059 m
2409 2060 l
st
2432 2061 m
2452 2062 l
st
2475 2063 m
2495 2063 l
st
2518 2064 m
2538 2064 l
st
2561 2064 m
2581 2065 l
st
2604 2065 m
2624 2066 l
st
2647 2066 m
2667 2066 l
st
2690 2066 m
2710 2066 l
st
2733 2066 m
2753 2066 l
st
2776 2066 m
2796 2067 l
st
2819 2067 m
2839 2067 l
st
2862 2067 m
2882 2067 l
st
2905 2067 m
2925 2067 l
st
2948 2067 m
2968 2067 l
st
2991 2067 m
3011 2067 l
st
3033 2067 m
gr
gs
pathproc 628 287 2393 1781 np rectpath
/eocl cland
np exec
683 404 m
683 489 l
3 sw
0 0 1 rgb
st
666 404 m
700 404 l
st
683 600 m
683 515 l
st
666 600 m
700 600 l
st
737 518 m
737 569 l
st
720 518 m
754 518 l
st
737 647 m
737 595 l
st
720 647 m
754 647 l
st
792 570 m
792 602 l
st
775 570 m
809 570 l
st
792 661 m
792 628 l
st
775 661 m
809 661 l
st
847 648 m
847 670 l
st
830 648 m
864 648 l
st
847 719 m
847 696 l
st
830 719 m
864 719 l
st
901 703 m
901 720 l
st
884 703 m
918 703 l
st
901 764 m
901 746 l
st
884 764 m
918 764 l
st
956 768 m
956 780 l
st
939 768 m
973 768 l
st
956 817 m
956 806 l
st
939 817 m
973 817 l
st
1011 820 m
1011 828 l
st
994 820 m
1028 820 l
st
1011 862 m
1011 854 l
st
994 862 m
1028 862 l
st
1065 923 m
1065 928 l
st
1048 923 m
1082 923 l
st
1065 959 m
1065 954 l
st
1048 959 m
1082 959 l
st
1120 996 m
1120 997 l
st
1103 996 m
1137 996 l
st
1120 1024 m
1120 1023 l
st
1103 1024 m
1137 1024 l
st
1175 1070 m
1175 1068 l
st
1158 1070 m
1192 1070 l
st
1175 1093 m
1175 1094 l
st
1158 1093 m
1192 1093 l
st
1229 1169 m
1229 1166 l
st
1212 1169 m
1246 1169 l
st
1229 1190 m
1229 1192 l
st
1212 1190 m
1246 1190 l
st
1284 1274 m
1284 1270 l
st
1267 1274 m
1301 1274 l
st
1284 1292 m
1284 1296 l
st
1267 1292 m
1301 1292 l
st
1339 1390 m
1339 1384 l
st
1322 1390 m
1356 1390 l
st
1339 1404 m
1339 1410 l
st
1322 1404 m
1356 1404 l
st
1393 1481 m
1393 1475 l
st
1376 1481 m
1410 1481 l
st
1393 1494 m
1393 1501 l
st
1376 1494 m
1410 1494 l
st
1448 1581 m
1448 1574 l
st
1431 1581 m
1465 1581 l
st
1448 1592 m
1448 1600 l
st
1431 1592 m
1465 1592 l
st
1503 1661 m
1503 1653 l
st
1486 1661 m
1520 1661 l
st
1503 1671 m
1503 1679 l
st
1486 1671 m
1520 1671 l
st
1557 1736 m
1557 1727 l
st
1540 1736 m
1574 1736 l
st
1557 1744 m
1557 1753 l
st
1540 1744 m
1574 1744 l
st
1612 1792 m
1612 1783 l
st
1595 1792 m
1629 1792 l
st
1612 1799 m
1612 1809 l
st
1595 1799 m
1629 1799 l
st
1667 1842 m
1667 1832 l
st
1650 1842 m
1684 1842 l
st
1667 1848 m
1667 1858 l
st
1650 1848 m
1684 1848 l
st
1721 1886 m
1721 1875 l
st
1704 1886 m
1738 1886 l
st
1721 1891 m
1721 1901 l
st
1704 1891 m
1738 1891 l
st
1776 1920 m
1776 1909 l
st
1759 1920 m
1793 1920 l
st
1776 1924 m
1776 1935 l
st
1759 1924 m
1793 1924 l
st
1831 1951 m
1831 1941 l
st
1814 1951 m
1848 1951 l
st
1831 1956 m
1831 1967 l
st
1814 1956 m
1848 1956 l
st
1886 1977 m
1886 1966 l
st
1869 1977 m
1903 1977 l
st
1886 1981 m
1886 1992 l
st
1869 1981 m
1903 1981 l
st
1940 1997 m
1940 1985 l
st
1923 1997 m
1957 1997 l
st
1940 2000 m
1940 2011 l
st
1923 2000 m
1957 2000 l
st
1995 2013 m
1995 2001 l
st
1978 2013 m
2012 2013 l
st
1995 2016 m
1995 2027 l
st
1978 2016 m
2012 2016 l
st
2050 2025 m
2050 2013 l
st
2033 2025 m
2067 2025 l
st
2050 2027 m
2050 2039 l
st
2033 2027 m
2067 2027 l
st
2104 2035 m
2104 2023 l
st
2087 2035 m
2121 2035 l
st
2104 2037 m
2104 2049 l
st
2087 2037 m
2121 2037 l
st
2159 2041 m
2159 2029 l
st
2142 2041 m
2176 2041 l
st
2159 2043 m
2159 2055 l
st
2142 2043 m
2176 2043 l
st
2214 2046 m
2214 2034 l
st
2197 2046 m
2231 2046 l
st
2214 2047 m
2214 2060 l
st
2197 2047 m
2231 2047 l
st
2268 2050 m
2268 2038 l
st
2251 2050 m
2285 2050 l
st
2268 2051 m
2268 2064 l
st
2251 2051 m
2285 2051 l
st
2323 2055 m
2323 2068 l
st
2306 2055 m
2340 2055 l
st
2323 2055 m
2323 2068 l
st
2306 2055 m
2340 2055 l
st
2378 2057 m
2378 2045 l
st
2361 2057 m
2395 2057 l
st
2378 2058 m
2378 2071 l
st
2361 2058 m
2395 2058 l
st
2432 2060 m
2432 2073 l
st
2415 2060 m
2449 2060 l
st
2432 2060 m
2432 2073 l
st
2415 2060 m
2449 2060 l
st
2487 2062 m
2487 2075 l
st
2470 2062 m
2504 2062 l
st
2487 2062 m
2487 2075 l
st
2470 2062 m
2504 2062 l
st
2542 2063 m
2542 2051 l
st
2525 2063 m
2559 2063 l
st
2542 2064 m
2542 2077 l
st
2525 2064 m
2559 2064 l
st
2596 2064 m
2596 2052 l
st
2579 2064 m
2613 2064 l
st
2596 2065 m
2596 2078 l
st
2579 2065 m
2613 2065 l
st
2651 2065 m
2651 2078 l
st
2634 2065 m
2668 2065 l
st
2651 2065 m
2651 2078 l
st
2634 2065 m
2668 2065 l
st
2706 2066 m
2706 2079 l
st
2689 2066 m
2723 2066 l
st
2706 2066 m
2706 2079 l
st
2689 2066 m
2723 2066 l
st
2760 2066 m
2760 2079 l
st
2743 2066 m
2777 2066 l
st
2760 2066 m
2760 2079 l
st
2743 2066 m
2777 2066 l
st
2815 2066 m
2815 2079 l
st
2798 2066 m
2832 2066 l
st
2815 2066 m
2815 2079 l
st
2798 2066 m
2832 2066 l
st
2870 2067 m
2870 2080 l
st
2853 2067 m
2887 2067 l
st
2870 2067 m
2870 2080 l
st
2853 2067 m
2887 2067 l
st
2924 2067 m
2924 2080 l
st
2907 2067 m
2941 2067 l
st
2924 2067 m
2924 2080 l
st
2907 2067 m
2941 2067 l
st
2979 2067 m
2979 2080 l
st
2962 2067 m
2996 2067 l
st
2979 2067 m
2979 2080 l
st
2962 2067 m
2996 2067 l
st
3034 2067 m
3034 2080 l
st
3017 2067 m
3051 2067 l
st
3034 2067 m
3034 2080 l
st
3017 2067 m
3051 2067 l
st
gr
gs
gs
1 -1 sc
333 -1304 tr
90 ro
/MC2_Symbol 91 self 0 0 m
/s61554 50 xgls
1 -1 sc
gr
gs
1 -1 sc
333 -1254 tr
90 ro
/MC3_Arial 91 self 0 0 m
(\(r\) [fm)[30 30 30 25 25 25 76 ] xs
1 -1 sc
gr
gs
1 -1 sc
288 -1013 tr
90 ro
/MC3_Arial 55 self 0 0 m
(-3)[18 31 ] xs
1 -1 sc
gr
gs
1 -1 sc
333 -964 tr
90 ro
/MC3_Arial 91 self 0 0 m
(])[25 ] xs
1 -1 sc
gr
gr
gs
1 -1 sc
/MC1_Arial 91 self 1721 -2302 m
(r [fm])[30 25 25 26 76 25 ] xs
1 -1 sc
gr
gs
gs
2387 406 m
2415 434 l
2 sw
0 0 1 rgb
st
2415 406 m
2387 434 l
st
gr
1 -1 sc
/MC1_Arial 108 self 2521 -457 m
( Nr.1)[30 78 36 30 60 ] xs
1 -1 sc
gs
np
2401 552 13 0 360  a
cp
gs
1 1 1 rgb
eofi
gr
2 sw
0 1 0 rgb
st
gr
1 -1 sc
2521 -589 m
( Nr.2)[30 78 36 30 60 ] xs
1 -1 sc
gs
2401 671 m
2401 697 l
2 sw
1 0 0 rgb
st
2388 684 m
2414 684 l
st
gr
1 -1 sc
2521 -721 m
( Nr.3)[30 78 36 30 60 ] xs
1 -1 sc
gs
gs
2281 816 m
2301 816 l
5 sw
st
2324 816 m
2344 816 l
st
2367 816 m
2387 816 l
st
2410 816 m
2430 816 l
st
2453 816 m
2473 816 l
st
2496 816 m
2516 816 l
st
gr
gr
1 -1 sc
2521 -853 m
( average)[30 60 53 60 36 60 60 60 ] xs
1 -1 sc
gr
gr
Save0 restore end
showpage
%%EOF
