%!PS-Adobe-3.0 EPSF-3.0
%%BoundingBox: 0 0 244 183
%%LanguageLevel: 2
%%Creator: OriginLab Corporation
%%Title: (C:\Users\Rong\Desktop\potentialV8.eps)
%%CreationDate: Mon Oct 03 17:40:30 2022
%%EndComments

/OriginLab::PSL1 128 dict dup begin def
/Save0 save def
%%BeginResource: procset OriginLab::PSL1
/wd{1 index where{pop pop pop}{bind def}ifelse}bind def
/setcmykcolor{1 sub 4 1 roll 3{3 index add neg dup 0 lt{pop 0}if 3 1 roll}repeat setrgbcolor pop}wd
/selectfont{dup type/arraytype eq{exch findfont exch makefont setfont}{exch findfont exch scalefont setfont}ifelse}wd
/xshow{1 index length 0 le{}{currentpoint exch 3 index length 1 sub 0 exch 1 exch{dup 5 index exch 1 getinterval show 3 index exch get add 2 copy exch moveto}for pop pop}ifelse pop pop}wd
/grayimage/image load def/rgbtogray{cvx exec dup length 3 idiv 1 sub 0 exch 1 exch{dup 3 mul dup 3 index exch get 255 div .3 mul exch
 1 add dup 4 index exch get 255 div .59 mul exch 1 add 4 index exch get 255 div .11 mul add add
 255 mul dup 255 gt{255}if round cvi 2 index 3 1 roll put}for dup length 3 idiv 0 exch getinterval}bind def
/colorimage{0 setgray pop pop cvlit/rgbtogray cvx 2 packedarray cvx grayimage}wd
/bd{bind def}bind def/ld{load def}bd/ed{exch def}bd/xd{cvx def}bd
/np/newpath ld/a/arc ld/m/moveto ld/l/lineto ld/c/curveto ld/rm/rmoveto ld/rl/rlineto ld/rc/rcurveto ld/cp/closepath ld/cpt/currentpoint ld
/tr/translate ld/sc/scale ld/ro/rotate ld/t/transform ld/it/itransform ld/dt/dtransform ld/idt/idtransform ld
/mtx/matrix ld/cmtx/currentmatrix ld/dmtx/defaultmatrix ld/smtx/setmatrix ld/catmtx/concatmatrix ld
/sw/setlinewidth ld/scap/setlinecap ld/sj/setlinejoin ld/sm/setmiterlimit ld/sd/setdash ld/rgb/setrgbcolor ld/crgb/currentrgbcolor ld/cmyk/setcmykcolor ld/gs/gsave ld/gr/grestore ld
/st/stroke ld/fi/fill ld/eofi/eofill ld/cl/clip ld/eocl/eoclip ld
/glyphshowEmulation{matrix currentmatrix exch currentfont dup/FontMatrix get concat currentpoint translate
 dup/Metrics get 2 index get 0 4 2 roll gsave/CharProcs get exch 2 copy known not{pop/.notdef}if
 get exec fill grestore moveto setmatrix} bind def
/isWord2010 false def
currentsystemparams /PrinterName known{currentsystemparams /PrinterName get (Access Softek) eq {/isWord2010 true def} if } if
isWord2010{/glyphshowCommand/glyphshowEmulation ld}{/glyphshowCommand/glyphshow ld}ifelse
/df/definefont ld/ff/findfont ld/sf/setfont ld/scf/scalefont ld/self/selectfont ld/cf/currentfont ld
/s/show ld/xs/xshow ld/gls/glyphshowCommand ld/xgls{cpt 3 1 roll add exch 3 -1 roll gls m}bd
/xglsh{cpt 3 1 roll add exch 3 -1 roll glyphshowCommand m}bd
/cd/currentdict ld/i/index ld
/DrawBox{4 2 roll m 1 index 0 rl 0 exch rl neg 0 rl cp}bd
/plus.re { 6 { 3 index } repeat moveto 0 exch rlineto 0 rlineto pop pop neg 0 exch rlineto pop lineto closepath } def
/DrawBcc{4 2 roll m 2 copy 0 lt exch 0 lt xor{dup 0 exch rl exch 0 rl neg 0 exch rl}{exch dup 0 rl exch 0 exch rl neg 0 rl}ifelse cp}bd
/rectline{dup type/arraytype eq{dup length 0 exch 4 exch 4 sub{0 1 3{3 copy add get 4 1 roll pop}for pop 5 1 roll DrawBox}for pop}{DrawBox}ifelse}bd
/rectpath{dup type/arraytype eq{dup length 0 exch 4 exch 4 sub{0 1 3{3 copy add get 4 1 roll pop}for pop 5 1 roll DrawBcc}for pop}{DrawBcc}ifelse}bd
/pathproc{[{/m cvx}{/l cvx}{/c cvx}{/cp cvx}pathforall]cvx}bd
/L1img/image ld/L1idx[{0}
 {dup 7 and 3 1 roll -3 bitshift get exch 7 sub 1 mul bitshift  1 and}bind 1 index dup
 {dup 1 and 3 1 roll -1 bitshift get exch 1 sub 4 mul bitshift 15 and}bind 1 index dup dup
 {get}bind]def
/image{dup type/dicttype eq {dup/ImgCS get 0 get/Indexed eq}{false}ifelse
 {begin Width Height 8 ImageMatrix {rgb_string rgb_lookup
 cd/DataSource get dup type/filetype eq
 {mystring readstring pop}{exec}ifelse
 dup length 0 ne
 {L1idx BitsPerComponent get 0 1 Width 1 sub
 {3 copy exch exec exch 3 mul exch
 3 mul dup 5 index exch get exch 1 add dup 6 index exch get exch 1 add 6 index exch get
 7 index exch 4 index 2 add exch put 6 index exch 3 index 1 add exch put 5 index exch 2 index exch put pop
 }for pop pop pop }{pop pop pop ()}ifelse }false 3 colorimage end} {dup type/dicttype eq
 {{dup mark exch L1img pop pop}stopped{cleartomark begin Width Height BitsPerComponent ImageMatrix
 {cd/DataSource get dup type/filetype eq {mystring readstring pop}{exec}ifelse
 }false 3 colorimage end} if}{L1img}ifelse}ifelse
 }bd
/L1imgmask/imagemask ld/imagemask{dup type/dicttype eq
 {{dup mark exch L1imgmask pop pop}stopped {cleartomark begin Width Height polarityflag ImageMatrix
 {cd/DataSource get dup type/filetype eq {mystring readstring pop}{exec}ifelse
 }L1imgmask end}if}{L1imgmask}ifelse
 }bd
% Gradient function
/GradientStep 1 150 div def
/GradientStartRGB { /R1 exch def /G1 exch def /B1 exch def } def
/GradientEndRGB { /R2 exch def /G2 exch def /B2 exch def
/GradientSteps GradientLength GradientStep div def
/GradientRStep R2 R1 sub GradientSteps div def
/GradientGStep G2 G1 sub GradientSteps div def
/GradientBStep B2 B1 sub GradientSteps div def
} def
/GradientStepRGB { /R1 R1 GradientRStep add def
/G1 G1 GradientGStep add def
/B1 B1 GradientBStep add def
R1 G1 B1 setrgbcolor
} def
%%EndResource
/rectclip{np rectpath clip np}wd
/rectfill{gs np rectpath fi gr}wd
/rectstroke{gs np dup type/arraytype eq{dup length 6 eq}{false}ifelse{1 index type/arraytype eq{exch}{5 1 roll}ifelse rectline concat st}{rectline st}ifelse gr}wd
%%BeginResource: procset OriginLab::Image
/OriginLab::Image 32 dict dup begin
/BinProc{[currentfile mystring /readstring cvx /pop cvx] cvx bind}bd
/HexProc{[currentfile mystring /readhexstring cvx /pop cvx] cvx bind}bd
/Ascii85Proc{currentfile /ASCII85Decode filter}bd
/LZWA85{currentfile /ASCII85Decode filter /LZWDecode filter}bd
/ImgProcArray[/BinProc /HexProc /Ascii85Proc /LZWA85]def
/ImgDict{/ImgDict 16 dict def ImgDict dup begin /ImageType 1 def /MultipleDataSource false def end}bd
/L2Dec{{[1 0]}{[0 1]}ifelse}bd
/BegImg{ /Img_sv save def
 /ImgDir ed ImgProcArray exch get /ImgProc exch ld
 dup /polarityflag ed L2Dec /polarity ed /smoothflag ed
 tr /dx 2 index def /dy 1 index abs def sc
 string /mystring ed /bpc ed /ih ed /iw ed
 }bd
/EndImg {Img_sv restore}bd
/DoXImg{ /rgb_lookup ed /hival ed ImgDict dup begin
 [/Indexed /DeviceRGB hival rgb_lookup] /L1img where{pop/ImgCS ed}{setcolorspace}ifelse
 /rgb_string iw 3 mul string def
 /Width iw def
 /Height ih def
 /Decode [0 1 bpc{2 mul}repeat 1 sub] def
 /ImageMatrix
  ImgDir 0 eq{[iw 0 0 ih 0 0]}if
  ImgDir 1 eq{[iw neg 0 0 ih iw 0]}if
  ImgDir 2 eq{[iw 0 0 ih neg 0 ih]}if
  ImgDir 3 eq{[iw neg 0 0 ih neg iw ih]}if
  def
 /DataSource ImgProc def
 /BitsPerComponent bpc def
 /Interpolate smoothflag def
 end image}bd
/DoImg{ ImgDict dup begin
 [/DeviceRGB] /L1img where{pop/ImgCS ed}{setcolorspace}ifelse
 /rgb_string iw 3 mul string def
 /Width iw def
 /Height ih def
 /Decode [0 1 0 1 0 1] def
 /ImageMatrix
  ImgDir 0 eq{[iw 0 0 ih 0 0]}if
  ImgDir 1 eq{[iw neg 0 0 ih iw 0]}if
  ImgDir 2 eq{[iw 0 0 ih neg 0 ih]}if
  ImgDir 3 eq{[iw neg 0 0 ih neg iw ih]}if
  def
 /DataSource ImgProc def
 /BitsPerComponent 8 def
 /Interpolate smoothflag def
 end image}bd
end def
%%EndResource
/initmtx mtx cmtx def
%%BeginFont: /MC1_Arial
12 dict begin
/FontInfo 8 dict dup begin
/ItalicAngle 0 def
/UnderlinePosition -217.00 def
/UnderlineThickness 150.00 def
/StrikeoutPosition 530.00 def
/StrikeoutThickness 102.00 def
/isFixedPitch false def
end readonly def
/FontName /MC1_Arial def
/FontType 3 def
/FontMatrix [1 2048 div 0 0 1 2048 div 0 0] def
/FontBBox [-1361 -665 4096 2129] def
/Encoding 256 array def 0 1 255{Encoding exch/.notdef put}for
Encoding 32/s32 put
Encoding 45/s45 put
Encoding 46/s46 put
Encoding 48/s48 put
Encoding 49/s49 put
Encoding 50/s50 put
Encoding 51/s51 put
Encoding 52/s52 put
Encoding 53/s53 put
Encoding 54/s54 put
Encoding 55/s55 put
Encoding 56/s56 put
Encoding 57/s57 put
Encoding 72/s72 put
Encoding 77/s77 put
Encoding 86/s86 put
Encoding 101/s101 put
/BoundingBoxes 18 dict def
BoundingBoxes begin
/s32 [0 -434 569 1854] def
/s45 [0 -434 682 1854] def
/s46 [0 -434 569 1854] def
/s48 [0 -434 1139 1854] def
/s49 [0 -434 1139 1854] def
/s50 [0 -434 1139 1854] def
/s51 [0 -434 1139 1854] def
/s52 [0 -434 1139 1854] def
/s53 [0 -434 1139 1854] def
/s54 [0 -434 1139 1854] def
/s55 [0 -434 1139 1854] def
/s56 [0 -434 1139 1854] def
/s57 [0 -434 1139 1854] def
/s72 [0 -434 1479 1854] def
/s77 [0 -434 1706 1854] def
/s86 [0 -434 1366 1854] def
/s101 [0 -434 1139 1854] def
end
/Metrics 18 dict def
 Metrics begin
/s32 569 def
/s45 682 def
/s46 569 def
/s48 1139 def
/s49 1139 def
/s50 1139 def
/s51 1139 def
/s52 1139 def
/s53 1139 def
/s54 1139 def
/s55 1139 def
/s56 1139 def
/s57 1139 def
/s72 1479 def
/s77 1706 def
/s86 1366 def
/s101 1139 def
end
/CharProcs 18 dict def
CharProcs begin
/.notdef {} def
/s45 {
65 440 m
65 621 65 440 65 621 c
618 621 65 621 618 621 c
618 440 618 621 618 440 c
65 440 618 440 65 440 c
closepath } bind def
/s46 {
186 0 m
186 205 186 0 186 205 c
391 205 186 205 391 205 c
391 0 391 205 391 0 c
186 0 391 0 186 0 c
closepath } bind def
/s48 {
85 723 m
85 896.33 102.83 1035.83 138.5 1141.5 c
174.17 1247.17 227.17 1328.67 297.5 1386 c
367.83 1443.33 456.33 1472 563 1472 c
641.67 1472 710.67 1456.17 770 1424.5 c
829.33 1392.83 878.33 1347.17 917 1287.5 c
955.67 1227.83 986 1155.17 1008 1069.5 c
1030 983.83 1041 868.33 1041 723 c
1041 551 1023.33 412.17 988 306.5 c
952.67 200.83 899.83 119.17 829.5 61.5 c
759.17 3.83 670.33 -25 563 -25 c
421.67 -25 310.67 25.67 230 127 c
133.33 249 85 447.67 85 723 c
closepath 270 723 m
270 482.33 298.17 322.17 354.5 242.5 c
410.83 162.83 480.33 123 563 123 c
645.67 123 715.17 163 771.5 243 c
827.83 323 856 483 856 723 c
856 964.33 827.83 1124.67 771.5 1204 c
715.17 1283.33 645 1323 561 1323 c
478.33 1323 412.33 1288 363 1218 c
301 1128.67 270 963.67 270 723 c
closepath } bind def
/s49 {
763 0 m
583 0 763 0 583 0 c
583 1147 583 0 583 1147 c
539.67 1105.67 482.83 1064.33 412.5 1023 c
342.17 981.67 279 950.67 223 930 c
223 1104 223 930 223 1104 c
323.67 1151.33 411.67 1208.67 487 1276 c
562.33 1343.33 615.67 1408.67 647 1472 c
763 1472 647 1472 763 1472 c
763 0 763 1472 763 0 c
closepath } bind def
/s50 {
1031 173 m
1031 0 1031 173 1031 0 c
62 0 1031 0 62 0 c
60.67 43.33 67.67 85 83 125 c
107.67 191 147.17 256 201.5 320 c
255.83 384 334.33 458 437 542 c
596.33 672.67 704 776.17 760 852.5 c
816 928.83 844 1001 844 1069 c
844 1140.33 818.5 1200.5 767.5 1249.5 c
716.5 1298.5 650 1323 568 1323 c
481.33 1323 412 1297 360 1245 c
308 1193 281.67 1121 281 1029 c
96 1048 281 1029 96 1048 c
108.67 1186 156.33 1291.17 239 1363.5 c
321.67 1435.83 432.67 1472 572 1472 c
712.67 1472 824 1433 906 1355 c
988 1277 1029 1180.33 1029 1065 c
1029 1006.33 1017 948.67 993 892 c
969 835.33 929.17 775.67 873.5 713 c
817.83 650.33 725.33 564.33 596 455 c
488 364.33 418.67 302.83 388 270.5 c
357.33 238.17 332 205.67 312 173 c
1031 173 312 173 1031 173 c
closepath } bind def
/s51 {
86 387 m
266 411 86 387 266 411 c
286.67 309 321.83 235.5 371.5 190.5 c
421.17 145.5 481.67 123 553 123 c
637.67 123 709.17 152.33 767.5 211 c
825.83 269.67 855 342.33 855 429 c
855 511.67 828 579.83 774 633.5 c
720 687.17 651.33 714 568 714 c
534 714 491.67 707.33 441 694 c
461 852 441 694 461 852 c
473 850.67 482.67 850 490 850 c
566.67 850 635.67 870 697 910 c
758.33 950 789 1011.67 789 1095 c
789 1161 766.67 1215.67 722 1259 c
677.33 1302.33 619.67 1324 549 1324 c
479 1324 420.67 1302 374 1258 c
327.33 1214 297.33 1148 284 1060 c
104 1092 284 1060 104 1092 c
126 1212.67 176 1306.17 254 1372.5 c
332 1438.83 429 1472 545 1472 c
625 1472 698.67 1454.83 766 1420.5 c
833.33 1386.17 884.83 1339.33 920.5 1280 c
956.17 1220.67 974 1157.67 974 1091 c
974 1027.67 957 970 923 918 c
889 866 838.67 824.67 772 794 c
858.67 774 926 732.5 974 669.5 c
1022 606.5 1046 527.67 1046 433 c
1046 305 999.33 196.5 906 107.5 c
812.67 18.5 694.67 -26 552 -26 c
423.33 -26 316.5 12.33 231.5 89 c
146.5 165.67 98 265 86 387 c
closepath } bind def
/s52 {
662 0 m
662 351 662 0 662 351 c
26 351 662 351 26 351 c
26 516 26 351 26 516 c
695 1466 26 516 695 1466 c
842 1466 695 1466 842 1466 c
842 516 842 1466 842 516 c
1040 516 842 516 1040 516 c
1040 351 1040 516 1040 351 c
842 351 1040 351 842 351 c
842 0 842 351 842 0 c
662 0 842 0 662 0 c
closepath 662 516 m
662 1177 662 516 662 1177 c
203 516 662 1177 203 516 c
662 516 203 516 662 516 c
closepath } bind def
/s53 {
85 384 m
274 400 85 384 274 400 c
288 308 320.5 238.83 371.5 192.5 c
422.5 146.17 484 123 556 123 c
642.67 123 716 155.67 776 221 c
836 286.33 866 373 866 481 c
866 583.67 837.17 664.67 779.5 724 c
721.83 783.33 646.33 813 553 813 c
495 813 442.67 799.83 396 773.5 c
349.33 747.17 312.67 713 286 671 c
117 693 286 671 117 693 c
259 1446 117 693 259 1446 c
988 1446 259 1446 988 1446 c
988 1274 988 1446 988 1274 c
403 1274 988 1274 403 1274 c
324 880 403 1274 324 880 c
412 941.33 504.33 972 601 972 c
729 972 837 927.67 925 839 c
1013 750.33 1057 636.33 1057 497 c
1057 364.33 1018.33 249.67 941 153 c
847 34.33 718.67 -25 556 -25 c
422.67 -25 313.83 12.33 229.5 87 c
145.17 161.67 97 260.67 85 384 c
closepath } bind def
/s54 {
1019 1107 m
840 1093 1019 1107 840 1093 c
824 1163.67 801.33 1215 772 1247 c
723.33 1298.33 663.33 1324 592 1324 c
534.67 1324 484.33 1308 441 1276 c
384.33 1234.67 339.67 1174.33 307 1095 c
274.33 1015.67 257.33 902.67 256 756 c
299.33 822 352.33 871 415 903 c
477.67 935 543.33 951 612 951 c
732 951 834.17 906.83 918.5 818.5 c
1002.83 730.17 1045 616 1045 476 c
1045 384 1025.17 298.5 985.5 219.5 c
945.83 140.5 891.33 80 822 38 c
752.67 -4 674 -25 586 -25 c
436 -25 313.67 30.17 219 140.5 c
124.33 250.83 77 432.67 77 686 c
77 969.33 129.33 1175.33 234 1304 c
325.33 1416 448.33 1472 603 1472 c
718.33 1472 812.83 1439.67 886.5 1375 c
960.17 1310.33 1004.33 1221 1019 1107 c
closepath 284 475 m
284 413 297.17 353.67 323.5 297 c
349.83 240.33 386.67 197.17 434 167.5 c
481.33 137.83 531 123 583 123 c
659 123 724.33 153.67 779 215 c
833.67 276.33 861 359.67 861 465 c
861 566.33 834 646.17 780 704.5 c
726 762.83 658 792 576 792 c
494.67 792 425.67 762.83 369 704.5 c
312.33 646.17 284 569.67 284 475 c
closepath } bind def
/s55 {
97 1274 m
97 1447 97 1274 97 1447 c
1046 1447 97 1447 1046 1447 c
1046 1307 1046 1447 1046 1307 c
952.67 1207.67 860.17 1075.67 768.5 911 c
676.83 746.33 606 577 556 403 c
520 280.33 497 146 487 0 c
302 0 487 0 302 0 c
304 115.33 326.67 254.67 370 418 c
413.33 581.33 475.5 738.83 556.5 890.5 c
637.5 1042.17 723.67 1170 815 1274 c
97 1274 815 1274 97 1274 c
closepath } bind def
/s56 {
362 795 m
287.33 822.33 232 861.33 196 912 c
160 962.67 142 1023.33 142 1094 c
142 1200.67 180.33 1290.33 257 1363 c
333.67 1435.67 435.67 1472 563 1472 c
691 1472 794 1434.83 872 1360.5 c
950 1286.17 989 1195.67 989 1089 c
989 1021 971.17 961.83 935.5 911.5 c
899.83 861.17 845.67 822.33 773 795 c
863 765.67 931.5 718.33 978.5 653 c
1025.5 587.67 1049 509.67 1049 419 c
1049 293.67 1004.67 188.33 916 103 c
827.33 17.67 710.67 -25 566 -25 c
421.33 -25 304.67 17.83 216 103.5 c
127.33 189.17 83 296 83 424 c
83 519.33 107.17 599.17 155.5 663.5 c
203.83 727.83 272.67 771.67 362 795 c
closepath 326 1100 m
326 1030.67 348.33 974 393 930 c
437.67 886 495.67 864 567 864 c
636.33 864 693.17 885.83 737.5 929.5 c
781.83 973.17 804 1026.67 804 1090 c
804 1156 781.17 1211.5 735.5 1256.5 c
689.83 1301.5 633 1324 565 1324 c
496.33 1324 439.33 1302 394 1258 c
348.67 1214 326 1161.33 326 1100 c
closepath 268 423 m
268 371.67 280.17 322 304.5 274 c
328.83 226 365 188.83 413 162.5 c
461 136.17 512.67 123 568 123 c
654 123 725 150.67 781 206 c
837 261.33 865 331.67 865 417 c
865 503.67 836.17 575.33 778.5 632 c
720.83 688.67 648.67 717 562 717 c
477.33 717 407.17 689 351.5 633 c
295.83 577 268 507 268 423 c
closepath } bind def
/s57 {
112 339 m
285 355 112 339 285 355 c
299.67 273.67 327.67 214.67 369 178 c
410.33 141.33 463.33 123 528 123 c
583.33 123 631.83 135.67 673.5 161 c
715.17 186.33 749.33 220.17 776 262.5 c
802.67 304.83 825 362 843 434 c
861 506 870 579.33 870 654 c
870 662 869.67 674 869 690 c
833 632.67 783.83 586.17 721.5 550.5 c
659.17 514.83 591.67 497 519 497 c
397.67 497 295 541 211 629 c
127 717 85 833 85 977 c
85 1125.67 128.83 1245.33 216.5 1336 c
304.17 1426.67 414 1472 546 1472 c
641.33 1472 728.5 1446.33 807.5 1395 c
886.5 1343.67 946.5 1270.5 987.5 1175.5 c
1028.5 1080.5 1049 943 1049 763 c
1049 575.67 1028.67 426.5 988 315.5 c
947.33 204.5 886.83 120 806.5 62 c
726.17 4 632 -25 524 -25 c
409.33 -25 315.67 6.83 243 70.5 c
170.33 134.17 126.67 223.67 112 339 c
closepath 849 986 m
849 1089.33 821.5 1171.33 766.5 1232 c
711.5 1292.67 645.33 1323 568 1323 c
488 1323 418.33 1290.33 359 1225 c
299.67 1159.67 270 1075 270 971 c
270 877.67 298.17 801.83 354.5 743.5 c
410.83 685.17 480.33 656 563 656 c
646.33 656 714.83 685.17 768.5 743.5 c
822.17 801.83 849 882.67 849 986 c
closepath } bind def
/s72 {
164 0 m
164 1466 164 0 164 1466 c
358 1466 164 1466 358 1466 c
358 864 358 1466 358 864 c
1120 864 358 864 1120 864 c
1120 1466 1120 864 1120 1466 c
1314 1466 1120 1466 1314 1466 c
1314 0 1314 1466 1314 0 c
1120 0 1314 0 1120 0 c
1120 691 1120 0 1120 691 c
358 691 1120 691 358 691 c
358 0 358 691 358 0 c
164 0 358 0 164 0 c
closepath } bind def
/s77 {
152 0 m
152 1466 152 0 152 1466 c
444 1466 152 1466 444 1466 c
791 428 444 1466 791 428 c
823 331.33 846.33 259 861 211 c
877.67 264.33 903.67 342.67 939 446 c
1290 1466 939 446 1290 1466 c
1551 1466 1290 1466 1551 1466 c
1551 0 1551 1466 1551 0 c
1364 0 1551 0 1364 0 c
1364 1227 1364 0 1364 1227 c
938 0 1364 1227 938 0 c
763 0 938 0 763 0 c
339 1248 763 0 339 1248 c
339 0 339 1248 339 0 c
152 0 339 0 152 0 c
closepath } bind def
/s86 {
577 0 m
9 1466 577 0 9 1466 c
219 1466 9 1466 219 1466 c
600 401 219 1466 600 401 c
630.67 315.67 656.33 235.67 677 161 c
699.67 241 726 321 756 401 c
1152 1466 756 401 1152 1466 c
1350 1466 1152 1466 1350 1466 c
776 0 1350 1466 776 0 c
577 0 776 0 577 0 c
closepath } bind def
/s101 {
862 342 m
1048 319 862 342 1048 319 c
1018.67 210.33 964.33 126 885 66 c
805.67 6 704.33 -24 581 -24 c
425.67 -24 302.5 23.83 211.5 119.5 c
120.5 215.17 75 349.33 75 522 c
75 700.67 121 839.33 213 938 c
305 1036.67 424.33 1086 571 1086 c
713 1086 829 1037.67 919 941 c
1009 844.33 1054 708.33 1054 533 c
1054 522.33 1053.67 506.33 1053 485 c
261 485 1053 485 261 485 c
267.67 368.33 300.67 279 360 217 c
419.33 155 493.33 124 582 124 c
648 124 704.33 141.33 751 176 c
797.67 210.67 834.67 266 862 342 c
closepath 271 633 m
864 633 271 633 864 633 c
856 722.33 833.33 789.33 796 834 c
738.67 903.33 664.33 938 573 938 c
490.33 938 420.83 910.33 364.5 855 c
308.17 799.67 277 725.67 271 633 c
closepath } bind def
end
/BuildGlyph {
 exch dup /Metrics get 2 index get 0 setcharwidth
/CharProcs get exch 2 copy known not{pop/.notdef}if get exec fill}bind def
/BuildChar {
1 index /Encoding get exch get
1 index /BuildGlyph get exec
} bind def
currentdict end /MC1_Arial exch definefont pop
%%EndFont
%%BeginFont: /MC2_Symbol
12 dict begin
/FontInfo 8 dict dup begin
/ItalicAngle 0 def
/UnderlinePosition -223.00 def
/UnderlineThickness 100.00 def
/StrikeoutPosition 530.00 def
/StrikeoutThickness 102.00 def
/isFixedPitch false def
end readonly def
/FontName /MC2_Symbol def
/FontType 3 def
/FontMatrix [1 2048 div 0 0 1 2048 div 0 0] def
/FontBBox [-1 -450 2279 2059] def
/Encoding 256 array def 0 1 255{Encoding exch/.notdef put}for
Encoding 32/s32 put
Encoding 40/s40 put
Encoding 41/s41 put
Encoding 46/s46 put
Encoding 48/s48 put
Encoding 49/s49 put
Encoding 51/s51 put
Encoding 52/s52 put
Encoding 53/s53 put
Encoding 55/s55 put
Encoding 61/s61 put
Encoding 68/s68 put
Encoding 77/s77 put
Encoding 116/s116 put
/BoundingBoxes 16 dict def
BoundingBoxes begin
/s32 [0 -450 512 2059] def
/s40 [0 -450 682 2059] def
/s41 [0 -450 682 2059] def
/s46 [0 -450 512 2059] def
/s48 [0 -450 1024 2059] def
/s49 [0 -450 1024 2059] def
/s51 [0 -450 1024 2059] def
/s52 [0 -450 1024 2059] def
/s53 [0 -450 1024 2059] def
/s55 [0 -450 1024 2059] def
/s61 [0 -450 1124 2059] def
/s68 [0 -450 1253 2059] def
/s77 [0 -450 1821 2059] def
/s116 [0 -450 899 2059] def
/s61620 [0 -450 0 2059] def
end
/Metrics 16 dict def
 Metrics begin
/s32 512 def
/s40 682 def
/s41 682 def
/s46 512 def
/s48 1024 def
/s49 1024 def
/s51 1024 def
/s52 1024 def
/s53 1024 def
/s55 1024 def
/s61 1124 def
/s68 1253 def
/s77 1821 def
/s116 899 def
/s61620 0 def
end
/CharProcs 16 dict def
CharProcs begin
/.notdef {} def
/s40 {
636 -399 m
636 -442 636 -399 636 -442 c
462 -355.33 326.5 -228.17 229.5 -60.5 c
132.5 107.17 84 290.67 84 490 c
84 697.33 135 886.17 237 1056.5 c
339 1226.83 472 1348.67 636 1422 c
636 1380 636 1422 636 1380 c
554 1334.67 486.67 1272.67 434 1194 c
381.33 1115.33 342 1015.5 316 894.5 c
290 773.5 277 647.33 277 516 c
277 367.33 289 233 313 113 c
337 -7 373.67 -106.5 423 -185.5 c
472.33 -264.5 543.33 -335.67 636 -399 c
closepath } bind def
/s41 {
45 1380 m
45 1422 45 1380 45 1422 c
219 1336 354.5 1209.17 451.5 1041.5 c
548.5 873.83 597 690.33 597 491 c
597 283.67 546 94.67 444 -76 c
342 -246.67 209 -368.67 45 -442 c
45 -399 45 -442 45 -399 c
127.67 -353.67 195.33 -291.67 248 -213 c
300.67 -134.33 339.83 -34.67 365.5 86 c
391.17 206.67 404 333 404 465 c
404 613 392.17 747.17 368.5 867.5 c
344.83 987.83 308.17 1087.5 258.5 1166.5 c
208.83 1245.5 137.67 1316.67 45 1380 c
closepath } bind def
/s46 {
367 83 m
367 51.67 356.17 25.17 334.5 3.5 c
312.83 -18.17 286.67 -29 256 -29 c
225.33 -29 199.17 -18.17 177.5 3.5 c
155.83 25.17 145 51.67 145 83 c
145 113.67 155.83 139.83 177.5 161.5 c
199.17 183.17 225.33 194 256 194 c
286.67 194 312.83 183.17 334.5 161.5 c
356.17 139.83 367 113.67 367 83 c
closepath } bind def
/s48 {
74 667 m
74 771.67 86.33 871.83 111 967.5 c
135.67 1063.17 174 1146 226 1216 c
265.33 1269.33 310.67 1310.67 362 1340 c
413.33 1369.33 464.33 1384 515 1384 c
619.67 1384 713.33 1331 796 1225 c
899.33 1093 951 914.33 951 689 c
951 531.67 928.33 397.67 883 287 c
837.67 176.33 779.83 96.17 709.5 46.5 c
639.17 -3.17 571.33 -28 506 -28 c
376.67 -28 269 48.67 183 202 c
110.33 331.33 74 486.33 74 667 c
closepath 270 664 m
270 414 301.67 237 365 133 c
403.67 70.33 451.67 39 509 39 c
545 39 582.33 55.33 621 88 c
659.67 120.67 689 175 709 251 c
739.67 365.67 755 529.33 755 742 c
755 893.33 739 1020.67 707 1124 c
683 1199.33 652 1253 614 1285 c
586.67 1307 553.67 1318 515 1318 c
469.67 1318 429.33 1297.67 394 1257 c
346.67 1201.67 314.17 1115.17 296.5 997.5 c
278.83 879.83 270 768.67 270 664 c
closepath } bind def
/s49 {
240 1223 m
570 1384 240 1223 570 1384 c
603 1384 570 1384 603 1384 c
603 238 603 1384 603 238 c
603 162.67 606.17 115.67 612.5 97 c
618.83 78.33 632 64 652 54 c
672 44 712.67 38.33 774 37 c
774 0 774 37 774 0 c
264 0 774 0 264 0 c
264 37 264 0 264 37 c
326.67 38.33 368 43.83 388 53.5 c
408 63.17 422 78.33 430 99 c
435.33 113.67 438 160.67 438 240 c
438 971 438 240 438 971 c
438 1069.67 434.67 1133.33 428 1162 c
423.33 1182.67 414.67 1198 402 1208 c
389.33 1218 374.33 1223 357 1223 c
333 1223 299 1212.67 255 1192 c
240 1223 255 1192 240 1223 c
closepath } bind def
/s51 {
104 1098 m
142.67 1189.33 191.5 1259.83 250.5 1309.5 c
309.5 1359.17 383 1384 471 1384 c
579.67 1384 663 1348.67 721 1278 c
764.33 1225.33 786 1169.33 786 1110 c
786 1010.67 724.33 908.33 601 803 c
684.33 770.33 747.33 723.5 790 662.5 c
832.67 601.5 854 529.67 854 447 c
854 334.33 819.33 235.33 750 150 c
653.33 31.33 508 -28 314 -28 c
226.67 -28 166.33 -16.5 133 6.5 c
99.67 29.5 83 54.67 83 82 c
83 102 91 119.33 107 134 c
123 148.67 142 156 164 156 c
180 156 196.67 153.33 214 148 c
225.33 144.67 250.83 132.67 290.5 112 c
330.17 91.33 357.67 78.67 373 74 c
399 67.33 425.67 64 453 64 c
521 64 580.17 90.33 630.5 143 c
680.83 195.67 706 259 706 333 c
706 379.67 696.33 425.17 677 469.5 c
657.67 513.83 637.33 546.33 616 567 c
587.33 593.67 547.83 618 497.5 640 c
447.17 662 395.67 673 343 673 c
311 673 343 673 311 673 c
311 703 311 673 311 703 c
363.67 709.67 416.5 728.67 469.5 760 c
522.5 791.33 561 829 585 873 c
609 917 621 965.33 621 1018 c
621 1086.67 599.5 1142.17 556.5 1184.5 c
513.5 1226.83 459.67 1248 395 1248 c
292.33 1248 206.33 1192.67 137 1082 c
104 1098 137 1082 104 1098 c
closepath } bind def
/s52 {
953 500 m
953 358 953 500 953 358 c
771 358 953 358 771 358 c
771 0 771 358 771 0 c
606 0 771 0 606 0 c
606 358 606 0 606 358 c
32 358 606 358 32 358 c
32 486 32 358 32 486 c
661 1384 32 486 661 1384 c
771 1384 661 1384 771 1384 c
771 500 771 1384 771 500 c
953 500 771 500 953 500 c
closepath 606 500 m
606 1173 606 500 606 1173 c
130 500 606 1173 130 500 c
606 500 130 500 606 500 c
closepath } bind def
/s53 {
888 1356 m
810 1186 888 1356 810 1186 c
403 1186 810 1186 403 1186 c
314 1004 403 1186 314 1004 c
490 978.67 626.17 916.67 722.5 818 c
818.83 719.33 867 608.67 867 486 c
867 398.67 843.17 314.33 795.5 233 c
747.83 151.67 680.67 87.83 594 41.5 c
507.33 -4.83 419.33 -28 330 -28 c
250 -28 191.33 -14 154 14 c
116.67 42 98 72.67 98 106 c
98 126 105.5 143.33 120.5 158 c
135.5 172.67 155 180 179 180 c
196.33 180 211.5 177.33 224.5 172 c
237.5 166.67 259.67 153 291 131 c
341 96.33 391.33 79 442 79 c
520.67 79 589.5 108.5 648.5 167.5 c
707.5 226.5 737 298.33 737 383 c
737 450.33 720.83 511.5 688.5 566.5 c
656.17 621.5 612.83 668.83 558.5 708.5 c
504.17 748.17 446.33 777.17 385 795.5 c
323.67 813.83 243 825 143 829 c
403 1356 143 829 403 1356 c
888 1356 403 1356 888 1356 c
closepath } bind def
/s55 {
206 1356 m
933 1356 206 1356 933 1356 c
933 1318 933 1356 933 1318 c
481 -28 933 1318 481 -28 c
369 -28 481 -28 369 -28 c
774 1193 369 -28 774 1193 c
401 1193 774 1193 401 1193 c
325.67 1193 272 1184 240 1166 c
184 1135.33 139 1088 105 1024 c
76 1035 105 1024 76 1035 c
206 1356 76 1035 206 1356 c
closepath } bind def
/s61 {
37 759 m
1087 759 37 759 1087 759 c
1087 662 1087 759 1087 662 c
37 662 1087 662 37 662 c
37 759 37 662 37 759 c
closepath 37 386 m
1087 386 37 386 1087 386 c
1087 287 1087 386 1087 287 c
37 287 1087 287 37 287 c
37 386 37 287 37 386 c
closepath } bind def
/s68 {
1226 0 m
26 0 1226 0 26 0 c
654 1387 26 0 654 1387 c
1226 0 654 1387 1226 0 c
closepath 990 82 m
591 1049 990 82 591 1049 c
151 82 591 1049 151 82 c
990 82 151 82 990 82 c
closepath } bind def
/s77 {
841 0 m
317 1139 841 0 317 1139 c
317 235 317 1139 317 235 c
317 151.67 326 99.67 344 79 c
368.67 51 407.67 37 461 37 c
509 37 461 37 509 37 c
509 0 509 37 509 0 c
37 0 509 0 37 0 c
37 37 37 0 37 37 c
85 37 37 37 85 37 c
142.33 37 183 54.33 207 89 c
221.67 110.33 229 159 229 235 c
229 1121 229 235 229 1121 c
229 1198.33 216 1250.67 190 1278 c
164 1305.33 121 1319 61 1319 c
37 1319 61 1319 37 1319 c
37 1356 37 1319 37 1356 c
421 1356 37 1356 421 1356 c
913 295 421 1356 913 295 c
1397 1356 913 295 1397 1356 c
1781 1356 1397 1356 1781 1356 c
1781 1319 1781 1356 1781 1319 c
1734 1319 1781 1319 1734 1319 c
1676 1319 1635 1301.67 1611 1267 c
1596.33 1245.67 1589 1197 1589 1121 c
1589 235 1589 1121 1589 235 c
1589 151.67 1598.33 99.67 1617 79 c
1641.67 51 1680.67 37 1734 37 c
1781 37 1734 37 1781 37 c
1781 0 1781 37 1781 0 c
1205 0 1781 0 1205 0 c
1205 37 1205 0 1205 37 c
1253 37 1205 37 1253 37 c
1311 37 1351.67 54.33 1375 89 c
1389.67 110.33 1397 159 1397 235 c
1397 1143 1397 235 1397 1143 c
874 0 1397 1143 874 0 c
841 0 874 0 841 0 c
closepath } bind def
/s116 {
813 916 m
813 769 813 916 813 769 c
501 769 813 769 501 769 c
478.33 549.67 467 399.33 467 318 c
467 253.33 479.17 206.5 503.5 177.5 c
527.83 148.5 558.33 134 595 134 c
622.33 134 646 143.33 666 162 c
686 180.67 700.67 212.67 710 258 c
745 258 710 258 745 258 c
733.67 148.67 709.33 73.17 672 31.5 c
634.67 -10.17 591 -31 541 -31 c
488.33 -31 444.33 -7.17 409 40.5 c
373.67 88.17 356 173.33 356 296 c
356 392.67 368 550.33 392 769 c
298 769 392 769 298 769 c
244 769 201.67 759.17 171 739.5 c
140.33 719.83 110 682.67 80 628 c
43 628 80 628 43 628 c
91 756 134 836 172 868 c
210 900 264 916 334 916 c
813 916 334 916 813 916 c
closepath } bind def
/s61620 {
191 964 m
563 594 191 964 563 594 c
935 964 563 594 935 964 c
1004 896 935 964 1004 896 c
633 523 1004 896 633 523 c
1004 153 633 523 1004 153 c
935 83 1004 153 935 83 c
563 454 935 83 563 454 c
191 83 563 454 191 83 c
121 153 191 83 121 153 c
493 524 121 153 493 524 c
121 894 493 524 121 894 c
191 964 121 894 191 964 c
closepath } bind def
end
/BuildGlyph {
 exch dup /Metrics get 2 index get 0 setcharwidth
/CharProcs get exch 2 copy known not{pop/.notdef}if get exec fill}bind def
/BuildChar {
1 index /Encoding get exch get
1 index /BuildGlyph get exec
} bind def
currentdict end /MC2_Symbol exch definefont pop
%%EndFont
%%BeginFont: /MC3_Arial
12 dict begin
/FontInfo 8 dict dup begin
/ItalicAngle 0 def
/UnderlinePosition -217.00 def
/UnderlineThickness 150.00 def
/StrikeoutPosition 530.00 def
/StrikeoutThickness 102.00 def
/isFixedPitch false def
end readonly def
/FontName /MC3_Arial def
/FontType 3 def
/FontMatrix [1 2048 div 0 0 1 2048 div 0 0] def
/FontBBox [-1361 -665 4096 2129] def
/Encoding 256 array def 0 1 255{Encoding exch/.notdef put}for
Encoding 32/s32 put
Encoding 40/s40 put
Encoding 41/s41 put
Encoding 43/s43 put
Encoding 69/s69 put
Encoding 77/s77 put
Encoding 78/s78 put
Encoding 86/s86 put
Encoding 101/s101 put
/BoundingBoxes 10 dict def
BoundingBoxes begin
/s32 [0 -434 569 1854] def
/s40 [0 -434 682 1854] def
/s41 [0 -434 682 1854] def
/s43 [0 -434 1196 1854] def
/s69 [0 -434 1366 1854] def
/s77 [0 -434 1706 1854] def
/s78 [0 -434 1479 1854] def
/s86 [0 -434 1366 1854] def
/s101 [0 -434 1139 1854] def
end
/Metrics 10 dict def
 Metrics begin
/s32 569 def
/s40 682 def
/s41 682 def
/s43 1196 def
/s69 1366 def
/s77 1706 def
/s78 1479 def
/s86 1366 def
/s101 1139 def
end
/CharProcs 10 dict def
CharProcs begin
/.notdef {} def
/s40 {
479 -431 m
379.67 -305.67 295.67 -159 227 9 c
158.33 177 124 351 124 531 c
124 689.67 149.67 841.67 201 987 c
261 1155.67 353.67 1323.67 479 1491 c
608 1491 479 1491 608 1491 c
527.33 1352.33 474 1253.33 448 1194 c
407.33 1102 375.33 1006 352 906 c
323.33 781.33 309 656 309 530 c
309 209.33 408.67 -111 608 -431 c
479 -431 608 -431 479 -431 c
closepath } bind def
/s41 {
253 -431 m
124 -431 253 -431 124 -431 c
323.33 -111 423 209.33 423 530 c
423 655.33 408.67 779.67 380 903 c
357.33 1003 325.67 1099 285 1191 c
259 1251 205.33 1351 124 1491 c
253 1491 124 1491 253 1491 c
378.33 1323.67 471 1155.67 531 987 c
582.33 841.67 608 689.67 608 531 c
608 351 573.5 177 504.5 9 c
435.5 -159 351.67 -305.67 253 -431 c
closepath } bind def
/s43 {
513 237 m
513 639 513 237 513 639 c
114 639 513 639 114 639 c
114 807 114 639 114 807 c
513 807 114 807 513 807 c
513 1206 513 807 513 1206 c
683 1206 513 1206 683 1206 c
683 807 683 1206 683 807 c
1082 807 683 807 1082 807 c
1082 639 1082 807 1082 639 c
683 639 1082 639 683 639 c
683 237 683 639 683 237 c
513 237 683 237 513 237 c
closepath } bind def
/s69 {
162 0 m
162 1466 162 0 162 1466 c
1222 1466 162 1466 1222 1466 c
1222 1293 1222 1466 1222 1293 c
356 1293 1222 1293 356 1293 c
356 844 356 1293 356 844 c
1167 844 356 844 1167 844 c
1167 672 1167 844 1167 672 c
356 672 1167 672 356 672 c
356 173 356 672 356 173 c
1256 173 356 173 1256 173 c
1256 0 1256 173 1256 0 c
162 0 1256 0 162 0 c
closepath } bind def
/s77 {
152 0 m
152 1466 152 0 152 1466 c
444 1466 152 1466 444 1466 c
791 428 444 1466 791 428 c
823 331.33 846.33 259 861 211 c
877.67 264.33 903.67 342.67 939 446 c
1290 1466 939 446 1290 1466 c
1551 1466 1290 1466 1551 1466 c
1551 0 1551 1466 1551 0 c
1364 0 1551 0 1364 0 c
1364 1227 1364 0 1364 1227 c
938 0 1364 1227 938 0 c
763 0 938 0 763 0 c
339 1248 763 0 339 1248 c
339 0 339 1248 339 0 c
152 0 339 0 152 0 c
closepath } bind def
/s78 {
156 0 m
156 1466 156 0 156 1466 c
355 1466 156 1466 355 1466 c
1125 315 355 1466 1125 315 c
1125 1466 1125 315 1125 1466 c
1311 1466 1125 1466 1311 1466 c
1311 0 1311 1466 1311 0 c
1112 0 1311 0 1112 0 c
342 1152 1112 0 342 1152 c
342 0 342 1152 342 0 c
156 0 342 0 156 0 c
closepath } bind def
/s86 {
577 0 m
9 1466 577 0 9 1466 c
219 1466 9 1466 219 1466 c
600 401 219 1466 600 401 c
630.67 315.67 656.33 235.67 677 161 c
699.67 241 726 321 756 401 c
1152 1466 756 401 1152 1466 c
1350 1466 1152 1466 1350 1466 c
776 0 1350 1466 776 0 c
577 0 776 0 577 0 c
closepath } bind def
/s101 {
862 342 m
1048 319 862 342 1048 319 c
1018.67 210.33 964.33 126 885 66 c
805.67 6 704.33 -24 581 -24 c
425.67 -24 302.5 23.83 211.5 119.5 c
120.5 215.17 75 349.33 75 522 c
75 700.67 121 839.33 213 938 c
305 1036.67 424.33 1086 571 1086 c
713 1086 829 1037.67 919 941 c
1009 844.33 1054 708.33 1054 533 c
1054 522.33 1053.67 506.33 1053 485 c
261 485 1053 485 261 485 c
267.67 368.33 300.67 279 360 217 c
419.33 155 493.33 124 582 124 c
648 124 704.33 141.33 751 176 c
797.67 210.67 834.67 266 862 342 c
closepath 271 633 m
864 633 271 633 864 633 c
856 722.33 833.33 789.33 796 834 c
738.67 903.33 664.33 938 573 938 c
490.33 938 420.83 910.33 364.5 855 c
308.17 799.67 277 725.67 271 633 c
closepath } bind def
end
/BuildGlyph {
 exch dup /Metrics get 2 index get 0 setcharwidth
/CharProcs get exch 2 copy known not{pop/.notdef}if get exec fill}bind def
/BuildChar {
1 index /Encoding get exch get
1 index /BuildGlyph get exec
} bind def
currentdict end /MC3_Arial exch definefont pop
%%EndFont
/clipproc{clippath{[{/m cvx}{/l cvx}{/c cvx}{/cp cvx}pathforall}stopped
{cleartomark[pathbbox exch 3 i sub exch 2 i sub/rectpath cvx}if]np}bd
/iclmtx mtx cmtx def/iclpath clipproc xd/clinit{pathproc initclip np iclpath cl np exec}bd
/clmove{pathproc 3 1 roll clippath pathproc 2 i neg 2 i neg tr initclip np exec cl tr np exec}bd
/clrect[gs np iclpath{pathbbox}stopped{0 0 243.84 182.86 }if gr]def
/cloper{mtx cmtx iclmtx smtx exch exec smtx}bd
/cland{{exch cvx exec}cloper}bd
/clcopy{{exch clinit cvx exec}cloper}bd
/cldiff{{exch pathbbox 4 -1 roll clrect 0 get 2 copy gt{exch}if pop 4 1 roll
 3 -1 roll clrect 1 get 2 copy gt{exch}if pop 3 1 roll
 2 -1 roll clrect 2 get 2 copy lt{exch}if pop 2 1 roll
 1 -1 roll clrect 3 get 2 copy lt{exch}if pop 1 1 roll
 exch 3 i sub exch 2 i sub rectpath cvx exec}cloper}bd
/icl{{clinit}cloper}bd
0.851093 0.85455 sc

/initmtx mtx cmtx def
initmtx smtx
[1.0000 0.0000 0.0000 1.0000 0.0000 0.0000 ] concat
 [0.281988 -0 0 -0.28084 0 213.987] concat
gs
126 676 m
993 676 l
1 sw
1 sj
2 scap
st
162 676 m
162 672 l
0 scap
st
190 676 m
190 672 l
st
218 676 m
218 672 l
st
247 676 m
247 672 l
st
304 676 m
304 672 l
st
332 676 m
332 672 l
st
361 676 m
361 672 l
st
389 676 m
389 672 l
st
446 676 m
446 672 l
st
474 676 m
474 672 l
st
503 676 m
503 672 l
st
531 676 m
531 672 l
st
588 676 m
588 672 l
st
616 676 m
616 672 l
st
645 676 m
645 672 l
st
673 676 m
673 672 l
st
730 676 m
730 672 l
st
758 676 m
758 672 l
st
787 676 m
787 672 l
st
815 676 m
815 672 l
st
872 676 m
872 672 l
st
901 676 m
901 672 l
st
929 676 m
929 672 l
st
957 676 m
957 672 l
st
133 676 m
133 668 l
st
275 676 m
275 668 l
st
417 676 m
417 668 l
st
560 676 m
560 668 l
st
702 676 m
702 668 l
st
844 676 m
844 668 l
st
986 676 m
986 668 l
st
126 6 m
993 6 l
2 scap
st
162 6 m
162 10 l
0 scap
st
190 6 m
190 10 l
st
218 6 m
218 10 l
st
247 6 m
247 10 l
st
304 6 m
304 10 l
st
332 6 m
332 10 l
st
361 6 m
361 10 l
st
389 6 m
389 10 l
st
446 6 m
446 10 l
st
474 6 m
474 10 l
st
503 6 m
503 10 l
st
531 6 m
531 10 l
st
588 6 m
588 10 l
st
616 6 m
616 10 l
st
645 6 m
645 10 l
st
673 6 m
673 10 l
st
730 6 m
730 10 l
st
758 6 m
758 10 l
st
787 6 m
787 10 l
st
815 6 m
815 10 l
st
872 6 m
872 10 l
st
901 6 m
901 10 l
st
929 6 m
929 10 l
st
957 6 m
957 10 l
st
133 6 m
133 14 l
st
275 6 m
275 14 l
st
417 6 m
417 14 l
st
560 6 m
560 14 l
st
702 6 m
702 14 l
st
844 6 m
844 14 l
st
986 6 m
986 14 l
st
126 676 m
126 6 l
2 scap
st
126 667 m
130 667 l
0 scap
st
126 658 m
130 658 l
st
126 649 m
130 649 l
st
126 640 m
130 640 l
st
126 622 m
130 622 l
st
126 613 m
130 613 l
st
126 604 m
130 604 l
st
126 595 m
130 595 l
st
126 576 m
130 576 l
st
126 567 m
130 567 l
st
126 558 m
130 558 l
st
126 549 m
130 549 l
st
126 531 m
130 531 l
st
126 522 m
130 522 l
st
126 513 m
130 513 l
st
126 504 m
130 504 l
st
126 486 m
130 486 l
st
126 477 m
130 477 l
st
126 468 m
130 468 l
st
126 459 m
130 459 l
st
126 441 m
130 441 l
st
126 432 m
130 432 l
st
126 422 m
130 422 l
st
126 413 m
130 413 l
st
126 395 m
130 395 l
st
126 386 m
130 386 l
st
126 377 m
130 377 l
st
126 368 m
130 368 l
st
126 350 m
130 350 l
st
126 341 m
130 341 l
st
126 332 m
130 332 l
st
126 323 m
130 323 l
st
126 305 m
130 305 l
st
126 296 m
130 296 l
st
126 287 m
130 287 l
st
126 278 m
130 278 l
st
126 260 m
130 260 l
st
126 250 m
130 250 l
st
126 241 m
130 241 l
st
126 232 m
130 232 l
st
126 214 m
130 214 l
st
126 205 m
130 205 l
st
126 196 m
130 196 l
st
126 187 m
130 187 l
st
126 169 m
130 169 l
st
126 160 m
130 160 l
st
126 151 m
130 151 l
st
126 142 m
130 142 l
st
126 124 m
130 124 l
st
126 115 m
130 115 l
st
126 106 m
130 106 l
st
126 97 m
130 97 l
st
126 78 m
130 78 l
st
126 69 m
130 69 l
st
126 60 m
130 60 l
st
126 51 m
130 51 l
st
126 33 m
130 33 l
st
126 24 m
130 24 l
st
126 15 m
130 15 l
st
126 6 m
130 6 l
st
126 676 m
134 676 l
st
126 631 m
134 631 l
st
126 585 m
134 585 l
st
126 540 m
134 540 l
st
126 495 m
134 495 l
st
126 450 m
134 450 l
st
126 404 m
134 404 l
st
126 359 m
134 359 l
st
126 314 m
134 314 l
st
126 269 m
134 269 l
st
126 223 m
134 223 l
st
126 178 m
134 178 l
st
126 133 m
134 133 l
st
126 87 m
134 87 l
st
126 42 m
134 42 l
st
993 676 m
993 6 l
2 scap
st
993 667 m
989 667 l
0 scap
st
993 658 m
989 658 l
st
993 649 m
989 649 l
st
993 640 m
989 640 l
st
993 622 m
989 622 l
st
993 613 m
989 613 l
st
993 604 m
989 604 l
st
993 595 m
989 595 l
st
993 576 m
989 576 l
st
993 567 m
989 567 l
st
993 558 m
989 558 l
st
993 549 m
989 549 l
st
993 531 m
989 531 l
st
993 522 m
989 522 l
st
993 513 m
989 513 l
st
993 504 m
989 504 l
st
993 486 m
989 486 l
st
993 477 m
989 477 l
st
993 468 m
989 468 l
st
993 459 m
989 459 l
st
993 441 m
989 441 l
st
993 432 m
989 432 l
st
993 422 m
989 422 l
st
993 413 m
989 413 l
st
993 395 m
989 395 l
st
993 386 m
989 386 l
st
993 377 m
989 377 l
st
993 368 m
989 368 l
st
993 350 m
989 350 l
st
993 341 m
989 341 l
st
993 332 m
989 332 l
st
993 323 m
989 323 l
st
993 305 m
989 305 l
st
993 296 m
989 296 l
st
993 287 m
989 287 l
st
993 278 m
989 278 l
st
993 260 m
989 260 l
st
993 250 m
989 250 l
st
993 241 m
989 241 l
st
993 232 m
989 232 l
st
993 214 m
989 214 l
st
993 205 m
989 205 l
st
993 196 m
989 196 l
st
993 187 m
989 187 l
st
993 169 m
989 169 l
st
993 160 m
989 160 l
st
993 151 m
989 151 l
st
993 142 m
989 142 l
st
993 124 m
989 124 l
st
993 115 m
989 115 l
st
993 106 m
989 106 l
st
993 97 m
989 97 l
st
993 78 m
989 78 l
st
993 69 m
989 69 l
st
993 60 m
989 60 l
st
993 51 m
989 51 l
st
993 33 m
989 33 l
st
993 24 m
989 24 l
st
993 15 m
989 15 l
st
993 6 m
989 6 l
st
993 676 m
985 676 l
st
993 631 m
985 631 l
st
993 585 m
985 585 l
st
993 540 m
985 540 l
st
993 495 m
985 495 l
st
993 450 m
985 450 l
st
993 404 m
985 404 l
st
993 359 m
985 359 l
st
993 314 m
985 314 l
st
993 269 m
985 269 l
st
993 223 m
985 223 l
st
993 178 m
985 178 l
st
993 133 m
985 133 l
st
993 87 m
985 87 l
st
993 42 m
985 42 l
st
gs
gr
gs
gr
gs
1 -1 sc
/MC1_Arial 30 self 104 -707 m
(0.00)[17 8 17 17 ] xs
1 -1 sc
gr
gs
gr
gs
gr
gs
1 -1 sc
/MC1_Arial 30 self 246 -707 m
(0.05)[17 8 17 17 ] xs
1 -1 sc
gr
gs
gr
gs
gr
gs
1 -1 sc
/MC1_Arial 30 self 388 -707 m
(0.10)[17 8 17 17 ] xs
1 -1 sc
gr
gs
gr
gs
gr
gs
1 -1 sc
/MC1_Arial 30 self 531 -707 m
(0.15)[17 8 17 17 ] xs
1 -1 sc
gr
gs
gr
gs
gr
gs
1 -1 sc
/MC1_Arial 30 self 673 -707 m
(0.20)[17 8 17 17 ] xs
1 -1 sc
gr
gs
gr
gs
gr
gs
1 -1 sc
/MC1_Arial 30 self 815 -707 m
(0.25)[17 8 17 17 ] xs
1 -1 sc
gr
gs
gr
gs
gr
gs
1 -1 sc
/MC1_Arial 30 self 957 -707 m
(0.30)[17 8 17 17 ] xs
1 -1 sc
gr
gs
gr
gs
gr
gs
1 -1 sc
/MC1_Arial 30 self 57 -685 m
(-137)[10 17 17 17 ] xs
1 -1 sc
gr
gs
gr
gs
gr
gs
1 -1 sc
/MC1_Arial 30 self 57 -640 m
(-136)[10 17 17 17 ] xs
1 -1 sc
gr
gs
gr
gs
gr
gs
1 -1 sc
/MC1_Arial 30 self 57 -594 m
(-135)[10 17 17 17 ] xs
1 -1 sc
gr
gs
gr
gs
gr
gs
1 -1 sc
/MC1_Arial 30 self 57 -549 m
(-134)[10 17 17 17 ] xs
1 -1 sc
gr
gs
gr
gs
gr
gs
1 -1 sc
/MC1_Arial 30 self 57 -504 m
(-133)[10 17 17 17 ] xs
1 -1 sc
gr
gs
gr
gs
gr
gs
1 -1 sc
/MC1_Arial 30 self 57 -459 m
(-132)[10 17 17 17 ] xs
1 -1 sc
gr
gs
gr
gs
gr
gs
1 -1 sc
/MC1_Arial 30 self 57 -413 m
(-131)[10 17 17 17 ] xs
1 -1 sc
gr
gs
gr
gs
gr
gs
1 -1 sc
/MC1_Arial 30 self 57 -368 m
(-130)[10 17 17 17 ] xs
1 -1 sc
gr
gs
gr
gs
gr
gs
1 -1 sc
/MC1_Arial 30 self 57 -323 m
(-129)[10 17 17 17 ] xs
1 -1 sc
gr
gs
gr
gs
gr
gs
1 -1 sc
/MC1_Arial 30 self 57 -278 m
(-128)[10 17 17 17 ] xs
1 -1 sc
gr
gs
gr
gs
gr
gs
1 -1 sc
/MC1_Arial 30 self 57 -232 m
(-127)[10 17 17 17 ] xs
1 -1 sc
gr
gs
gr
gs
gr
gs
1 -1 sc
/MC1_Arial 30 self 57 -187 m
(-126)[10 17 17 17 ] xs
1 -1 sc
gr
gs
gr
gs
gr
gs
1 -1 sc
/MC1_Arial 30 self 57 -142 m
(-125)[10 17 17 17 ] xs
1 -1 sc
gr
gs
gr
gs
gr
gs
1 -1 sc
/MC1_Arial 30 self 57 -96 m
(-124)[10 17 17 17 ] xs
1 -1 sc
gr
gs
gr
gs
gr
gs
1 -1 sc
/MC1_Arial 30 self 57 -51 m
(-123)[10 17 17 17 ] xs
1 -1 sc
gr
gs
gr
gs
gr
gs
gr
gs
gr
gs
gr
gs
gr
gs
gr
gs
gr
gs
gr
gs
gr
gs
gr
gs
gr
gs
gr
gs
gr
gs
gr
gs
gr
gs
gr
gs
gr
gs
gr
gs
gr
gs
gr
gs
gr
gs
gr
gs
gr
gs
gr
gs
gr
gs
gr
gs
gr
gs
gr
gs
gr
gs
gr
gs
gr
gs
gr
gs
gr
gs
gr
gs
gr
gs
gr
gs
gr
gs
gr
gs
gr
gs
gr
gs
gr
gs
gr
gs
gr
gs
gr
gs
gr
gs
gr
gs
gr
gs
gr
gs
gr
gs
gr
gs
gr
gs
gr
gs
gr
gs
gr
gs
gr
gs
gr
gs
gr
gs
gr
gs
gr
gs
gr
gs
gr
gs
gr
gs
gr
gs
gr
gs
gr
gs
gr
gs
gr
gs
gr
gs
gr
gs
gr
gs
gr
gs
gr
gs
gr
gs
gr
gs
gr
gs
gr
gs
gr
gs
gr
gs
gr
gs
gr
gs
gr
gs
gr
gs
gr
gs
gr
gs
gr
gs
gr
gs
gr
gs
gr
gs
gr
gs
gr
gs
gr
gs
gr
gs
gr
gs
gr
gs
gr
gs
gr
gs
gr
gs
gr
gs
gr
gs
gr
gs
gr
gs
gr
gs
gr
gs
gr
gs
gr
gs
gr
gs
gr
gs
gr
gs
gr
gs
gr
gs
gr
gs
gr
gs
gr
gs
pathproc 126 6 868 671 np rectpath
/eocl cland
np exec
gr
gs
pathproc 126 6 868 671 np rectpath
/eocl cland
np exec
gr
gs
pathproc 126 6 868 671 np rectpath
/eocl cland
np exec
gr
gs
pathproc 126 6 868 671 np rectpath
/eocl cland
np exec
gr
gs
pathproc 126 6 868 671 np rectpath
/eocl cland
np exec
gr
gs
pathproc 126 6 868 671 np rectpath
/eocl cland
np exec
gr
gs
pathproc 126 6 868 671 np rectpath
/eocl cland
np exec
gr
gs
pathproc 126 6 868 671 np rectpath
/eocl cland
np exec
gr
gs
pathproc 126 6 868 671 np rectpath
/eocl cland
np exec
gr
gs
pathproc 126 6 868 671 np rectpath
/eocl cland
np exec
gr
gs
pathproc 126 6 868 671 np rectpath
/eocl cland
np exec
gr
gs
pathproc 126 6 868 671 np rectpath
/eocl cland
np exec
gr
gs
pathproc 126 6 868 671 np rectpath
/eocl cland
np exec
gr
gs
pathproc 126 6 868 671 np rectpath
/eocl cland
np exec
gr
gs
pathproc 126 6 868 671 np rectpath
/eocl cland
np exec
gr
gs
pathproc 126 6 868 671 np rectpath
/eocl cland
np exec
gr
gs
pathproc 126 6 868 671 np rectpath
/eocl cland
np exec
gr
gs
pathproc 126 6 868 671 np rectpath
/eocl cland
np exec
gr
gs
pathproc 126 6 868 671 np rectpath
/eocl cland
np exec
gr
gs
pathproc 126 6 868 671 np rectpath
/eocl cland
np exec
gr
gs
pathproc 126 6 868 671 np rectpath
/eocl cland
np exec
130 499 6 6 rectfill
985 42 m
0 sw
1 scap
130 499 6 6 rectstroke
135 426 6 6 rectfill
135 426 6 6 rectstroke
143 351 6 6 rectfill
143 351 6 6 rectstroke
152 298 6 6 rectfill
152 298 6 6 rectstroke
160 264 6 6 rectfill
160 264 6 6 rectstroke
169 231 6 6 rectfill
169 231 6 6 rectstroke
177 206 6 6 rectfill
177 206 6 6 rectstroke
186 188 6 6 rectfill
186 188 6 6 rectstroke
194 169 6 6 rectfill
194 169 6 6 rectstroke
203 149 6 6 rectfill
203 149 6 6 rectstroke
211 134 6 6 rectfill
211 134 6 6 rectstroke
220 124 6 6 rectfill
220 124 6 6 rectstroke
228 115 6 6 rectfill
228 115 6 6 rectstroke
237 107 6 6 rectfill
237 107 6 6 rectstroke
245 103 6 6 rectfill
245 103 6 6 rectstroke
254 90 6 6 rectfill
254 90 6 6 rectstroke
262 78 6 6 rectfill
262 78 6 6 rectstroke
271 75 6 6 rectfill
271 75 6 6 rectstroke
279 77 6 6 rectfill
279 77 6 6 rectstroke
288 72 6 6 rectfill
288 72 6 6 rectstroke
297 71 6 6 rectfill
297 71 6 6 rectstroke
305 69 6 6 rectfill
305 69 6 6 rectstroke
314 61 6 6 rectfill
314 61 6 6 rectstroke
322 56 6 6 rectfill
322 56 6 6 rectstroke
331 52 6 6 rectfill
331 52 6 6 rectstroke
339 46 6 6 rectfill
339 46 6 6 rectstroke
348 44 6 6 rectfill
348 44 6 6 rectstroke
356 45 6 6 rectfill
356 45 6 6 rectstroke
365 44 6 6 rectfill
365 44 6 6 rectstroke
373 42 6 6 rectfill
373 42 6 6 rectstroke
382 40 6 6 rectfill
382 40 6 6 rectstroke
390 37 6 6 rectfill
390 37 6 6 rectstroke
399 32 6 6 rectfill
399 32 6 6 rectstroke
407 32 6 6 rectfill
407 32 6 6 rectstroke
416 34 6 6 rectfill
416 34 6 6 rectstroke
424 39 6 6 rectfill
424 39 6 6 rectstroke
433 28 6 6 rectfill
433 28 6 6 rectstroke
442 27 6 6 rectfill
442 27 6 6 rectstroke
450 34 6 6 rectfill
450 34 6 6 rectstroke
459 30 6 6 rectfill
459 30 6 6 rectstroke
467 27 6 6 rectfill
467 27 6 6 rectstroke
476 22 6 6 rectfill
476 22 6 6 rectstroke
484 16 6 6 rectfill
484 16 6 6 rectstroke
493 21 6 6 rectfill
493 21 6 6 rectstroke
501 24 6 6 rectfill
501 24 6 6 rectstroke
510 24 6 6 rectfill
510 24 6 6 rectstroke
518 21 6 6 rectfill
518 21 6 6 rectstroke
527 27 6 6 rectfill
527 27 6 6 rectstroke
535 27 6 6 rectfill
535 27 6 6 rectstroke
544 25 6 6 rectfill
544 25 6 6 rectstroke
552 24 6 6 rectfill
552 24 6 6 rectstroke
561 17 6 6 rectfill
561 17 6 6 rectstroke
569 19 6 6 rectfill
569 19 6 6 rectstroke
578 26 6 6 rectfill
578 26 6 6 rectstroke
586 29 6 6 rectfill
586 29 6 6 rectstroke
595 26 6 6 rectfill
595 26 6 6 rectstroke
604 21 6 6 rectfill
604 21 6 6 rectstroke
612 21 6 6 rectfill
612 21 6 6 rectstroke
621 24 6 6 rectfill
621 24 6 6 rectstroke
629 26 6 6 rectfill
629 26 6 6 rectstroke
638 24 6 6 rectfill
638 24 6 6 rectstroke
646 26 6 6 rectfill
646 26 6 6 rectstroke
655 30 6 6 rectfill
655 30 6 6 rectstroke
663 26 6 6 rectfill
663 26 6 6 rectstroke
672 29 6 6 rectfill
672 29 6 6 rectstroke
680 38 6 6 rectfill
680 38 6 6 rectstroke
689 33 6 6 rectfill
689 33 6 6 rectstroke
697 33 6 6 rectfill
697 33 6 6 rectstroke
706 31 6 6 rectfill
706 31 6 6 rectstroke
714 30 6 6 rectfill
714 30 6 6 rectstroke
723 40 6 6 rectfill
723 40 6 6 rectstroke
731 41 6 6 rectfill
731 41 6 6 rectstroke
740 42 6 6 rectfill
740 42 6 6 rectstroke
749 43 6 6 rectfill
749 43 6 6 rectstroke
757 47 6 6 rectfill
757 47 6 6 rectstroke
766 47 6 6 rectfill
766 47 6 6 rectstroke
774 51 6 6 rectfill
774 51 6 6 rectstroke
783 53 6 6 rectfill
783 53 6 6 rectstroke
791 56 6 6 rectfill
791 56 6 6 rectstroke
800 61 6 6 rectfill
800 61 6 6 rectstroke
808 65 6 6 rectfill
808 65 6 6 rectstroke
817 62 6 6 rectfill
817 62 6 6 rectstroke
825 76 6 6 rectfill
825 76 6 6 rectstroke
834 75 6 6 rectfill
834 75 6 6 rectstroke
842 75 6 6 rectfill
842 75 6 6 rectstroke
851 83 6 6 rectfill
851 83 6 6 rectstroke
859 90 6 6 rectfill
859 90 6 6 rectstroke
868 97 6 6 rectfill
868 97 6 6 rectstroke
876 115 6 6 rectfill
876 115 6 6 rectstroke
885 124 6 6 rectfill
885 124 6 6 rectstroke
893 128 6 6 rectfill
893 128 6 6 rectstroke
902 135 6 6 rectfill
902 135 6 6 rectstroke
911 154 6 6 rectfill
911 154 6 6 rectstroke
919 166 6 6 rectfill
919 166 6 6 rectstroke
928 184 6 6 rectfill
928 184 6 6 rectstroke
936 213 6 6 rectfill
936 213 6 6 rectstroke
945 234 6 6 rectfill
945 234 6 6 rectstroke
953 261 6 6 rectfill
953 261 6 6 rectstroke
962 298 6 6 rectfill
962 298 6 6 rectstroke
970 355 6 6 rectfill
970 355 6 6 rectstroke
979 435 6 6 rectfill
979 435 6 6 rectstroke
983 504 6 6 rectfill
983 504 6 6 rectstroke
gr
gs
pathproc 126 6 868 671 np rectpath
/eocl cland
np exec
np
133 507 4 0 360  a
cp
gs
1 0 0 rgb
eofi
gr
0 sw
1 0 0 rgb
1 scap
mtx cmtx mtx smtx
st
smtx
np
138 430 4 0 360  a
cp
gs
eofi
gr
mtx cmtx mtx smtx
st
smtx
np
146 353 4 0 360  a
cp
gs
eofi
gr
mtx cmtx mtx smtx
st
smtx
np
155 301 4 0 360  a
cp
gs
eofi
gr
mtx cmtx mtx smtx
st
smtx
np
163 269 4 0 360  a
cp
gs
eofi
gr
mtx cmtx mtx smtx
st
smtx
np
172 241 4 0 360  a
cp
gs
eofi
gr
mtx cmtx mtx smtx
st
smtx
np
180 216 4 0 360  a
cp
gs
eofi
gr
mtx cmtx mtx smtx
st
smtx
np
189 194 4 0 360  a
cp
gs
eofi
gr
mtx cmtx mtx smtx
st
smtx
np
197 178 4 0 360  a
cp
gs
eofi
gr
mtx cmtx mtx smtx
st
smtx
np
206 166 4 0 360  a
cp
gs
eofi
gr
mtx cmtx mtx smtx
st
smtx
np
215 149 4 0 360  a
cp
gs
eofi
gr
mtx cmtx mtx smtx
st
smtx
np
223 140 4 0 360  a
cp
gs
eofi
gr
mtx cmtx mtx smtx
st
smtx
np
232 131 4 0 360  a
cp
gs
eofi
gr
mtx cmtx mtx smtx
st
smtx
np
240 120 4 0 360  a
cp
gs
eofi
gr
mtx cmtx mtx smtx
st
smtx
np
249 111 4 0 360  a
cp
gs
eofi
gr
mtx cmtx mtx smtx
st
smtx
np
257 101 4 0 360  a
cp
gs
eofi
gr
mtx cmtx mtx smtx
st
smtx
np
266 96 4 0 360  a
cp
gs
eofi
gr
mtx cmtx mtx smtx
st
smtx
np
274 90 4 0 360  a
cp
gs
eofi
gr
mtx cmtx mtx smtx
st
smtx
np
283 85 4 0 360  a
cp
gs
eofi
gr
mtx cmtx mtx smtx
st
smtx
np
291 79 4 0 360  a
cp
gs
eofi
gr
mtx cmtx mtx smtx
st
smtx
np
300 74 4 0 360  a
cp
gs
eofi
gr
mtx cmtx mtx smtx
st
smtx
np
308 72 4 0 360  a
cp
gs
eofi
gr
mtx cmtx mtx smtx
st
smtx
np
317 69 4 0 360  a
cp
gs
eofi
gr
mtx cmtx mtx smtx
st
smtx
np
325 68 4 0 360  a
cp
gs
eofi
gr
mtx cmtx mtx smtx
st
smtx
np
334 63 4 0 360  a
cp
gs
eofi
gr
mtx cmtx mtx smtx
st
smtx
np
342 60 4 0 360  a
cp
gs
eofi
gr
mtx cmtx mtx smtx
st
smtx
np
351 55 4 0 360  a
cp
gs
eofi
gr
mtx cmtx mtx smtx
st
smtx
np
360 52 4 0 360  a
cp
gs
eofi
gr
mtx cmtx mtx smtx
st
smtx
np
368 47 4 0 360  a
cp
gs
eofi
gr
mtx cmtx mtx smtx
st
smtx
np
377 44 4 0 360  a
cp
gs
eofi
gr
mtx cmtx mtx smtx
st
smtx
np
385 47 4 0 360  a
cp
gs
eofi
gr
mtx cmtx mtx smtx
st
smtx
np
394 43 4 0 360  a
cp
gs
eofi
gr
mtx cmtx mtx smtx
st
smtx
np
402 41 4 0 360  a
cp
gs
eofi
gr
mtx cmtx mtx smtx
st
smtx
np
411 37 4 0 360  a
cp
gs
eofi
gr
mtx cmtx mtx smtx
st
smtx
np
419 35 4 0 360  a
cp
gs
eofi
gr
mtx cmtx mtx smtx
st
smtx
np
428 37 4 0 360  a
cp
gs
eofi
gr
mtx cmtx mtx smtx
st
smtx
np
436 35 4 0 360  a
cp
gs
eofi
gr
mtx cmtx mtx smtx
st
smtx
np
445 31 4 0 360  a
cp
gs
eofi
gr
mtx cmtx mtx smtx
st
smtx
np
453 33 4 0 360  a
cp
gs
eofi
gr
mtx cmtx mtx smtx
st
smtx
np
462 27 4 0 360  a
cp
gs
eofi
gr
mtx cmtx mtx smtx
st
smtx
np
470 28 4 0 360  a
cp
gs
eofi
gr
mtx cmtx mtx smtx
st
smtx
np
479 31 4 0 360  a
cp
gs
eofi
gr
mtx cmtx mtx smtx
st
smtx
np
487 27 4 0 360  a
cp
gs
eofi
gr
mtx cmtx mtx smtx
st
smtx
np
496 28 4 0 360  a
cp
gs
eofi
gr
mtx cmtx mtx smtx
st
smtx
np
504 29 4 0 360  a
cp
gs
eofi
gr
mtx cmtx mtx smtx
st
smtx
np
513 29 4 0 360  a
cp
gs
eofi
gr
mtx cmtx mtx smtx
st
smtx
np
522 28 4 0 360  a
cp
gs
eofi
gr
mtx cmtx mtx smtx
st
smtx
np
530 29 4 0 360  a
cp
gs
eofi
gr
mtx cmtx mtx smtx
st
smtx
np
539 29 4 0 360  a
cp
gs
eofi
gr
mtx cmtx mtx smtx
st
smtx
np
547 28 4 0 360  a
cp
gs
eofi
gr
mtx cmtx mtx smtx
st
smtx
np
556 30 4 0 360  a
cp
gs
eofi
gr
mtx cmtx mtx smtx
st
smtx
np
564 35 4 0 360  a
cp
gs
eofi
gr
mtx cmtx mtx smtx
st
smtx
np
573 31 4 0 360  a
cp
gs
eofi
gr
mtx cmtx mtx smtx
st
smtx
np
581 32 4 0 360  a
cp
gs
eofi
gr
mtx cmtx mtx smtx
st
smtx
np
590 29 4 0 360  a
cp
gs
eofi
gr
mtx cmtx mtx smtx
st
smtx
np
598 28 4 0 360  a
cp
gs
eofi
gr
mtx cmtx mtx smtx
st
smtx
np
607 29 4 0 360  a
cp
gs
eofi
gr
mtx cmtx mtx smtx
st
smtx
np
615 29 4 0 360  a
cp
gs
eofi
gr
mtx cmtx mtx smtx
st
smtx
np
624 32 4 0 360  a
cp
gs
eofi
gr
mtx cmtx mtx smtx
st
smtx
np
632 33 4 0 360  a
cp
gs
eofi
gr
mtx cmtx mtx smtx
st
smtx
np
641 34 4 0 360  a
cp
gs
eofi
gr
mtx cmtx mtx smtx
st
smtx
np
649 34 4 0 360  a
cp
gs
eofi
gr
mtx cmtx mtx smtx
st
smtx
np
658 36 4 0 360  a
cp
gs
eofi
gr
mtx cmtx mtx smtx
st
smtx
np
667 35 4 0 360  a
cp
gs
eofi
gr
mtx cmtx mtx smtx
st
smtx
np
675 33 4 0 360  a
cp
gs
eofi
gr
mtx cmtx mtx smtx
st
smtx
np
684 35 4 0 360  a
cp
gs
eofi
gr
mtx cmtx mtx smtx
st
smtx
np
692 37 4 0 360  a
cp
gs
eofi
gr
mtx cmtx mtx smtx
st
smtx
np
701 36 4 0 360  a
cp
gs
eofi
gr
mtx cmtx mtx smtx
st
smtx
np
709 37 4 0 360  a
cp
gs
eofi
gr
mtx cmtx mtx smtx
st
smtx
np
718 39 4 0 360  a
cp
gs
eofi
gr
mtx cmtx mtx smtx
st
smtx
np
726 40 4 0 360  a
cp
gs
eofi
gr
mtx cmtx mtx smtx
st
smtx
np
735 44 4 0 360  a
cp
gs
eofi
gr
mtx cmtx mtx smtx
st
smtx
np
743 47 4 0 360  a
cp
gs
eofi
gr
mtx cmtx mtx smtx
st
smtx
np
752 51 4 0 360  a
cp
gs
eofi
gr
mtx cmtx mtx smtx
st
smtx
np
760 53 4 0 360  a
cp
gs
eofi
gr
mtx cmtx mtx smtx
st
smtx
np
769 58 4 0 360  a
cp
gs
eofi
gr
mtx cmtx mtx smtx
st
smtx
np
777 57 4 0 360  a
cp
gs
eofi
gr
mtx cmtx mtx smtx
st
smtx
np
786 61 4 0 360  a
cp
gs
eofi
gr
mtx cmtx mtx smtx
st
smtx
np
794 68 4 0 360  a
cp
gs
eofi
gr
mtx cmtx mtx smtx
st
smtx
np
803 72 4 0 360  a
cp
gs
eofi
gr
mtx cmtx mtx smtx
st
smtx
np
811 71 4 0 360  a
cp
gs
eofi
gr
mtx cmtx mtx smtx
st
smtx
np
820 77 4 0 360  a
cp
gs
eofi
gr
mtx cmtx mtx smtx
st
smtx
np
829 84 4 0 360  a
cp
gs
eofi
gr
mtx cmtx mtx smtx
st
smtx
np
837 86 4 0 360  a
cp
gs
eofi
gr
mtx cmtx mtx smtx
st
smtx
np
846 95 4 0 360  a
cp
gs
eofi
gr
mtx cmtx mtx smtx
st
smtx
np
854 100 4 0 360  a
cp
gs
eofi
gr
mtx cmtx mtx smtx
st
smtx
np
863 106 4 0 360  a
cp
gs
eofi
gr
mtx cmtx mtx smtx
st
smtx
np
871 117 4 0 360  a
cp
gs
eofi
gr
mtx cmtx mtx smtx
st
smtx
np
880 126 4 0 360  a
cp
gs
eofi
gr
mtx cmtx mtx smtx
st
smtx
np
888 133 4 0 360  a
cp
gs
eofi
gr
mtx cmtx mtx smtx
st
smtx
np
897 145 4 0 360  a
cp
gs
eofi
gr
mtx cmtx mtx smtx
st
smtx
np
905 151 4 0 360  a
cp
gs
eofi
gr
mtx cmtx mtx smtx
st
smtx
np
914 163 4 0 360  a
cp
gs
eofi
gr
mtx cmtx mtx smtx
st
smtx
np
922 181 4 0 360  a
cp
gs
eofi
gr
mtx cmtx mtx smtx
st
smtx
np
931 198 4 0 360  a
cp
gs
eofi
gr
mtx cmtx mtx smtx
st
smtx
np
939 217 4 0 360  a
cp
gs
eofi
gr
mtx cmtx mtx smtx
st
smtx
np
948 239 4 0 360  a
cp
gs
eofi
gr
mtx cmtx mtx smtx
st
smtx
np
956 264 4 0 360  a
cp
gs
eofi
gr
mtx cmtx mtx smtx
st
smtx
np
965 302 4 0 360  a
cp
gs
eofi
gr
mtx cmtx mtx smtx
st
smtx
np
974 357 4 0 360  a
cp
gs
eofi
gr
mtx cmtx mtx smtx
st
smtx
np
982 432 4 0 360  a
cp
gs
eofi
gr
mtx cmtx mtx smtx
st
smtx
np
986 503 4 0 360  a
cp
gs
eofi
gr
mtx cmtx mtx smtx
st
smtx
gr
gs
pathproc 126 6 868 671 np rectpath
/eocl cland
np exec
133 508 m
137 515 l
128 515 l
cp
gs
0 1 0 rgb
eofi
gr
0 sw
0 1 0 rgb
1 scap
mtx cmtx mtx smtx
st
smtx
138 437 m
142 444 l
133 444 l
cp
gs
eofi
gr
mtx cmtx mtx smtx
st
smtx
146 364 m
150 371 l
141 371 l
cp
gs
eofi
gr
mtx cmtx mtx smtx
st
smtx
154 324 m
158 331 l
149 331 l
cp
gs
eofi
gr
mtx cmtx mtx smtx
st
smtx
162 284 m
166 291 l
157 291 l
cp
gs
eofi
gr
mtx cmtx mtx smtx
st
smtx
169 254 m
173 261 l
164 261 l
cp
gs
eofi
gr
mtx cmtx mtx smtx
st
smtx
177 235 m
181 242 l
172 242 l
cp
gs
eofi
gr
mtx cmtx mtx smtx
st
smtx
185 212 m
189 219 l
180 219 l
cp
gs
eofi
gr
mtx cmtx mtx smtx
st
smtx
193 198 m
197 205 l
188 205 l
cp
gs
eofi
gr
mtx cmtx mtx smtx
st
smtx
201 183 m
205 190 l
196 190 l
cp
gs
eofi
gr
mtx cmtx mtx smtx
st
smtx
209 170 m
213 177 l
204 177 l
cp
gs
eofi
gr
mtx cmtx mtx smtx
st
smtx
217 161 m
221 168 l
212 168 l
cp
gs
eofi
gr
mtx cmtx mtx smtx
st
smtx
225 153 m
229 160 l
220 160 l
cp
gs
eofi
gr
mtx cmtx mtx smtx
st
smtx
233 139 m
237 146 l
228 146 l
cp
gs
eofi
gr
mtx cmtx mtx smtx
st
smtx
241 131 m
245 138 l
236 138 l
cp
gs
eofi
gr
mtx cmtx mtx smtx
st
smtx
249 124 m
253 131 l
244 131 l
cp
gs
eofi
gr
mtx cmtx mtx smtx
st
smtx
257 116 m
261 123 l
252 123 l
cp
gs
eofi
gr
mtx cmtx mtx smtx
st
smtx
265 110 m
269 117 l
260 117 l
cp
gs
eofi
gr
mtx cmtx mtx smtx
st
smtx
273 100 m
277 107 l
268 107 l
cp
gs
eofi
gr
mtx cmtx mtx smtx
st
smtx
281 96 m
285 103 l
276 103 l
cp
gs
eofi
gr
mtx cmtx mtx smtx
st
smtx
289 96 m
293 103 l
284 103 l
cp
gs
eofi
gr
mtx cmtx mtx smtx
st
smtx
297 91 m
301 98 l
292 98 l
cp
gs
eofi
gr
mtx cmtx mtx smtx
st
smtx
305 86 m
309 93 l
300 93 l
cp
gs
eofi
gr
mtx cmtx mtx smtx
st
smtx
313 80 m
317 87 l
308 87 l
cp
gs
eofi
gr
mtx cmtx mtx smtx
st
smtx
321 79 m
325 86 l
316 86 l
cp
gs
eofi
gr
mtx cmtx mtx smtx
st
smtx
329 74 m
333 81 l
324 81 l
cp
gs
eofi
gr
mtx cmtx mtx smtx
st
smtx
337 72 m
341 79 l
332 79 l
cp
gs
eofi
gr
mtx cmtx mtx smtx
st
smtx
345 69 m
349 76 l
340 76 l
cp
gs
eofi
gr
mtx cmtx mtx smtx
st
smtx
353 66 m
357 73 l
348 73 l
cp
gs
eofi
gr
mtx cmtx mtx smtx
st
smtx
361 64 m
365 71 l
356 71 l
cp
gs
eofi
gr
mtx cmtx mtx smtx
st
smtx
368 61 m
372 68 l
363 68 l
cp
gs
eofi
gr
mtx cmtx mtx smtx
st
smtx
376 62 m
380 69 l
371 69 l
cp
gs
eofi
gr
mtx cmtx mtx smtx
st
smtx
384 54 m
388 61 l
379 61 l
cp
gs
eofi
gr
mtx cmtx mtx smtx
st
smtx
392 57 m
396 64 l
387 64 l
cp
gs
eofi
gr
mtx cmtx mtx smtx
st
smtx
400 51 m
404 58 l
395 58 l
cp
gs
eofi
gr
mtx cmtx mtx smtx
st
smtx
408 48 m
412 55 l
403 55 l
cp
gs
eofi
gr
mtx cmtx mtx smtx
st
smtx
416 48 m
420 55 l
411 55 l
cp
gs
eofi
gr
mtx cmtx mtx smtx
st
smtx
424 48 m
428 55 l
419 55 l
cp
gs
eofi
gr
mtx cmtx mtx smtx
st
smtx
432 46 m
436 53 l
427 53 l
cp
gs
eofi
gr
mtx cmtx mtx smtx
st
smtx
440 46 m
444 53 l
435 53 l
cp
gs
eofi
gr
mtx cmtx mtx smtx
st
smtx
448 49 m
452 56 l
443 56 l
cp
gs
eofi
gr
mtx cmtx mtx smtx
st
smtx
456 49 m
460 56 l
451 56 l
cp
gs
eofi
gr
mtx cmtx mtx smtx
st
smtx
464 46 m
468 53 l
459 53 l
cp
gs
eofi
gr
mtx cmtx mtx smtx
st
smtx
472 47 m
476 54 l
467 54 l
cp
gs
eofi
gr
mtx cmtx mtx smtx
st
smtx
480 46 m
484 53 l
475 53 l
cp
gs
eofi
gr
mtx cmtx mtx smtx
st
smtx
488 45 m
492 52 l
483 52 l
cp
gs
eofi
gr
mtx cmtx mtx smtx
st
smtx
496 46 m
500 53 l
491 53 l
cp
gs
eofi
gr
mtx cmtx mtx smtx
st
smtx
504 46 m
508 53 l
499 53 l
cp
gs
eofi
gr
mtx cmtx mtx smtx
st
smtx
512 42 m
516 49 l
507 49 l
cp
gs
eofi
gr
mtx cmtx mtx smtx
st
smtx
520 42 m
524 49 l
515 49 l
cp
gs
eofi
gr
mtx cmtx mtx smtx
st
smtx
528 39 m
532 46 l
523 46 l
cp
gs
eofi
gr
mtx cmtx mtx smtx
st
smtx
536 46 m
540 53 l
531 53 l
cp
gs
eofi
gr
mtx cmtx mtx smtx
st
smtx
544 40 m
548 47 l
539 47 l
cp
gs
eofi
gr
mtx cmtx mtx smtx
st
smtx
552 38 m
556 45 l
547 45 l
cp
gs
eofi
gr
mtx cmtx mtx smtx
st
smtx
560 44 m
564 51 l
555 51 l
cp
gs
eofi
gr
mtx cmtx mtx smtx
st
smtx
567 42 m
571 49 l
562 49 l
cp
gs
eofi
gr
mtx cmtx mtx smtx
st
smtx
575 37 m
579 44 l
570 44 l
cp
gs
eofi
gr
mtx cmtx mtx smtx
st
smtx
583 44 m
587 51 l
578 51 l
cp
gs
eofi
gr
mtx cmtx mtx smtx
st
smtx
591 41 m
595 48 l
586 48 l
cp
gs
eofi
gr
mtx cmtx mtx smtx
st
smtx
599 40 m
603 47 l
594 47 l
cp
gs
eofi
gr
mtx cmtx mtx smtx
st
smtx
607 40 m
611 47 l
602 47 l
cp
gs
eofi
gr
mtx cmtx mtx smtx
st
smtx
615 42 m
619 49 l
610 49 l
cp
gs
eofi
gr
mtx cmtx mtx smtx
st
smtx
623 45 m
627 52 l
618 52 l
cp
gs
eofi
gr
mtx cmtx mtx smtx
st
smtx
631 42 m
635 49 l
626 49 l
cp
gs
eofi
gr
mtx cmtx mtx smtx
st
smtx
639 40 m
643 47 l
634 47 l
cp
gs
eofi
gr
mtx cmtx mtx smtx
st
smtx
647 46 m
651 53 l
642 53 l
cp
gs
eofi
gr
mtx cmtx mtx smtx
st
smtx
655 47 m
659 54 l
650 54 l
cp
gs
eofi
gr
mtx cmtx mtx smtx
st
smtx
663 43 m
667 50 l
658 50 l
cp
gs
eofi
gr
mtx cmtx mtx smtx
st
smtx
671 44 m
675 51 l
666 51 l
cp
gs
eofi
gr
mtx cmtx mtx smtx
st
smtx
679 51 m
683 58 l
674 58 l
cp
gs
eofi
gr
mtx cmtx mtx smtx
st
smtx
687 47 m
691 54 l
682 54 l
cp
gs
eofi
gr
mtx cmtx mtx smtx
st
smtx
695 48 m
699 55 l
690 55 l
cp
gs
eofi
gr
mtx cmtx mtx smtx
st
smtx
703 47 m
707 54 l
698 54 l
cp
gs
eofi
gr
mtx cmtx mtx smtx
st
smtx
711 54 m
715 61 l
706 61 l
cp
gs
eofi
gr
mtx cmtx mtx smtx
st
smtx
719 56 m
723 63 l
714 63 l
cp
gs
eofi
gr
mtx cmtx mtx smtx
st
smtx
727 56 m
731 63 l
722 63 l
cp
gs
eofi
gr
mtx cmtx mtx smtx
st
smtx
735 57 m
739 64 l
730 64 l
cp
gs
eofi
gr
mtx cmtx mtx smtx
st
smtx
743 57 m
747 64 l
738 64 l
cp
gs
eofi
gr
mtx cmtx mtx smtx
st
smtx
751 59 m
755 66 l
746 66 l
cp
gs
eofi
gr
mtx cmtx mtx smtx
st
smtx
758 60 m
762 67 l
753 67 l
cp
gs
eofi
gr
mtx cmtx mtx smtx
st
smtx
766 61 m
770 68 l
761 68 l
cp
gs
eofi
gr
mtx cmtx mtx smtx
st
smtx
774 70 m
778 77 l
769 77 l
cp
gs
eofi
gr
mtx cmtx mtx smtx
st
smtx
782 73 m
786 80 l
777 80 l
cp
gs
eofi
gr
mtx cmtx mtx smtx
st
smtx
790 75 m
794 82 l
785 82 l
cp
gs
eofi
gr
mtx cmtx mtx smtx
st
smtx
798 77 m
802 84 l
793 84 l
cp
gs
eofi
gr
mtx cmtx mtx smtx
st
smtx
806 79 m
810 86 l
801 86 l
cp
gs
eofi
gr
mtx cmtx mtx smtx
st
smtx
814 83 m
818 90 l
809 90 l
cp
gs
eofi
gr
mtx cmtx mtx smtx
st
smtx
822 89 m
826 96 l
817 96 l
cp
gs
eofi
gr
mtx cmtx mtx smtx
st
smtx
830 93 m
834 100 l
825 100 l
cp
gs
eofi
gr
mtx cmtx mtx smtx
st
smtx
838 101 m
842 108 l
833 108 l
cp
gs
eofi
gr
mtx cmtx mtx smtx
st
smtx
846 100 m
850 107 l
841 107 l
cp
gs
eofi
gr
mtx cmtx mtx smtx
st
smtx
854 105 m
858 112 l
849 112 l
cp
gs
eofi
gr
mtx cmtx mtx smtx
st
smtx
862 112 m
866 119 l
857 119 l
cp
gs
eofi
gr
mtx cmtx mtx smtx
st
smtx
870 120 m
874 127 l
865 127 l
cp
gs
eofi
gr
mtx cmtx mtx smtx
st
smtx
878 130 m
882 137 l
873 137 l
cp
gs
eofi
gr
mtx cmtx mtx smtx
st
smtx
886 142 m
890 149 l
881 149 l
cp
gs
eofi
gr
mtx cmtx mtx smtx
st
smtx
894 150 m
898 157 l
889 157 l
cp
gs
eofi
gr
mtx cmtx mtx smtx
st
smtx
902 152 m
906 159 l
897 159 l
cp
gs
eofi
gr
mtx cmtx mtx smtx
st
smtx
910 166 m
914 173 l
905 173 l
cp
gs
eofi
gr
mtx cmtx mtx smtx
st
smtx
918 183 m
922 190 l
913 190 l
cp
gs
eofi
gr
mtx cmtx mtx smtx
st
smtx
926 198 m
930 205 l
921 205 l
cp
gs
eofi
gr
mtx cmtx mtx smtx
st
smtx
934 217 m
938 224 l
929 224 l
cp
gs
eofi
gr
mtx cmtx mtx smtx
st
smtx
942 237 m
946 244 l
937 244 l
cp
gs
eofi
gr
mtx cmtx mtx smtx
st
smtx
950 255 m
954 262 l
945 262 l
cp
gs
eofi
gr
mtx cmtx mtx smtx
st
smtx
957 281 m
961 288 l
952 288 l
cp
gs
eofi
gr
mtx cmtx mtx smtx
st
smtx
965 318 m
969 325 l
960 325 l
cp
gs
eofi
gr
mtx cmtx mtx smtx
st
smtx
973 369 m
977 376 l
968 376 l
cp
gs
eofi
gr
mtx cmtx mtx smtx
st
smtx
981 437 m
985 444 l
976 444 l
cp
gs
eofi
gr
mtx cmtx mtx smtx
st
smtx
986 508 m
990 515 l
981 515 l
cp
gs
eofi
gr
mtx cmtx mtx smtx
st
smtx
gr
gs
pathproc 126 6 868 671 np rectpath
/eocl cland
np exec
137 524 m
133 531 l
128 524 l
cp
gs
0 0 1 rgb
eofi
gr
0 sw
0 0 1 rgb
1 scap
mtx cmtx mtx smtx
st
smtx
142 456 m
138 463 l
133 456 l
cp
gs
eofi
gr
mtx cmtx mtx smtx
st
smtx
151 380 m
147 387 l
142 380 l
cp
gs
eofi
gr
mtx cmtx mtx smtx
st
smtx
159 332 m
155 339 l
150 332 l
cp
gs
eofi
gr
mtx cmtx mtx smtx
st
smtx
168 297 m
164 304 l
159 297 l
cp
gs
eofi
gr
mtx cmtx mtx smtx
st
smtx
176 270 m
172 277 l
167 270 l
cp
gs
eofi
gr
mtx cmtx mtx smtx
st
smtx
185 248 m
181 255 l
176 248 l
cp
gs
eofi
gr
mtx cmtx mtx smtx
st
smtx
193 228 m
189 235 l
184 228 l
cp
gs
eofi
gr
mtx cmtx mtx smtx
st
smtx
202 214 m
198 221 l
193 214 l
cp
gs
eofi
gr
mtx cmtx mtx smtx
st
smtx
210 198 m
206 205 l
201 198 l
cp
gs
eofi
gr
mtx cmtx mtx smtx
st
smtx
219 185 m
215 192 l
210 185 l
cp
gs
eofi
gr
mtx cmtx mtx smtx
st
smtx
227 172 m
223 179 l
218 172 l
cp
gs
eofi
gr
mtx cmtx mtx smtx
st
smtx
236 161 m
232 168 l
227 161 l
cp
gs
eofi
gr
mtx cmtx mtx smtx
st
smtx
244 156 m
240 163 l
235 156 l
cp
gs
eofi
gr
mtx cmtx mtx smtx
st
smtx
253 149 m
249 156 l
244 149 l
cp
gs
eofi
gr
mtx cmtx mtx smtx
st
smtx
261 138 m
257 145 l
252 138 l
cp
gs
eofi
gr
mtx cmtx mtx smtx
st
smtx
270 133 m
266 140 l
261 133 l
cp
gs
eofi
gr
mtx cmtx mtx smtx
st
smtx
279 126 m
275 133 l
270 126 l
cp
gs
eofi
gr
mtx cmtx mtx smtx
st
smtx
287 123 m
283 130 l
278 123 l
cp
gs
eofi
gr
mtx cmtx mtx smtx
st
smtx
296 121 m
292 128 l
287 121 l
cp
gs
eofi
gr
mtx cmtx mtx smtx
st
smtx
304 114 m
300 121 l
295 114 l
cp
gs
eofi
gr
mtx cmtx mtx smtx
st
smtx
313 110 m
309 117 l
304 110 l
cp
gs
eofi
gr
mtx cmtx mtx smtx
st
smtx
321 106 m
317 113 l
312 106 l
cp
gs
eofi
gr
mtx cmtx mtx smtx
st
smtx
330 104 m
326 111 l
321 104 l
cp
gs
eofi
gr
mtx cmtx mtx smtx
st
smtx
338 100 m
334 107 l
329 100 l
cp
gs
eofi
gr
mtx cmtx mtx smtx
st
smtx
347 95 m
343 102 l
338 95 l
cp
gs
eofi
gr
mtx cmtx mtx smtx
st
smtx
355 90 m
351 97 l
346 90 l
cp
gs
eofi
gr
mtx cmtx mtx smtx
st
smtx
364 86 m
360 93 l
355 86 l
cp
gs
eofi
gr
mtx cmtx mtx smtx
st
smtx
372 88 m
368 95 l
363 88 l
cp
gs
eofi
gr
mtx cmtx mtx smtx
st
smtx
381 88 m
377 95 l
372 88 l
cp
gs
eofi
gr
mtx cmtx mtx smtx
st
smtx
389 86 m
385 93 l
380 86 l
cp
gs
eofi
gr
mtx cmtx mtx smtx
st
smtx
398 81 m
394 88 l
389 81 l
cp
gs
eofi
gr
mtx cmtx mtx smtx
st
smtx
406 81 m
402 88 l
397 81 l
cp
gs
eofi
gr
mtx cmtx mtx smtx
st
smtx
415 79 m
411 86 l
406 79 l
cp
gs
eofi
gr
mtx cmtx mtx smtx
st
smtx
424 73 m
420 80 l
415 73 l
cp
gs
eofi
gr
mtx cmtx mtx smtx
st
smtx
432 75 m
428 82 l
423 75 l
cp
gs
eofi
gr
mtx cmtx mtx smtx
st
smtx
441 77 m
437 84 l
432 77 l
cp
gs
eofi
gr
mtx cmtx mtx smtx
st
smtx
449 73 m
445 80 l
440 73 l
cp
gs
eofi
gr
mtx cmtx mtx smtx
st
smtx
458 73 m
454 80 l
449 73 l
cp
gs
eofi
gr
mtx cmtx mtx smtx
st
smtx
466 73 m
462 80 l
457 73 l
cp
gs
eofi
gr
mtx cmtx mtx smtx
st
smtx
475 71 m
471 78 l
466 71 l
cp
gs
eofi
gr
mtx cmtx mtx smtx
st
smtx
483 67 m
479 74 l
474 67 l
cp
gs
eofi
gr
mtx cmtx mtx smtx
st
smtx
492 69 m
488 76 l
483 69 l
cp
gs
eofi
gr
mtx cmtx mtx smtx
st
smtx
500 69 m
496 76 l
491 69 l
cp
gs
eofi
gr
mtx cmtx mtx smtx
st
smtx
509 65 m
505 72 l
500 65 l
cp
gs
eofi
gr
mtx cmtx mtx smtx
st
smtx
517 70 m
513 77 l
508 70 l
cp
gs
eofi
gr
mtx cmtx mtx smtx
st
smtx
526 72 m
522 79 l
517 72 l
cp
gs
eofi
gr
mtx cmtx mtx smtx
st
smtx
534 70 m
530 77 l
525 70 l
cp
gs
eofi
gr
mtx cmtx mtx smtx
st
smtx
543 63 m
539 70 l
534 63 l
cp
gs
eofi
gr
mtx cmtx mtx smtx
st
smtx
551 62 m
547 69 l
542 62 l
cp
gs
eofi
gr
mtx cmtx mtx smtx
st
smtx
560 65 m
556 72 l
551 65 l
cp
gs
eofi
gr
mtx cmtx mtx smtx
st
smtx
568 68 m
564 75 l
559 68 l
cp
gs
eofi
gr
mtx cmtx mtx smtx
st
smtx
577 66 m
573 73 l
568 66 l
cp
gs
eofi
gr
mtx cmtx mtx smtx
st
smtx
586 62 m
582 69 l
577 62 l
cp
gs
eofi
gr
mtx cmtx mtx smtx
st
smtx
594 62 m
590 69 l
585 62 l
cp
gs
eofi
gr
mtx cmtx mtx smtx
st
smtx
603 65 m
599 72 l
594 65 l
cp
gs
eofi
gr
mtx cmtx mtx smtx
st
smtx
611 71 m
607 78 l
602 71 l
cp
gs
eofi
gr
mtx cmtx mtx smtx
st
smtx
620 70 m
616 77 l
611 70 l
cp
gs
eofi
gr
mtx cmtx mtx smtx
st
smtx
628 66 m
624 73 l
619 66 l
cp
gs
eofi
gr
mtx cmtx mtx smtx
st
smtx
637 66 m
633 73 l
628 66 l
cp
gs
eofi
gr
mtx cmtx mtx smtx
st
smtx
645 66 m
641 73 l
636 66 l
cp
gs
eofi
gr
mtx cmtx mtx smtx
st
smtx
654 63 m
650 70 l
645 63 l
cp
gs
eofi
gr
mtx cmtx mtx smtx
st
smtx
662 66 m
658 73 l
653 66 l
cp
gs
eofi
gr
mtx cmtx mtx smtx
st
smtx
671 65 m
667 72 l
662 65 l
cp
gs
eofi
gr
mtx cmtx mtx smtx
st
smtx
679 65 m
675 72 l
670 65 l
cp
gs
eofi
gr
mtx cmtx mtx smtx
st
smtx
688 69 m
684 76 l
679 69 l
cp
gs
eofi
gr
mtx cmtx mtx smtx
st
smtx
696 74 m
692 81 l
687 74 l
cp
gs
eofi
gr
mtx cmtx mtx smtx
st
smtx
705 71 m
701 78 l
696 71 l
cp
gs
eofi
gr
mtx cmtx mtx smtx
st
smtx
713 75 m
709 82 l
704 75 l
cp
gs
eofi
gr
mtx cmtx mtx smtx
st
smtx
722 76 m
718 83 l
713 76 l
cp
gs
eofi
gr
mtx cmtx mtx smtx
st
smtx
731 75 m
727 82 l
722 75 l
cp
gs
eofi
gr
mtx cmtx mtx smtx
st
smtx
739 76 m
735 83 l
730 76 l
cp
gs
eofi
gr
mtx cmtx mtx smtx
st
smtx
748 79 m
744 86 l
739 79 l
cp
gs
eofi
gr
mtx cmtx mtx smtx
st
smtx
756 87 m
752 94 l
747 87 l
cp
gs
eofi
gr
mtx cmtx mtx smtx
st
smtx
765 86 m
761 93 l
756 86 l
cp
gs
eofi
gr
mtx cmtx mtx smtx
st
smtx
773 89 m
769 96 l
764 89 l
cp
gs
eofi
gr
mtx cmtx mtx smtx
st
smtx
782 94 m
778 101 l
773 94 l
cp
gs
eofi
gr
mtx cmtx mtx smtx
st
smtx
790 99 m
786 106 l
781 99 l
cp
gs
eofi
gr
mtx cmtx mtx smtx
st
smtx
799 102 m
795 109 l
790 102 l
cp
gs
eofi
gr
mtx cmtx mtx smtx
st
smtx
807 99 m
803 106 l
798 99 l
cp
gs
eofi
gr
mtx cmtx mtx smtx
st
smtx
816 108 m
812 115 l
807 108 l
cp
gs
eofi
gr
mtx cmtx mtx smtx
st
smtx
824 110 m
820 117 l
815 110 l
cp
gs
eofi
gr
mtx cmtx mtx smtx
st
smtx
833 111 m
829 118 l
824 111 l
cp
gs
eofi
gr
mtx cmtx mtx smtx
st
smtx
841 122 m
837 129 l
832 122 l
cp
gs
eofi
gr
mtx cmtx mtx smtx
st
smtx
850 126 m
846 133 l
841 126 l
cp
gs
eofi
gr
mtx cmtx mtx smtx
st
smtx
858 129 m
854 136 l
849 129 l
cp
gs
eofi
gr
mtx cmtx mtx smtx
st
smtx
867 141 m
863 148 l
858 141 l
cp
gs
eofi
gr
mtx cmtx mtx smtx
st
smtx
875 145 m
871 152 l
866 145 l
cp
gs
eofi
gr
mtx cmtx mtx smtx
st
smtx
884 153 m
880 160 l
875 153 l
cp
gs
eofi
gr
mtx cmtx mtx smtx
st
smtx
893 166 m
889 173 l
884 166 l
cp
gs
eofi
gr
mtx cmtx mtx smtx
st
smtx
901 175 m
897 182 l
892 175 l
cp
gs
eofi
gr
mtx cmtx mtx smtx
st
smtx
910 182 m
906 189 l
901 182 l
cp
gs
eofi
gr
mtx cmtx mtx smtx
st
smtx
918 201 m
914 208 l
909 201 l
cp
gs
eofi
gr
mtx cmtx mtx smtx
st
smtx
927 215 m
923 222 l
918 215 l
cp
gs
eofi
gr
mtx cmtx mtx smtx
st
smtx
935 227 m
931 234 l
926 227 l
cp
gs
eofi
gr
mtx cmtx mtx smtx
st
smtx
944 249 m
940 256 l
935 249 l
cp
gs
eofi
gr
mtx cmtx mtx smtx
st
smtx
952 272 m
948 279 l
943 272 l
cp
gs
eofi
gr
mtx cmtx mtx smtx
st
smtx
961 301 m
957 308 l
952 301 l
cp
gs
eofi
gr
mtx cmtx mtx smtx
st
smtx
969 340 m
965 347 l
960 340 l
cp
gs
eofi
gr
mtx cmtx mtx smtx
st
smtx
978 391 m
974 398 l
969 391 l
cp
gs
eofi
gr
mtx cmtx mtx smtx
st
smtx
986 464 m
982 471 l
977 464 l
cp
gs
eofi
gr
mtx cmtx mtx smtx
st
smtx
990 528 m
986 535 l
981 528 l
cp
gs
eofi
gr
mtx cmtx mtx smtx
st
smtx
gr
gs
pathproc 126 6 868 671 np rectpath
/eocl cland
np exec
128 574 m
133 569 l
138 574 l
133 579 l
cp
gs
0 1 1 rgb
eofi
gr
0 sw
0 1 1 rgb
1 scap
mtx cmtx mtx smtx
st
smtx
133 521 m
138 516 l
143 521 l
138 526 l
cp
gs
eofi
gr
mtx cmtx mtx smtx
st
smtx
142 449 m
147 444 l
152 449 l
147 454 l
cp
gs
eofi
gr
mtx cmtx mtx smtx
st
smtx
150 402 m
155 397 l
160 402 l
155 407 l
cp
gs
eofi
gr
mtx cmtx mtx smtx
st
smtx
159 370 m
164 365 l
169 370 l
164 375 l
cp
gs
eofi
gr
mtx cmtx mtx smtx
st
smtx
168 344 m
173 339 l
178 344 l
173 349 l
cp
gs
eofi
gr
mtx cmtx mtx smtx
st
smtx
176 321 m
181 316 l
186 321 l
181 326 l
cp
gs
eofi
gr
mtx cmtx mtx smtx
st
smtx
185 306 m
190 301 l
195 306 l
190 311 l
cp
gs
eofi
gr
mtx cmtx mtx smtx
st
smtx
193 290 m
198 285 l
203 290 l
198 295 l
cp
gs
eofi
gr
mtx cmtx mtx smtx
st
smtx
202 278 m
207 273 l
212 278 l
207 283 l
cp
gs
eofi
gr
mtx cmtx mtx smtx
st
smtx
210 262 m
215 257 l
220 262 l
215 267 l
cp
gs
eofi
gr
mtx cmtx mtx smtx
st
smtx
219 253 m
224 248 l
229 253 l
224 258 l
cp
gs
eofi
gr
mtx cmtx mtx smtx
st
smtx
227 248 m
232 243 l
237 248 l
232 253 l
cp
gs
eofi
gr
mtx cmtx mtx smtx
st
smtx
236 236 m
241 231 l
246 236 l
241 241 l
cp
gs
eofi
gr
mtx cmtx mtx smtx
st
smtx
244 232 m
249 227 l
254 232 l
249 237 l
cp
gs
eofi
gr
mtx cmtx mtx smtx
st
smtx
253 231 m
258 226 l
263 231 l
258 236 l
cp
gs
eofi
gr
mtx cmtx mtx smtx
st
smtx
261 219 m
266 214 l
271 219 l
266 224 l
cp
gs
eofi
gr
mtx cmtx mtx smtx
st
smtx
270 212 m
275 207 l
280 212 l
275 217 l
cp
gs
eofi
gr
mtx cmtx mtx smtx
st
smtx
278 205 m
283 200 l
288 205 l
283 210 l
cp
gs
eofi
gr
mtx cmtx mtx smtx
st
smtx
287 201 m
292 196 l
297 201 l
292 206 l
cp
gs
eofi
gr
mtx cmtx mtx smtx
st
smtx
295 196 m
300 191 l
305 196 l
300 201 l
cp
gs
eofi
gr
mtx cmtx mtx smtx
st
smtx
304 195 m
309 190 l
314 195 l
309 200 l
cp
gs
eofi
gr
mtx cmtx mtx smtx
st
smtx
313 188 m
318 183 l
323 188 l
318 193 l
cp
gs
eofi
gr
mtx cmtx mtx smtx
st
smtx
321 187 m
326 182 l
331 187 l
326 192 l
cp
gs
eofi
gr
mtx cmtx mtx smtx
st
smtx
330 182 m
335 177 l
340 182 l
335 187 l
cp
gs
eofi
gr
mtx cmtx mtx smtx
st
smtx
338 177 m
343 172 l
348 177 l
343 182 l
cp
gs
eofi
gr
mtx cmtx mtx smtx
st
smtx
347 178 m
352 173 l
357 178 l
352 183 l
cp
gs
eofi
gr
mtx cmtx mtx smtx
st
smtx
355 175 m
360 170 l
365 175 l
360 180 l
cp
gs
eofi
gr
mtx cmtx mtx smtx
st
smtx
364 172 m
369 167 l
374 172 l
369 177 l
cp
gs
eofi
gr
mtx cmtx mtx smtx
st
smtx
372 172 m
377 167 l
382 172 l
377 177 l
cp
gs
eofi
gr
mtx cmtx mtx smtx
st
smtx
381 168 m
386 163 l
391 168 l
386 173 l
cp
gs
eofi
gr
mtx cmtx mtx smtx
st
smtx
389 166 m
394 161 l
399 166 l
394 171 l
cp
gs
eofi
gr
mtx cmtx mtx smtx
st
smtx
398 169 m
403 164 l
408 169 l
403 174 l
cp
gs
eofi
gr
mtx cmtx mtx smtx
st
smtx
406 163 m
411 158 l
416 163 l
411 168 l
cp
gs
eofi
gr
mtx cmtx mtx smtx
st
smtx
415 165 m
420 160 l
425 165 l
420 170 l
cp
gs
eofi
gr
mtx cmtx mtx smtx
st
smtx
423 165 m
428 160 l
433 165 l
428 170 l
cp
gs
eofi
gr
mtx cmtx mtx smtx
st
smtx
432 161 m
437 156 l
442 161 l
437 166 l
cp
gs
eofi
gr
mtx cmtx mtx smtx
st
smtx
440 159 m
445 154 l
450 159 l
445 164 l
cp
gs
eofi
gr
mtx cmtx mtx smtx
st
smtx
449 164 m
454 159 l
459 164 l
454 169 l
cp
gs
eofi
gr
mtx cmtx mtx smtx
st
smtx
457 164 m
462 159 l
467 164 l
462 169 l
cp
gs
eofi
gr
mtx cmtx mtx smtx
st
smtx
466 156 m
471 151 l
476 156 l
471 161 l
cp
gs
eofi
gr
mtx cmtx mtx smtx
st
smtx
475 156 m
480 151 l
485 156 l
480 161 l
cp
gs
eofi
gr
mtx cmtx mtx smtx
st
smtx
483 157 m
488 152 l
493 157 l
488 162 l
cp
gs
eofi
gr
mtx cmtx mtx smtx
st
smtx
492 157 m
497 152 l
502 157 l
497 162 l
cp
gs
eofi
gr
mtx cmtx mtx smtx
st
smtx
500 157 m
505 152 l
510 157 l
505 162 l
cp
gs
eofi
gr
mtx cmtx mtx smtx
st
smtx
509 163 m
514 158 l
519 163 l
514 168 l
cp
gs
eofi
gr
mtx cmtx mtx smtx
st
smtx
517 158 m
522 153 l
527 158 l
522 163 l
cp
gs
eofi
gr
mtx cmtx mtx smtx
st
smtx
526 158 m
531 153 l
536 158 l
531 163 l
cp
gs
eofi
gr
mtx cmtx mtx smtx
st
smtx
534 161 m
539 156 l
544 161 l
539 166 l
cp
gs
eofi
gr
mtx cmtx mtx smtx
st
smtx
543 159 m
548 154 l
553 159 l
548 164 l
cp
gs
eofi
gr
mtx cmtx mtx smtx
st
smtx
551 160 m
556 155 l
561 160 l
556 165 l
cp
gs
eofi
gr
mtx cmtx mtx smtx
st
smtx
560 159 m
565 154 l
570 159 l
565 164 l
cp
gs
eofi
gr
mtx cmtx mtx smtx
st
smtx
568 162 m
573 157 l
578 162 l
573 167 l
cp
gs
eofi
gr
mtx cmtx mtx smtx
st
smtx
577 158 m
582 153 l
587 158 l
582 163 l
cp
gs
eofi
gr
mtx cmtx mtx smtx
st
smtx
585 159 m
590 154 l
595 159 l
590 164 l
cp
gs
eofi
gr
mtx cmtx mtx smtx
st
smtx
594 157 m
599 152 l
604 157 l
599 162 l
cp
gs
eofi
gr
mtx cmtx mtx smtx
st
smtx
602 156 m
607 151 l
612 156 l
607 161 l
cp
gs
eofi
gr
mtx cmtx mtx smtx
st
smtx
611 158 m
616 153 l
621 158 l
616 163 l
cp
gs
eofi
gr
mtx cmtx mtx smtx
st
smtx
620 161 m
625 156 l
630 161 l
625 166 l
cp
gs
eofi
gr
mtx cmtx mtx smtx
st
smtx
628 164 m
633 159 l
638 164 l
633 169 l
cp
gs
eofi
gr
mtx cmtx mtx smtx
st
smtx
637 163 m
642 158 l
647 163 l
642 168 l
cp
gs
eofi
gr
mtx cmtx mtx smtx
st
smtx
645 158 m
650 153 l
655 158 l
650 163 l
cp
gs
eofi
gr
mtx cmtx mtx smtx
st
smtx
654 161 m
659 156 l
664 161 l
659 166 l
cp
gs
eofi
gr
mtx cmtx mtx smtx
st
smtx
662 163 m
667 158 l
672 163 l
667 168 l
cp
gs
eofi
gr
mtx cmtx mtx smtx
st
smtx
671 165 m
676 160 l
681 165 l
676 170 l
cp
gs
eofi
gr
mtx cmtx mtx smtx
st
smtx
679 162 m
684 157 l
689 162 l
684 167 l
cp
gs
eofi
gr
mtx cmtx mtx smtx
st
smtx
688 164 m
693 159 l
698 164 l
693 169 l
cp
gs
eofi
gr
mtx cmtx mtx smtx
st
smtx
696 168 m
701 163 l
706 168 l
701 173 l
cp
gs
eofi
gr
mtx cmtx mtx smtx
st
smtx
705 166 m
710 161 l
715 166 l
710 171 l
cp
gs
eofi
gr
mtx cmtx mtx smtx
st
smtx
713 168 m
718 163 l
723 168 l
718 173 l
cp
gs
eofi
gr
mtx cmtx mtx smtx
st
smtx
722 165 m
727 160 l
732 165 l
727 170 l
cp
gs
eofi
gr
mtx cmtx mtx smtx
st
smtx
730 169 m
735 164 l
740 169 l
735 174 l
cp
gs
eofi
gr
mtx cmtx mtx smtx
st
smtx
739 171 m
744 166 l
749 171 l
744 176 l
cp
gs
eofi
gr
mtx cmtx mtx smtx
st
smtx
747 173 m
752 168 l
757 173 l
752 178 l
cp
gs
eofi
gr
mtx cmtx mtx smtx
st
smtx
756 175 m
761 170 l
766 175 l
761 180 l
cp
gs
eofi
gr
mtx cmtx mtx smtx
st
smtx
764 177 m
769 172 l
774 177 l
769 182 l
cp
gs
eofi
gr
mtx cmtx mtx smtx
st
smtx
773 180 m
778 175 l
783 180 l
778 185 l
cp
gs
eofi
gr
mtx cmtx mtx smtx
st
smtx
782 182 m
787 177 l
792 182 l
787 187 l
cp
gs
eofi
gr
mtx cmtx mtx smtx
st
smtx
790 188 m
795 183 l
800 188 l
795 193 l
cp
gs
eofi
gr
mtx cmtx mtx smtx
st
smtx
799 190 m
804 185 l
809 190 l
804 195 l
cp
gs
eofi
gr
mtx cmtx mtx smtx
st
smtx
807 192 m
812 187 l
817 192 l
812 197 l
cp
gs
eofi
gr
mtx cmtx mtx smtx
st
smtx
816 195 m
821 190 l
826 195 l
821 200 l
cp
gs
eofi
gr
mtx cmtx mtx smtx
st
smtx
824 202 m
829 197 l
834 202 l
829 207 l
cp
gs
eofi
gr
mtx cmtx mtx smtx
st
smtx
833 207 m
838 202 l
843 207 l
838 212 l
cp
gs
eofi
gr
mtx cmtx mtx smtx
st
smtx
841 208 m
846 203 l
851 208 l
846 213 l
cp
gs
eofi
gr
mtx cmtx mtx smtx
st
smtx
850 218 m
855 213 l
860 218 l
855 223 l
cp
gs
eofi
gr
mtx cmtx mtx smtx
st
smtx
858 227 m
863 222 l
868 227 l
863 232 l
cp
gs
eofi
gr
mtx cmtx mtx smtx
st
smtx
867 231 m
872 226 l
877 231 l
872 236 l
cp
gs
eofi
gr
mtx cmtx mtx smtx
st
smtx
875 237 m
880 232 l
885 237 l
880 242 l
cp
gs
eofi
gr
mtx cmtx mtx smtx
st
smtx
884 249 m
889 244 l
894 249 l
889 254 l
cp
gs
eofi
gr
mtx cmtx mtx smtx
st
smtx
892 258 m
897 253 l
902 258 l
897 263 l
cp
gs
eofi
gr
mtx cmtx mtx smtx
st
smtx
901 267 m
906 262 l
911 267 l
906 272 l
cp
gs
eofi
gr
mtx cmtx mtx smtx
st
smtx
909 277 m
914 272 l
919 277 l
914 282 l
cp
gs
eofi
gr
mtx cmtx mtx smtx
st
smtx
918 291 m
923 286 l
928 291 l
923 296 l
cp
gs
eofi
gr
mtx cmtx mtx smtx
st
smtx
927 305 m
932 300 l
937 305 l
932 310 l
cp
gs
eofi
gr
mtx cmtx mtx smtx
st
smtx
935 326 m
940 321 l
945 326 l
940 331 l
cp
gs
eofi
gr
mtx cmtx mtx smtx
st
smtx
944 348 m
949 343 l
954 348 l
949 353 l
cp
gs
eofi
gr
mtx cmtx mtx smtx
st
smtx
952 373 m
957 368 l
962 373 l
957 378 l
cp
gs
eofi
gr
mtx cmtx mtx smtx
st
smtx
961 411 m
966 406 l
971 411 l
966 416 l
cp
gs
eofi
gr
mtx cmtx mtx smtx
st
smtx
969 460 m
974 455 l
979 460 l
974 465 l
cp
gs
eofi
gr
mtx cmtx mtx smtx
st
smtx
977 530 m
982 525 l
987 530 l
982 535 l
cp
gs
eofi
gr
mtx cmtx mtx smtx
st
smtx
981 577 m
986 572 l
991 577 l
986 582 l
cp
gs
eofi
gr
mtx cmtx mtx smtx
st
smtx
gr
gs
pathproc 126 6 868 671 np rectpath
/eocl cland
np exec
128 646 m
135 650 l
135 641 l
cp
gs
1 0 1 rgb
eofi
gr
0 sw
1 0 1 rgb
1 scap
mtx cmtx mtx smtx
st
smtx
134 608 m
141 612 l
141 603 l
cp
gs
eofi
gr
mtx cmtx mtx smtx
st
smtx
142 544 m
149 548 l
149 539 l
cp
gs
eofi
gr
mtx cmtx mtx smtx
st
smtx
151 505 m
158 509 l
158 500 l
cp
gs
eofi
gr
mtx cmtx mtx smtx
st
smtx
159 474 m
166 478 l
166 469 l
cp
gs
eofi
gr
mtx cmtx mtx smtx
st
smtx
168 447 m
175 451 l
175 442 l
cp
gs
eofi
gr
mtx cmtx mtx smtx
st
smtx
176 428 m
183 432 l
183 423 l
cp
gs
eofi
gr
mtx cmtx mtx smtx
st
smtx
185 414 m
192 418 l
192 409 l
cp
gs
eofi
gr
mtx cmtx mtx smtx
st
smtx
193 398 m
200 402 l
200 393 l
cp
gs
eofi
gr
mtx cmtx mtx smtx
st
smtx
202 387 m
209 391 l
209 382 l
cp
gs
eofi
gr
mtx cmtx mtx smtx
st
smtx
211 375 m
218 379 l
218 370 l
cp
gs
eofi
gr
mtx cmtx mtx smtx
st
smtx
219 365 m
226 369 l
226 360 l
cp
gs
eofi
gr
mtx cmtx mtx smtx
st
smtx
228 358 m
235 362 l
235 353 l
cp
gs
eofi
gr
mtx cmtx mtx smtx
st
smtx
236 351 m
243 355 l
243 346 l
cp
gs
eofi
gr
mtx cmtx mtx smtx
st
smtx
245 344 m
252 348 l
252 339 l
cp
gs
eofi
gr
mtx cmtx mtx smtx
st
smtx
253 337 m
260 341 l
260 332 l
cp
gs
eofi
gr
mtx cmtx mtx smtx
st
smtx
262 329 m
269 333 l
269 324 l
cp
gs
eofi
gr
mtx cmtx mtx smtx
st
smtx
270 325 m
277 329 l
277 320 l
cp
gs
eofi
gr
mtx cmtx mtx smtx
st
smtx
279 324 m
286 328 l
286 319 l
cp
gs
eofi
gr
mtx cmtx mtx smtx
st
smtx
287 319 m
294 323 l
294 314 l
cp
gs
eofi
gr
mtx cmtx mtx smtx
st
smtx
296 309 m
303 313 l
303 304 l
cp
gs
eofi
gr
mtx cmtx mtx smtx
st
smtx
304 304 m
311 308 l
311 299 l
cp
gs
eofi
gr
mtx cmtx mtx smtx
st
smtx
313 304 m
320 308 l
320 299 l
cp
gs
eofi
gr
mtx cmtx mtx smtx
st
smtx
321 301 m
328 305 l
328 296 l
cp
gs
eofi
gr
mtx cmtx mtx smtx
st
smtx
330 298 m
337 302 l
337 293 l
cp
gs
eofi
gr
mtx cmtx mtx smtx
st
smtx
338 295 m
345 299 l
345 290 l
cp
gs
eofi
gr
mtx cmtx mtx smtx
st
smtx
347 295 m
354 299 l
354 290 l
cp
gs
eofi
gr
mtx cmtx mtx smtx
st
smtx
356 296 m
363 300 l
363 291 l
cp
gs
eofi
gr
mtx cmtx mtx smtx
st
smtx
364 291 m
371 295 l
371 286 l
cp
gs
eofi
gr
mtx cmtx mtx smtx
st
smtx
373 295 m
380 299 l
380 290 l
cp
gs
eofi
gr
mtx cmtx mtx smtx
st
smtx
381 291 m
388 295 l
388 286 l
cp
gs
eofi
gr
mtx cmtx mtx smtx
st
smtx
390 289 m
397 293 l
397 284 l
cp
gs
eofi
gr
mtx cmtx mtx smtx
st
smtx
398 286 m
405 290 l
405 281 l
cp
gs
eofi
gr
mtx cmtx mtx smtx
st
smtx
407 284 m
414 288 l
414 279 l
cp
gs
eofi
gr
mtx cmtx mtx smtx
st
smtx
415 286 m
422 290 l
422 281 l
cp
gs
eofi
gr
mtx cmtx mtx smtx
st
smtx
424 286 m
431 290 l
431 281 l
cp
gs
eofi
gr
mtx cmtx mtx smtx
st
smtx
432 285 m
439 289 l
439 280 l
cp
gs
eofi
gr
mtx cmtx mtx smtx
st
smtx
441 281 m
448 285 l
448 276 l
cp
gs
eofi
gr
mtx cmtx mtx smtx
st
smtx
449 284 m
456 288 l
456 279 l
cp
gs
eofi
gr
mtx cmtx mtx smtx
st
smtx
458 280 m
465 284 l
465 275 l
cp
gs
eofi
gr
mtx cmtx mtx smtx
st
smtx
466 282 m
473 286 l
473 277 l
cp
gs
eofi
gr
mtx cmtx mtx smtx
st
smtx
475 281 m
482 285 l
482 276 l
cp
gs
eofi
gr
mtx cmtx mtx smtx
st
smtx
483 281 m
490 285 l
490 276 l
cp
gs
eofi
gr
mtx cmtx mtx smtx
st
smtx
492 283 m
499 287 l
499 278 l
cp
gs
eofi
gr
mtx cmtx mtx smtx
st
smtx
500 279 m
507 283 l
507 274 l
cp
gs
eofi
gr
mtx cmtx mtx smtx
st
smtx
509 284 m
516 288 l
516 279 l
cp
gs
eofi
gr
mtx cmtx mtx smtx
st
smtx
518 280 m
525 284 l
525 275 l
cp
gs
eofi
gr
mtx cmtx mtx smtx
st
smtx
526 278 m
533 282 l
533 273 l
cp
gs
eofi
gr
mtx cmtx mtx smtx
st
smtx
535 278 m
542 282 l
542 273 l
cp
gs
eofi
gr
mtx cmtx mtx smtx
st
smtx
543 278 m
550 282 l
550 273 l
cp
gs
eofi
gr
mtx cmtx mtx smtx
st
smtx
552 278 m
559 282 l
559 273 l
cp
gs
eofi
gr
mtx cmtx mtx smtx
st
smtx
560 277 m
567 281 l
567 272 l
cp
gs
eofi
gr
mtx cmtx mtx smtx
st
smtx
569 275 m
576 279 l
576 270 l
cp
gs
eofi
gr
mtx cmtx mtx smtx
st
smtx
577 278 m
584 282 l
584 273 l
cp
gs
eofi
gr
mtx cmtx mtx smtx
st
smtx
586 276 m
593 280 l
593 271 l
cp
gs
eofi
gr
mtx cmtx mtx smtx
st
smtx
594 279 m
601 283 l
601 274 l
cp
gs
eofi
gr
mtx cmtx mtx smtx
st
smtx
603 278 m
610 282 l
610 273 l
cp
gs
eofi
gr
mtx cmtx mtx smtx
st
smtx
611 278 m
618 282 l
618 273 l
cp
gs
eofi
gr
mtx cmtx mtx smtx
st
smtx
620 282 m
627 286 l
627 277 l
cp
gs
eofi
gr
mtx cmtx mtx smtx
st
smtx
628 283 m
635 287 l
635 278 l
cp
gs
eofi
gr
mtx cmtx mtx smtx
st
smtx
637 283 m
644 287 l
644 278 l
cp
gs
eofi
gr
mtx cmtx mtx smtx
st
smtx
645 281 m
652 285 l
652 276 l
cp
gs
eofi
gr
mtx cmtx mtx smtx
st
smtx
654 287 m
661 291 l
661 282 l
cp
gs
eofi
gr
mtx cmtx mtx smtx
st
smtx
663 288 m
670 292 l
670 283 l
cp
gs
eofi
gr
mtx cmtx mtx smtx
st
smtx
671 287 m
678 291 l
678 282 l
cp
gs
eofi
gr
mtx cmtx mtx smtx
st
smtx
680 290 m
687 294 l
687 285 l
cp
gs
eofi
gr
mtx cmtx mtx smtx
st
smtx
688 288 m
695 292 l
695 283 l
cp
gs
eofi
gr
mtx cmtx mtx smtx
st
smtx
697 290 m
704 294 l
704 285 l
cp
gs
eofi
gr
mtx cmtx mtx smtx
st
smtx
705 289 m
712 293 l
712 284 l
cp
gs
eofi
gr
mtx cmtx mtx smtx
st
smtx
714 291 m
721 295 l
721 286 l
cp
gs
eofi
gr
mtx cmtx mtx smtx
st
smtx
722 289 m
729 293 l
729 284 l
cp
gs
eofi
gr
mtx cmtx mtx smtx
st
smtx
731 294 m
738 298 l
738 289 l
cp
gs
eofi
gr
mtx cmtx mtx smtx
st
smtx
739 294 m
746 298 l
746 289 l
cp
gs
eofi
gr
mtx cmtx mtx smtx
st
smtx
748 300 m
755 304 l
755 295 l
cp
gs
eofi
gr
mtx cmtx mtx smtx
st
smtx
756 302 m
763 306 l
763 297 l
cp
gs
eofi
gr
mtx cmtx mtx smtx
st
smtx
765 303 m
772 307 l
772 298 l
cp
gs
eofi
gr
mtx cmtx mtx smtx
st
smtx
773 303 m
780 307 l
780 298 l
cp
gs
eofi
gr
mtx cmtx mtx smtx
st
smtx
782 305 m
789 309 l
789 300 l
cp
gs
eofi
gr
mtx cmtx mtx smtx
st
smtx
790 306 m
797 310 l
797 301 l
cp
gs
eofi
gr
mtx cmtx mtx smtx
st
smtx
799 311 m
806 315 l
806 306 l
cp
gs
eofi
gr
mtx cmtx mtx smtx
st
smtx
807 313 m
814 317 l
814 308 l
cp
gs
eofi
gr
mtx cmtx mtx smtx
st
smtx
816 321 m
823 325 l
823 316 l
cp
gs
eofi
gr
mtx cmtx mtx smtx
st
smtx
825 323 m
832 327 l
832 318 l
cp
gs
eofi
gr
mtx cmtx mtx smtx
st
smtx
833 329 m
840 333 l
840 324 l
cp
gs
eofi
gr
mtx cmtx mtx smtx
st
smtx
842 330 m
849 334 l
849 325 l
cp
gs
eofi
gr
mtx cmtx mtx smtx
st
smtx
850 336 m
857 340 l
857 331 l
cp
gs
eofi
gr
mtx cmtx mtx smtx
st
smtx
859 343 m
866 347 l
866 338 l
cp
gs
eofi
gr
mtx cmtx mtx smtx
st
smtx
867 348 m
874 352 l
874 343 l
cp
gs
eofi
gr
mtx cmtx mtx smtx
st
smtx
876 356 m
883 360 l
883 351 l
cp
gs
eofi
gr
mtx cmtx mtx smtx
st
smtx
884 363 m
891 367 l
891 358 l
cp
gs
eofi
gr
mtx cmtx mtx smtx
st
smtx
893 372 m
900 376 l
900 367 l
cp
gs
eofi
gr
mtx cmtx mtx smtx
st
smtx
901 382 m
908 386 l
908 377 l
cp
gs
eofi
gr
mtx cmtx mtx smtx
st
smtx
910 390 m
917 394 l
917 385 l
cp
gs
eofi
gr
mtx cmtx mtx smtx
st
smtx
918 407 m
925 411 l
925 402 l
cp
gs
eofi
gr
mtx cmtx mtx smtx
st
smtx
927 418 m
934 422 l
934 413 l
cp
gs
eofi
gr
mtx cmtx mtx smtx
st
smtx
935 440 m
942 444 l
942 435 l
cp
gs
eofi
gr
mtx cmtx mtx smtx
st
smtx
944 457 m
951 461 l
951 452 l
cp
gs
eofi
gr
mtx cmtx mtx smtx
st
smtx
952 482 m
959 486 l
959 477 l
cp
gs
eofi
gr
mtx cmtx mtx smtx
st
smtx
961 515 m
968 519 l
968 510 l
cp
gs
eofi
gr
mtx cmtx mtx smtx
st
smtx
970 565 m
977 569 l
977 560 l
cp
gs
eofi
gr
mtx cmtx mtx smtx
st
smtx
977 627 m
984 631 l
984 622 l
cp
gs
eofi
gr
mtx cmtx mtx smtx
st
smtx
981 654 m
988 658 l
988 649 l
cp
gs
eofi
gr
mtx cmtx mtx smtx
st
smtx
gr
gs
pathproc 126 6 868 671 np rectpath
/eocl cland
np exec
gr
gs
gs
gr
gs
414 381 6 6 rectfill
985 42 m
0 sw
1 scap
414 381 6 6 rectstroke
gr
1 -1 sc
/MC1_Arial 37 self 459 -397 m
( )[10 ] xs
1 -1 sc
1 -1 sc
/MC2_Symbol 37 self 469 -397 m
(Dt=10)[23 15 20 19 19 ] xs
1 -1 sc
1 -1 sc
/MC1_Arial 25 self 565 -382 m
(-4)[8 14 ] xs
1 -1 sc
1 -1 sc
/MC1_Arial 37 self 587 -397 m
( MeV)[10 31 20 25 ] xs
1 -1 sc
1 -1 sc
/MC1_Arial 25 self 673 -382 m
(-1)[8 14 ] xs
1 -1 sc
gs
gr
gs
np
417 435 3 0 360  a
cp
gs
1 0 0 rgb
eofi
gr
0 sw
1 0 0 rgb
1 scap
mtx cmtx mtx smtx
st
smtx
gr
1 -1 sc
/MC1_Arial 37 self 459 -448 m
( )[10 ] xs
1 -1 sc
1 -1 sc
/MC2_Symbol 37 self 469 -448 m
(Dt=3)[23 15 20 19 ] xs
1 -1 sc
1 -1 sc
546 -448 m
/s61620 20 xgls
1 -1 sc
1 -1 sc
566 -448 m
(10)[19 19 ] xs
1 -1 sc
1 -1 sc
/MC1_Arial 25 self 604 -433 m
(-4)[8 14 ] xs
1 -1 sc
1 -1 sc
/MC1_Arial 37 self 626 -448 m
( MeV)[10 31 20 25 ] xs
1 -1 sc
1 -1 sc
/MC1_Arial 25 self 712 -433 m
(-1)[8 14 ] xs
1 -1 sc
gs
gr
gs
417 481 m
421 488 l
412 488 l
cp
gs
0 1 0 rgb
eofi
gr
0 sw
0 1 0 rgb
1 scap
mtx cmtx mtx smtx
st
smtx
gr
1 -1 sc
/MC1_Arial 37 self 459 -499 m
( )[10 ] xs
1 -1 sc
1 -1 sc
/MC2_Symbol 37 self 469 -499 m
(Dt=4)[23 15 20 19 ] xs
1 -1 sc
1 -1 sc
546 -499 m
/s61620 20 xgls
1 -1 sc
1 -1 sc
566 -499 m
(10)[19 19 ] xs
1 -1 sc
1 -1 sc
/MC1_Arial 25 self 604 -484 m
(-4)[8 14 ] xs
1 -1 sc
1 -1 sc
/MC1_Arial 37 self 626 -499 m
( MeV)[10 31 20 25 ] xs
1 -1 sc
1 -1 sc
/MC1_Arial 25 self 712 -484 m
(-1)[8 14 ] xs
1 -1 sc
gs
gr
gs
421 535 m
417 542 l
412 535 l
cp
gs
0 0 1 rgb
eofi
gr
0 sw
0 0 1 rgb
1 scap
mtx cmtx mtx smtx
st
smtx
gr
1 -1 sc
/MC1_Arial 37 self 459 -550 m
( )[10 ] xs
1 -1 sc
1 -1 sc
/MC2_Symbol 37 self 469 -550 m
(Dt=5)[23 15 20 19 ] xs
1 -1 sc
1 -1 sc
546 -550 m
/s61620 20 xgls
1 -1 sc
1 -1 sc
566 -550 m
(10)[19 19 ] xs
1 -1 sc
1 -1 sc
/MC1_Arial 25 self 604 -535 m
(-4)[8 14 ] xs
1 -1 sc
1 -1 sc
/MC1_Arial 37 self 626 -550 m
( MeV)[10 31 20 25 ] xs
1 -1 sc
1 -1 sc
/MC1_Arial 25 self 712 -535 m
(-1)[8 14 ] xs
1 -1 sc
gs
gr
gs
413 588 m
417 584 l
421 588 l
417 592 l
cp
gs
0 1 1 rgb
eofi
gr
0 sw
0 1 1 rgb
1 scap
mtx cmtx mtx smtx
st
smtx
gr
1 -1 sc
/MC1_Arial 37 self 459 -601 m
( )[10 ] xs
1 -1 sc
1 -1 sc
/MC2_Symbol 37 self 469 -601 m
(Dt=7.5)[23 15 20 19 9 19 ] xs
1 -1 sc
1 -1 sc
574 -601 m
/s61620 20 xgls
1 -1 sc
1 -1 sc
594 -601 m
(10)[19 19 ] xs
1 -1 sc
1 -1 sc
/MC1_Arial 25 self 632 -586 m
(-4)[8 14 ] xs
1 -1 sc
1 -1 sc
/MC1_Arial 37 self 654 -601 m
( MeV)[10 31 20 25 ] xs
1 -1 sc
1 -1 sc
/MC1_Arial 25 self 740 -586 m
(-1)[8 14 ] xs
1 -1 sc
gs
gr
gs
412 639 m
419 643 l
419 634 l
cp
gs
1 0 1 rgb
eofi
gr
0 sw
1 0 1 rgb
1 scap
mtx cmtx mtx smtx
st
smtx
gr
1 -1 sc
/MC1_Arial 37 self 459 -652 m
( )[10 ] xs
1 -1 sc
1 -1 sc
/MC2_Symbol 37 self 469 -652 m
(Dt=10)[23 15 20 19 19 ] xs
1 -1 sc
1 -1 sc
/MC1_Arial 25 self 565 -637 m
(-3)[8 14 ] xs
1 -1 sc
1 -1 sc
/MC1_Arial 37 self 587 -652 m
( MeV)[10 31 20 25 ] xs
1 -1 sc
1 -1 sc
/MC1_Arial 25 self 673 -637 m
(-1)[8 14 ] xs
1 -1 sc
gr
gs
1 -1 sc
/MC2_Symbol 39 self 135 -50 m
(t = 0.3 M)[16 10 21 10 20 10 20 10 36 ] xs
1 -1 sc
1 -1 sc
/MC1_Arial 39 self 288 -50 m
(eV)[22 26 ] xs
1 -1 sc
1 -1 sc
/MC1_Arial 27 self 336 -34 m
(-1)[9 15 ] xs
1 -1 sc
1 -1 sc
/MC2_Symbol 39 self 360 -50 m
( )[10 ] xs
1 -1 sc
gr
gs
gs
1 -1 sc
43 -492 tr
90 ro
/MC3_Arial 44 self 0 0 m
(V)[29 ] xs
1 -1 sc
gr
gs
1 -1 sc
25 -463 tr
90 ro
/MC3_Arial 30 self 0 0 m
(NN)[22 22 ] xs
1 -1 sc
gr
gs
1 -1 sc
43 -419 tr
90 ro
/MC3_Arial 44 self 0 0 m
(+V)[26 29 ] xs
1 -1 sc
gr
gs
1 -1 sc
25 -364 tr
90 ro
/MC3_Arial 30 self 0 0 m
(EM )[20 25 8 ] xs
1 -1 sc
gr
gs
1 -1 sc
43 -311 tr
90 ro
/MC3_Arial 44 self 0 0 m
(\(MeV\))[15 37 25 29 15 ] xs
1 -1 sc
gr
gr
gs
1 -1 sc
/MC1_Arial 31 self 905 -42 m
(4)[17 ] xs
1 -1 sc
1 -1 sc
/MC1_Arial 46 self 922 -61 m
(He)[33 26 ] xs
1 -1 sc
gr
gs
1 -1 sc
/MC2_Symbol 39 self 509 -752 m
(t)[16 ] xs
1 -1 sc
1 -1 sc
/MC2_Symbol 27 self 525 -763 m
(1)[14 ] xs
1 -1 sc
1 -1 sc
/MC2_Symbol 39 self 539 -752 m
( )[10 ] xs
1 -1 sc
1 -1 sc
549 -752 m
(\()[13 ] xs
1 -1 sc
1 -1 sc
/MC1_Arial 39 self 562 -752 m
(MeV)[33 22 26 ] xs
1 -1 sc
1 -1 sc
/MC1_Arial 27 self 643 -736 m
(-1)[9 15 ] xs
1 -1 sc
1 -1 sc
/MC2_Symbol 39 self 667 -752 m
(\))[13 ] xs
1 -1 sc
1 -1 sc
680 -752 m
( )[10 ] xs
1 -1 sc
gr
gr
gs
gr
Save0 restore end
showpage
%%EOF
