%!PS-Adobe-3.0 EPSF-3.0
%%BoundingBox: 0 0 772 591
%%LanguageLevel: 2
%%Creator: OriginLab Corporation
%%Title: (C:\Users\Rong\Desktop\responseN2LO.eps)
%%CreationDate: Mon Jul 13 20:09:11 2020
%%EndComments

/OriginLab::PSL1 128 dict dup begin def
/Save0 save def
%%BeginResource: procset OriginLab::PSL1
/wd{1 index where{pop pop pop}{bind def}ifelse}bind def
/setcmykcolor{1 sub 4 1 roll 3{3 index add neg dup 0 lt{pop 0}if 3 1 roll}repeat setrgbcolor pop}wd
/selectfont{dup type/arraytype eq{exch findfont exch makefont setfont}{exch findfont exch scalefont setfont}ifelse}wd
/xshow{1 index length 0 le{}{currentpoint exch 3 index length 1 sub 0 exch 1 exch{dup 5 index exch 1 getinterval show 3 index exch get add 2 copy exch moveto}for pop pop}ifelse pop pop}wd
/glyphshow{matrix currentmatrix exch currentfont dup/FontMatrix get concat currentpoint translate
 dup/Metrics get 2 index get 0 4 2 roll gsave/CharProcs get exch 2 copy known not{pop/.notdef}if
 get exec fill grestore moveto setmatrix}wd
/grayimage/image load def/rgbtogray{cvx exec dup length 3 idiv 1 sub 0 exch 1 exch{dup 3 mul dup 3 index exch get 255 div .3 mul exch
 1 add dup 4 index exch get 255 div .59 mul exch 1 add 4 index exch get 255 div .11 mul add add
 255 mul dup 255 gt{255}if round cvi 2 index 3 1 roll put}for dup length 3 idiv 0 exch getinterval}bind def
/colorimage{0 setgray pop pop cvlit/rgbtogray cvx 2 packedarray cvx grayimage}wd
/bd{bind def}bind def/ld{load def}bd/ed{exch def}bd/xd{cvx def}bd
/np/newpath ld/a/arc ld/m/moveto ld/l/lineto ld/c/curveto ld/rm/rmoveto ld/rl/rlineto ld/rc/rcurveto ld/cp/closepath ld/cpt/currentpoint ld
/tr/translate ld/sc/scale ld/ro/rotate ld/t/transform ld/it/itransform ld/dt/dtransform ld/idt/idtransform ld
/mtx/matrix ld/cmtx/currentmatrix ld/dmtx/defaultmatrix ld/smtx/setmatrix ld/catmtx/concatmatrix ld
/sw/setlinewidth ld/scap/setlinecap ld/sj/setlinejoin ld/sm/setmiterlimit ld/sd/setdash ld/rgb/setrgbcolor ld/crgb/currentrgbcolor ld/cmyk/setcmykcolor ld/gs/gsave ld/gr/grestore ld
/st/stroke ld/fi/fill ld/eofi/eofill ld/cl/clip ld/eocl/eoclip ld
/df/definefont ld/ff/findfont ld/sf/setfont ld/scf/scalefont ld/self/selectfont ld/cf/currentfont ld
/s/show ld/xs/xshow ld/gls/glyphshow ld/xgls{cpt 3 1 roll add exch 3 -1 roll gls m}bd
/cd/currentdict ld/i/index ld
/DrawBox{4 2 roll m 1 index 0 rl 0 exch rl neg 0 rl cp}bd
/plus.re { 6 { 3 index } repeat moveto 0 exch rlineto 0 rlineto pop pop neg 0 exch rlineto pop lineto closepath } def
/DrawBcc{4 2 roll m 2 copy 0 lt exch 0 lt xor{dup 0 exch rl exch 0 rl neg 0 exch rl}{exch dup 0 rl exch 0 exch rl neg 0 rl}ifelse cp}bd
/rectline{dup type/arraytype eq{dup length 0 exch 4 exch 4 sub{0 1 3{3 copy add get 4 1 roll pop}for pop 5 1 roll DrawBox}for pop}{DrawBox}ifelse}bd
/rectpath{dup type/arraytype eq{dup length 0 exch 4 exch 4 sub{0 1 3{3 copy add get 4 1 roll pop}for pop 5 1 roll DrawBcc}for pop}{DrawBcc}ifelse}bd
/pathproc{[{/m cvx}{/l cvx}{/c cvx}{/cp cvx}pathforall]cvx}bd
/L1img/image ld/L1idx[{0}
 {dup 7 and 3 1 roll -3 bitshift get exch 7 sub 1 mul bitshift  1 and}bind 1 index dup
 {dup 1 and 3 1 roll -1 bitshift get exch 1 sub 4 mul bitshift 15 and}bind 1 index dup dup
 {get}bind]def
/image{dup type/dicttype eq {dup/ImgCS get 0 get/Indexed eq}{false}ifelse
 {begin Width Height 8 ImageMatrix {rgb_string rgb_lookup
 cd/DataSource get dup type/filetype eq
 {mystring readstring pop}{exec}ifelse
 dup length 0 ne
 {L1idx BitsPerComponent get 0 1 Width 1 sub
 {3 copy exch exec exch 3 mul exch
 3 mul dup 5 index exch get exch 1 add dup 6 index exch get exch 1 add 6 index exch get
 7 index exch 4 index 2 add exch put 6 index exch 3 index 1 add exch put 5 index exch 2 index exch put pop
 }for pop pop pop }{pop pop pop ()}ifelse }false 3 colorimage end} {dup type/dicttype eq
 {{dup mark exch L1img pop pop}stopped{cleartomark begin Width Height BitsPerComponent ImageMatrix
 {cd/DataSource get dup type/filetype eq {mystring readstring pop}{exec}ifelse
 }false 3 colorimage end} if}{L1img}ifelse}ifelse
 }bd
/L1imgmask/imagemask ld/imagemask{dup type/dicttype eq
 {{dup mark exch L1imgmask pop pop}stopped {cleartomark begin Width Height polarityflag ImageMatrix
 {cd/DataSource get dup type/filetype eq {mystring readstring pop}{exec}ifelse
 }L1imgmask end}if}{L1imgmask}ifelse
 }bd
% Gradient function
/GradientStep 1 150 div def
/GradientStartRGB { /R1 exch def /G1 exch def /B1 exch def } def
/GradientEndRGB { /R2 exch def /G2 exch def /B2 exch def
/GradientSteps GradientLength GradientStep div def
/GradientRStep R2 R1 sub GradientSteps div def
/GradientGStep G2 G1 sub GradientSteps div def
/GradientBStep B2 B1 sub GradientSteps div def
} def
/GradientStepRGB { /R1 R1 GradientRStep add def
/G1 G1 GradientGStep add def
/B1 B1 GradientBStep add def
R1 G1 B1 setrgbcolor
} def
%%EndResource
/rectclip{np rectpath clip np}wd
/rectfill{gs np rectpath fi gr}wd
/rectstroke{gs np dup type/arraytype eq{dup length 6 eq}{false}ifelse{1 index type/arraytype eq{exch}{5 1 roll}ifelse rectline concat st}{rectline st}ifelse gr}wd
%%BeginResource: procset OriginLab::Image
/OriginLab::Image 32 dict dup begin
/BinProc{[currentfile mystring /readstring cvx /pop cvx] cvx bind}bd
/HexProc{[currentfile mystring /readhexstring cvx /pop cvx] cvx bind}bd
/Ascii85Proc{currentfile /ASCII85Decode filter}bd
/LZWA85{currentfile /ASCII85Decode filter /LZWDecode filter}bd
/ImgProcArray[/BinProc /HexProc /Ascii85Proc /LZWA85]def
/ImgDict{/ImgDict 16 dict def ImgDict dup begin /ImageType 1 def /MultipleDataSource false def end}bd
/L2Dec{{[1 0]}{[0 1]}ifelse}bd
/BegImg{ /Img_sv save def
 /ImgDir ed ImgProcArray exch get /ImgProc exch ld
 dup /polarityflag ed L2Dec /polarity ed /smoothflag ed
 tr /dx 2 index def /dy 1 index abs def sc
 string /mystring ed /bpc ed /ih ed /iw ed
 }bd
/EndImg {Img_sv restore}bd
/DoXImg{ /rgb_lookup ed /hival ed ImgDict dup begin
 [/Indexed /DeviceRGB hival rgb_lookup] /L1img where{pop/ImgCS ed}{setcolorspace}ifelse
 /rgb_string iw 3 mul string def
 /Width iw def
 /Height ih def
 /Decode [0 1 bpc{2 mul}repeat 1 sub] def
 /ImageMatrix
  ImgDir 0 eq{[iw 0 0 ih 0 0]}if
  ImgDir 1 eq{[iw neg 0 0 ih iw 0]}if
  ImgDir 2 eq{[iw 0 0 ih neg 0 ih]}if
  ImgDir 3 eq{[iw neg 0 0 ih neg iw ih]}if
  def
 /DataSource ImgProc def
 /BitsPerComponent bpc def
 /Interpolate smoothflag def
 end image}bd
/DoImg{ ImgDict dup begin
 [/DeviceRGB] /L1img where{pop/ImgCS ed}{setcolorspace}ifelse
 /rgb_string iw 3 mul string def
 /Width iw def
 /Height ih def
 /Decode [0 1 0 1 0 1] def
 /ImageMatrix
  ImgDir 0 eq{[iw 0 0 ih 0 0]}if
  ImgDir 1 eq{[iw neg 0 0 ih iw 0]}if
  ImgDir 2 eq{[iw 0 0 ih neg 0 ih]}if
  ImgDir 3 eq{[iw neg 0 0 ih neg iw ih]}if
  def
 /DataSource ImgProc def
 /BitsPerComponent 8 def
 /Interpolate smoothflag def
 end image}bd
end def
%%EndResource
/initmtx mtx cmtx def
%%BeginFont: /MC1_Arial
12 dict begin
/FontInfo 8 dict dup begin
/ItalicAngle 0 def
/UnderlinePosition -217.00 def
/UnderlineThickness 150.00 def
/StrikeoutPosition 530.00 def
/StrikeoutThickness 102.00 def
/isFixedPitch false def
end readonly def
/FontName /MC1_Arial def
/FontType 3 def
/FontMatrix [1 2048 div 0 0 1 2048 div 0 0] def
/FontBBox [-1361 -665 4096 2129] def
/Encoding 256 array def 0 1 255{Encoding exch/.notdef put}for
Encoding 32/s32 put
Encoding 40/s40 put
Encoding 41/s41 put
Encoding 44/s44 put
Encoding 45/s45 put
Encoding 46/s46 put
Encoding 47/s47 put
Encoding 48/s48 put
Encoding 49/s49 put
Encoding 50/s50 put
Encoding 51/s51 put
Encoding 52/s52 put
Encoding 53/s53 put
Encoding 61/s61 put
Encoding 67/s67 put
Encoding 70/s70 put
Encoding 71/s71 put
Encoding 72/s72 put
Encoding 73/s73 put
Encoding 76/s76 put
Encoding 77/s77 put
Encoding 78/s78 put
Encoding 80/s80 put
Encoding 84/s84 put
Encoding 86/s86 put
Encoding 99/s99 put
Encoding 101/s101 put
Encoding 107/s107 put
Encoding 111/s111 put
Encoding 112/s112 put
Encoding 116/s116 put
/BoundingBoxes 32 dict def
BoundingBoxes begin
/s32 [0 -434 569 1854] def
/s40 [0 -434 682 1854] def
/s41 [0 -434 682 1854] def
/s44 [0 -434 569 1854] def
/s45 [0 -434 682 1854] def
/s46 [0 -434 569 1854] def
/s47 [0 -434 569 1854] def
/s48 [0 -434 1139 1854] def
/s49 [0 -434 1139 1854] def
/s50 [0 -434 1139 1854] def
/s51 [0 -434 1139 1854] def
/s52 [0 -434 1139 1854] def
/s53 [0 -434 1139 1854] def
/s61 [0 -434 1196 1854] def
/s67 [0 -434 1479 1854] def
/s70 [0 -434 1251 1854] def
/s71 [0 -434 1593 1854] def
/s72 [0 -434 1479 1854] def
/s73 [0 -434 569 1854] def
/s76 [0 -434 1139 1854] def
/s77 [0 -434 1706 1854] def
/s78 [0 -434 1479 1854] def
/s80 [0 -434 1366 1854] def
/s84 [0 -434 1251 1854] def
/s86 [0 -434 1366 1854] def
/s99 [0 -434 1024 1854] def
/s101 [0 -434 1139 1854] def
/s107 [0 -434 1024 1854] def
/s111 [0 -434 1139 1854] def
/s112 [0 -434 1139 1854] def
/s116 [0 -434 569 1854] def
end
/Metrics 32 dict def
 Metrics begin
/s32 569 def
/s40 682 def
/s41 682 def
/s44 569 def
/s45 682 def
/s46 569 def
/s47 569 def
/s48 1139 def
/s49 1139 def
/s50 1139 def
/s51 1139 def
/s52 1139 def
/s53 1139 def
/s61 1196 def
/s67 1479 def
/s70 1251 def
/s71 1593 def
/s72 1479 def
/s73 569 def
/s76 1139 def
/s77 1706 def
/s78 1479 def
/s80 1366 def
/s84 1251 def
/s86 1366 def
/s99 1024 def
/s101 1139 def
/s107 1024 def
/s111 1139 def
/s112 1139 def
/s116 569 def
end
/CharProcs 32 dict def
CharProcs begin
/.notdef {} def
/s40 {
479 -431 m
379.67 -305.67 295.67 -159 227 9 c
158.33 177 124 351 124 531 c
124 689.67 149.67 841.67 201 987 c
261 1155.67 353.67 1323.67 479 1491 c
608 1491 479 1491 608 1491 c
527.33 1352.33 474 1253.33 448 1194 c
407.33 1102 375.33 1006 352 906 c
323.33 781.33 309 656 309 530 c
309 209.33 408.67 -111 608 -431 c
479 -431 608 -431 479 -431 c
closepath } bind def
/s41 {
253 -431 m
124 -431 253 -431 124 -431 c
323.33 -111 423 209.33 423 530 c
423 655.33 408.67 779.67 380 903 c
357.33 1003 325.67 1099 285 1191 c
259 1251 205.33 1351 124 1491 c
253 1491 124 1491 253 1491 c
378.33 1323.67 471 1155.67 531 987 c
582.33 841.67 608 689.67 608 531 c
608 351 573.5 177 504.5 9 c
435.5 -159 351.67 -305.67 253 -431 c
closepath } bind def
/s44 {
182 0 m
182 205 182 0 182 205 c
387 205 182 205 387 205 c
387 0 387 205 387 0 c
387 -75.33 373.67 -136.17 347 -182.5 c
320.33 -228.83 278 -264.67 220 -290 c
170 -213 220 -290 170 -213 c
208 -196.33 236 -171.83 254 -139.5 c
272 -107.17 282 -60.67 284 0 c
182 0 284 0 182 0 c
closepath } bind def
/s45 {
65 440 m
65 621 65 440 65 621 c
618 621 65 621 618 621 c
618 440 618 621 618 440 c
65 440 618 440 65 440 c
closepath } bind def
/s46 {
186 0 m
186 205 186 0 186 205 c
391 205 186 205 391 205 c
391 0 391 205 391 0 c
186 0 391 0 186 0 c
closepath } bind def
/s47 {
0 -25 m
425 1491 0 -25 425 1491 c
569 1491 425 1491 569 1491 c
145 -25 569 1491 145 -25 c
0 -25 145 -25 0 -25 c
closepath } bind def
/s48 {
85 723 m
85 896.33 102.83 1035.83 138.5 1141.5 c
174.17 1247.17 227.17 1328.67 297.5 1386 c
367.83 1443.33 456.33 1472 563 1472 c
641.67 1472 710.67 1456.17 770 1424.5 c
829.33 1392.83 878.33 1347.17 917 1287.5 c
955.67 1227.83 986 1155.17 1008 1069.5 c
1030 983.83 1041 868.33 1041 723 c
1041 551 1023.33 412.17 988 306.5 c
952.67 200.83 899.83 119.17 829.5 61.5 c
759.17 3.83 670.33 -25 563 -25 c
421.67 -25 310.67 25.67 230 127 c
133.33 249 85 447.67 85 723 c
closepath 270 723 m
270 482.33 298.17 322.17 354.5 242.5 c
410.83 162.83 480.33 123 563 123 c
645.67 123 715.17 163 771.5 243 c
827.83 323 856 483 856 723 c
856 964.33 827.83 1124.67 771.5 1204 c
715.17 1283.33 645 1323 561 1323 c
478.33 1323 412.33 1288 363 1218 c
301 1128.67 270 963.67 270 723 c
closepath } bind def
/s49 {
763 0 m
583 0 763 0 583 0 c
583 1147 583 0 583 1147 c
539.67 1105.67 482.83 1064.33 412.5 1023 c
342.17 981.67 279 950.67 223 930 c
223 1104 223 930 223 1104 c
323.67 1151.33 411.67 1208.67 487 1276 c
562.33 1343.33 615.67 1408.67 647 1472 c
763 1472 647 1472 763 1472 c
763 0 763 1472 763 0 c
closepath } bind def
/s50 {
1031 173 m
1031 0 1031 173 1031 0 c
62 0 1031 0 62 0 c
60.67 43.33 67.67 85 83 125 c
107.67 191 147.17 256 201.5 320 c
255.83 384 334.33 458 437 542 c
596.33 672.67 704 776.17 760 852.5 c
816 928.83 844 1001 844 1069 c
844 1140.33 818.5 1200.5 767.5 1249.5 c
716.5 1298.5 650 1323 568 1323 c
481.33 1323 412 1297 360 1245 c
308 1193 281.67 1121 281 1029 c
96 1048 281 1029 96 1048 c
108.67 1186 156.33 1291.17 239 1363.5 c
321.67 1435.83 432.67 1472 572 1472 c
712.67 1472 824 1433 906 1355 c
988 1277 1029 1180.33 1029 1065 c
1029 1006.33 1017 948.67 993 892 c
969 835.33 929.17 775.67 873.5 713 c
817.83 650.33 725.33 564.33 596 455 c
488 364.33 418.67 302.83 388 270.5 c
357.33 238.17 332 205.67 312 173 c
1031 173 312 173 1031 173 c
closepath } bind def
/s51 {
86 387 m
266 411 86 387 266 411 c
286.67 309 321.83 235.5 371.5 190.5 c
421.17 145.5 481.67 123 553 123 c
637.67 123 709.17 152.33 767.5 211 c
825.83 269.67 855 342.33 855 429 c
855 511.67 828 579.83 774 633.5 c
720 687.17 651.33 714 568 714 c
534 714 491.67 707.33 441 694 c
461 852 441 694 461 852 c
473 850.67 482.67 850 490 850 c
566.67 850 635.67 870 697 910 c
758.33 950 789 1011.67 789 1095 c
789 1161 766.67 1215.67 722 1259 c
677.33 1302.33 619.67 1324 549 1324 c
479 1324 420.67 1302 374 1258 c
327.33 1214 297.33 1148 284 1060 c
104 1092 284 1060 104 1092 c
126 1212.67 176 1306.17 254 1372.5 c
332 1438.83 429 1472 545 1472 c
625 1472 698.67 1454.83 766 1420.5 c
833.33 1386.17 884.83 1339.33 920.5 1280 c
956.17 1220.67 974 1157.67 974 1091 c
974 1027.67 957 970 923 918 c
889 866 838.67 824.67 772 794 c
858.67 774 926 732.5 974 669.5 c
1022 606.5 1046 527.67 1046 433 c
1046 305 999.33 196.5 906 107.5 c
812.67 18.5 694.67 -26 552 -26 c
423.33 -26 316.5 12.33 231.5 89 c
146.5 165.67 98 265 86 387 c
closepath } bind def
/s52 {
662 0 m
662 351 662 0 662 351 c
26 351 662 351 26 351 c
26 516 26 351 26 516 c
695 1466 26 516 695 1466 c
842 1466 695 1466 842 1466 c
842 516 842 1466 842 516 c
1040 516 842 516 1040 516 c
1040 351 1040 516 1040 351 c
842 351 1040 351 842 351 c
842 0 842 351 842 0 c
662 0 842 0 662 0 c
closepath 662 516 m
662 1177 662 516 662 1177 c
203 516 662 1177 203 516 c
662 516 203 516 662 516 c
closepath } bind def
/s53 {
85 384 m
274 400 85 384 274 400 c
288 308 320.5 238.83 371.5 192.5 c
422.5 146.17 484 123 556 123 c
642.67 123 716 155.67 776 221 c
836 286.33 866 373 866 481 c
866 583.67 837.17 664.67 779.5 724 c
721.83 783.33 646.33 813 553 813 c
495 813 442.67 799.83 396 773.5 c
349.33 747.17 312.67 713 286 671 c
117 693 286 671 117 693 c
259 1446 117 693 259 1446 c
988 1446 259 1446 988 1446 c
988 1274 988 1446 988 1274 c
403 1274 988 1274 403 1274 c
324 880 403 1274 324 880 c
412 941.33 504.33 972 601 972 c
729 972 837 927.67 925 839 c
1013 750.33 1057 636.33 1057 497 c
1057 364.33 1018.33 249.67 941 153 c
847 34.33 718.67 -25 556 -25 c
422.67 -25 313.83 12.33 229.5 87 c
145.17 161.67 97 260.67 85 384 c
closepath } bind def
/s61 {
1082 862 m
114 862 1082 862 114 862 c
114 1030 114 862 114 1030 c
1082 1030 114 1030 1082 1030 c
1082 862 1082 1030 1082 862 c
closepath 1082 417 m
114 417 1082 417 114 417 c
114 585 114 417 114 585 c
1082 585 114 585 1082 585 c
1082 417 1082 585 1082 417 c
closepath } bind def
/s67 {
1204 514 m
1398 465 1204 514 1398 465 c
1357.33 305.67 1284.17 184.17 1178.5 100.5 c
1072.83 16.83 943.67 -25 791 -25 c
633 -25 504.5 7.17 405.5 71.5 c
306.5 135.83 231.17 229 179.5 351 c
127.83 473 102 604 102 744 c
102 896.67 131.17 1029.83 189.5 1143.5 c
247.83 1257.17 330.83 1343.5 438.5 1402.5 c
546.17 1461.5 664.67 1491 794 1491 c
940.67 1491 1064 1453.67 1164 1379 c
1264 1304.33 1333.67 1199.33 1373 1064 c
1182 1019 1373 1064 1182 1019 c
1148 1125.67 1098.67 1203.33 1034 1252 c
969.33 1300.67 888 1325 790 1325 c
677.33 1325 583.17 1298 507.5 1244 c
431.83 1190 378.67 1117.5 348 1026.5 c
317.33 935.5 302 841.67 302 745 c
302 620.33 320.17 511.5 356.5 418.5 c
392.83 325.5 449.33 256 526 210 c
602.67 164 685.67 141 775 141 c
883.67 141 975.67 172.33 1051 235 c
1126.33 297.67 1177.33 390.67 1204 514 c
closepath } bind def
/s70 {
168 0 m
168 1466 168 0 168 1466 c
1157 1466 168 1466 1157 1466 c
1157 1293 1157 1466 1157 1293 c
362 1293 1157 1293 362 1293 c
362 839 362 1293 362 839 c
1050 839 362 839 1050 839 c
1050 666 1050 839 1050 666 c
362 666 1050 666 362 666 c
362 0 362 666 362 0 c
168 0 362 0 168 0 c
closepath } bind def
/s71 {
844 575 m
844 747 844 575 844 747 c
1465 748 844 747 1465 748 c
1465 204 1465 748 1465 204 c
1369.67 128 1271.33 70.83 1170 32.5 c
1068.67 -5.83 964.67 -25 858 -25 c
714 -25 583.17 5.83 465.5 67.5 c
347.83 129.17 259 218.33 199 335 c
139 451.67 109 582 109 726 c
109 868.67 138.83 1001.83 198.5 1125.5 c
258.17 1249.17 344 1341 456 1401 c
568 1461 697 1491 843 1491 c
949 1491 1044.83 1473.83 1130.5 1439.5 c
1216.17 1405.17 1283.33 1357.33 1332 1296 c
1380.67 1234.67 1417.67 1154.67 1443 1056 c
1268 1008 1443 1056 1268 1008 c
1246 1082.67 1218.67 1141.33 1186 1184 c
1153.33 1226.67 1106.67 1260.83 1046 1286.5 c
985.33 1312.17 918 1325 844 1325 c
755.33 1325 678.67 1311.5 614 1284.5 c
549.33 1257.5 497.17 1222 457.5 1178 c
417.83 1134 387 1085.67 365 1033 c
327.67 942.33 309 844 309 738 c
309 607.33 331.5 498 376.5 410 c
421.5 322 487 256.67 573 214 c
659 171.33 750.33 150 847 150 c
931 150 1013 166.17 1093 198.5 c
1173 230.83 1233.67 265.33 1275 302 c
1275 575 1275 302 1275 575 c
844 575 1275 575 844 575 c
closepath } bind def
/s72 {
164 0 m
164 1466 164 0 164 1466 c
358 1466 164 1466 358 1466 c
358 864 358 1466 358 864 c
1120 864 358 864 1120 864 c
1120 1466 1120 864 1120 1466 c
1314 1466 1120 1466 1314 1466 c
1314 0 1314 1466 1314 0 c
1120 0 1314 0 1120 0 c
1120 691 1120 0 1120 691 c
358 691 1120 691 358 691 c
358 0 358 691 358 0 c
164 0 358 0 164 0 c
closepath } bind def
/s73 {
191 0 m
191 1466 191 0 191 1466 c
385 1466 191 1466 385 1466 c
385 0 385 1466 385 0 c
191 0 385 0 191 0 c
closepath } bind def
/s76 {
150 0 m
150 1466 150 0 150 1466 c
344 1466 150 1466 344 1466 c
344 173 344 1466 344 173 c
1066 173 344 173 1066 173 c
1066 0 1066 173 1066 0 c
150 0 1066 0 150 0 c
closepath } bind def
/s77 {
152 0 m
152 1466 152 0 152 1466 c
444 1466 152 1466 444 1466 c
791 428 444 1466 791 428 c
823 331.33 846.33 259 861 211 c
877.67 264.33 903.67 342.67 939 446 c
1290 1466 939 446 1290 1466 c
1551 1466 1290 1466 1551 1466 c
1551 0 1551 1466 1551 0 c
1364 0 1551 0 1364 0 c
1364 1227 1364 0 1364 1227 c
938 0 1364 1227 938 0 c
763 0 938 0 763 0 c
339 1248 763 0 339 1248 c
339 0 339 1248 339 0 c
152 0 339 0 152 0 c
closepath } bind def
/s78 {
156 0 m
156 1466 156 0 156 1466 c
355 1466 156 1466 355 1466 c
1125 315 355 1466 1125 315 c
1125 1466 1125 315 1125 1466 c
1311 1466 1125 1466 1311 1466 c
1311 0 1311 1466 1311 0 c
1112 0 1311 0 1112 0 c
342 1152 1112 0 342 1152 c
342 0 342 1152 342 0 c
156 0 342 0 156 0 c
closepath } bind def
/s80 {
158 0 m
158 1466 158 0 158 1466 c
711 1466 158 1466 711 1466 c
808.33 1466 882.67 1461.33 934 1452 c
1006 1440 1066.33 1417.17 1115 1383.5 c
1163.67 1349.83 1202.83 1302.67 1232.5 1242 c
1262.17 1181.33 1277 1114.67 1277 1042 c
1277 917.33 1237.33 811.83 1158 725.5 c
1078.67 639.17 935.33 596 728 596 c
352 596 728 596 352 596 c
352 0 352 596 352 0 c
158 0 352 0 158 0 c
closepath 352 769 m
731 769 352 769 731 769 c
856.33 769 945.33 792.33 998 839 c
1050.67 885.67 1077 951.33 1077 1036 c
1077 1097.33 1061.5 1149.83 1030.5 1193.5 c
999.5 1237.17 958.67 1266 908 1280 c
875.33 1288.67 815 1293 727 1293 c
352 1293 727 1293 352 1293 c
352 769 352 1293 352 769 c
closepath } bind def
/s84 {
531 0 m
531 1293 531 0 531 1293 c
48 1293 531 1293 48 1293 c
48 1466 48 1293 48 1466 c
1210 1466 48 1466 1210 1466 c
1210 1293 1210 1466 1210 1293 c
725 1293 1210 1293 725 1293 c
725 0 725 1293 725 0 c
531 0 725 0 531 0 c
closepath } bind def
/s86 {
577 0 m
9 1466 577 0 9 1466 c
219 1466 9 1466 219 1466 c
600 401 219 1466 600 401 c
630.67 315.67 656.33 235.67 677 161 c
699.67 241 726 321 756 401 c
1152 1466 756 401 1152 1466 c
1350 1466 1152 1466 1350 1466 c
776 0 1350 1466 776 0 c
577 0 776 0 577 0 c
closepath } bind def
/s99 {
828 389 m
1005 366 828 389 1005 366 c
985.67 244 936.17 148.5 856.5 79.5 c
776.83 10.5 679 -24 563 -24 c
417.67 -24 300.83 23.5 212.5 118.5 c
124.17 213.5 80 349.67 80 527 c
80 641.67 99 742 137 828 c
175 914 232.83 978.5 310.5 1021.5 c
388.17 1064.5 472.67 1086 564 1086 c
679.33 1086 773.67 1056.83 847 998.5 c
920.33 940.17 967.33 857.33 988 750 c
813 723 988 750 813 723 c
796.33 794.33 766.83 848 724.5 884 c
682.17 920 631 938 571 938 c
480.33 938 406.67 905.5 350 840.5 c
293.33 775.5 265 672.67 265 532 c
265 389.33 292.33 285.67 347 221 c
401.67 156.33 473 124 561 124 c
631.67 124 690.67 145.67 738 189 c
785.33 232.33 815.33 299 828 389 c
closepath } bind def
/s101 {
862 342 m
1048 319 862 342 1048 319 c
1018.67 210.33 964.33 126 885 66 c
805.67 6 704.33 -24 581 -24 c
425.67 -24 302.5 23.83 211.5 119.5 c
120.5 215.17 75 349.33 75 522 c
75 700.67 121 839.33 213 938 c
305 1036.67 424.33 1086 571 1086 c
713 1086 829 1037.67 919 941 c
1009 844.33 1054 708.33 1054 533 c
1054 522.33 1053.67 506.33 1053 485 c
261 485 1053 485 261 485 c
267.67 368.33 300.67 279 360 217 c
419.33 155 493.33 124 582 124 c
648 124 704.33 141.33 751 176 c
797.67 210.67 834.67 266 862 342 c
closepath 271 633 m
864 633 271 633 864 633 c
856 722.33 833.33 789.33 796 834 c
738.67 903.33 664.33 938 573 938 c
490.33 938 420.83 910.33 364.5 855 c
308.17 799.67 277 725.67 271 633 c
closepath } bind def
/s107 {
136 0 m
136 1466 136 0 136 1466 c
316 1466 136 1466 316 1466 c
316 630 316 1466 316 630 c
742 1062 316 630 742 1062 c
975 1062 742 1062 975 1062 c
569 668 975 1062 569 668 c
1016 0 569 668 1016 0 c
794 0 1016 0 794 0 c
443 543 794 0 443 543 c
316 421 443 543 316 421 c
316 0 316 421 316 0 c
136 0 316 0 136 0 c
closepath } bind def
/s111 {
68 531 m
68 727.67 122.67 873.33 232 968 c
323.33 1046.67 434.67 1086 566 1086 c
712 1086 831.33 1038.17 924 942.5 c
1016.67 846.83 1063 714.67 1063 546 c
1063 409.33 1042.5 301.83 1001.5 223.5 c
960.5 145.17 900.83 84.33 822.5 41 c
744.17 -2.33 658.67 -24 566 -24 c
417.33 -24 297.17 23.67 205.5 119 c
113.83 214.33 68 351.67 68 531 c
closepath 253 531 m
253 395 282.67 293.17 342 225.5 c
401.33 157.83 476 124 566 124 c
655.33 124 729.67 158 789 226 c
848.33 294 878 397.67 878 537 c
878 668.33 848.17 767.83 788.5 835.5 c
728.83 903.17 654.67 937 566 937 c
476 937 401.33 903.33 342 836 c
282.67 768.67 253 667 253 531 c
closepath } bind def
/s112 {
135 -407 m
135 1062 135 -407 135 1062 c
299 1062 135 1062 299 1062 c
299 924 299 1062 299 924 c
337.67 978 381.33 1018.5 430 1045.5 c
478.67 1072.5 537.67 1086 607 1086 c
697.67 1086 777.67 1062.67 847 1016 c
916.33 969.33 968.67 903.5 1004 818.5 c
1039.33 733.5 1057 640.33 1057 539 c
1057 430.33 1037.5 332.5 998.5 245.5 c
959.5 158.5 902.83 91.83 828.5 45.5 c
754.17 -0.83 676 -24 594 -24 c
534 -24 480.17 -11.33 432.5 14 c
384.83 39.33 345.67 71.33 315 110 c
315 -407 315 110 315 -407 c
135 -407 315 -407 135 -407 c
closepath 298 525 m
298 388.33 325.67 287.33 381 222 c
436.33 156.67 503.33 124 582 124 c
662 124 730.5 157.83 787.5 225.5 c
844.5 293.17 873 398 873 540 c
873 675.33 845.17 776.67 789.5 844 c
733.83 911.33 667.33 945 590 945 c
513.33 945 445.5 909.17 386.5 837.5 c
327.5 765.83 298 661.67 298 525 c
closepath } bind def
/s116 {
528 161 m
554 2 528 161 554 2 c
503.33 -8.67 458 -14 418 -14 c
352.67 -14 302 -3.67 266 17 c
230 37.67 204.67 64.83 190 98.5 c
175.33 132.17 168 203 168 311 c
168 922 168 311 168 922 c
36 922 168 922 36 922 c
36 1062 36 922 36 1062 c
168 1062 36 1062 168 1062 c
168 1325 168 1062 168 1325 c
347 1433 168 1325 347 1433 c
347 1062 347 1433 347 1062 c
528 1062 347 1062 528 1062 c
528 922 528 1062 528 922 c
347 922 528 922 347 922 c
347 301 347 922 347 301 c
347 249.67 350.17 216.67 356.5 202 c
362.83 187.33 373.17 175.67 387.5 167 c
401.83 158.33 422.33 154 449 154 c
469 154 495.33 156.33 528 161 c
closepath } bind def
end
/BuildGlyph {
 exch dup /Metrics get 2 index get 0 setcharwidth
/CharProcs get exch 2 copy known not{pop/.notdef}if get exec fill}bind def
/BuildChar {
1 index /Encoding get exch get
1 index /BuildGlyph get exec
} bind def
currentdict end /MC1_Arial exch definefont pop
%%EndFont
%%BeginFont: /MC2_Arial
12 dict begin
/FontInfo 8 dict dup begin
/ItalicAngle 0 def
/UnderlinePosition -217.00 def
/UnderlineThickness 150.00 def
/StrikeoutPosition 530.00 def
/StrikeoutThickness 102.00 def
/isFixedPitch false def
end readonly def
/FontName /MC2_Arial def
/FontType 3 def
/FontMatrix [1 2048 div 0 0 1 2048 div 0 0] def
/FontBBox [-1361 -665 4096 2129] def
/Encoding 256 array def 0 1 255{Encoding exch/.notdef put}for
Encoding 32/s32 put
Encoding 40/s40 put
Encoding 41/s41 put
Encoding 44/s44 put
Encoding 69/s69 put
Encoding 107/s107 put
/BoundingBoxes 7 dict def
BoundingBoxes begin
/s32 [0 -434 569 1854] def
/s40 [0 -434 682 1854] def
/s41 [0 -434 682 1854] def
/s44 [0 -434 569 1854] def
/s69 [0 -434 1366 1854] def
/s107 [0 -434 1024 1854] def
end
/Metrics 7 dict def
 Metrics begin
/s32 569 def
/s40 682 def
/s41 682 def
/s44 569 def
/s69 1366 def
/s107 1024 def
end
/CharProcs 7 dict def
CharProcs begin
/.notdef {} def
/s40 {
479 -431 m
379.67 -305.67 295.67 -159 227 9 c
158.33 177 124 351 124 531 c
124 689.67 149.67 841.67 201 987 c
261 1155.67 353.67 1323.67 479 1491 c
608 1491 479 1491 608 1491 c
527.33 1352.33 474 1253.33 448 1194 c
407.33 1102 375.33 1006 352 906 c
323.33 781.33 309 656 309 530 c
309 209.33 408.67 -111 608 -431 c
479 -431 608 -431 479 -431 c
closepath } bind def
/s41 {
253 -431 m
124 -431 253 -431 124 -431 c
323.33 -111 423 209.33 423 530 c
423 655.33 408.67 779.67 380 903 c
357.33 1003 325.67 1099 285 1191 c
259 1251 205.33 1351 124 1491 c
253 1491 124 1491 253 1491 c
378.33 1323.67 471 1155.67 531 987 c
582.33 841.67 608 689.67 608 531 c
608 351 573.5 177 504.5 9 c
435.5 -159 351.67 -305.67 253 -431 c
closepath } bind def
/s44 {
182 0 m
182 205 182 0 182 205 c
387 205 182 205 387 205 c
387 0 387 205 387 0 c
387 -75.33 373.67 -136.17 347 -182.5 c
320.33 -228.83 278 -264.67 220 -290 c
170 -213 220 -290 170 -213 c
208 -196.33 236 -171.83 254 -139.5 c
272 -107.17 282 -60.67 284 0 c
182 0 284 0 182 0 c
closepath } bind def
/s69 {
162 0 m
162 1466 162 0 162 1466 c
1222 1466 162 1466 1222 1466 c
1222 1293 1222 1466 1222 1293 c
356 1293 1222 1293 356 1293 c
356 844 356 1293 356 844 c
1167 844 356 844 1167 844 c
1167 672 1167 844 1167 672 c
356 672 1167 672 356 672 c
356 173 356 672 356 173 c
1256 173 356 173 1256 173 c
1256 0 1256 173 1256 0 c
162 0 1256 0 162 0 c
closepath } bind def
/s107 {
136 0 m
136 1466 136 0 136 1466 c
316 1466 136 1466 316 1466 c
316 630 316 1466 316 630 c
742 1062 316 630 742 1062 c
975 1062 742 1062 975 1062 c
569 668 975 1062 569 668 c
1016 0 569 668 1016 0 c
794 0 1016 0 794 0 c
443 543 794 0 443 543 c
316 421 443 543 316 421 c
316 0 316 421 316 0 c
136 0 316 0 136 0 c
closepath } bind def
end
/BuildGlyph {
 exch dup /Metrics get 2 index get 0 setcharwidth
/CharProcs get exch 2 copy known not{pop/.notdef}if get exec fill}bind def
/BuildChar {
1 index /Encoding get exch get
1 index /BuildGlyph get exec
} bind def
currentdict end /MC2_Arial exch definefont pop
%%EndFont
%%BeginFont: /MC3_Symbol
12 dict begin
/FontInfo 8 dict dup begin
/ItalicAngle 0 def
/UnderlinePosition -223.00 def
/UnderlineThickness 100.00 def
/StrikeoutPosition 530.00 def
/StrikeoutThickness 102.00 def
/isFixedPitch false def
end readonly def
/FontName /MC3_Symbol def
/FontType 3 def
/FontMatrix [1 2048 div 0 0 1 2048 div 0 0] def
/FontBBox [-1 -450 2279 2059] def
/Encoding 256 array def 0 1 255{Encoding exch/.notdef put}for
Encoding 32/s32 put
/BoundingBoxes 3 dict def
BoundingBoxes begin
/s32 [0 -450 512 2059] def
/s61556 [0 -450 0 2059] def
end
/Metrics 3 dict def
 Metrics begin
/s32 512 def
/s61556 0 def
end
/CharProcs 3 dict def
CharProcs begin
/.notdef {} def
/s61556 {
813 916 m
813 769 813 916 813 769 c
501 769 813 769 501 769 c
478.33 549.67 467 399.33 467 318 c
467 253.33 479.17 206.5 503.5 177.5 c
527.83 148.5 558.33 134 595 134 c
622.33 134 646 143.33 666 162 c
686 180.67 700.67 212.67 710 258 c
745 258 710 258 745 258 c
733.67 148.67 709.33 73.17 672 31.5 c
634.67 -10.17 591 -31 541 -31 c
488.33 -31 444.33 -7.17 409 40.5 c
373.67 88.17 356 173.33 356 296 c
356 392.67 368 550.33 392 769 c
298 769 392 769 298 769 c
244 769 201.67 759.17 171 739.5 c
140.33 719.83 110 682.67 80 628 c
43 628 80 628 43 628 c
91 756 134 836 172 868 c
210 900 264 916 334 916 c
813 916 334 916 813 916 c
closepath } bind def
end
/BuildGlyph {
 exch dup /Metrics get 2 index get 0 setcharwidth
/CharProcs get exch 2 copy known not{pop/.notdef}if get exec fill}bind def
/BuildChar {
1 index /Encoding get exch get
1 index /BuildGlyph get exec
} bind def
currentdict end /MC3_Symbol exch definefont pop
%%EndFont
%%BeginFont: /MC4_Symbol
12 dict begin
/FontInfo 8 dict dup begin
/ItalicAngle 0 def
/UnderlinePosition -223.00 def
/UnderlineThickness 100.00 def
/StrikeoutPosition 530.00 def
/StrikeoutThickness 102.00 def
/isFixedPitch false def
end readonly def
/FontName /MC4_Symbol def
/FontType 3 def
/FontMatrix [1 2048 div 0 0 1 2048 div 0 0] def
/FontBBox [-1 -450 2279 2059] def
/Encoding 256 array def 0 1 255{Encoding exch/.notdef put}for
Encoding 32/s32 put
/BoundingBoxes 6 dict def
BoundingBoxes begin
/s32 [0 -450 512 2059] def
/s61508 [0 -450 0 2059] def
/s61554 [0 -450 0 2059] def
/s61555 [0 -450 0 2059] def
/s61556 [0 -450 0 2059] def
end
/Metrics 6 dict def
 Metrics begin
/s32 512 def
/s61508 0 def
/s61554 0 def
/s61555 0 def
/s61556 0 def
end
/CharProcs 6 dict def
CharProcs begin
/.notdef {} def
/s61508 {
1226 0 m
26 0 1226 0 26 0 c
654 1387 26 0 654 1387 c
1226 0 654 1387 1226 0 c
closepath 990 82 m
591 1049 990 82 591 1049 c
151 82 591 1049 151 82 c
990 82 151 82 990 82 c
closepath } bind def
/s61554 {
307 55 m
307 -62 307 55 307 -62 c
307 -226.67 296.67 -353.33 276 -442 c
105 -442 276 -442 105 -442 c
119 -399.33 128 -364.67 132 -338 c
138.67 -292.67 142 -235.67 142 -167 c
142 474 142 -167 142 474 c
142 612 185.33 725 272 813 c
358.67 900.33 468 944 600 944 c
750.67 944 865.33 890 944 782 c
1004.67 698 1035 603 1035 497 c
1035 377.67 998 267.67 924 167 c
826 35 702 -31 552 -31 c
498 -31 449 -23 405 -7 c
375.67 4.33 343 25 307 55 c
closepath 307 357 m
307 265.67 315.17 202 331.5 166 c
347.83 130 377.67 99.5 421 74.5 c
464.33 49.5 513.67 37 569 37 c
652.33 37 723 69.67 781 135 c
839 200.33 868 289.33 868 402 c
868 486.67 850.17 565.17 814.5 637.5 c
778.83 709.83 733.33 763.33 678 798 c
622.67 832.67 564.33 850 503 850 c
426.33 850 371.33 820.33 338 761 c
317.33 725.67 307 647.33 307 526 c
307 357 307 526 307 357 c
closepath } bind def
/s61555 {
1194 765 m
746 765 1194 765 746 765 c
846.67 709 923 647 975 579 c
1027 511 1053 432.33 1053 343 c
1053 240.33 1011.67 152.33 929 79 c
846.33 5.67 735.67 -31 597 -31 c
451 -31 328 18.67 228 118 c
128 217.33 78 337.33 78 478 c
78 562.67 99 639.33 141 708 c
183 776.67 236.17 828.5 300.5 863.5 c
364.83 898.5 463.33 916 596 916 c
1194 916 596 916 1194 916 c
1194 765 1194 916 1194 765 c
closepath 671 765 m
643 765.67 621.67 766 607 766 c
487.67 766 399.17 739.33 341.5 686 c
283.83 632.67 255 557.33 255 460 c
255 332.67 289.33 230.33 358 153 c
426.67 75.67 508 37 602 37 c
680.67 37 745.33 65.17 796 121.5 c
846.67 177.83 872 259 872 365 c
872 518.33 805 651.67 671 765 c
closepath } bind def
/s61556 {
813 916 m
813 769 813 916 813 769 c
501 769 813 769 501 769 c
478.33 549.67 467 399.33 467 318 c
467 253.33 479.17 206.5 503.5 177.5 c
527.83 148.5 558.33 134 595 134 c
622.33 134 646 143.33 666 162 c
686 180.67 700.67 212.67 710 258 c
745 258 710 258 745 258 c
733.67 148.67 709.33 73.17 672 31.5 c
634.67 -10.17 591 -31 541 -31 c
488.33 -31 444.33 -7.17 409 40.5 c
373.67 88.17 356 173.33 356 296 c
356 392.67 368 550.33 392 769 c
298 769 392 769 298 769 c
244 769 201.67 759.17 171 739.5 c
140.33 719.83 110 682.67 80 628 c
43 628 80 628 43 628 c
91 756 134 836 172 868 c
210 900 264 916 334 916 c
813 916 334 916 813 916 c
closepath } bind def
end
/BuildGlyph {
 exch dup /Metrics get 2 index get 0 setcharwidth
/CharProcs get exch 2 copy known not{pop/.notdef}if get exec fill}bind def
/BuildChar {
1 index /Encoding get exch get
1 index /BuildGlyph get exec
} bind def
currentdict end /MC4_Symbol exch definefont pop
%%EndFont
/clipproc{clippath{[{/m cvx}{/l cvx}{/c cvx}{/cp cvx}pathforall}stopped
{cleartomark[pathbbox exch 3 i sub exch 2 i sub/rectpath cvx}if]np}bd
/iclmtx mtx cmtx def/iclpath clipproc xd/clinit{pathproc initclip np iclpath cl np exec}bd
/clmove{pathproc 3 1 roll clippath pathproc 2 i neg 2 i neg tr initclip np exec cl tr np exec}bd
/clrect[gs np iclpath{pathbbox}stopped{0 0 771.85 590.88 }if gr]def
/cloper{mtx cmtx iclmtx smtx exch exec smtx}bd
/cland{{exch cvx exec}cloper}bd
/clcopy{{exch clinit cvx exec}cloper}bd
/cldiff{{exch pathbbox 4 -1 roll clrect 0 get 2 copy gt{exch}if pop 4 1 roll
 3 -1 roll clrect 1 get 2 copy gt{exch}if pop 3 1 roll
 2 -1 roll clrect 2 get 2 copy lt{exch}if pop 2 1 roll
 1 -1 roll clrect 3 get 2 copy lt{exch}if pop 1 1 roll
 exch 3 i sub exch 2 i sub rectpath cvx exec}cloper}bd
/icl{{clinit}cloper}bd
0.851119 0.854583 sc

/initmtx mtx cmtx def
initmtx smtx
[1.0000 0.0000 0.0000 1.0000 0.0000 0.0000 ] concat
 [0.281988 -0 0 -0.28084 0 691.427] concat
gs
322 2166 m
3056 2166 l
7 sw
1 sj
1 scap
st
390 2166 m
390 2147 l
st
459 2166 m
459 2147 l
st
527 2166 m
527 2147 l
st
595 2166 m
595 2147 l
st
664 2166 m
664 2147 l
st
732 2166 m
732 2147 l
st
800 2166 m
800 2147 l
st
869 2166 m
869 2147 l
st
937 2166 m
937 2147 l
st
1074 2166 m
1074 2147 l
st
1142 2166 m
1142 2147 l
st
1211 2166 m
1211 2147 l
st
1279 2166 m
1279 2147 l
st
1347 2166 m
1347 2147 l
st
1416 2166 m
1416 2147 l
st
1484 2166 m
1484 2147 l
st
1552 2166 m
1552 2147 l
st
1621 2166 m
1621 2147 l
st
1757 2166 m
1757 2147 l
st
1826 2166 m
1826 2147 l
st
1894 2166 m
1894 2147 l
st
1962 2166 m
1962 2147 l
st
2031 2166 m
2031 2147 l
st
2099 2166 m
2099 2147 l
st
2167 2166 m
2167 2147 l
st
2236 2166 m
2236 2147 l
st
2304 2166 m
2304 2147 l
st
2441 2166 m
2441 2147 l
st
2509 2166 m
2509 2147 l
st
2578 2166 m
2578 2147 l
st
2646 2166 m
2646 2147 l
st
2714 2166 m
2714 2147 l
st
2783 2166 m
2783 2147 l
st
2851 2166 m
2851 2147 l
st
2919 2166 m
2919 2147 l
st
2988 2166 m
2988 2147 l
st
322 2166 m
322 2128 l
st
1006 2166 m
1006 2128 l
st
1689 2166 m
1689 2128 l
st
2373 2166 m
2373 2128 l
st
3056 2166 m
3056 2128 l
st
322 123 m
3056 123 l
st
390 123 m
390 142 l
st
459 123 m
459 142 l
st
527 123 m
527 142 l
st
595 123 m
595 142 l
st
664 123 m
664 142 l
st
732 123 m
732 142 l
st
800 123 m
800 142 l
st
869 123 m
869 142 l
st
937 123 m
937 142 l
st
1074 123 m
1074 142 l
st
1142 123 m
1142 142 l
st
1211 123 m
1211 142 l
st
1279 123 m
1279 142 l
st
1347 123 m
1347 142 l
st
1416 123 m
1416 142 l
st
1484 123 m
1484 142 l
st
1552 123 m
1552 142 l
st
1621 123 m
1621 142 l
st
1757 123 m
1757 142 l
st
1826 123 m
1826 142 l
st
1894 123 m
1894 142 l
st
1962 123 m
1962 142 l
st
2031 123 m
2031 142 l
st
2099 123 m
2099 142 l
st
2167 123 m
2167 142 l
st
2236 123 m
2236 142 l
st
2304 123 m
2304 142 l
st
2441 123 m
2441 142 l
st
2509 123 m
2509 142 l
st
2578 123 m
2578 142 l
st
2646 123 m
2646 142 l
st
2714 123 m
2714 142 l
st
2783 123 m
2783 142 l
st
2851 123 m
2851 142 l
st
2919 123 m
2919 142 l
st
2988 123 m
2988 142 l
st
322 123 m
322 161 l
st
1006 123 m
1006 161 l
st
1689 123 m
1689 161 l
st
2373 123 m
2373 161 l
st
3056 123 m
3056 161 l
st
322 2166 m
322 123 l
st
322 2117 m
341 2117 l
st
322 2069 m
341 2069 l
st
322 2020 m
341 2020 l
st
322 1971 m
341 1971 l
st
322 1874 m
341 1874 l
st
322 1826 m
341 1826 l
st
322 1777 m
341 1777 l
st
322 1728 m
341 1728 l
st
322 1631 m
341 1631 l
st
322 1582 m
341 1582 l
st
322 1534 m
341 1534 l
st
322 1485 m
341 1485 l
st
322 1388 m
341 1388 l
st
322 1339 m
341 1339 l
st
322 1290 m
341 1290 l
st
322 1242 m
341 1242 l
st
322 1145 m
341 1145 l
st
322 1096 m
341 1096 l
st
322 1047 m
341 1047 l
st
322 999 m
341 999 l
st
322 901 m
341 901 l
st
322 853 m
341 853 l
st
322 804 m
341 804 l
st
322 755 m
341 755 l
st
322 658 m
341 658 l
st
322 609 m
341 609 l
st
322 561 m
341 561 l
st
322 512 m
341 512 l
st
322 415 m
341 415 l
st
322 366 m
341 366 l
st
322 318 m
341 318 l
st
322 269 m
341 269 l
st
322 172 m
341 172 l
st
322 123 m
341 123 l
st
322 2166 m
360 2166 l
st
322 1923 m
360 1923 l
st
322 1680 m
360 1680 l
st
322 1436 m
360 1436 l
st
322 1193 m
360 1193 l
st
322 950 m
360 950 l
st
322 707 m
360 707 l
st
322 464 m
360 464 l
st
322 220 m
360 220 l
st
3056 2166 m
3056 123 l
st
3056 2117 m
3037 2117 l
st
3056 2069 m
3037 2069 l
st
3056 2020 m
3037 2020 l
st
3056 1971 m
3037 1971 l
st
3056 1874 m
3037 1874 l
st
3056 1826 m
3037 1826 l
st
3056 1777 m
3037 1777 l
st
3056 1728 m
3037 1728 l
st
3056 1631 m
3037 1631 l
st
3056 1582 m
3037 1582 l
st
3056 1534 m
3037 1534 l
st
3056 1485 m
3037 1485 l
st
3056 1388 m
3037 1388 l
st
3056 1339 m
3037 1339 l
st
3056 1290 m
3037 1290 l
st
3056 1242 m
3037 1242 l
st
3056 1145 m
3037 1145 l
st
3056 1096 m
3037 1096 l
st
3056 1047 m
3037 1047 l
st
3056 999 m
3037 999 l
st
3056 901 m
3037 901 l
st
3056 853 m
3037 853 l
st
3056 804 m
3037 804 l
st
3056 755 m
3037 755 l
st
3056 658 m
3037 658 l
st
3056 609 m
3037 609 l
st
3056 561 m
3037 561 l
st
3056 512 m
3037 512 l
st
3056 415 m
3037 415 l
st
3056 366 m
3037 366 l
st
3056 318 m
3037 318 l
st
3056 269 m
3037 269 l
st
3056 172 m
3037 172 l
st
3056 123 m
3037 123 l
st
3056 2166 m
3018 2166 l
st
3056 1923 m
3018 1923 l
st
3056 1680 m
3018 1680 l
st
3056 1436 m
3018 1436 l
st
3056 1193 m
3018 1193 l
st
3056 950 m
3018 950 l
st
3056 707 m
3018 707 l
st
3056 464 m
3018 464 l
st
3056 220 m
3018 220 l
st
gs
gr
gs
gr
gs
1 -1 sc
/MC1_Arial 91 self 233 -2278 m
(0.00)[51 25 51 51 ] xs
1 -1 sc
gr
gs
gr
gs
gr
gs
1 -1 sc
/MC1_Arial 91 self 917 -2278 m
(0.01)[51 25 51 51 ] xs
1 -1 sc
gr
gs
gr
gs
gr
gs
1 -1 sc
/MC1_Arial 91 self 1600 -2278 m
(0.02)[51 25 51 51 ] xs
1 -1 sc
gr
gs
gr
gs
gr
gs
1 -1 sc
/MC1_Arial 91 self 2284 -2278 m
(0.03)[51 25 51 51 ] xs
1 -1 sc
gr
gs
gr
gs
gr
gs
1 -1 sc
/MC1_Arial 91 self 2967 -2278 m
(0.04)[51 25 51 51 ] xs
1 -1 sc
gr
gs
gr
gs
gr
gs
1 -1 sc
/MC1_Arial 91 self 154 -2193 m
(0.0)[51 25 51 ] xs
1 -1 sc
gr
gs
gr
gs
gr
gs
1 -1 sc
/MC1_Arial 91 self 154 -1950 m
(0.5)[51 25 51 ] xs
1 -1 sc
gr
gs
gr
gs
gr
gs
1 -1 sc
/MC1_Arial 91 self 154 -1707 m
(1.0)[51 25 51 ] xs
1 -1 sc
gr
gs
gr
gs
gr
gs
1 -1 sc
/MC1_Arial 91 self 154 -1463 m
(1.5)[51 25 51 ] xs
1 -1 sc
gr
gs
gr
gs
gr
gs
1 -1 sc
/MC1_Arial 91 self 154 -1220 m
(2.0)[51 25 51 ] xs
1 -1 sc
gr
gs
gr
gs
gr
gs
1 -1 sc
/MC1_Arial 91 self 154 -977 m
(2.5)[51 25 51 ] xs
1 -1 sc
gr
gs
gr
gs
gr
gs
1 -1 sc
/MC1_Arial 91 self 154 -734 m
(3.0)[51 25 51 ] xs
1 -1 sc
gr
gs
gr
gs
gr
gs
1 -1 sc
/MC1_Arial 91 self 154 -491 m
(3.5)[51 25 51 ] xs
1 -1 sc
gr
gs
gr
gs
gr
gs
1 -1 sc
/MC1_Arial 91 self 154 -247 m
(4.0)[51 25 51 ] xs
1 -1 sc
gr
gs
gr
gs
gr
gs
gr
gs
gr
gs
gr
gs
gr
gs
gr
gs
gr
gs
gr
gs
gr
gs
gr
gs
gr
gs
gr
gs
gr
gs
gr
gs
gr
gs
gr
gs
gr
gs
np
322 1588 11 0 360  a
cp
gs
eofi
gr
1 sw
st
np
343 1586 11 0 360  a
cp
gs
eofi
gr
st
np
363 1584 11 0 360  a
cp
gs
eofi
gr
st
np
384 1582 11 0 360  a
cp
gs
eofi
gr
st
np
404 1580 11 0 360  a
cp
gs
eofi
gr
st
np
425 1577 11 0 360  a
cp
gs
eofi
gr
st
np
445 1575 11 0 360  a
cp
gs
eofi
gr
st
np
466 1572 11 0 360  a
cp
gs
eofi
gr
st
np
486 1569 11 0 360  a
cp
gs
eofi
gr
st
np
507 1567 11 0 360  a
cp
gs
eofi
gr
st
np
527 1564 11 0 360  a
cp
gs
eofi
gr
st
np
548 1561 11 0 360  a
cp
gs
eofi
gr
st
np
568 1558 11 0 360  a
cp
gs
eofi
gr
st
np
589 1555 11 0 360  a
cp
gs
eofi
gr
st
np
609 1551 11 0 360  a
cp
gs
eofi
gr
st
np
630 1548 11 0 360  a
cp
gs
eofi
gr
st
np
650 1544 11 0 360  a
cp
gs
eofi
gr
st
np
671 1541 11 0 360  a
cp
gs
eofi
gr
st
np
691 1538 11 0 360  a
cp
gs
eofi
gr
st
np
712 1534 11 0 360  a
cp
gs
eofi
gr
st
np
732 1530 11 0 360  a
cp
gs
eofi
gr
st
np
753 1526 11 0 360  a
cp
gs
eofi
gr
st
np
773 1523 11 0 360  a
cp
gs
eofi
gr
st
np
794 1518 11 0 360  a
cp
gs
eofi
gr
st
np
814 1514 11 0 360  a
cp
gs
eofi
gr
st
np
835 1510 11 0 360  a
cp
gs
eofi
gr
st
np
855 1505 11 0 360  a
cp
gs
eofi
gr
st
np
876 1501 11 0 360  a
cp
gs
eofi
gr
st
np
896 1497 11 0 360  a
cp
gs
eofi
gr
st
np
917 1492 11 0 360  a
cp
gs
eofi
gr
st
np
937 1487 11 0 360  a
cp
gs
eofi
gr
st
np
958 1482 11 0 360  a
cp
gs
eofi
gr
st
np
978 1477 11 0 360  a
cp
gs
eofi
gr
st
np
999 1472 11 0 360  a
cp
gs
eofi
gr
st
np
1019 1467 11 0 360  a
cp
gs
eofi
gr
st
np
1040 1462 11 0 360  a
cp
gs
eofi
gr
st
np
1060 1457 11 0 360  a
cp
gs
eofi
gr
st
np
1081 1452 11 0 360  a
cp
gs
eofi
gr
st
np
1101 1446 11 0 360  a
cp
gs
eofi
gr
st
np
1122 1441 11 0 360  a
cp
gs
eofi
gr
st
np
1142 1435 11 0 360  a
cp
gs
eofi
gr
st
np
1163 1429 11 0 360  a
cp
gs
eofi
gr
st
np
1183 1423 11 0 360  a
cp
gs
eofi
gr
st
np
1204 1418 11 0 360  a
cp
gs
eofi
gr
st
np
1224 1411 11 0 360  a
cp
gs
eofi
gr
st
np
1245 1405 11 0 360  a
cp
gs
eofi
gr
st
np
1265 1399 11 0 360  a
cp
gs
eofi
gr
st
np
1286 1393 11 0 360  a
cp
gs
eofi
gr
st
np
1306 1386 11 0 360  a
cp
gs
eofi
gr
st
np
1327 1379 11 0 360  a
cp
gs
eofi
gr
st
np
1347 1372 11 0 360  a
cp
gs
eofi
gr
st
np
1368 1365 11 0 360  a
cp
gs
eofi
gr
st
np
1388 1357 11 0 360  a
cp
gs
eofi
gr
st
np
1409 1350 11 0 360  a
cp
gs
eofi
gr
st
np
1429 1343 11 0 360  a
cp
gs
eofi
gr
st
np
1450 1336 11 0 360  a
cp
gs
eofi
gr
st
np
1470 1328 11 0 360  a
cp
gs
eofi
gr
st
np
1491 1320 11 0 360  a
cp
gs
eofi
gr
st
np
1511 1312 11 0 360  a
cp
gs
eofi
gr
st
np
1532 1304 11 0 360  a
cp
gs
eofi
gr
st
np
1552 1296 11 0 360  a
cp
gs
eofi
gr
st
np
1573 1288 11 0 360  a
cp
gs
eofi
gr
st
np
1593 1280 11 0 360  a
cp
gs
eofi
gr
st
np
1614 1272 11 0 360  a
cp
gs
eofi
gr
st
np
1634 1262 11 0 360  a
cp
gs
eofi
gr
st
np
1655 1254 11 0 360  a
cp
gs
eofi
gr
st
np
1675 1245 11 0 360  a
cp
gs
eofi
gr
st
np
1696 1236 11 0 360  a
cp
gs
eofi
gr
st
np
1716 1227 11 0 360  a
cp
gs
eofi
gr
st
np
1737 1217 11 0 360  a
cp
gs
eofi
gr
st
np
1757 1207 11 0 360  a
cp
gs
eofi
gr
st
np
1778 1197 11 0 360  a
cp
gs
eofi
gr
st
np
1798 1187 11 0 360  a
cp
gs
eofi
gr
st
np
1819 1178 11 0 360  a
cp
gs
eofi
gr
st
np
1839 1168 11 0 360  a
cp
gs
eofi
gr
st
np
1860 1158 11 0 360  a
cp
gs
eofi
gr
st
np
1880 1148 11 0 360  a
cp
gs
eofi
gr
st
np
1901 1137 11 0 360  a
cp
gs
eofi
gr
st
np
1921 1126 11 0 360  a
cp
gs
eofi
gr
st
np
1942 1115 11 0 360  a
cp
gs
eofi
gr
st
np
1962 1104 11 0 360  a
cp
gs
eofi
gr
st
np
1983 1092 11 0 360  a
cp
gs
eofi
gr
st
np
2003 1080 11 0 360  a
cp
gs
eofi
gr
st
np
2024 1069 11 0 360  a
cp
gs
eofi
gr
st
np
2044 1056 11 0 360  a
cp
gs
eofi
gr
st
np
2065 1045 11 0 360  a
cp
gs
eofi
gr
st
np
2085 1033 11 0 360  a
cp
gs
eofi
gr
st
np
2106 1020 11 0 360  a
cp
gs
eofi
gr
st
np
2126 1008 11 0 360  a
cp
gs
eofi
gr
st
np
2147 995 11 0 360  a
cp
gs
eofi
gr
st
np
2167 981 11 0 360  a
cp
gs
eofi
gr
st
np
2188 967 11 0 360  a
cp
gs
eofi
gr
st
np
2208 954 11 0 360  a
cp
gs
eofi
gr
st
np
2229 940 11 0 360  a
cp
gs
eofi
gr
st
np
2249 927 11 0 360  a
cp
gs
eofi
gr
st
np
2270 913 11 0 360  a
cp
gs
eofi
gr
st
np
2290 898 11 0 360  a
cp
gs
eofi
gr
st
np
2311 884 11 0 360  a
cp
gs
eofi
gr
st
np
2331 870 11 0 360  a
cp
gs
eofi
gr
st
np
2352 855 11 0 360  a
cp
gs
eofi
gr
st
np
2373 841 11 0 360  a
cp
gs
eofi
gr
st
np
2393 825 11 0 360  a
cp
gs
eofi
gr
st
np
2414 809 11 0 360  a
cp
gs
eofi
gr
st
np
2434 794 11 0 360  a
cp
gs
eofi
gr
st
np
2455 777 11 0 360  a
cp
gs
eofi
gr
st
np
2475 760 11 0 360  a
cp
gs
eofi
gr
st
np
2496 744 11 0 360  a
cp
gs
eofi
gr
st
np
2516 727 11 0 360  a
cp
gs
eofi
gr
st
np
2537 711 11 0 360  a
cp
gs
eofi
gr
st
np
2557 692 11 0 360  a
cp
gs
eofi
gr
st
np
2578 675 11 0 360  a
cp
gs
eofi
gr
st
np
2598 658 11 0 360  a
cp
gs
eofi
gr
st
np
2619 641 11 0 360  a
cp
gs
eofi
gr
st
np
2639 624 11 0 360  a
cp
gs
eofi
gr
st
np
2660 605 11 0 360  a
cp
gs
eofi
gr
st
np
2680 588 11 0 360  a
cp
gs
eofi
gr
st
np
2701 569 11 0 360  a
cp
gs
eofi
gr
st
np
2721 550 11 0 360  a
cp
gs
eofi
gr
st
np
2742 530 11 0 360  a
cp
gs
eofi
gr
st
np
2762 509 11 0 360  a
cp
gs
eofi
gr
st
np
2783 489 11 0 360  a
cp
gs
eofi
gr
st
np
2803 468 11 0 360  a
cp
gs
eofi
gr
st
np
2824 449 11 0 360  a
cp
gs
eofi
gr
st
np
2844 426 11 0 360  a
cp
gs
eofi
gr
st
np
2865 404 11 0 360  a
cp
gs
eofi
gr
st
np
2885 380 11 0 360  a
cp
gs
eofi
gr
st
np
2906 359 11 0 360  a
cp
gs
eofi
gr
st
np
2926 334 11 0 360  a
cp
gs
eofi
gr
st
np
2947 310 11 0 360  a
cp
gs
eofi
gr
st
np
2967 287 11 0 360  a
cp
gs
eofi
gr
st
np
2988 264 11 0 360  a
cp
gs
eofi
gr
st
np
3008 240 11 0 360  a
cp
gs
eofi
gr
st
np
3029 215 11 0 360  a
cp
gs
eofi
gr
st
np
3049 192 11 0 360  a
cp
gs
eofi
gr
st
gr
gs
313 1646 18 18 rectfill
3018 220 m
1 sw
313 1646 18 18 rectstroke
334 1649 18 18 rectfill
334 1649 18 18 rectstroke
354 1651 18 18 rectfill
354 1651 18 18 rectstroke
375 1653 18 18 rectfill
375 1653 18 18 rectstroke
395 1654 18 18 rectfill
395 1654 18 18 rectstroke
416 1656 18 18 rectfill
416 1656 18 18 rectstroke
436 1657 18 18 rectfill
436 1657 18 18 rectstroke
457 1658 18 18 rectfill
457 1658 18 18 rectstroke
477 1659 18 18 rectfill
477 1659 18 18 rectstroke
498 1660 18 18 rectfill
498 1660 18 18 rectstroke
518 1661 18 18 rectfill
518 1661 18 18 rectstroke
539 1662 18 18 rectfill
539 1662 18 18 rectstroke
559 1662 18 18 rectfill
559 1662 18 18 rectstroke
580 1662 18 18 rectfill
580 1662 18 18 rectstroke
600 1663 18 18 rectfill
600 1663 18 18 rectstroke
621 1662 18 18 rectfill
621 1662 18 18 rectstroke
641 1662 18 18 rectfill
641 1662 18 18 rectstroke
662 1662 18 18 rectfill
662 1662 18 18 rectstroke
682 1662 18 18 rectfill
682 1662 18 18 rectstroke
703 1662 18 18 rectfill
703 1662 18 18 rectstroke
723 1662 18 18 rectfill
723 1662 18 18 rectstroke
744 1661 18 18 rectfill
744 1661 18 18 rectstroke
764 1661 18 18 rectfill
764 1661 18 18 rectstroke
785 1660 18 18 rectfill
785 1660 18 18 rectstroke
805 1659 18 18 rectfill
805 1659 18 18 rectstroke
826 1659 18 18 rectfill
826 1659 18 18 rectstroke
846 1658 18 18 rectfill
846 1658 18 18 rectstroke
867 1657 18 18 rectfill
867 1657 18 18 rectstroke
887 1656 18 18 rectfill
887 1656 18 18 rectstroke
908 1655 18 18 rectfill
908 1655 18 18 rectstroke
928 1653 18 18 rectfill
928 1653 18 18 rectstroke
949 1652 18 18 rectfill
949 1652 18 18 rectstroke
969 1650 18 18 rectfill
969 1650 18 18 rectstroke
990 1649 18 18 rectfill
990 1649 18 18 rectstroke
1010 1648 18 18 rectfill
1010 1648 18 18 rectstroke
1031 1646 18 18 rectfill
1031 1646 18 18 rectstroke
1051 1645 18 18 rectfill
1051 1645 18 18 rectstroke
1072 1643 18 18 rectfill
1072 1643 18 18 rectstroke
1092 1641 18 18 rectfill
1092 1641 18 18 rectstroke
1113 1639 18 18 rectfill
1113 1639 18 18 rectstroke
1133 1638 18 18 rectfill
1133 1638 18 18 rectstroke
1154 1636 18 18 rectfill
1154 1636 18 18 rectstroke
1174 1633 18 18 rectfill
1174 1633 18 18 rectstroke
1195 1631 18 18 rectfill
1195 1631 18 18 rectstroke
1215 1629 18 18 rectfill
1215 1629 18 18 rectstroke
1236 1627 18 18 rectfill
1236 1627 18 18 rectstroke
1256 1625 18 18 rectfill
1256 1625 18 18 rectstroke
1277 1622 18 18 rectfill
1277 1622 18 18 rectstroke
1297 1619 18 18 rectfill
1297 1619 18 18 rectstroke
1318 1616 18 18 rectfill
1318 1616 18 18 rectstroke
1338 1613 18 18 rectfill
1338 1613 18 18 rectstroke
1359 1611 18 18 rectfill
1359 1611 18 18 rectstroke
1379 1607 18 18 rectfill
1379 1607 18 18 rectstroke
1400 1605 18 18 rectfill
1400 1605 18 18 rectstroke
1420 1602 18 18 rectfill
1420 1602 18 18 rectstroke
1441 1599 18 18 rectfill
1441 1599 18 18 rectstroke
1461 1595 18 18 rectfill
1461 1595 18 18 rectstroke
1482 1592 18 18 rectfill
1482 1592 18 18 rectstroke
1502 1589 18 18 rectfill
1502 1589 18 18 rectstroke
1523 1585 18 18 rectfill
1523 1585 18 18 rectstroke
1543 1582 18 18 rectfill
1543 1582 18 18 rectstroke
1564 1578 18 18 rectfill
1564 1578 18 18 rectstroke
1584 1575 18 18 rectfill
1584 1575 18 18 rectstroke
1605 1571 18 18 rectfill
1605 1571 18 18 rectstroke
1625 1567 18 18 rectfill
1625 1567 18 18 rectstroke
1646 1563 18 18 rectfill
1646 1563 18 18 rectstroke
1666 1560 18 18 rectfill
1666 1560 18 18 rectstroke
1687 1555 18 18 rectfill
1687 1555 18 18 rectstroke
1707 1551 18 18 rectfill
1707 1551 18 18 rectstroke
1728 1547 18 18 rectfill
1728 1547 18 18 rectstroke
1748 1542 18 18 rectfill
1748 1542 18 18 rectstroke
1769 1537 18 18 rectfill
1769 1537 18 18 rectstroke
1789 1533 18 18 rectfill
1789 1533 18 18 rectstroke
1810 1528 18 18 rectfill
1810 1528 18 18 rectstroke
1830 1524 18 18 rectfill
1830 1524 18 18 rectstroke
1851 1519 18 18 rectfill
1851 1519 18 18 rectstroke
1871 1515 18 18 rectfill
1871 1515 18 18 rectstroke
1892 1510 18 18 rectfill
1892 1510 18 18 rectstroke
1912 1504 18 18 rectfill
1912 1504 18 18 rectstroke
1933 1499 18 18 rectfill
1933 1499 18 18 rectstroke
1953 1494 18 18 rectfill
1953 1494 18 18 rectstroke
1974 1488 18 18 rectfill
1974 1488 18 18 rectstroke
1994 1483 18 18 rectfill
1994 1483 18 18 rectstroke
2015 1477 18 18 rectfill
2015 1477 18 18 rectstroke
2035 1471 18 18 rectfill
2035 1471 18 18 rectstroke
2056 1466 18 18 rectfill
2056 1466 18 18 rectstroke
2076 1460 18 18 rectfill
2076 1460 18 18 rectstroke
2097 1454 18 18 rectfill
2097 1454 18 18 rectstroke
2117 1449 18 18 rectfill
2117 1449 18 18 rectstroke
2138 1442 18 18 rectfill
2138 1442 18 18 rectstroke
2158 1435 18 18 rectfill
2158 1435 18 18 rectstroke
2179 1429 18 18 rectfill
2179 1429 18 18 rectstroke
2199 1422 18 18 rectfill
2199 1422 18 18 rectstroke
2220 1416 18 18 rectfill
2220 1416 18 18 rectstroke
2240 1409 18 18 rectfill
2240 1409 18 18 rectstroke
2261 1403 18 18 rectfill
2261 1403 18 18 rectstroke
2281 1396 18 18 rectfill
2281 1396 18 18 rectstroke
2302 1389 18 18 rectfill
2302 1389 18 18 rectstroke
2322 1382 18 18 rectfill
2322 1382 18 18 rectstroke
2343 1375 18 18 rectfill
2343 1375 18 18 rectstroke
2364 1368 18 18 rectfill
2364 1368 18 18 rectstroke
2384 1360 18 18 rectfill
2384 1360 18 18 rectstroke
2405 1353 18 18 rectfill
2405 1353 18 18 rectstroke
2425 1345 18 18 rectfill
2425 1345 18 18 rectstroke
2446 1337 18 18 rectfill
2446 1337 18 18 rectstroke
2466 1329 18 18 rectfill
2466 1329 18 18 rectstroke
2487 1320 18 18 rectfill
2487 1320 18 18 rectstroke
2507 1313 18 18 rectfill
2507 1313 18 18 rectstroke
2528 1305 18 18 rectfill
2528 1305 18 18 rectstroke
2548 1296 18 18 rectfill
2548 1296 18 18 rectstroke
2569 1287 18 18 rectfill
2569 1287 18 18 rectstroke
2589 1278 18 18 rectfill
2589 1278 18 18 rectstroke
2610 1270 18 18 rectfill
2610 1270 18 18 rectstroke
2630 1262 18 18 rectfill
2630 1262 18 18 rectstroke
2651 1253 18 18 rectfill
2651 1253 18 18 rectstroke
2671 1244 18 18 rectfill
2671 1244 18 18 rectstroke
2692 1235 18 18 rectfill
2692 1235 18 18 rectstroke
2712 1225 18 18 rectfill
2712 1225 18 18 rectstroke
2733 1216 18 18 rectfill
2733 1216 18 18 rectstroke
2753 1206 18 18 rectfill
2753 1206 18 18 rectstroke
2774 1196 18 18 rectfill
2774 1196 18 18 rectstroke
2794 1186 18 18 rectfill
2794 1186 18 18 rectstroke
2815 1176 18 18 rectfill
2815 1176 18 18 rectstroke
2835 1165 18 18 rectfill
2835 1165 18 18 rectstroke
2856 1153 18 18 rectfill
2856 1153 18 18 rectstroke
2876 1142 18 18 rectfill
2876 1142 18 18 rectstroke
2897 1131 18 18 rectfill
2897 1131 18 18 rectstroke
2917 1119 18 18 rectfill
2917 1119 18 18 rectstroke
2938 1108 18 18 rectfill
2938 1108 18 18 rectstroke
2958 1096 18 18 rectfill
2958 1096 18 18 rectstroke
2979 1084 18 18 rectfill
2979 1084 18 18 rectstroke
2999 1073 18 18 rectfill
2999 1073 18 18 rectstroke
3020 1060 18 18 rectfill
3020 1060 18 18 rectstroke
3040 1049 18 18 rectfill
3040 1049 18 18 rectstroke
gr
gs
309 1732 m
322 1719 l
335 1732 l
322 1745 l
cp
gs
eofi
gr
1 sw
st
330 1739 m
343 1726 l
356 1739 l
343 1752 l
cp
gs
eofi
gr
st
350 1745 m
363 1732 l
376 1745 l
363 1758 l
cp
gs
eofi
gr
st
371 1751 m
384 1738 l
397 1751 l
384 1764 l
cp
gs
eofi
gr
st
391 1757 m
404 1744 l
417 1757 l
404 1770 l
cp
gs
eofi
gr
st
412 1762 m
425 1749 l
438 1762 l
425 1775 l
cp
gs
eofi
gr
st
432 1767 m
445 1754 l
458 1767 l
445 1780 l
cp
gs
eofi
gr
st
453 1772 m
466 1759 l
479 1772 l
466 1785 l
cp
gs
eofi
gr
st
473 1777 m
486 1764 l
499 1777 l
486 1790 l
cp
gs
eofi
gr
st
494 1782 m
507 1769 l
520 1782 l
507 1795 l
cp
gs
eofi
gr
st
514 1786 m
527 1773 l
540 1786 l
527 1799 l
cp
gs
eofi
gr
st
535 1790 m
548 1777 l
561 1790 l
548 1803 l
cp
gs
eofi
gr
st
555 1794 m
568 1781 l
581 1794 l
568 1807 l
cp
gs
eofi
gr
st
576 1798 m
589 1785 l
602 1798 l
589 1811 l
cp
gs
eofi
gr
st
596 1802 m
609 1789 l
622 1802 l
609 1815 l
cp
gs
eofi
gr
st
617 1805 m
630 1792 l
643 1805 l
630 1818 l
cp
gs
eofi
gr
st
637 1809 m
650 1796 l
663 1809 l
650 1822 l
cp
gs
eofi
gr
st
658 1812 m
671 1799 l
684 1812 l
671 1825 l
cp
gs
eofi
gr
st
678 1815 m
691 1802 l
704 1815 l
691 1828 l
cp
gs
eofi
gr
st
699 1819 m
712 1806 l
725 1819 l
712 1832 l
cp
gs
eofi
gr
st
719 1822 m
732 1809 l
745 1822 l
732 1835 l
cp
gs
eofi
gr
st
740 1825 m
753 1812 l
766 1825 l
753 1838 l
cp
gs
eofi
gr
st
760 1827 m
773 1814 l
786 1827 l
773 1840 l
cp
gs
eofi
gr
st
781 1830 m
794 1817 l
807 1830 l
794 1843 l
cp
gs
eofi
gr
st
801 1833 m
814 1820 l
827 1833 l
814 1846 l
cp
gs
eofi
gr
st
822 1836 m
835 1823 l
848 1836 l
835 1849 l
cp
gs
eofi
gr
st
842 1838 m
855 1825 l
868 1838 l
855 1851 l
cp
gs
eofi
gr
st
863 1841 m
876 1828 l
889 1841 l
876 1854 l
cp
gs
eofi
gr
st
883 1843 m
896 1830 l
909 1843 l
896 1856 l
cp
gs
eofi
gr
st
904 1846 m
917 1833 l
930 1846 l
917 1859 l
cp
gs
eofi
gr
st
924 1848 m
937 1835 l
950 1848 l
937 1861 l
cp
gs
eofi
gr
st
945 1850 m
958 1837 l
971 1850 l
958 1863 l
cp
gs
eofi
gr
st
965 1852 m
978 1839 l
991 1852 l
978 1865 l
cp
gs
eofi
gr
st
986 1854 m
999 1841 l
1012 1854 l
999 1867 l
cp
gs
eofi
gr
st
1006 1857 m
1019 1844 l
1032 1857 l
1019 1870 l
cp
gs
eofi
gr
st
1027 1859 m
1040 1846 l
1053 1859 l
1040 1872 l
cp
gs
eofi
gr
st
1047 1861 m
1060 1848 l
1073 1861 l
1060 1874 l
cp
gs
eofi
gr
st
1068 1863 m
1081 1850 l
1094 1863 l
1081 1876 l
cp
gs
eofi
gr
st
1088 1865 m
1101 1852 l
1114 1865 l
1101 1878 l
cp
gs
eofi
gr
st
1109 1867 m
1122 1854 l
1135 1867 l
1122 1880 l
cp
gs
eofi
gr
st
1129 1868 m
1142 1855 l
1155 1868 l
1142 1881 l
cp
gs
eofi
gr
st
1150 1870 m
1163 1857 l
1176 1870 l
1163 1883 l
cp
gs
eofi
gr
st
1170 1872 m
1183 1859 l
1196 1872 l
1183 1885 l
cp
gs
eofi
gr
st
1191 1874 m
1204 1861 l
1217 1874 l
1204 1887 l
cp
gs
eofi
gr
st
1211 1875 m
1224 1862 l
1237 1875 l
1224 1888 l
cp
gs
eofi
gr
st
1232 1877 m
1245 1864 l
1258 1877 l
1245 1890 l
cp
gs
eofi
gr
st
1252 1879 m
1265 1866 l
1278 1879 l
1265 1892 l
cp
gs
eofi
gr
st
1273 1880 m
1286 1867 l
1299 1880 l
1286 1893 l
cp
gs
eofi
gr
st
1293 1882 m
1306 1869 l
1319 1882 l
1306 1895 l
cp
gs
eofi
gr
st
1314 1883 m
1327 1870 l
1340 1883 l
1327 1896 l
cp
gs
eofi
gr
st
1334 1884 m
1347 1871 l
1360 1884 l
1347 1897 l
cp
gs
eofi
gr
st
1355 1885 m
1368 1872 l
1381 1885 l
1368 1898 l
cp
gs
eofi
gr
st
1375 1887 m
1388 1874 l
1401 1887 l
1388 1900 l
cp
gs
eofi
gr
st
1396 1888 m
1409 1875 l
1422 1888 l
1409 1901 l
cp
gs
eofi
gr
st
1416 1889 m
1429 1876 l
1442 1889 l
1429 1902 l
cp
gs
eofi
gr
st
1437 1891 m
1450 1878 l
1463 1891 l
1450 1904 l
cp
gs
eofi
gr
st
1457 1892 m
1470 1879 l
1483 1892 l
1470 1905 l
cp
gs
eofi
gr
st
1478 1893 m
1491 1880 l
1504 1893 l
1491 1906 l
cp
gs
eofi
gr
st
1498 1894 m
1511 1881 l
1524 1894 l
1511 1907 l
cp
gs
eofi
gr
st
1519 1895 m
1532 1882 l
1545 1895 l
1532 1908 l
cp
gs
eofi
gr
st
1539 1897 m
1552 1884 l
1565 1897 l
1552 1910 l
cp
gs
eofi
gr
st
1560 1898 m
1573 1885 l
1586 1898 l
1573 1911 l
cp
gs
eofi
gr
st
1580 1899 m
1593 1886 l
1606 1899 l
1593 1912 l
cp
gs
eofi
gr
st
1601 1900 m
1614 1887 l
1627 1900 l
1614 1913 l
cp
gs
eofi
gr
st
1621 1901 m
1634 1888 l
1647 1901 l
1634 1914 l
cp
gs
eofi
gr
st
1642 1902 m
1655 1889 l
1668 1902 l
1655 1915 l
cp
gs
eofi
gr
st
1662 1903 m
1675 1890 l
1688 1903 l
1675 1916 l
cp
gs
eofi
gr
st
1683 1904 m
1696 1891 l
1709 1904 l
1696 1917 l
cp
gs
eofi
gr
st
1703 1905 m
1716 1892 l
1729 1905 l
1716 1918 l
cp
gs
eofi
gr
st
1724 1905 m
1737 1892 l
1750 1905 l
1737 1918 l
cp
gs
eofi
gr
st
1744 1906 m
1757 1893 l
1770 1906 l
1757 1919 l
cp
gs
eofi
gr
st
1765 1907 m
1778 1894 l
1791 1907 l
1778 1920 l
cp
gs
eofi
gr
st
1785 1908 m
1798 1895 l
1811 1908 l
1798 1921 l
cp
gs
eofi
gr
st
1806 1908 m
1819 1895 l
1832 1908 l
1819 1921 l
cp
gs
eofi
gr
st
1826 1909 m
1839 1896 l
1852 1909 l
1839 1922 l
cp
gs
eofi
gr
st
1847 1910 m
1860 1897 l
1873 1910 l
1860 1923 l
cp
gs
eofi
gr
st
1867 1911 m
1880 1898 l
1893 1911 l
1880 1924 l
cp
gs
eofi
gr
st
1888 1912 m
1901 1899 l
1914 1912 l
1901 1925 l
cp
gs
eofi
gr
st
1908 1912 m
1921 1899 l
1934 1912 l
1921 1925 l
cp
gs
eofi
gr
st
1929 1913 m
1942 1900 l
1955 1913 l
1942 1926 l
cp
gs
eofi
gr
st
1949 1913 m
1962 1900 l
1975 1913 l
1962 1926 l
cp
gs
eofi
gr
st
1970 1914 m
1983 1901 l
1996 1914 l
1983 1927 l
cp
gs
eofi
gr
st
1990 1915 m
2003 1902 l
2016 1915 l
2003 1928 l
cp
gs
eofi
gr
st
2011 1916 m
2024 1903 l
2037 1916 l
2024 1929 l
cp
gs
eofi
gr
st
2031 1916 m
2044 1903 l
2057 1916 l
2044 1929 l
cp
gs
eofi
gr
st
2052 1916 m
2065 1903 l
2078 1916 l
2065 1929 l
cp
gs
eofi
gr
st
2072 1917 m
2085 1904 l
2098 1917 l
2085 1930 l
cp
gs
eofi
gr
st
2093 1917 m
2106 1904 l
2119 1917 l
2106 1930 l
cp
gs
eofi
gr
st
2113 1918 m
2126 1905 l
2139 1918 l
2126 1931 l
cp
gs
eofi
gr
st
2134 1918 m
2147 1905 l
2160 1918 l
2147 1931 l
cp
gs
eofi
gr
st
2154 1918 m
2167 1905 l
2180 1918 l
2167 1931 l
cp
gs
eofi
gr
st
2175 1919 m
2188 1906 l
2201 1919 l
2188 1932 l
cp
gs
eofi
gr
st
2195 1919 m
2208 1906 l
2221 1919 l
2208 1932 l
cp
gs
eofi
gr
st
2216 1920 m
2229 1907 l
2242 1920 l
2229 1933 l
cp
gs
eofi
gr
st
2236 1920 m
2249 1907 l
2262 1920 l
2249 1933 l
cp
gs
eofi
gr
st
2257 1921 m
2270 1908 l
2283 1921 l
2270 1934 l
cp
gs
eofi
gr
st
2277 1921 m
2290 1908 l
2303 1921 l
2290 1934 l
cp
gs
eofi
gr
st
2298 1921 m
2311 1908 l
2324 1921 l
2311 1934 l
cp
gs
eofi
gr
st
2318 1922 m
2331 1909 l
2344 1922 l
2331 1935 l
cp
gs
eofi
gr
st
2339 1922 m
2352 1909 l
2365 1922 l
2352 1935 l
cp
gs
eofi
gr
st
2360 1923 m
2373 1910 l
2386 1923 l
2373 1936 l
cp
gs
eofi
gr
st
2380 1923 m
2393 1910 l
2406 1923 l
2393 1936 l
cp
gs
eofi
gr
st
2401 1924 m
2414 1911 l
2427 1924 l
2414 1937 l
cp
gs
eofi
gr
st
2421 1925 m
2434 1912 l
2447 1925 l
2434 1938 l
cp
gs
eofi
gr
st
2442 1925 m
2455 1912 l
2468 1925 l
2455 1938 l
cp
gs
eofi
gr
st
2462 1925 m
2475 1912 l
2488 1925 l
2475 1938 l
cp
gs
eofi
gr
st
2483 1925 m
2496 1912 l
2509 1925 l
2496 1938 l
cp
gs
eofi
gr
st
2503 1925 m
2516 1912 l
2529 1925 l
2516 1938 l
cp
gs
eofi
gr
st
2524 1926 m
2537 1913 l
2550 1926 l
2537 1939 l
cp
gs
eofi
gr
st
2544 1926 m
2557 1913 l
2570 1926 l
2557 1939 l
cp
gs
eofi
gr
st
2565 1927 m
2578 1914 l
2591 1927 l
2578 1940 l
cp
gs
eofi
gr
st
2585 1927 m
2598 1914 l
2611 1927 l
2598 1940 l
cp
gs
eofi
gr
st
2606 1927 m
2619 1914 l
2632 1927 l
2619 1940 l
cp
gs
eofi
gr
st
2626 1927 m
2639 1914 l
2652 1927 l
2639 1940 l
cp
gs
eofi
gr
st
2647 1927 m
2660 1914 l
2673 1927 l
2660 1940 l
cp
gs
eofi
gr
st
2667 1928 m
2680 1915 l
2693 1928 l
2680 1941 l
cp
gs
eofi
gr
st
2688 1928 m
2701 1915 l
2714 1928 l
2701 1941 l
cp
gs
eofi
gr
st
2708 1929 m
2721 1916 l
2734 1929 l
2721 1942 l
cp
gs
eofi
gr
st
2729 1929 m
2742 1916 l
2755 1929 l
2742 1942 l
cp
gs
eofi
gr
st
2749 1930 m
2762 1917 l
2775 1930 l
2762 1943 l
cp
gs
eofi
gr
st
2770 1930 m
2783 1917 l
2796 1930 l
2783 1943 l
cp
gs
eofi
gr
st
2790 1930 m
2803 1917 l
2816 1930 l
2803 1943 l
cp
gs
eofi
gr
st
2811 1930 m
2824 1917 l
2837 1930 l
2824 1943 l
cp
gs
eofi
gr
st
2831 1930 m
2844 1917 l
2857 1930 l
2844 1943 l
cp
gs
eofi
gr
st
2852 1930 m
2865 1917 l
2878 1930 l
2865 1943 l
cp
gs
eofi
gr
st
2872 1930 m
2885 1917 l
2898 1930 l
2885 1943 l
cp
gs
eofi
gr
st
2893 1931 m
2906 1918 l
2919 1931 l
2906 1944 l
cp
gs
eofi
gr
st
2913 1931 m
2926 1918 l
2939 1931 l
2926 1944 l
cp
gs
eofi
gr
st
2934 1932 m
2947 1919 l
2960 1932 l
2947 1945 l
cp
gs
eofi
gr
st
2954 1932 m
2967 1919 l
2980 1932 l
2967 1945 l
cp
gs
eofi
gr
st
2975 1932 m
2988 1919 l
3001 1932 l
2988 1945 l
cp
gs
eofi
gr
st
2995 1932 m
3008 1919 l
3021 1932 l
3008 1945 l
cp
gs
eofi
gr
st
3016 1931 m
3029 1918 l
3042 1931 l
3029 1944 l
cp
gs
eofi
gr
st
3036 1931 m
3049 1918 l
3062 1931 l
3049 1944 l
cp
gs
eofi
gr
st
gr
gs
322 1647 m
334 1668 l
309 1668 l
cp
gs
eofi
gr
1 sw
st
343 1652 m
355 1673 l
330 1673 l
cp
gs
eofi
gr
st
363 1657 m
375 1678 l
350 1678 l
cp
gs
eofi
gr
st
384 1661 m
396 1682 l
371 1682 l
cp
gs
eofi
gr
st
404 1665 m
416 1686 l
391 1686 l
cp
gs
eofi
gr
st
425 1669 m
437 1690 l
412 1690 l
cp
gs
eofi
gr
st
445 1673 m
457 1694 l
432 1694 l
cp
gs
eofi
gr
st
466 1677 m
478 1698 l
453 1698 l
cp
gs
eofi
gr
st
486 1680 m
498 1701 l
473 1701 l
cp
gs
eofi
gr
st
507 1684 m
519 1705 l
494 1705 l
cp
gs
eofi
gr
st
527 1687 m
539 1708 l
514 1708 l
cp
gs
eofi
gr
st
548 1690 m
560 1711 l
535 1711 l
cp
gs
eofi
gr
st
568 1693 m
580 1714 l
555 1714 l
cp
gs
eofi
gr
st
589 1696 m
601 1717 l
576 1717 l
cp
gs
eofi
gr
st
609 1698 m
621 1719 l
596 1719 l
cp
gs
eofi
gr
st
630 1701 m
642 1722 l
617 1722 l
cp
gs
eofi
gr
st
650 1703 m
662 1724 l
637 1724 l
cp
gs
eofi
gr
st
671 1706 m
683 1727 l
658 1727 l
cp
gs
eofi
gr
st
691 1708 m
703 1729 l
678 1729 l
cp
gs
eofi
gr
st
712 1711 m
724 1732 l
699 1732 l
cp
gs
eofi
gr
st
732 1713 m
744 1734 l
719 1734 l
cp
gs
eofi
gr
st
753 1715 m
765 1736 l
740 1736 l
cp
gs
eofi
gr
st
773 1717 m
785 1738 l
760 1738 l
cp
gs
eofi
gr
st
794 1719 m
806 1740 l
781 1740 l
cp
gs
eofi
gr
st
814 1721 m
826 1742 l
801 1742 l
cp
gs
eofi
gr
st
835 1723 m
847 1744 l
822 1744 l
cp
gs
eofi
gr
st
855 1725 m
867 1746 l
842 1746 l
cp
gs
eofi
gr
st
876 1726 m
888 1747 l
863 1747 l
cp
gs
eofi
gr
st
896 1728 m
908 1749 l
883 1749 l
cp
gs
eofi
gr
st
917 1730 m
929 1751 l
904 1751 l
cp
gs
eofi
gr
st
937 1731 m
949 1752 l
924 1752 l
cp
gs
eofi
gr
st
958 1733 m
970 1754 l
945 1754 l
cp
gs
eofi
gr
st
978 1734 m
990 1755 l
965 1755 l
cp
gs
eofi
gr
st
999 1735 m
1011 1756 l
986 1756 l
cp
gs
eofi
gr
st
1019 1737 m
1031 1758 l
1006 1758 l
cp
gs
eofi
gr
st
1040 1738 m
1052 1759 l
1027 1759 l
cp
gs
eofi
gr
st
1060 1739 m
1072 1760 l
1047 1760 l
cp
gs
eofi
gr
st
1081 1740 m
1093 1761 l
1068 1761 l
cp
gs
eofi
gr
st
1101 1741 m
1113 1762 l
1088 1762 l
cp
gs
eofi
gr
st
1122 1742 m
1134 1763 l
1109 1763 l
cp
gs
eofi
gr
st
1142 1743 m
1154 1764 l
1129 1764 l
cp
gs
eofi
gr
st
1163 1744 m
1175 1765 l
1150 1765 l
cp
gs
eofi
gr
st
1183 1745 m
1195 1766 l
1170 1766 l
cp
gs
eofi
gr
st
1204 1746 m
1216 1767 l
1191 1767 l
cp
gs
eofi
gr
st
1224 1747 m
1236 1768 l
1211 1768 l
cp
gs
eofi
gr
st
1245 1748 m
1257 1769 l
1232 1769 l
cp
gs
eofi
gr
st
1265 1749 m
1277 1770 l
1252 1770 l
cp
gs
eofi
gr
st
1286 1750 m
1298 1771 l
1273 1771 l
cp
gs
eofi
gr
st
1306 1750 m
1318 1771 l
1293 1771 l
cp
gs
eofi
gr
st
1327 1751 m
1339 1772 l
1314 1772 l
cp
gs
eofi
gr
st
1347 1751 m
1359 1772 l
1334 1772 l
cp
gs
eofi
gr
st
1368 1752 m
1380 1773 l
1355 1773 l
cp
gs
eofi
gr
st
1388 1753 m
1400 1774 l
1375 1774 l
cp
gs
eofi
gr
st
1409 1753 m
1421 1774 l
1396 1774 l
cp
gs
eofi
gr
st
1429 1754 m
1441 1775 l
1416 1775 l
cp
gs
eofi
gr
st
1450 1755 m
1462 1776 l
1437 1776 l
cp
gs
eofi
gr
st
1470 1755 m
1482 1776 l
1457 1776 l
cp
gs
eofi
gr
st
1491 1756 m
1503 1777 l
1478 1777 l
cp
gs
eofi
gr
st
1511 1756 m
1523 1777 l
1498 1777 l
cp
gs
eofi
gr
st
1532 1757 m
1544 1778 l
1519 1778 l
cp
gs
eofi
gr
st
1552 1757 m
1564 1778 l
1539 1778 l
cp
gs
eofi
gr
st
1573 1758 m
1585 1779 l
1560 1779 l
cp
gs
eofi
gr
st
1593 1758 m
1605 1779 l
1580 1779 l
cp
gs
eofi
gr
st
1614 1758 m
1626 1779 l
1601 1779 l
cp
gs
eofi
gr
st
1634 1758 m
1646 1779 l
1621 1779 l
cp
gs
eofi
gr
st
1655 1759 m
1667 1780 l
1642 1780 l
cp
gs
eofi
gr
st
1675 1759 m
1687 1780 l
1662 1780 l
cp
gs
eofi
gr
st
1696 1759 m
1708 1780 l
1683 1780 l
cp
gs
eofi
gr
st
1716 1760 m
1728 1781 l
1703 1781 l
cp
gs
eofi
gr
st
1737 1760 m
1749 1781 l
1724 1781 l
cp
gs
eofi
gr
st
1757 1760 m
1769 1781 l
1744 1781 l
cp
gs
eofi
gr
st
1778 1760 m
1790 1781 l
1765 1781 l
cp
gs
eofi
gr
st
1798 1760 m
1810 1781 l
1785 1781 l
cp
gs
eofi
gr
st
1819 1760 m
1831 1781 l
1806 1781 l
cp
gs
eofi
gr
st
1839 1760 m
1851 1781 l
1826 1781 l
cp
gs
eofi
gr
st
1860 1760 m
1872 1781 l
1847 1781 l
cp
gs
eofi
gr
st
1880 1760 m
1892 1781 l
1867 1781 l
cp
gs
eofi
gr
st
1901 1761 m
1913 1782 l
1888 1782 l
cp
gs
eofi
gr
st
1921 1760 m
1933 1781 l
1908 1781 l
cp
gs
eofi
gr
st
1942 1760 m
1954 1781 l
1929 1781 l
cp
gs
eofi
gr
st
1962 1760 m
1974 1781 l
1949 1781 l
cp
gs
eofi
gr
st
1983 1760 m
1995 1781 l
1970 1781 l
cp
gs
eofi
gr
st
2003 1760 m
2015 1781 l
1990 1781 l
cp
gs
eofi
gr
st
2024 1760 m
2036 1781 l
2011 1781 l
cp
gs
eofi
gr
st
2044 1759 m
2056 1780 l
2031 1780 l
cp
gs
eofi
gr
st
2065 1759 m
2077 1780 l
2052 1780 l
cp
gs
eofi
gr
st
2085 1758 m
2097 1779 l
2072 1779 l
cp
gs
eofi
gr
st
2106 1758 m
2118 1779 l
2093 1779 l
cp
gs
eofi
gr
st
2126 1758 m
2138 1779 l
2113 1779 l
cp
gs
eofi
gr
st
2147 1757 m
2159 1778 l
2134 1778 l
cp
gs
eofi
gr
st
2167 1756 m
2179 1777 l
2154 1777 l
cp
gs
eofi
gr
st
2188 1756 m
2200 1777 l
2175 1777 l
cp
gs
eofi
gr
st
2208 1756 m
2220 1777 l
2195 1777 l
cp
gs
eofi
gr
st
2229 1756 m
2241 1777 l
2216 1777 l
cp
gs
eofi
gr
st
2249 1755 m
2261 1776 l
2236 1776 l
cp
gs
eofi
gr
st
2270 1755 m
2282 1776 l
2257 1776 l
cp
gs
eofi
gr
st
2290 1755 m
2302 1776 l
2277 1776 l
cp
gs
eofi
gr
st
2311 1754 m
2323 1775 l
2298 1775 l
cp
gs
eofi
gr
st
2331 1754 m
2343 1775 l
2318 1775 l
cp
gs
eofi
gr
st
2352 1754 m
2364 1775 l
2339 1775 l
cp
gs
eofi
gr
st
2373 1753 m
2385 1774 l
2360 1774 l
cp
gs
eofi
gr
st
2393 1753 m
2405 1774 l
2380 1774 l
cp
gs
eofi
gr
st
2414 1753 m
2426 1774 l
2401 1774 l
cp
gs
eofi
gr
st
2434 1753 m
2446 1774 l
2421 1774 l
cp
gs
eofi
gr
st
2455 1752 m
2467 1773 l
2442 1773 l
cp
gs
eofi
gr
st
2475 1751 m
2487 1772 l
2462 1772 l
cp
gs
eofi
gr
st
2496 1751 m
2508 1772 l
2483 1772 l
cp
gs
eofi
gr
st
2516 1751 m
2528 1772 l
2503 1772 l
cp
gs
eofi
gr
st
2537 1751 m
2549 1772 l
2524 1772 l
cp
gs
eofi
gr
st
2557 1750 m
2569 1771 l
2544 1771 l
cp
gs
eofi
gr
st
2578 1750 m
2590 1771 l
2565 1771 l
cp
gs
eofi
gr
st
2598 1749 m
2610 1770 l
2585 1770 l
cp
gs
eofi
gr
st
2619 1749 m
2631 1770 l
2606 1770 l
cp
gs
eofi
gr
st
2639 1748 m
2651 1769 l
2626 1769 l
cp
gs
eofi
gr
st
2660 1747 m
2672 1768 l
2647 1768 l
cp
gs
eofi
gr
st
2680 1747 m
2692 1768 l
2667 1768 l
cp
gs
eofi
gr
st
2701 1746 m
2713 1767 l
2688 1767 l
cp
gs
eofi
gr
st
2721 1745 m
2733 1766 l
2708 1766 l
cp
gs
eofi
gr
st
2742 1744 m
2754 1765 l
2729 1765 l
cp
gs
eofi
gr
st
2762 1744 m
2774 1765 l
2749 1765 l
cp
gs
eofi
gr
st
2783 1743 m
2795 1764 l
2770 1764 l
cp
gs
eofi
gr
st
2803 1742 m
2815 1763 l
2790 1763 l
cp
gs
eofi
gr
st
2824 1741 m
2836 1762 l
2811 1762 l
cp
gs
eofi
gr
st
2844 1740 m
2856 1761 l
2831 1761 l
cp
gs
eofi
gr
st
2865 1738 m
2877 1759 l
2852 1759 l
cp
gs
eofi
gr
st
2885 1738 m
2897 1759 l
2872 1759 l
cp
gs
eofi
gr
st
2906 1738 m
2918 1759 l
2893 1759 l
cp
gs
eofi
gr
st
2926 1737 m
2938 1758 l
2913 1758 l
cp
gs
eofi
gr
st
2947 1737 m
2959 1758 l
2934 1758 l
cp
gs
eofi
gr
st
2967 1736 m
2979 1757 l
2954 1757 l
cp
gs
eofi
gr
st
2988 1735 m
3000 1756 l
2975 1756 l
cp
gs
eofi
gr
st
3008 1734 m
3020 1755 l
2995 1755 l
cp
gs
eofi
gr
st
3029 1733 m
3041 1754 l
3016 1754 l
cp
gs
eofi
gr
st
3049 1732 m
3061 1753 l
3036 1753 l
cp
gs
eofi
gr
st
gr
gs
334 1734 m
322 1755 l
309 1734 l
cp
gs
eofi
gr
1 sw
st
355 1740 m
343 1761 l
330 1740 l
cp
gs
eofi
gr
st
375 1746 m
363 1767 l
350 1746 l
cp
gs
eofi
gr
st
396 1751 m
384 1772 l
371 1751 l
cp
gs
eofi
gr
st
416 1756 m
404 1777 l
391 1756 l
cp
gs
eofi
gr
st
437 1760 m
425 1781 l
412 1760 l
cp
gs
eofi
gr
st
457 1765 m
445 1786 l
432 1765 l
cp
gs
eofi
gr
st
478 1769 m
466 1790 l
453 1769 l
cp
gs
eofi
gr
st
498 1773 m
486 1794 l
473 1773 l
cp
gs
eofi
gr
st
519 1777 m
507 1798 l
494 1777 l
cp
gs
eofi
gr
st
539 1781 m
527 1802 l
514 1781 l
cp
gs
eofi
gr
st
560 1784 m
548 1805 l
535 1784 l
cp
gs
eofi
gr
st
580 1788 m
568 1809 l
555 1788 l
cp
gs
eofi
gr
st
601 1791 m
589 1812 l
576 1791 l
cp
gs
eofi
gr
st
621 1794 m
609 1815 l
596 1794 l
cp
gs
eofi
gr
st
642 1797 m
630 1818 l
617 1797 l
cp
gs
eofi
gr
st
662 1800 m
650 1821 l
637 1800 l
cp
gs
eofi
gr
st
683 1803 m
671 1824 l
658 1803 l
cp
gs
eofi
gr
st
703 1805 m
691 1826 l
678 1805 l
cp
gs
eofi
gr
st
724 1808 m
712 1829 l
699 1808 l
cp
gs
eofi
gr
st
744 1811 m
732 1832 l
719 1811 l
cp
gs
eofi
gr
st
765 1813 m
753 1834 l
740 1813 l
cp
gs
eofi
gr
st
785 1815 m
773 1836 l
760 1815 l
cp
gs
eofi
gr
st
806 1818 m
794 1839 l
781 1818 l
cp
gs
eofi
gr
st
826 1820 m
814 1841 l
801 1820 l
cp
gs
eofi
gr
st
847 1822 m
835 1843 l
822 1822 l
cp
gs
eofi
gr
st
867 1824 m
855 1845 l
842 1824 l
cp
gs
eofi
gr
st
888 1826 m
876 1847 l
863 1826 l
cp
gs
eofi
gr
st
908 1828 m
896 1849 l
883 1828 l
cp
gs
eofi
gr
st
929 1830 m
917 1851 l
904 1830 l
cp
gs
eofi
gr
st
949 1832 m
937 1853 l
924 1832 l
cp
gs
eofi
gr
st
970 1834 m
958 1855 l
945 1834 l
cp
gs
eofi
gr
st
990 1835 m
978 1856 l
965 1835 l
cp
gs
eofi
gr
st
1011 1837 m
999 1858 l
986 1837 l
cp
gs
eofi
gr
st
1031 1839 m
1019 1860 l
1006 1839 l
cp
gs
eofi
gr
st
1052 1840 m
1040 1861 l
1027 1840 l
cp
gs
eofi
gr
st
1072 1842 m
1060 1863 l
1047 1842 l
cp
gs
eofi
gr
st
1093 1843 m
1081 1864 l
1068 1843 l
cp
gs
eofi
gr
st
1113 1845 m
1101 1866 l
1088 1845 l
cp
gs
eofi
gr
st
1134 1846 m
1122 1867 l
1109 1846 l
cp
gs
eofi
gr
st
1154 1847 m
1142 1868 l
1129 1847 l
cp
gs
eofi
gr
st
1175 1849 m
1163 1870 l
1150 1849 l
cp
gs
eofi
gr
st
1195 1850 m
1183 1871 l
1170 1850 l
cp
gs
eofi
gr
st
1216 1851 m
1204 1872 l
1191 1851 l
cp
gs
eofi
gr
st
1236 1852 m
1224 1873 l
1211 1852 l
cp
gs
eofi
gr
st
1257 1853 m
1245 1874 l
1232 1853 l
cp
gs
eofi
gr
st
1277 1854 m
1265 1875 l
1252 1854 l
cp
gs
eofi
gr
st
1298 1856 m
1286 1877 l
1273 1856 l
cp
gs
eofi
gr
st
1318 1857 m
1306 1878 l
1293 1857 l
cp
gs
eofi
gr
st
1339 1857 m
1327 1878 l
1314 1857 l
cp
gs
eofi
gr
st
1359 1858 m
1347 1879 l
1334 1858 l
cp
gs
eofi
gr
st
1380 1859 m
1368 1880 l
1355 1859 l
cp
gs
eofi
gr
st
1400 1860 m
1388 1881 l
1375 1860 l
cp
gs
eofi
gr
st
1421 1861 m
1409 1882 l
1396 1861 l
cp
gs
eofi
gr
st
1441 1862 m
1429 1883 l
1416 1862 l
cp
gs
eofi
gr
st
1462 1863 m
1450 1884 l
1437 1863 l
cp
gs
eofi
gr
st
1482 1864 m
1470 1885 l
1457 1864 l
cp
gs
eofi
gr
st
1503 1865 m
1491 1886 l
1478 1865 l
cp
gs
eofi
gr
st
1523 1865 m
1511 1886 l
1498 1865 l
cp
gs
eofi
gr
st
1544 1866 m
1532 1887 l
1519 1866 l
cp
gs
eofi
gr
st
1564 1867 m
1552 1888 l
1539 1867 l
cp
gs
eofi
gr
st
1585 1867 m
1573 1888 l
1560 1867 l
cp
gs
eofi
gr
st
1605 1868 m
1593 1889 l
1580 1868 l
cp
gs
eofi
gr
st
1626 1869 m
1614 1890 l
1601 1869 l
cp
gs
eofi
gr
st
1646 1869 m
1634 1890 l
1621 1869 l
cp
gs
eofi
gr
st
1667 1870 m
1655 1891 l
1642 1870 l
cp
gs
eofi
gr
st
1687 1871 m
1675 1892 l
1662 1871 l
cp
gs
eofi
gr
st
1708 1871 m
1696 1892 l
1683 1871 l
cp
gs
eofi
gr
st
1728 1871 m
1716 1892 l
1703 1871 l
cp
gs
eofi
gr
st
1749 1872 m
1737 1893 l
1724 1872 l
cp
gs
eofi
gr
st
1769 1872 m
1757 1893 l
1744 1872 l
cp
gs
eofi
gr
st
1790 1873 m
1778 1894 l
1765 1873 l
cp
gs
eofi
gr
st
1810 1873 m
1798 1894 l
1785 1873 l
cp
gs
eofi
gr
st
1831 1873 m
1819 1894 l
1806 1873 l
cp
gs
eofi
gr
st
1851 1874 m
1839 1895 l
1826 1874 l
cp
gs
eofi
gr
st
1872 1874 m
1860 1895 l
1847 1874 l
cp
gs
eofi
gr
st
1892 1875 m
1880 1896 l
1867 1875 l
cp
gs
eofi
gr
st
1913 1875 m
1901 1896 l
1888 1875 l
cp
gs
eofi
gr
st
1933 1875 m
1921 1896 l
1908 1875 l
cp
gs
eofi
gr
st
1954 1876 m
1942 1897 l
1929 1876 l
cp
gs
eofi
gr
st
1974 1876 m
1962 1897 l
1949 1876 l
cp
gs
eofi
gr
st
1995 1876 m
1983 1897 l
1970 1876 l
cp
gs
eofi
gr
st
2015 1877 m
2003 1898 l
1990 1877 l
cp
gs
eofi
gr
st
2036 1877 m
2024 1898 l
2011 1877 l
cp
gs
eofi
gr
st
2056 1877 m
2044 1898 l
2031 1877 l
cp
gs
eofi
gr
st
2077 1877 m
2065 1898 l
2052 1877 l
cp
gs
eofi
gr
st
2097 1878 m
2085 1899 l
2072 1878 l
cp
gs
eofi
gr
st
2118 1878 m
2106 1899 l
2093 1878 l
cp
gs
eofi
gr
st
2138 1878 m
2126 1899 l
2113 1878 l
cp
gs
eofi
gr
st
2159 1878 m
2147 1899 l
2134 1878 l
cp
gs
eofi
gr
st
2179 1878 m
2167 1899 l
2154 1878 l
cp
gs
eofi
gr
st
2200 1878 m
2188 1899 l
2175 1878 l
cp
gs
eofi
gr
st
2220 1878 m
2208 1899 l
2195 1878 l
cp
gs
eofi
gr
st
2241 1878 m
2229 1899 l
2216 1878 l
cp
gs
eofi
gr
st
2261 1879 m
2249 1900 l
2236 1879 l
cp
gs
eofi
gr
st
2282 1879 m
2270 1900 l
2257 1879 l
cp
gs
eofi
gr
st
2302 1879 m
2290 1900 l
2277 1879 l
cp
gs
eofi
gr
st
2323 1879 m
2311 1900 l
2298 1879 l
cp
gs
eofi
gr
st
2343 1880 m
2331 1901 l
2318 1880 l
cp
gs
eofi
gr
st
2364 1880 m
2352 1901 l
2339 1880 l
cp
gs
eofi
gr
st
2385 1880 m
2373 1901 l
2360 1880 l
cp
gs
eofi
gr
st
2405 1880 m
2393 1901 l
2380 1880 l
cp
gs
eofi
gr
st
2426 1880 m
2414 1901 l
2401 1880 l
cp
gs
eofi
gr
st
2446 1880 m
2434 1901 l
2421 1880 l
cp
gs
eofi
gr
st
2467 1880 m
2455 1901 l
2442 1880 l
cp
gs
eofi
gr
st
2487 1880 m
2475 1901 l
2462 1880 l
cp
gs
eofi
gr
st
2508 1880 m
2496 1901 l
2483 1880 l
cp
gs
eofi
gr
st
2528 1880 m
2516 1901 l
2503 1880 l
cp
gs
eofi
gr
st
2549 1880 m
2537 1901 l
2524 1880 l
cp
gs
eofi
gr
st
2569 1880 m
2557 1901 l
2544 1880 l
cp
gs
eofi
gr
st
2590 1880 m
2578 1901 l
2565 1880 l
cp
gs
eofi
gr
st
2610 1879 m
2598 1900 l
2585 1879 l
cp
gs
eofi
gr
st
2631 1879 m
2619 1900 l
2606 1879 l
cp
gs
eofi
gr
st
2651 1879 m
2639 1900 l
2626 1879 l
cp
gs
eofi
gr
st
2672 1879 m
2660 1900 l
2647 1879 l
cp
gs
eofi
gr
st
2692 1879 m
2680 1900 l
2667 1879 l
cp
gs
eofi
gr
st
2713 1878 m
2701 1899 l
2688 1878 l
cp
gs
eofi
gr
st
2733 1878 m
2721 1899 l
2708 1878 l
cp
gs
eofi
gr
st
2754 1878 m
2742 1899 l
2729 1878 l
cp
gs
eofi
gr
st
2774 1878 m
2762 1899 l
2749 1878 l
cp
gs
eofi
gr
st
2795 1878 m
2783 1899 l
2770 1878 l
cp
gs
eofi
gr
st
2815 1878 m
2803 1899 l
2790 1878 l
cp
gs
eofi
gr
st
2836 1877 m
2824 1898 l
2811 1877 l
cp
gs
eofi
gr
st
2856 1877 m
2844 1898 l
2831 1877 l
cp
gs
eofi
gr
st
2877 1876 m
2865 1897 l
2852 1876 l
cp
gs
eofi
gr
st
2897 1876 m
2885 1897 l
2872 1876 l
cp
gs
eofi
gr
st
2918 1876 m
2906 1897 l
2893 1876 l
cp
gs
eofi
gr
st
2938 1876 m
2926 1897 l
2913 1876 l
cp
gs
eofi
gr
st
2959 1876 m
2947 1897 l
2934 1876 l
cp
gs
eofi
gr
st
2979 1876 m
2967 1897 l
2954 1876 l
cp
gs
eofi
gr
st
3000 1876 m
2988 1897 l
2975 1876 l
cp
gs
eofi
gr
st
3020 1875 m
3008 1896 l
2995 1875 l
cp
gs
eofi
gr
st
3041 1875 m
3029 1896 l
3016 1875 l
cp
gs
eofi
gr
st
3061 1874 m
3049 1895 l
3036 1874 l
cp
gs
eofi
gr
st
gr
gs
1 0 0 rgb
314 1655 26 26 rectfill
3018 220 m
2 sw
314 1655 26 26 rectstroke
351 1658 26 26 rectfill
351 1658 26 26 rectstroke
393 1665 26 26 rectfill
393 1665 26 26 rectstroke
439 1667 26 26 rectfill
439 1667 26 26 rectstroke
486 1672 26 26 rectfill
486 1672 26 26 rectstroke
529 1675 26 26 rectfill
529 1675 26 26 rectstroke
573 1676 26 26 rectfill
573 1676 26 26 rectstroke
615 1676 26 26 rectfill
615 1676 26 26 rectstroke
654 1679 26 26 rectfill
654 1679 26 26 rectstroke
689 1679 26 26 rectfill
689 1679 26 26 rectstroke
728 1679 26 26 rectfill
728 1679 26 26 rectstroke
758 1679 26 26 rectfill
758 1679 26 26 rectstroke
794 1677 26 26 rectfill
794 1677 26 26 rectstroke
920 1674 26 26 rectfill
920 1674 26 26 rectstroke
1045 1667 26 26 rectfill
1045 1667 26 26 rectstroke
1164 1658 26 26 rectfill
1164 1658 26 26 rectstroke
1287 1641 26 26 rectfill
1287 1641 26 26 rectstroke
1415 1628 26 26 rectfill
1415 1628 26 26 rectstroke
1535 1606 26 26 rectfill
1535 1606 26 26 rectstroke
1660 1580 26 26 rectfill
1660 1580 26 26 rectstroke
1783 1557 26 26 rectfill
1783 1557 26 26 rectstroke
1905 1523 26 26 rectfill
1905 1523 26 26 rectstroke
2028 1491 26 26 rectfill
2028 1491 26 26 rectstroke
2151 1460 26 26 rectfill
2151 1460 26 26 rectstroke
2276 1411 26 26 rectfill
2276 1411 26 26 rectstroke
2400 1369 26 26 rectfill
2400 1369 26 26 rectstroke
2520 1315 26 26 rectfill
2520 1315 26 26 rectstroke
2642 1257 26 26 rectfill
2642 1257 26 26 rectstroke
gr
gs
341 1727 m
324 1757 l
306 1727 l
cp
gs
1 0 0 rgb
eofi
gr
2 sw
1 0 0 rgb
st
380 1743 m
363 1773 l
345 1743 l
cp
gs
eofi
gr
st
423 1756 m
406 1786 l
388 1756 l
cp
gs
eofi
gr
st
464 1769 m
447 1799 l
429 1769 l
cp
gs
eofi
gr
st
504 1779 m
487 1809 l
469 1779 l
cp
gs
eofi
gr
st
543 1785 m
526 1815 l
508 1785 l
cp
gs
eofi
gr
st
584 1798 m
567 1828 l
549 1798 l
cp
gs
eofi
gr
st
625 1803 m
608 1833 l
590 1803 l
cp
gs
eofi
gr
st
668 1810 m
651 1840 l
633 1810 l
cp
gs
eofi
gr
st
833 1833 m
816 1863 l
798 1833 l
cp
gs
eofi
gr
st
994 1848 m
977 1878 l
959 1848 l
cp
gs
eofi
gr
st
1158 1863 m
1141 1893 l
1123 1863 l
cp
gs
eofi
gr
st
1323 1873 m
1306 1903 l
1288 1873 l
cp
gs
eofi
gr
st
1487 1882 m
1470 1912 l
1452 1882 l
cp
gs
eofi
gr
st
1650 1890 m
1633 1920 l
1615 1890 l
cp
gs
eofi
gr
st
1813 1897 m
1796 1927 l
1778 1897 l
cp
gs
eofi
gr
st
1977 1904 m
1960 1934 l
1942 1904 l
cp
gs
eofi
gr
st
2142 1909 m
2125 1939 l
2107 1909 l
cp
gs
eofi
gr
st
2306 1910 m
2289 1940 l
2271 1910 l
cp
gs
eofi
gr
st
2469 1913 m
2452 1943 l
2434 1913 l
cp
gs
eofi
gr
st
2631 1916 m
2614 1946 l
2596 1916 l
cp
gs
eofi
gr
st
2798 1913 m
2781 1943 l
2763 1913 l
cp
gs
eofi
gr
st
2962 1915 m
2945 1945 l
2927 1915 l
cp
gs
eofi
gr
st
gr
gs
np
328 1597 15 0 360  a
cp
gs
1 0 0 rgb
eofi
gr
2 sw
1 0 0 rgb
st
np
372 1593 15 0 360  a
cp
gs
eofi
gr
st
np
423 1591 15 0 360  a
cp
gs
eofi
gr
st
np
469 1582 15 0 360  a
cp
gs
eofi
gr
st
np
520 1575 15 0 360  a
cp
gs
eofi
gr
st
np
560 1569 15 0 360  a
cp
gs
eofi
gr
st
np
606 1561 15 0 360  a
cp
gs
eofi
gr
st
np
662 1551 15 0 360  a
cp
gs
eofi
gr
st
np
709 1543 15 0 360  a
cp
gs
eofi
gr
st
np
750 1536 15 0 360  a
cp
gs
eofi
gr
st
np
791 1527 15 0 360  a
cp
gs
eofi
gr
st
np
818 1523 15 0 360  a
cp
gs
eofi
gr
st
np
938 1499 15 0 360  a
cp
gs
eofi
gr
st
np
1056 1473 15 0 360  a
cp
gs
eofi
gr
st
np
1182 1442 15 0 360  a
cp
gs
eofi
gr
st
np
1304 1400 15 0 360  a
cp
gs
eofi
gr
st
np
1427 1362 15 0 360  a
cp
gs
eofi
gr
st
np
1547 1312 15 0 360  a
cp
gs
eofi
gr
st
np
1673 1256 15 0 360  a
cp
gs
eofi
gr
st
np
1795 1198 15 0 360  a
cp
gs
eofi
gr
st
np
1919 1131 15 0 360  a
cp
gs
eofi
gr
st
np
2041 1060 15 0 360  a
cp
gs
eofi
gr
st
np
2167 991 15 0 360  a
cp
gs
eofi
gr
st
np
2288 893 15 0 360  a
cp
gs
eofi
gr
st
np
2411 795 15 0 360  a
cp
gs
eofi
gr
st
gr
gs
318 1654 m
335 1684 l
300 1684 l
cp
gs
1 0 0 rgb
eofi
gr
2 sw
1 0 0 rgb
st
358 1660 m
375 1690 l
340 1690 l
cp
gs
eofi
gr
st
401 1673 m
418 1703 l
383 1703 l
cp
gs
eofi
gr
st
445 1684 m
462 1714 l
427 1714 l
cp
gs
eofi
gr
st
483 1696 m
500 1726 l
465 1726 l
cp
gs
eofi
gr
st
526 1701 m
543 1731 l
508 1731 l
cp
gs
eofi
gr
st
565 1708 m
582 1738 l
547 1738 l
cp
gs
eofi
gr
st
608 1716 m
625 1746 l
590 1746 l
cp
gs
eofi
gr
st
648 1725 m
665 1755 l
630 1755 l
cp
gs
eofi
gr
st
812 1744 m
829 1774 l
794 1774 l
cp
gs
eofi
gr
st
976 1759 m
993 1789 l
958 1789 l
cp
gs
eofi
gr
st
1139 1772 m
1156 1802 l
1121 1802 l
cp
gs
eofi
gr
st
1304 1782 m
1321 1812 l
1286 1812 l
cp
gs
eofi
gr
st
1465 1791 m
1482 1821 l
1447 1821 l
cp
gs
eofi
gr
st
1633 1795 m
1650 1825 l
1615 1825 l
cp
gs
eofi
gr
st
1795 1803 m
1812 1833 l
1777 1833 l
cp
gs
eofi
gr
st
1958 1806 m
1975 1836 l
1940 1836 l
cp
gs
eofi
gr
st
2123 1803 m
2140 1833 l
2105 1833 l
cp
gs
eofi
gr
st
2287 1805 m
2304 1835 l
2269 1835 l
cp
gs
eofi
gr
st
2453 1810 m
2470 1840 l
2435 1840 l
cp
gs
eofi
gr
st
2616 1807 m
2633 1837 l
2598 1837 l
cp
gs
eofi
gr
st
2778 1805 m
2795 1835 l
2760 1835 l
cp
gs
eofi
gr
st
2943 1800 m
2960 1830 l
2925 1830 l
cp
gs
eofi
gr
st
gr
gs
gs
1 -1 sc
111 -1221 tr
90 ro
/MC2_Arial 101 self 0 0 m
(E\(k,)[67 34 51 28 ] xs
1 -1 sc
gr
gs
1 -1 sc
111 -1041 tr
90 ro
/MC3_Symbol 101 self 0 0 m
/s61556 44 xgls
1 -1 sc
gr
gs
1 -1 sc
111 -997 tr
90 ro
/MC2_Arial 101 self 0 0 m
(\))[34 ] xs
1 -1 sc
gr
gr
gs
1 -1 sc
/MC4_Symbol 101 self 1490 -2413 m
/s61556 42 xgls
1 -1 sc
1 -1 sc
/MC1_Arial 101 self 1532 -2413 m
( \(MeV)[28 34 83 56 67 ] xs
1 -1 sc
1 -1 sc
/MC1_Arial 61 self 1800 -2364 m
(-1)[20 34 ] xs
1 -1 sc
1 -1 sc
/MC1_Arial 101 self 1854 -2413 m
(\))[34 ] xs
1 -1 sc
gr
gs
1 -1 sc
/MC1_Arial 76 self 392 -239 m
(4)[42 ] xs
1 -1 sc
1 -1 sc
/MC1_Arial 127 self 434 -301 m
(He)[92 71 ] xs
1 -1 sc
1 -1 sc
/MC1_Arial 91 self 597 -301 m
(     )[25 25 25 25 25 ] xs
1 -1 sc
1 -1 sc
/MC1_Arial 82 self 722 -301 m
(PIMC  GFMC)[55 23 67 59 23 23 64 50 67 59 ] xs
1 -1 sc
1 -1 sc
/MC1_Arial 91 self 392 -432 m
(   )[25 25 25 ] xs
1 -1 sc
1 -1 sc
/MC4_Symbol 91 self 467 -432 m
/s61554 50 xgls
1 -1 sc
1 -1 sc
/MC1_Arial 55 self 517 -464 m
(N)[40 ] xs
1 -1 sc
1 -1 sc
/MC1_Arial 91 self 557 -432 m
(       )[25 25 25 25 25 25 25 ] xs
1 -1 sc
gs
gr
gs
np
833 402 10 0 360  a
cp
gs
eofi
gr
1 sw
st
gr
1 -1 sc
934 -432 m
(   )[25 25 25 ] xs
1 -1 sc
gs
gr
gs
1 0 0 rgb
1097 389 26 26 rectfill
2 sw
1097 389 26 26 rectstroke
gr
1 -1 sc
392 -581 m
(   )[25 25 25 ] xs
1 -1 sc
1 -1 sc
/MC4_Symbol 91 self 467 -581 m
/s61554 50 xgls
1 -1 sc
1 -1 sc
/MC1_Arial 55 self 517 -613 m
(p)[31 ] xs
1 -1 sc
1 -1 sc
/MC1_Arial 91 self 548 -581 m
(       )[25 25 25 25 25 25 25 ] xs
1 -1 sc
gs
gr
gs
815 542 18 18 rectfill
1 sw
815 542 18 18 rectstroke
gr
1 -1 sc
925 -581 m
(   )[25 25 25 ] xs
1 -1 sc
gs
gr
gs
1118 541 m
1101 571 l
1083 541 l
cp
gs
1 0 0 rgb
eofi
gr
2 sw
1 0 0 rgb
st
gr
1 -1 sc
1202 -581 m
( )[25 ] xs
1 -1 sc
1 -1 sc
392 -730 m
(   )[25 25 25 ] xs
1 -1 sc
1 -1 sc
/MC4_Symbol 91 self 467 -730 m
/s61554 50 xgls
1 -1 sc
1 -1 sc
/MC4_Symbol 55 self 517 -762 m
/s61556 24 xgls
1 -1 sc
1 -1 sc
/MC1_Arial 91 self 541 -730 m
(       )[25 25 25 25 25 25 25 ] xs
1 -1 sc
gs
gr
gs
804 700 m
817 687 l
830 700 l
817 713 l
cp
gs
eofi
gr
1 sw
st
gr
1 -1 sc
918 -730 m
( )[25 ] xs
1 -1 sc
1 -1 sc
392 -879 m
(   )[25 25 25 ] xs
1 -1 sc
1 -1 sc
/MC4_Symbol 91 self 467 -879 m
/s61554 50 xgls
1 -1 sc
1 -1 sc
/MC4_Symbol 55 self 517 -911 m
/s61555 32 xgls
/s61556 24 xgls
1 -1 sc
1 -1 sc
/MC1_Arial 55 self 573 -911 m
(L)[31 ] xs
1 -1 sc
1 -1 sc
/MC1_Arial 91 self 604 -879 m
(     )[25 25 25 25 25 ] xs
1 -1 sc
gs
gr
gs
830 835 m
842 856 l
817 856 l
cp
gs
eofi
gr
1 sw
st
gr
1 -1 sc
931 -879 m
(   )[25 25 25 ] xs
1 -1 sc
gs
gr
gs
np
1107 849 14 0 360  a
cp
gs
1 0 0 rgb
eofi
gr
2 sw
1 0 0 rgb
st
gr
1 -1 sc
1208 -879 m
( )[25 ] xs
1 -1 sc
1 -1 sc
392 -1028 m
(   )[25 25 25 ] xs
1 -1 sc
1 -1 sc
/MC4_Symbol 91 self 467 -1028 m
/s61554 50 xgls
1 -1 sc
1 -1 sc
/MC4_Symbol 55 self 517 -1060 m
/s61555 32 xgls
/s61556 24 xgls
1 -1 sc
1 -1 sc
/MC1_Arial 55 self 573 -1060 m
(T)[33 ] xs
1 -1 sc
1 -1 sc
/MC1_Arial 91 self 606 -1028 m
(     )[25 25 25 25 25 ] xs
1 -1 sc
gs
gr
gs
844 991 m
832 1012 l
819 991 l
cp
gs
eofi
gr
1 sw
st
gr
1 -1 sc
933 -1028 m
(   )[25 25 25 ] xs
1 -1 sc
gs
gr
gs
1109 978 m
1126 1008 l
1091 1008 l
cp
gs
1 0 0 rgb
eofi
gr
2 sw
1 0 0 rgb
st
gr
gr
gs
1 -1 sc
/MC1_Arial 101 self 368 -2098 m
(k=350 MeV/c)[51 59 56 56 56 28 83 56 67 28 51 ] xs
1 -1 sc
gr
gs
1 -1 sc
/MC4_Symbol 91 self 1279 -2089 m
/s61556 38 xgls
1 -1 sc
1 -1 sc
/MC1_Arial 55 self 1317 -2121 m
(tot)[15 31 15 ] xs
1 -1 sc
1 -1 sc
/MC1_Arial 91 self 1378 -2089 m
(=0.2 MeV)[53 51 25 51 25 75 51 61 ] xs
1 -1 sc
1 -1 sc
/MC1_Arial 55 self 1770 -2044 m
(-1)[18 31 ] xs
1 -1 sc
1 -1 sc
/MC1_Arial 91 self 1819 -2089 m
(, )[25 25 ] xs
1 -1 sc
1 -1 sc
/MC4_Symbol 91 self 1869 -2089 m
/s61508 56 xgls
/s61556 38 xgls
1 -1 sc
1 -1 sc
/MC1_Arial 91 self 1963 -2089 m
(=0.00015 MeV)[53 51 25 51 51 51 51 51 25 75 51 61 ] xs
1 -1 sc
1 -1 sc
/MC1_Arial 55 self 2559 -2044 m
(-1)[18 31 ] xs
1 -1 sc
1 -1 sc
/MC1_Arial 91 self 2608 -2089 m
(, N=1334)[25 25 66 53 51 51 51 51 ] xs
1 -1 sc
gr
gr
Save0 restore end
showpage
%%EOF
