%!PS-Adobe-3.0 EPSF-3.0
%%BoundingBox: 0 0 772 591
%%LanguageLevel: 2
%%Creator: OriginLab Corporation
%%Title: (C:\Users\Rong\Desktop\energyN2LO.eps)
%%CreationDate: Thu Jul 16 19:24:15 2020
%%EndComments

/OriginLab::PSL1 128 dict dup begin def
/Save0 save def
%%BeginResource: procset OriginLab::PSL1
/wd{1 index where{pop pop pop}{bind def}ifelse}bind def
/setcmykcolor{1 sub 4 1 roll 3{3 index add neg dup 0 lt{pop 0}if 3 1 roll}repeat setrgbcolor pop}wd
/selectfont{dup type/arraytype eq{exch findfont exch makefont setfont}{exch findfont exch scalefont setfont}ifelse}wd
/xshow{1 index length 0 le{}{currentpoint exch 3 index length 1 sub 0 exch 1 exch{dup 5 index exch 1 getinterval show 3 index exch get add 2 copy exch moveto}for pop pop}ifelse pop pop}wd
/glyphshow{matrix currentmatrix exch currentfont dup/FontMatrix get concat currentpoint translate
 dup/Metrics get 2 index get 0 4 2 roll gsave/CharProcs get exch 2 copy known not{pop/.notdef}if
 get exec fill grestore moveto setmatrix}wd
/grayimage/image load def/rgbtogray{cvx exec dup length 3 idiv 1 sub 0 exch 1 exch{dup 3 mul dup 3 index exch get 255 div .3 mul exch
 1 add dup 4 index exch get 255 div .59 mul exch 1 add 4 index exch get 255 div .11 mul add add
 255 mul dup 255 gt{255}if round cvi 2 index 3 1 roll put}for dup length 3 idiv 0 exch getinterval}bind def
/colorimage{0 setgray pop pop cvlit/rgbtogray cvx 2 packedarray cvx grayimage}wd
/bd{bind def}bind def/ld{load def}bd/ed{exch def}bd/xd{cvx def}bd
/np/newpath ld/a/arc ld/m/moveto ld/l/lineto ld/c/curveto ld/rm/rmoveto ld/rl/rlineto ld/rc/rcurveto ld/cp/closepath ld/cpt/currentpoint ld
/tr/translate ld/sc/scale ld/ro/rotate ld/t/transform ld/it/itransform ld/dt/dtransform ld/idt/idtransform ld
/mtx/matrix ld/cmtx/currentmatrix ld/dmtx/defaultmatrix ld/smtx/setmatrix ld/catmtx/concatmatrix ld
/sw/setlinewidth ld/scap/setlinecap ld/sj/setlinejoin ld/sm/setmiterlimit ld/sd/setdash ld/rgb/setrgbcolor ld/crgb/currentrgbcolor ld/cmyk/setcmykcolor ld/gs/gsave ld/gr/grestore ld
/st/stroke ld/fi/fill ld/eofi/eofill ld/cl/clip ld/eocl/eoclip ld
/df/definefont ld/ff/findfont ld/sf/setfont ld/scf/scalefont ld/self/selectfont ld/cf/currentfont ld
/s/show ld/xs/xshow ld/gls/glyphshow ld/xgls{cpt 3 1 roll add exch 3 -1 roll gls m}bd
/cd/currentdict ld/i/index ld
/DrawBox{4 2 roll m 1 index 0 rl 0 exch rl neg 0 rl cp}bd
/plus.re { 6 { 3 index } repeat moveto 0 exch rlineto 0 rlineto pop pop neg 0 exch rlineto pop lineto closepath } def
/DrawBcc{4 2 roll m 2 copy 0 lt exch 0 lt xor{dup 0 exch rl exch 0 rl neg 0 exch rl}{exch dup 0 rl exch 0 exch rl neg 0 rl}ifelse cp}bd
/rectline{dup type/arraytype eq{dup length 0 exch 4 exch 4 sub{0 1 3{3 copy add get 4 1 roll pop}for pop 5 1 roll DrawBox}for pop}{DrawBox}ifelse}bd
/rectpath{dup type/arraytype eq{dup length 0 exch 4 exch 4 sub{0 1 3{3 copy add get 4 1 roll pop}for pop 5 1 roll DrawBcc}for pop}{DrawBcc}ifelse}bd
/pathproc{[{/m cvx}{/l cvx}{/c cvx}{/cp cvx}pathforall]cvx}bd
/L1img/image ld/L1idx[{0}
 {dup 7 and 3 1 roll -3 bitshift get exch 7 sub 1 mul bitshift  1 and}bind 1 index dup
 {dup 1 and 3 1 roll -1 bitshift get exch 1 sub 4 mul bitshift 15 and}bind 1 index dup dup
 {get}bind]def
/image{dup type/dicttype eq {dup/ImgCS get 0 get/Indexed eq}{false}ifelse
 {begin Width Height 8 ImageMatrix {rgb_string rgb_lookup
 cd/DataSource get dup type/filetype eq
 {mystring readstring pop}{exec}ifelse
 dup length 0 ne
 {L1idx BitsPerComponent get 0 1 Width 1 sub
 {3 copy exch exec exch 3 mul exch
 3 mul dup 5 index exch get exch 1 add dup 6 index exch get exch 1 add 6 index exch get
 7 index exch 4 index 2 add exch put 6 index exch 3 index 1 add exch put 5 index exch 2 index exch put pop
 }for pop pop pop }{pop pop pop ()}ifelse }false 3 colorimage end} {dup type/dicttype eq
 {{dup mark exch L1img pop pop}stopped{cleartomark begin Width Height BitsPerComponent ImageMatrix
 {cd/DataSource get dup type/filetype eq {mystring readstring pop}{exec}ifelse
 }false 3 colorimage end} if}{L1img}ifelse}ifelse
 }bd
/L1imgmask/imagemask ld/imagemask{dup type/dicttype eq
 {{dup mark exch L1imgmask pop pop}stopped {cleartomark begin Width Height polarityflag ImageMatrix
 {cd/DataSource get dup type/filetype eq {mystring readstring pop}{exec}ifelse
 }L1imgmask end}if}{L1imgmask}ifelse
 }bd
% Gradient function
/GradientStep 1 150 div def
/GradientStartRGB { /R1 exch def /G1 exch def /B1 exch def } def
/GradientEndRGB { /R2 exch def /G2 exch def /B2 exch def
/GradientSteps GradientLength GradientStep div def
/GradientRStep R2 R1 sub GradientSteps div def
/GradientGStep G2 G1 sub GradientSteps div def
/GradientBStep B2 B1 sub GradientSteps div def
} def
/GradientStepRGB { /R1 R1 GradientRStep add def
/G1 G1 GradientGStep add def
/B1 B1 GradientBStep add def
R1 G1 B1 setrgbcolor
} def
%%EndResource
/rectclip{np rectpath clip np}wd
/rectfill{gs np rectpath fi gr}wd
/rectstroke{gs np dup type/arraytype eq{dup length 6 eq}{false}ifelse{1 index type/arraytype eq{exch}{5 1 roll}ifelse rectline concat st}{rectline st}ifelse gr}wd
%%BeginResource: procset OriginLab::Image
/OriginLab::Image 32 dict dup begin
/BinProc{[currentfile mystring /readstring cvx /pop cvx] cvx bind}bd
/HexProc{[currentfile mystring /readhexstring cvx /pop cvx] cvx bind}bd
/Ascii85Proc{currentfile /ASCII85Decode filter}bd
/LZWA85{currentfile /ASCII85Decode filter /LZWDecode filter}bd
/ImgProcArray[/BinProc /HexProc /Ascii85Proc /LZWA85]def
/ImgDict{/ImgDict 16 dict def ImgDict dup begin /ImageType 1 def /MultipleDataSource false def end}bd
/L2Dec{{[1 0]}{[0 1]}ifelse}bd
/BegImg{ /Img_sv save def
 /ImgDir ed ImgProcArray exch get /ImgProc exch ld
 dup /polarityflag ed L2Dec /polarity ed /smoothflag ed
 tr /dx 2 index def /dy 1 index abs def sc
 string /mystring ed /bpc ed /ih ed /iw ed
 }bd
/EndImg {Img_sv restore}bd
/DoXImg{ /rgb_lookup ed /hival ed ImgDict dup begin
 [/Indexed /DeviceRGB hival rgb_lookup] /L1img where{pop/ImgCS ed}{setcolorspace}ifelse
 /rgb_string iw 3 mul string def
 /Width iw def
 /Height ih def
 /Decode [0 1 bpc{2 mul}repeat 1 sub] def
 /ImageMatrix
  ImgDir 0 eq{[iw 0 0 ih 0 0]}if
  ImgDir 1 eq{[iw neg 0 0 ih iw 0]}if
  ImgDir 2 eq{[iw 0 0 ih neg 0 ih]}if
  ImgDir 3 eq{[iw neg 0 0 ih neg iw ih]}if
  def
 /DataSource ImgProc def
 /BitsPerComponent bpc def
 /Interpolate smoothflag def
 end image}bd
/DoImg{ ImgDict dup begin
 [/DeviceRGB] /L1img where{pop/ImgCS ed}{setcolorspace}ifelse
 /rgb_string iw 3 mul string def
 /Width iw def
 /Height ih def
 /Decode [0 1 0 1 0 1] def
 /ImageMatrix
  ImgDir 0 eq{[iw 0 0 ih 0 0]}if
  ImgDir 1 eq{[iw neg 0 0 ih iw 0]}if
  ImgDir 2 eq{[iw 0 0 ih neg 0 ih]}if
  ImgDir 3 eq{[iw neg 0 0 ih neg iw ih]}if
  def
 /DataSource ImgProc def
 /BitsPerComponent 8 def
 /Interpolate smoothflag def
 end image}bd
end def
%%EndResource
/initmtx mtx cmtx def
%%BeginFont: /MC1_Arial
12 dict begin
/FontInfo 8 dict dup begin
/ItalicAngle 0 def
/UnderlinePosition -217.00 def
/UnderlineThickness 150.00 def
/StrikeoutPosition 530.00 def
/StrikeoutThickness 102.00 def
/isFixedPitch false def
end readonly def
/FontName /MC1_Arial def
/FontType 3 def
/FontMatrix [1 2048 div 0 0 1 2048 div 0 0] def
/FontBBox [-1361 -665 4096 2129] def
/Encoding 256 array def 0 1 255{Encoding exch/.notdef put}for
Encoding 32/s32 put
Encoding 40/s40 put
Encoding 41/s41 put
Encoding 45/s45 put
Encoding 46/s46 put
Encoding 48/s48 put
Encoding 49/s49 put
Encoding 50/s50 put
Encoding 51/s51 put
Encoding 52/s52 put
Encoding 53/s53 put
Encoding 54/s54 put
Encoding 55/s55 put
Encoding 56/s56 put
Encoding 57/s57 put
Encoding 64/s64 put
Encoding 72/s72 put
Encoding 77/s77 put
Encoding 86/s86 put
Encoding 101/s101 put
Encoding 102/s102 put
Encoding 109/s109 put
Encoding 110/s110 put
Encoding 112/s112 put
Encoding 114/s114 put
/BoundingBoxes 26 dict def
BoundingBoxes begin
/s32 [0 -434 569 1854] def
/s40 [0 -434 682 1854] def
/s41 [0 -434 682 1854] def
/s45 [0 -434 682 1854] def
/s46 [0 -434 569 1854] def
/s48 [0 -434 1139 1854] def
/s49 [0 -434 1139 1854] def
/s50 [0 -434 1139 1854] def
/s51 [0 -434 1139 1854] def
/s52 [0 -434 1139 1854] def
/s53 [0 -434 1139 1854] def
/s54 [0 -434 1139 1854] def
/s55 [0 -434 1139 1854] def
/s56 [0 -434 1139 1854] def
/s57 [0 -434 1139 1854] def
/s64 [0 -434 2079 1854] def
/s72 [0 -434 1479 1854] def
/s77 [0 -434 1706 1854] def
/s86 [0 -434 1366 1854] def
/s101 [0 -434 1139 1854] def
/s102 [0 -434 569 1854] def
/s109 [0 -434 1706 1854] def
/s110 [0 -434 1139 1854] def
/s112 [0 -434 1139 1854] def
/s114 [0 -434 682 1854] def
end
/Metrics 26 dict def
 Metrics begin
/s32 569 def
/s40 682 def
/s41 682 def
/s45 682 def
/s46 569 def
/s48 1139 def
/s49 1139 def
/s50 1139 def
/s51 1139 def
/s52 1139 def
/s53 1139 def
/s54 1139 def
/s55 1139 def
/s56 1139 def
/s57 1139 def
/s64 2079 def
/s72 1479 def
/s77 1706 def
/s86 1366 def
/s101 1139 def
/s102 569 def
/s109 1706 def
/s110 1139 def
/s112 1139 def
/s114 682 def
end
/CharProcs 26 dict def
CharProcs begin
/.notdef {} def
/s40 {
479 -431 m
379.67 -305.67 295.67 -159 227 9 c
158.33 177 124 351 124 531 c
124 689.67 149.67 841.67 201 987 c
261 1155.67 353.67 1323.67 479 1491 c
608 1491 479 1491 608 1491 c
527.33 1352.33 474 1253.33 448 1194 c
407.33 1102 375.33 1006 352 906 c
323.33 781.33 309 656 309 530 c
309 209.33 408.67 -111 608 -431 c
479 -431 608 -431 479 -431 c
closepath } bind def
/s41 {
253 -431 m
124 -431 253 -431 124 -431 c
323.33 -111 423 209.33 423 530 c
423 655.33 408.67 779.67 380 903 c
357.33 1003 325.67 1099 285 1191 c
259 1251 205.33 1351 124 1491 c
253 1491 124 1491 253 1491 c
378.33 1323.67 471 1155.67 531 987 c
582.33 841.67 608 689.67 608 531 c
608 351 573.5 177 504.5 9 c
435.5 -159 351.67 -305.67 253 -431 c
closepath } bind def
/s45 {
65 440 m
65 621 65 440 65 621 c
618 621 65 621 618 621 c
618 440 618 621 618 440 c
65 440 618 440 65 440 c
closepath } bind def
/s46 {
186 0 m
186 205 186 0 186 205 c
391 205 186 205 391 205 c
391 0 391 205 391 0 c
186 0 391 0 186 0 c
closepath } bind def
/s48 {
85 723 m
85 896.33 102.83 1035.83 138.5 1141.5 c
174.17 1247.17 227.17 1328.67 297.5 1386 c
367.83 1443.33 456.33 1472 563 1472 c
641.67 1472 710.67 1456.17 770 1424.5 c
829.33 1392.83 878.33 1347.17 917 1287.5 c
955.67 1227.83 986 1155.17 1008 1069.5 c
1030 983.83 1041 868.33 1041 723 c
1041 551 1023.33 412.17 988 306.5 c
952.67 200.83 899.83 119.17 829.5 61.5 c
759.17 3.83 670.33 -25 563 -25 c
421.67 -25 310.67 25.67 230 127 c
133.33 249 85 447.67 85 723 c
closepath 270 723 m
270 482.33 298.17 322.17 354.5 242.5 c
410.83 162.83 480.33 123 563 123 c
645.67 123 715.17 163 771.5 243 c
827.83 323 856 483 856 723 c
856 964.33 827.83 1124.67 771.5 1204 c
715.17 1283.33 645 1323 561 1323 c
478.33 1323 412.33 1288 363 1218 c
301 1128.67 270 963.67 270 723 c
closepath } bind def
/s49 {
763 0 m
583 0 763 0 583 0 c
583 1147 583 0 583 1147 c
539.67 1105.67 482.83 1064.33 412.5 1023 c
342.17 981.67 279 950.67 223 930 c
223 1104 223 930 223 1104 c
323.67 1151.33 411.67 1208.67 487 1276 c
562.33 1343.33 615.67 1408.67 647 1472 c
763 1472 647 1472 763 1472 c
763 0 763 1472 763 0 c
closepath } bind def
/s50 {
1031 173 m
1031 0 1031 173 1031 0 c
62 0 1031 0 62 0 c
60.67 43.33 67.67 85 83 125 c
107.67 191 147.17 256 201.5 320 c
255.83 384 334.33 458 437 542 c
596.33 672.67 704 776.17 760 852.5 c
816 928.83 844 1001 844 1069 c
844 1140.33 818.5 1200.5 767.5 1249.5 c
716.5 1298.5 650 1323 568 1323 c
481.33 1323 412 1297 360 1245 c
308 1193 281.67 1121 281 1029 c
96 1048 281 1029 96 1048 c
108.67 1186 156.33 1291.17 239 1363.5 c
321.67 1435.83 432.67 1472 572 1472 c
712.67 1472 824 1433 906 1355 c
988 1277 1029 1180.33 1029 1065 c
1029 1006.33 1017 948.67 993 892 c
969 835.33 929.17 775.67 873.5 713 c
817.83 650.33 725.33 564.33 596 455 c
488 364.33 418.67 302.83 388 270.5 c
357.33 238.17 332 205.67 312 173 c
1031 173 312 173 1031 173 c
closepath } bind def
/s51 {
86 387 m
266 411 86 387 266 411 c
286.67 309 321.83 235.5 371.5 190.5 c
421.17 145.5 481.67 123 553 123 c
637.67 123 709.17 152.33 767.5 211 c
825.83 269.67 855 342.33 855 429 c
855 511.67 828 579.83 774 633.5 c
720 687.17 651.33 714 568 714 c
534 714 491.67 707.33 441 694 c
461 852 441 694 461 852 c
473 850.67 482.67 850 490 850 c
566.67 850 635.67 870 697 910 c
758.33 950 789 1011.67 789 1095 c
789 1161 766.67 1215.67 722 1259 c
677.33 1302.33 619.67 1324 549 1324 c
479 1324 420.67 1302 374 1258 c
327.33 1214 297.33 1148 284 1060 c
104 1092 284 1060 104 1092 c
126 1212.67 176 1306.17 254 1372.5 c
332 1438.83 429 1472 545 1472 c
625 1472 698.67 1454.83 766 1420.5 c
833.33 1386.17 884.83 1339.33 920.5 1280 c
956.17 1220.67 974 1157.67 974 1091 c
974 1027.67 957 970 923 918 c
889 866 838.67 824.67 772 794 c
858.67 774 926 732.5 974 669.5 c
1022 606.5 1046 527.67 1046 433 c
1046 305 999.33 196.5 906 107.5 c
812.67 18.5 694.67 -26 552 -26 c
423.33 -26 316.5 12.33 231.5 89 c
146.5 165.67 98 265 86 387 c
closepath } bind def
/s52 {
662 0 m
662 351 662 0 662 351 c
26 351 662 351 26 351 c
26 516 26 351 26 516 c
695 1466 26 516 695 1466 c
842 1466 695 1466 842 1466 c
842 516 842 1466 842 516 c
1040 516 842 516 1040 516 c
1040 351 1040 516 1040 351 c
842 351 1040 351 842 351 c
842 0 842 351 842 0 c
662 0 842 0 662 0 c
closepath 662 516 m
662 1177 662 516 662 1177 c
203 516 662 1177 203 516 c
662 516 203 516 662 516 c
closepath } bind def
/s53 {
85 384 m
274 400 85 384 274 400 c
288 308 320.5 238.83 371.5 192.5 c
422.5 146.17 484 123 556 123 c
642.67 123 716 155.67 776 221 c
836 286.33 866 373 866 481 c
866 583.67 837.17 664.67 779.5 724 c
721.83 783.33 646.33 813 553 813 c
495 813 442.67 799.83 396 773.5 c
349.33 747.17 312.67 713 286 671 c
117 693 286 671 117 693 c
259 1446 117 693 259 1446 c
988 1446 259 1446 988 1446 c
988 1274 988 1446 988 1274 c
403 1274 988 1274 403 1274 c
324 880 403 1274 324 880 c
412 941.33 504.33 972 601 972 c
729 972 837 927.67 925 839 c
1013 750.33 1057 636.33 1057 497 c
1057 364.33 1018.33 249.67 941 153 c
847 34.33 718.67 -25 556 -25 c
422.67 -25 313.83 12.33 229.5 87 c
145.17 161.67 97 260.67 85 384 c
closepath } bind def
/s54 {
1019 1107 m
840 1093 1019 1107 840 1093 c
824 1163.67 801.33 1215 772 1247 c
723.33 1298.33 663.33 1324 592 1324 c
534.67 1324 484.33 1308 441 1276 c
384.33 1234.67 339.67 1174.33 307 1095 c
274.33 1015.67 257.33 902.67 256 756 c
299.33 822 352.33 871 415 903 c
477.67 935 543.33 951 612 951 c
732 951 834.17 906.83 918.5 818.5 c
1002.83 730.17 1045 616 1045 476 c
1045 384 1025.17 298.5 985.5 219.5 c
945.83 140.5 891.33 80 822 38 c
752.67 -4 674 -25 586 -25 c
436 -25 313.67 30.17 219 140.5 c
124.33 250.83 77 432.67 77 686 c
77 969.33 129.33 1175.33 234 1304 c
325.33 1416 448.33 1472 603 1472 c
718.33 1472 812.83 1439.67 886.5 1375 c
960.17 1310.33 1004.33 1221 1019 1107 c
closepath 284 475 m
284 413 297.17 353.67 323.5 297 c
349.83 240.33 386.67 197.17 434 167.5 c
481.33 137.83 531 123 583 123 c
659 123 724.33 153.67 779 215 c
833.67 276.33 861 359.67 861 465 c
861 566.33 834 646.17 780 704.5 c
726 762.83 658 792 576 792 c
494.67 792 425.67 762.83 369 704.5 c
312.33 646.17 284 569.67 284 475 c
closepath } bind def
/s55 {
97 1274 m
97 1447 97 1274 97 1447 c
1046 1447 97 1447 1046 1447 c
1046 1307 1046 1447 1046 1307 c
952.67 1207.67 860.17 1075.67 768.5 911 c
676.83 746.33 606 577 556 403 c
520 280.33 497 146 487 0 c
302 0 487 0 302 0 c
304 115.33 326.67 254.67 370 418 c
413.33 581.33 475.5 738.83 556.5 890.5 c
637.5 1042.17 723.67 1170 815 1274 c
97 1274 815 1274 97 1274 c
closepath } bind def
/s56 {
362 795 m
287.33 822.33 232 861.33 196 912 c
160 962.67 142 1023.33 142 1094 c
142 1200.67 180.33 1290.33 257 1363 c
333.67 1435.67 435.67 1472 563 1472 c
691 1472 794 1434.83 872 1360.5 c
950 1286.17 989 1195.67 989 1089 c
989 1021 971.17 961.83 935.5 911.5 c
899.83 861.17 845.67 822.33 773 795 c
863 765.67 931.5 718.33 978.5 653 c
1025.5 587.67 1049 509.67 1049 419 c
1049 293.67 1004.67 188.33 916 103 c
827.33 17.67 710.67 -25 566 -25 c
421.33 -25 304.67 17.83 216 103.5 c
127.33 189.17 83 296 83 424 c
83 519.33 107.17 599.17 155.5 663.5 c
203.83 727.83 272.67 771.67 362 795 c
closepath 326 1100 m
326 1030.67 348.33 974 393 930 c
437.67 886 495.67 864 567 864 c
636.33 864 693.17 885.83 737.5 929.5 c
781.83 973.17 804 1026.67 804 1090 c
804 1156 781.17 1211.5 735.5 1256.5 c
689.83 1301.5 633 1324 565 1324 c
496.33 1324 439.33 1302 394 1258 c
348.67 1214 326 1161.33 326 1100 c
closepath 268 423 m
268 371.67 280.17 322 304.5 274 c
328.83 226 365 188.83 413 162.5 c
461 136.17 512.67 123 568 123 c
654 123 725 150.67 781 206 c
837 261.33 865 331.67 865 417 c
865 503.67 836.17 575.33 778.5 632 c
720.83 688.67 648.67 717 562 717 c
477.33 717 407.17 689 351.5 633 c
295.83 577 268 507 268 423 c
closepath } bind def
/s57 {
112 339 m
285 355 112 339 285 355 c
299.67 273.67 327.67 214.67 369 178 c
410.33 141.33 463.33 123 528 123 c
583.33 123 631.83 135.67 673.5 161 c
715.17 186.33 749.33 220.17 776 262.5 c
802.67 304.83 825 362 843 434 c
861 506 870 579.33 870 654 c
870 662 869.67 674 869 690 c
833 632.67 783.83 586.17 721.5 550.5 c
659.17 514.83 591.67 497 519 497 c
397.67 497 295 541 211 629 c
127 717 85 833 85 977 c
85 1125.67 128.83 1245.33 216.5 1336 c
304.17 1426.67 414 1472 546 1472 c
641.33 1472 728.5 1446.33 807.5 1395 c
886.5 1343.67 946.5 1270.5 987.5 1175.5 c
1028.5 1080.5 1049 943 1049 763 c
1049 575.67 1028.67 426.5 988 315.5 c
947.33 204.5 886.83 120 806.5 62 c
726.17 4 632 -25 524 -25 c
409.33 -25 315.67 6.83 243 70.5 c
170.33 134.17 126.67 223.67 112 339 c
closepath 849 986 m
849 1089.33 821.5 1171.33 766.5 1232 c
711.5 1292.67 645.33 1323 568 1323 c
488 1323 418.33 1290.33 359 1225 c
299.67 1159.67 270 1075 270 971 c
270 877.67 298.17 801.83 354.5 743.5 c
410.83 685.17 480.33 656 563 656 c
646.33 656 714.83 685.17 768.5 743.5 c
822.17 801.83 849 882.67 849 986 c
closepath } bind def
/s64 {
1161 163 m
1117.67 113 1069.17 72.83 1015.5 42.5 c
961.83 12.17 908 -3 854 -3 c
794.67 -3 737 14.33 681 49 c
625 83.67 579.5 137 544.5 209 c
509.5 281 492 360 492 446 c
492 552 519.17 658.17 573.5 764.5 c
627.83 870.83 695.33 950.67 776 1004 c
856.67 1057.33 935 1084 1011 1084 c
1069 1084 1124.33 1068.83 1177 1038.5 c
1229.67 1008.17 1275 962 1313 900 c
1347 1055 1313 900 1347 1055 c
1526 1055 1347 1055 1526 1055 c
1382 384 1526 1055 1382 384 c
1362 290.67 1352 239 1352 229 c
1352 211 1358.83 195.5 1372.5 182.5 c
1386.17 169.5 1402.67 163 1422 163 c
1457.33 163 1503.67 183.33 1561 224 c
1637 277.33 1697.17 348.83 1741.5 438.5 c
1785.83 528.17 1808 620.67 1808 716 c
1808 827.33 1779.5 931.33 1722.5 1028 c
1665.5 1124.67 1580.5 1202 1467.5 1260 c
1354.5 1318 1229.67 1347 1093 1347 c
937 1347 794.5 1310.5 665.5 1237.5 c
536.5 1164.5 436.5 1059.83 365.5 923.5 c
294.5 787.17 259 641 259 485 c
259 321.67 294.5 181 365.5 63 c
436.5 -55 539.17 -142.17 673.5 -198.5 c
807.83 -254.83 956.67 -283 1120 -283 c
1294.67 -283 1441 -253.67 1559 -195 c
1677 -136.33 1765.33 -65 1824 19 c
2005 19 1824 19 2005 19 c
1971 -51 1912.67 -122.33 1830 -195 c
1747.33 -267.67 1649 -325.17 1535 -367.5 c
1421 -409.83 1283.67 -431 1123 -431 c
975 -431 838.5 -412 713.5 -374 c
588.5 -336 482 -278.83 394 -202.5 c
306 -126.17 239.67 -38.33 195 61 c
139 187 111 323 111 469 c
111 631.67 144.33 786.67 211 934 c
292.33 1114.67 407.83 1253 557.5 1349 c
707.17 1445 888.67 1493 1102 1493 c
1267.33 1493 1415.83 1459.17 1547.5 1391.5 c
1679.17 1323.83 1783 1223 1859 1089 c
1923.67 973.67 1956 848.33 1956 713 c
1956 519.67 1888 348 1752 198 c
1630.67 63.33 1498 -4 1354 -4 c
1308 -4 1270.83 3 1242.5 17 c
1214.17 31 1193.33 51 1180 77 c
1171.33 93.67 1165 122.33 1161 163 c
closepath 677 434 m
677 342.67 698.67 271.67 742 221 c
785.33 170.33 835 145 891 145 c
928.33 145 967.67 156.17 1009 178.5 c
1050.33 200.83 1089.83 234 1127.5 278 c
1165.17 322 1196 377.83 1220 445.5 c
1244 513.17 1256 581 1256 649 c
1256 739.67 1233.5 810 1188.5 860 c
1143.5 910 1088.67 935 1024 935 c
981.33 935 941.17 924.17 903.5 902.5 c
865.83 880.83 829.33 846 794 798 c
758.67 750 730.33 691.67 709 623 c
687.67 554.33 677 491.33 677 434 c
closepath } bind def
/s72 {
164 0 m
164 1466 164 0 164 1466 c
358 1466 164 1466 358 1466 c
358 864 358 1466 358 864 c
1120 864 358 864 1120 864 c
1120 1466 1120 864 1120 1466 c
1314 1466 1120 1466 1314 1466 c
1314 0 1314 1466 1314 0 c
1120 0 1314 0 1120 0 c
1120 691 1120 0 1120 691 c
358 691 1120 691 358 691 c
358 0 358 691 358 0 c
164 0 358 0 164 0 c
closepath } bind def
/s77 {
152 0 m
152 1466 152 0 152 1466 c
444 1466 152 1466 444 1466 c
791 428 444 1466 791 428 c
823 331.33 846.33 259 861 211 c
877.67 264.33 903.67 342.67 939 446 c
1290 1466 939 446 1290 1466 c
1551 1466 1290 1466 1551 1466 c
1551 0 1551 1466 1551 0 c
1364 0 1551 0 1364 0 c
1364 1227 1364 0 1364 1227 c
938 0 1364 1227 938 0 c
763 0 938 0 763 0 c
339 1248 763 0 339 1248 c
339 0 339 1248 339 0 c
152 0 339 0 152 0 c
closepath } bind def
/s86 {
577 0 m
9 1466 577 0 9 1466 c
219 1466 9 1466 219 1466 c
600 401 219 1466 600 401 c
630.67 315.67 656.33 235.67 677 161 c
699.67 241 726 321 756 401 c
1152 1466 756 401 1152 1466 c
1350 1466 1152 1466 1350 1466 c
776 0 1350 1466 776 0 c
577 0 776 0 577 0 c
closepath } bind def
/s101 {
862 342 m
1048 319 862 342 1048 319 c
1018.67 210.33 964.33 126 885 66 c
805.67 6 704.33 -24 581 -24 c
425.67 -24 302.5 23.83 211.5 119.5 c
120.5 215.17 75 349.33 75 522 c
75 700.67 121 839.33 213 938 c
305 1036.67 424.33 1086 571 1086 c
713 1086 829 1037.67 919 941 c
1009 844.33 1054 708.33 1054 533 c
1054 522.33 1053.67 506.33 1053 485 c
261 485 1053 485 261 485 c
267.67 368.33 300.67 279 360 217 c
419.33 155 493.33 124 582 124 c
648 124 704.33 141.33 751 176 c
797.67 210.67 834.67 266 862 342 c
closepath 271 633 m
864 633 271 633 864 633 c
856 722.33 833.33 789.33 796 834 c
738.67 903.33 664.33 938 573 938 c
490.33 938 420.83 910.33 364.5 855 c
308.17 799.67 277 725.67 271 633 c
closepath } bind def
/s102 {
178 0 m
178 922 178 0 178 922 c
19 922 178 922 19 922 c
19 1062 19 922 19 1062 c
178 1062 19 1062 178 1062 c
178 1175 178 1062 178 1175 c
178 1246.33 184.33 1299.33 197 1334 c
214.33 1380.67 244.83 1418.5 288.5 1447.5 c
332.17 1476.5 393.33 1491 472 1491 c
522.67 1491 578.67 1485 640 1473 c
613 1316 640 1473 613 1316 c
575.67 1322.67 540.33 1326 507 1326 c
452.33 1326 413.67 1314.33 391 1291 c
368.33 1267.67 357 1224 357 1160 c
357 1062 357 1160 357 1062 c
564 1062 357 1062 564 1062 c
564 922 564 1062 564 922 c
357 922 564 922 357 922 c
357 0 357 922 357 0 c
178 0 357 0 178 0 c
closepath } bind def
/s109 {
135 0 m
135 1062 135 0 135 1062 c
296 1062 135 1062 296 1062 c
296 913 296 1062 296 913 c
329.33 965 373.67 1006.83 429 1038.5 c
484.33 1070.17 547.33 1086 618 1086 c
696.67 1086 761.17 1069.67 811.5 1037 c
861.83 1004.33 897.33 958.67 918 900 c
1002 1024 1111.33 1086 1246 1086 c
1351.33 1086 1432.33 1056.83 1489 998.5 c
1545.67 940.17 1574 850.33 1574 729 c
1574 0 1574 729 1574 0 c
1395 0 1574 0 1395 0 c
1395 669 1395 0 1395 669 c
1395 741 1389.17 792.83 1377.5 824.5 c
1365.83 856.17 1344.67 881.67 1314 901 c
1283.33 920.33 1247.33 930 1206 930 c
1131.33 930 1069.33 905.17 1020 855.5 c
970.67 805.83 946 726.33 946 617 c
946 0 946 617 946 0 c
766 0 946 0 766 0 c
766 690 766 0 766 690 c
766 770 751.33 830 722 870 c
692.67 910 644.67 930 578 930 c
527.33 930 480.5 916.67 437.5 890 c
394.5 863.33 363.33 824.33 344 773 c
324.67 721.67 315 647.67 315 551 c
315 0 315 551 315 0 c
135 0 315 0 135 0 c
closepath } bind def
/s110 {
135 0 m
135 1062 135 0 135 1062 c
297 1062 135 1062 297 1062 c
297 911 297 1062 297 911 c
375 1027.67 487.67 1086 635 1086 c
699 1086 757.83 1074.5 811.5 1051.5 c
865.17 1028.5 905.33 998.33 932 961 c
958.67 923.67 977.33 879.33 988 828 c
994.67 794.67 998 736.33 998 653 c
998 0 998 653 998 0 c
818 0 998 0 818 0 c
818 646 818 0 818 646 c
818 719.33 811 774.17 797 810.5 c
783 846.83 758.17 875.83 722.5 897.5 c
686.83 919.17 645 930 597 930 c
520.33 930 454.17 905.67 398.5 857 c
342.83 808.33 315 716 315 580 c
315 0 315 580 315 0 c
135 0 315 0 135 0 c
closepath } bind def
/s112 {
135 -407 m
135 1062 135 -407 135 1062 c
299 1062 135 1062 299 1062 c
299 924 299 1062 299 924 c
337.67 978 381.33 1018.5 430 1045.5 c
478.67 1072.5 537.67 1086 607 1086 c
697.67 1086 777.67 1062.67 847 1016 c
916.33 969.33 968.67 903.5 1004 818.5 c
1039.33 733.5 1057 640.33 1057 539 c
1057 430.33 1037.5 332.5 998.5 245.5 c
959.5 158.5 902.83 91.83 828.5 45.5 c
754.17 -0.83 676 -24 594 -24 c
534 -24 480.17 -11.33 432.5 14 c
384.83 39.33 345.67 71.33 315 110 c
315 -407 315 110 315 -407 c
135 -407 315 -407 135 -407 c
closepath 298 525 m
298 388.33 325.67 287.33 381 222 c
436.33 156.67 503.33 124 582 124 c
662 124 730.5 157.83 787.5 225.5 c
844.5 293.17 873 398 873 540 c
873 675.33 845.17 776.67 789.5 844 c
733.83 911.33 667.33 945 590 945 c
513.33 945 445.5 909.17 386.5 837.5 c
327.5 765.83 298 661.67 298 525 c
closepath } bind def
/s114 {
133 0 m
133 1062 133 0 133 1062 c
295 1062 133 1062 295 1062 c
295 901 295 1062 295 901 c
336.33 976.33 374.5 1026 409.5 1050 c
444.5 1074 483 1086 525 1086 c
585.67 1086 647.33 1066.67 710 1028 c
648 861 710 1028 648 861 c
604 887 560 900 516 900 c
476.67 900 441.33 888.17 410 864.5 c
378.67 840.83 356.33 808 343 766 c
323 702 313 632 313 556 c
313 0 313 556 313 0 c
133 0 313 0 133 0 c
closepath } bind def
end
/BuildGlyph {
 exch dup /Metrics get 2 index get 0 setcharwidth
/CharProcs get exch 2 copy known not{pop/.notdef}if get exec fill}bind def
/BuildChar {
1 index /Encoding get exch get
1 index /BuildGlyph get exec
} bind def
currentdict end /MC1_Arial exch definefont pop
%%EndFont
%%BeginFont: /MC2_Arial
12 dict begin
/FontInfo 8 dict dup begin
/ItalicAngle 0 def
/UnderlinePosition -217.00 def
/UnderlineThickness 150.00 def
/StrikeoutPosition 530.00 def
/StrikeoutThickness 102.00 def
/isFixedPitch false def
end readonly def
/FontName /MC2_Arial def
/FontType 3 def
/FontMatrix [1 2048 div 0 0 1 2048 div 0 0] def
/FontBBox [-1361 -665 4096 2129] def
/Encoding 256 array def 0 1 255{Encoding exch/.notdef put}for
Encoding 32/s32 put
Encoding 45/s45 put
Encoding 51/s51 put
Encoding 79/s79 put
Encoding 97/s97 put
Encoding 98/s98 put
Encoding 99/s99 put
Encoding 100/s100 put
Encoding 101/s101 put
Encoding 102/s102 put
Encoding 105/s105 put
Encoding 108/s108 put
Encoding 109/s109 put
Encoding 110/s110 put
Encoding 112/s112 put
Encoding 114/s114 put
Encoding 115/s115 put
Encoding 116/s116 put
Encoding 117/s117 put
Encoding 121/s121 put
/BoundingBoxes 21 dict def
BoundingBoxes begin
/s32 [0 -434 569 1854] def
/s45 [0 -434 682 1854] def
/s51 [0 -434 1139 1854] def
/s79 [0 -434 1593 1854] def
/s97 [0 -434 1139 1854] def
/s98 [0 -434 1139 1854] def
/s99 [0 -434 1024 1854] def
/s100 [0 -434 1139 1854] def
/s101 [0 -434 1139 1854] def
/s102 [0 -434 569 1854] def
/s105 [0 -434 455 1854] def
/s108 [0 -434 455 1854] def
/s109 [0 -434 1706 1854] def
/s110 [0 -434 1139 1854] def
/s112 [0 -434 1139 1854] def
/s114 [0 -434 682 1854] def
/s115 [0 -434 1024 1854] def
/s116 [0 -434 569 1854] def
/s117 [0 -434 1139 1854] def
/s121 [0 -434 1024 1854] def
end
/Metrics 21 dict def
 Metrics begin
/s32 569 def
/s45 682 def
/s51 1139 def
/s79 1593 def
/s97 1139 def
/s98 1139 def
/s99 1024 def
/s100 1139 def
/s101 1139 def
/s102 569 def
/s105 455 def
/s108 455 def
/s109 1706 def
/s110 1139 def
/s112 1139 def
/s114 682 def
/s115 1024 def
/s116 569 def
/s117 1139 def
/s121 1024 def
end
/CharProcs 21 dict def
CharProcs begin
/.notdef {} def
/s45 {
65 440 m
65 621 65 440 65 621 c
618 621 65 621 618 621 c
618 440 618 621 618 440 c
65 440 618 440 65 440 c
closepath } bind def
/s51 {
86 387 m
266 411 86 387 266 411 c
286.67 309 321.83 235.5 371.5 190.5 c
421.17 145.5 481.67 123 553 123 c
637.67 123 709.17 152.33 767.5 211 c
825.83 269.67 855 342.33 855 429 c
855 511.67 828 579.83 774 633.5 c
720 687.17 651.33 714 568 714 c
534 714 491.67 707.33 441 694 c
461 852 441 694 461 852 c
473 850.67 482.67 850 490 850 c
566.67 850 635.67 870 697 910 c
758.33 950 789 1011.67 789 1095 c
789 1161 766.67 1215.67 722 1259 c
677.33 1302.33 619.67 1324 549 1324 c
479 1324 420.67 1302 374 1258 c
327.33 1214 297.33 1148 284 1060 c
104 1092 284 1060 104 1092 c
126 1212.67 176 1306.17 254 1372.5 c
332 1438.83 429 1472 545 1472 c
625 1472 698.67 1454.83 766 1420.5 c
833.33 1386.17 884.83 1339.33 920.5 1280 c
956.17 1220.67 974 1157.67 974 1091 c
974 1027.67 957 970 923 918 c
889 866 838.67 824.67 772 794 c
858.67 774 926 732.5 974 669.5 c
1022 606.5 1046 527.67 1046 433 c
1046 305 999.33 196.5 906 107.5 c
812.67 18.5 694.67 -26 552 -26 c
423.33 -26 316.5 12.33 231.5 89 c
146.5 165.67 98 265 86 387 c
closepath } bind def
/s79 {
99 714 m
99 957.33 164.33 1147.83 295 1285.5 c
425.67 1423.17 594.33 1492 801 1492 c
936.33 1492 1058.33 1459.67 1167 1395 c
1275.67 1330.33 1358.5 1240.17 1415.5 1124.5 c
1472.5 1008.83 1501 877.67 1501 731 c
1501 582.33 1471 449.33 1411 332 c
1351 214.67 1266 125.83 1156 65.5 c
1046 5.17 927.33 -25 800 -25 c
662 -25 538.67 8.33 430 75 c
321.33 141.67 239 232.67 183 348 c
127 463.33 99 585.33 99 714 c
closepath 299 711 m
299 534.33 346.5 395.17 441.5 293.5 c
536.5 191.83 655.67 141 799 141 c
945 141 1065.17 192.33 1159.5 295 c
1253.83 397.67 1301 543.33 1301 732 c
1301 851.33 1280.83 955.5 1240.5 1044.5 c
1200.17 1133.5 1141.17 1202.5 1063.5 1251.5 c
985.83 1300.5 898.67 1325 802 1325 c
664.67 1325 546.5 1277.83 447.5 1183.5 c
348.5 1089.17 299 931.67 299 711 c
closepath } bind def
/s97 {
828 131 m
761.33 74.33 697.17 34.33 635.5 11 c
573.83 -12.33 507.67 -24 437 -24 c
320.33 -24 230.67 4.5 168 61.5 c
105.33 118.5 74 191.33 74 280 c
74 332 85.83 379.5 109.5 422.5 c
133.17 465.5 164.17 500 202.5 526 c
240.83 552 284 571.67 332 585 c
367.33 594.33 420.67 603.33 492 612 c
637.33 629.33 744.33 650 813 674 c
813.67 698.67 814 714.33 814 721 c
814 794.33 797 846 763 876 c
717 916.67 648.67 937 558 937 c
473.33 937 410.83 922.17 370.5 892.5 c
330.17 862.83 300.33 810.33 281 735 c
105 759 281 735 105 759 c
121 834.33 147.33 895.17 184 941.5 c
220.67 987.83 273.67 1023.5 343 1048.5 c
412.33 1073.5 492.67 1086 584 1086 c
674.67 1086 748.33 1075.33 805 1054 c
861.67 1032.67 903.33 1005.83 930 973.5 c
956.67 941.17 975.33 900.33 986 851 c
992 820.33 995 765 995 685 c
995 445 995 685 995 445 c
995 277.67 998.83 171.83 1006.5 127.5 c
1014.17 83.17 1029.33 40.67 1052 0 c
864 0 1052 0 864 0 c
845.33 37.33 833.33 81 828 131 c
closepath 813 533 m
747.67 506.33 649.67 483.67 519 465 c
445 454.33 392.67 442.33 362 429 c
331.33 415.67 307.67 396.17 291 370.5 c
274.33 344.83 266 316.33 266 285 c
266 237 284.17 197 320.5 165 c
356.83 133 410 117 480 117 c
549.33 117 611 132.17 665 162.5 c
719 192.83 758.67 234.33 784 287 c
803.33 327.67 813 387.67 813 467 c
813 533 813 467 813 533 c
closepath } bind def
/s98 {
301 0 m
134 0 301 0 134 0 c
134 1466 134 0 134 1466 c
314 1466 134 1466 314 1466 c
314 943 314 1466 314 943 c
390 1038.33 487 1086 605 1086 c
670.33 1086 732.17 1072.83 790.5 1046.5 c
848.83 1020.17 896.83 983.17 934.5 935.5 c
972.17 887.83 1001.67 830.33 1023 763 c
1044.33 695.67 1055 623.67 1055 547 c
1055 365 1010 224.33 920 125 c
830 25.67 722 -24 596 -24 c
470.67 -24 372.33 28.33 301 133 c
301 0 301 133 301 0 c
closepath 299 539 m
299 411.67 316.33 319.67 351 263 c
407.67 170.33 484.33 124 581 124 c
659.67 124 727.67 158.17 785 226.5 c
842.33 294.83 871 396.67 871 532 c
871 670.67 843.5 773 788.5 839 c
733.5 905 667 938 589 938 c
510.33 938 442.33 903.83 385 835.5 c
327.67 767.17 299 668.33 299 539 c
closepath } bind def
/s99 {
828 389 m
1005 366 828 389 1005 366 c
985.67 244 936.17 148.5 856.5 79.5 c
776.83 10.5 679 -24 563 -24 c
417.67 -24 300.83 23.5 212.5 118.5 c
124.17 213.5 80 349.67 80 527 c
80 641.67 99 742 137 828 c
175 914 232.83 978.5 310.5 1021.5 c
388.17 1064.5 472.67 1086 564 1086 c
679.33 1086 773.67 1056.83 847 998.5 c
920.33 940.17 967.33 857.33 988 750 c
813 723 988 750 813 723 c
796.33 794.33 766.83 848 724.5 884 c
682.17 920 631 938 571 938 c
480.33 938 406.67 905.5 350 840.5 c
293.33 775.5 265 672.67 265 532 c
265 389.33 292.33 285.67 347 221 c
401.67 156.33 473 124 561 124 c
631.67 124 690.67 145.67 738 189 c
785.33 232.33 815.33 299 828 389 c
closepath } bind def
/s100 {
824 0 m
824 134 824 0 824 134 c
756.67 28.67 657.67 -24 527 -24 c
442.33 -24 364.5 -0.67 293.5 46 c
222.5 92.67 167.5 157.83 128.5 241.5 c
89.5 325.17 70 421.33 70 530 c
70 636 87.67 732.17 123 818.5 c
158.33 904.83 211.33 971 282 1017 c
352.67 1063 431.67 1086 519 1086 c
583 1086 640 1072.5 690 1045.5 c
740 1018.5 780.67 983.33 812 940 c
812 1466 812 940 812 1466 c
991 1466 812 1466 991 1466 c
991 0 991 1466 991 0 c
824 0 991 0 824 0 c
closepath 255 530 m
255 394 283.67 292.33 341 225 c
398.33 157.67 466 124 544 124 c
622.67 124 689.5 156.17 744.5 220.5 c
799.5 284.83 827 383 827 515 c
827 660.33 799 767 743 835 c
687 903 618 937 536 937 c
456 937 389.17 904.33 335.5 839 c
281.83 773.67 255 670.67 255 530 c
closepath } bind def
/s101 {
862 342 m
1048 319 862 342 1048 319 c
1018.67 210.33 964.33 126 885 66 c
805.67 6 704.33 -24 581 -24 c
425.67 -24 302.5 23.83 211.5 119.5 c
120.5 215.17 75 349.33 75 522 c
75 700.67 121 839.33 213 938 c
305 1036.67 424.33 1086 571 1086 c
713 1086 829 1037.67 919 941 c
1009 844.33 1054 708.33 1054 533 c
1054 522.33 1053.67 506.33 1053 485 c
261 485 1053 485 261 485 c
267.67 368.33 300.67 279 360 217 c
419.33 155 493.33 124 582 124 c
648 124 704.33 141.33 751 176 c
797.67 210.67 834.67 266 862 342 c
closepath 271 633 m
864 633 271 633 864 633 c
856 722.33 833.33 789.33 796 834 c
738.67 903.33 664.33 938 573 938 c
490.33 938 420.83 910.33 364.5 855 c
308.17 799.67 277 725.67 271 633 c
closepath } bind def
/s102 {
178 0 m
178 922 178 0 178 922 c
19 922 178 922 19 922 c
19 1062 19 922 19 1062 c
178 1062 19 1062 178 1062 c
178 1175 178 1062 178 1175 c
178 1246.33 184.33 1299.33 197 1334 c
214.33 1380.67 244.83 1418.5 288.5 1447.5 c
332.17 1476.5 393.33 1491 472 1491 c
522.67 1491 578.67 1485 640 1473 c
613 1316 640 1473 613 1316 c
575.67 1322.67 540.33 1326 507 1326 c
452.33 1326 413.67 1314.33 391 1291 c
368.33 1267.67 357 1224 357 1160 c
357 1062 357 1160 357 1062 c
564 1062 357 1062 564 1062 c
564 922 564 1062 564 922 c
357 922 564 922 357 922 c
357 0 357 922 357 0 c
178 0 357 0 178 0 c
closepath } bind def
/s105 {
136 1259 m
136 1466 136 1259 136 1466 c
316 1466 136 1466 316 1466 c
316 1259 316 1466 316 1259 c
136 1259 316 1259 136 1259 c
closepath 136 0 m
136 1062 136 0 136 1062 c
316 1062 136 1062 316 1062 c
316 0 316 1062 316 0 c
136 0 316 0 136 0 c
closepath } bind def
/s108 {
131 0 m
131 1466 131 0 131 1466 c
311 1466 131 1466 311 1466 c
311 0 311 1466 311 0 c
131 0 311 0 131 0 c
closepath } bind def
/s109 {
135 0 m
135 1062 135 0 135 1062 c
296 1062 135 1062 296 1062 c
296 913 296 1062 296 913 c
329.33 965 373.67 1006.83 429 1038.5 c
484.33 1070.17 547.33 1086 618 1086 c
696.67 1086 761.17 1069.67 811.5 1037 c
861.83 1004.33 897.33 958.67 918 900 c
1002 1024 1111.33 1086 1246 1086 c
1351.33 1086 1432.33 1056.83 1489 998.5 c
1545.67 940.17 1574 850.33 1574 729 c
1574 0 1574 729 1574 0 c
1395 0 1574 0 1395 0 c
1395 669 1395 0 1395 669 c
1395 741 1389.17 792.83 1377.5 824.5 c
1365.83 856.17 1344.67 881.67 1314 901 c
1283.33 920.33 1247.33 930 1206 930 c
1131.33 930 1069.33 905.17 1020 855.5 c
970.67 805.83 946 726.33 946 617 c
946 0 946 617 946 0 c
766 0 946 0 766 0 c
766 690 766 0 766 690 c
766 770 751.33 830 722 870 c
692.67 910 644.67 930 578 930 c
527.33 930 480.5 916.67 437.5 890 c
394.5 863.33 363.33 824.33 344 773 c
324.67 721.67 315 647.67 315 551 c
315 0 315 551 315 0 c
135 0 315 0 135 0 c
closepath } bind def
/s110 {
135 0 m
135 1062 135 0 135 1062 c
297 1062 135 1062 297 1062 c
297 911 297 1062 297 911 c
375 1027.67 487.67 1086 635 1086 c
699 1086 757.83 1074.5 811.5 1051.5 c
865.17 1028.5 905.33 998.33 932 961 c
958.67 923.67 977.33 879.33 988 828 c
994.67 794.67 998 736.33 998 653 c
998 0 998 653 998 0 c
818 0 998 0 818 0 c
818 646 818 0 818 646 c
818 719.33 811 774.17 797 810.5 c
783 846.83 758.17 875.83 722.5 897.5 c
686.83 919.17 645 930 597 930 c
520.33 930 454.17 905.67 398.5 857 c
342.83 808.33 315 716 315 580 c
315 0 315 580 315 0 c
135 0 315 0 135 0 c
closepath } bind def
/s112 {
135 -407 m
135 1062 135 -407 135 1062 c
299 1062 135 1062 299 1062 c
299 924 299 1062 299 924 c
337.67 978 381.33 1018.5 430 1045.5 c
478.67 1072.5 537.67 1086 607 1086 c
697.67 1086 777.67 1062.67 847 1016 c
916.33 969.33 968.67 903.5 1004 818.5 c
1039.33 733.5 1057 640.33 1057 539 c
1057 430.33 1037.5 332.5 998.5 245.5 c
959.5 158.5 902.83 91.83 828.5 45.5 c
754.17 -0.83 676 -24 594 -24 c
534 -24 480.17 -11.33 432.5 14 c
384.83 39.33 345.67 71.33 315 110 c
315 -407 315 110 315 -407 c
135 -407 315 -407 135 -407 c
closepath 298 525 m
298 388.33 325.67 287.33 381 222 c
436.33 156.67 503.33 124 582 124 c
662 124 730.5 157.83 787.5 225.5 c
844.5 293.17 873 398 873 540 c
873 675.33 845.17 776.67 789.5 844 c
733.83 911.33 667.33 945 590 945 c
513.33 945 445.5 909.17 386.5 837.5 c
327.5 765.83 298 661.67 298 525 c
closepath } bind def
/s114 {
133 0 m
133 1062 133 0 133 1062 c
295 1062 133 1062 295 1062 c
295 901 295 1062 295 901 c
336.33 976.33 374.5 1026 409.5 1050 c
444.5 1074 483 1086 525 1086 c
585.67 1086 647.33 1066.67 710 1028 c
648 861 710 1028 648 861 c
604 887 560 900 516 900 c
476.67 900 441.33 888.17 410 864.5 c
378.67 840.83 356.33 808 343 766 c
323 702 313 632 313 556 c
313 0 313 556 313 0 c
133 0 313 0 133 0 c
closepath } bind def
/s115 {
63 317 m
241 345 63 317 241 345 c
251 273.67 278.83 219 324.5 181 c
370.17 143 434 124 516 124 c
598.67 124 660 140.83 700 174.5 c
740 208.17 760 247.67 760 293 c
760 333.67 742.33 365.67 707 389 c
682.33 405 621 425.33 523 450 c
391 483.33 299.5 512.17 248.5 536.5 c
197.5 560.83 158.83 594.5 132.5 637.5 c
106.17 680.5 93 728 93 780 c
93 827.33 103.83 871.17 125.5 911.5 c
147.17 951.83 176.67 985.33 214 1012 c
242 1032.67 280.17 1050.17 328.5 1064.5 c
376.83 1078.83 428.67 1086 484 1086 c
567.33 1086 640.5 1074 703.5 1050 c
766.5 1026 813 993.5 843 952.5 c
873 911.5 893.67 856.67 905 788 c
729 764 905 788 729 764 c
721 818.67 697.83 861.33 659.5 892 c
621.17 922.67 567 938 497 938 c
414.33 938 355.33 924.33 320 897 c
284.67 869.67 267 837.67 267 801 c
267 777.67 274.33 756.67 289 738 c
303.67 718.67 326.67 702.67 358 690 c
376 683.33 429 668 517 644 c
644.33 610 733.17 582.17 783.5 560.5 c
833.83 538.83 873.33 507.33 902 466 c
930.67 424.67 945 373.33 945 312 c
945 252 927.5 195.5 892.5 142.5 c
857.5 89.5 807 48.5 741 19.5 c
675 -9.5 600.33 -24 517 -24 c
379 -24 273.83 4.67 201.5 62 c
129.17 119.33 83 204.33 63 317 c
closepath } bind def
/s116 {
528 161 m
554 2 528 161 554 2 c
503.33 -8.67 458 -14 418 -14 c
352.67 -14 302 -3.67 266 17 c
230 37.67 204.67 64.83 190 98.5 c
175.33 132.17 168 203 168 311 c
168 922 168 311 168 922 c
36 922 168 922 36 922 c
36 1062 36 922 36 1062 c
168 1062 36 1062 168 1062 c
168 1325 168 1062 168 1325 c
347 1433 168 1325 347 1433 c
347 1062 347 1433 347 1062 c
528 1062 347 1062 528 1062 c
528 922 528 1062 528 922 c
347 922 528 922 347 922 c
347 301 347 922 347 301 c
347 249.67 350.17 216.67 356.5 202 c
362.83 187.33 373.17 175.67 387.5 167 c
401.83 158.33 422.33 154 449 154 c
469 154 495.33 156.33 528 161 c
closepath } bind def
/s117 {
831 0 m
831 156 831 0 831 156 c
748.33 36 636 -24 494 -24 c
431.33 -24 372.83 -12 318.5 12 c
264.17 36 223.83 66.17 197.5 102.5 c
171.17 138.83 152.67 183.33 142 236 c
134.67 271.33 131 327.33 131 404 c
131 1062 131 404 131 1062 c
311 1062 131 1062 311 1062 c
311 473 311 1062 311 473 c
311 379 314.67 315.67 322 283 c
333.33 235.67 357.33 198.5 394 171.5 c
430.67 144.5 476 131 530 131 c
584 131 634.67 144.83 682 172.5 c
729.33 200.17 762.83 237.83 782.5 285.5 c
802.17 333.17 812 402.33 812 493 c
812 1062 812 493 812 1062 c
992 1062 812 1062 992 1062 c
992 0 992 1062 992 0 c
831 0 992 0 831 0 c
closepath } bind def
/s121 {
127 -409 m
107 -240 127 -409 107 -240 c
146.33 -250.67 180.67 -256 210 -256 c
250 -256 282 -249.33 306 -236 c
330 -222.67 349.67 -204 365 -180 c
376.33 -162 394.67 -117.33 420 -46 c
423.33 -36 428.67 -21.33 436 -2 c
33 1062 436 -2 33 1062 c
227 1062 33 1062 227 1062 c
448 447 227 1062 448 447 c
476.67 369 502.33 287 525 201 c
545.67 283.67 570.33 364.33 599 443 c
826 1062 599 443 826 1062 c
1006 1062 826 1062 1006 1062 c
602 -18 1006 1062 602 -18 c
558.67 -134.67 525 -215 501 -259 c
469 -318.33 432.33 -361.83 391 -389.5 c
349.67 -417.17 300.33 -431 243 -431 c
208.33 -431 169.67 -423.67 127 -409 c
closepath } bind def
end
/BuildGlyph {
 exch dup /Metrics get 2 index get 0 setcharwidth
/CharProcs get exch 2 copy known not{pop/.notdef}if get exec fill}bind def
/BuildChar {
1 index /Encoding get exch get
1 index /BuildGlyph get exec
} bind def
currentdict end /MC2_Arial exch definefont pop
%%EndFont
%%BeginFont: /MC3_Symbol
12 dict begin
/FontInfo 8 dict dup begin
/ItalicAngle 0 def
/UnderlinePosition -223.00 def
/UnderlineThickness 100.00 def
/StrikeoutPosition 530.00 def
/StrikeoutThickness 102.00 def
/isFixedPitch false def
end readonly def
/FontName /MC3_Symbol def
/FontType 3 def
/FontMatrix [1 2048 div 0 0 1 2048 div 0 0] def
/FontBBox [-1 -450 2279 2059] def
/Encoding 256 array def 0 1 255{Encoding exch/.notdef put}for
Encoding 32/s32 put
Encoding 40/s40 put
Encoding 41/s41 put
/BoundingBoxes 5 dict def
BoundingBoxes begin
/s32 [0 -450 512 2059] def
/s40 [0 -450 682 2059] def
/s41 [0 -450 682 2059] def
/s61472 [0 -450 0 2059] def
end
/Metrics 5 dict def
 Metrics begin
/s32 512 def
/s40 682 def
/s41 682 def
/s61472 0 def
end
/CharProcs 5 dict def
CharProcs begin
/.notdef {} def
/s40 {
636 -399 m
636 -442 636 -399 636 -442 c
462 -355.33 326.5 -228.17 229.5 -60.5 c
132.5 107.17 84 290.67 84 490 c
84 697.33 135 886.17 237 1056.5 c
339 1226.83 472 1348.67 636 1422 c
636 1380 636 1422 636 1380 c
554 1334.67 486.67 1272.67 434 1194 c
381.33 1115.33 342 1015.5 316 894.5 c
290 773.5 277 647.33 277 516 c
277 367.33 289 233 313 113 c
337 -7 373.67 -106.5 423 -185.5 c
472.33 -264.5 543.33 -335.67 636 -399 c
closepath } bind def
/s41 {
45 1380 m
45 1422 45 1380 45 1422 c
219 1336 354.5 1209.17 451.5 1041.5 c
548.5 873.83 597 690.33 597 491 c
597 283.67 546 94.67 444 -76 c
342 -246.67 209 -368.67 45 -442 c
45 -399 45 -442 45 -399 c
127.67 -353.67 195.33 -291.67 248 -213 c
300.67 -134.33 339.83 -34.67 365.5 86 c
391.17 206.67 404 333 404 465 c
404 613 392.17 747.17 368.5 867.5 c
344.83 987.83 308.17 1087.5 258.5 1166.5 c
208.83 1245.5 137.67 1316.67 45 1380 c
closepath } bind def
end
/BuildGlyph {
 exch dup /Metrics get 2 index get 0 setcharwidth
/CharProcs get exch 2 copy known not{pop/.notdef}if get exec fill}bind def
/BuildChar {
1 index /Encoding get exch get
1 index /BuildGlyph get exec
} bind def
currentdict end /MC3_Symbol exch definefont pop
%%EndFont
%%BeginFont: /MC4_Symbol
12 dict begin
/FontInfo 8 dict dup begin
/ItalicAngle 0 def
/UnderlinePosition -223.00 def
/UnderlineThickness 100.00 def
/StrikeoutPosition 530.00 def
/StrikeoutThickness 102.00 def
/isFixedPitch false def
end readonly def
/FontName /MC4_Symbol def
/FontType 3 def
/FontMatrix [1 2048 div 0 0 1 2048 div 0 0] def
/FontBBox [-1 -450 2279 2059] def
/Encoding 256 array def 0 1 255{Encoding exch/.notdef put}for
Encoding 32/s32 put
/BoundingBoxes 6 dict def
BoundingBoxes begin
/s32 [0 -450 512 2059] def
/s61472 [0 -450 0 2059] def
/s61501 [0 -450 0 2059] def
/s61554 [0 -450 0 2059] def
/s61556 [0 -450 0 2059] def
end
/Metrics 6 dict def
 Metrics begin
/s32 512 def
/s61472 0 def
/s61501 0 def
/s61554 0 def
/s61556 0 def
end
/CharProcs 6 dict def
CharProcs begin
/.notdef {} def
/s61501 {
37 759 m
1087 759 37 759 1087 759 c
1087 662 1087 759 1087 662 c
37 662 1087 662 37 662 c
37 759 37 662 37 759 c
closepath 37 386 m
1087 386 37 386 1087 386 c
1087 287 1087 386 1087 287 c
37 287 1087 287 37 287 c
37 386 37 287 37 386 c
closepath } bind def
/s61554 {
307 55 m
307 -62 307 55 307 -62 c
307 -226.67 296.67 -353.33 276 -442 c
105 -442 276 -442 105 -442 c
119 -399.33 128 -364.67 132 -338 c
138.67 -292.67 142 -235.67 142 -167 c
142 474 142 -167 142 474 c
142 612 185.33 725 272 813 c
358.67 900.33 468 944 600 944 c
750.67 944 865.33 890 944 782 c
1004.67 698 1035 603 1035 497 c
1035 377.67 998 267.67 924 167 c
826 35 702 -31 552 -31 c
498 -31 449 -23 405 -7 c
375.67 4.33 343 25 307 55 c
closepath 307 357 m
307 265.67 315.17 202 331.5 166 c
347.83 130 377.67 99.5 421 74.5 c
464.33 49.5 513.67 37 569 37 c
652.33 37 723 69.67 781 135 c
839 200.33 868 289.33 868 402 c
868 486.67 850.17 565.17 814.5 637.5 c
778.83 709.83 733.33 763.33 678 798 c
622.67 832.67 564.33 850 503 850 c
426.33 850 371.33 820.33 338 761 c
317.33 725.67 307 647.33 307 526 c
307 357 307 526 307 357 c
closepath } bind def
/s61556 {
813 916 m
813 769 813 916 813 769 c
501 769 813 769 501 769 c
478.33 549.67 467 399.33 467 318 c
467 253.33 479.17 206.5 503.5 177.5 c
527.83 148.5 558.33 134 595 134 c
622.33 134 646 143.33 666 162 c
686 180.67 700.67 212.67 710 258 c
745 258 710 258 745 258 c
733.67 148.67 709.33 73.17 672 31.5 c
634.67 -10.17 591 -31 541 -31 c
488.33 -31 444.33 -7.17 409 40.5 c
373.67 88.17 356 173.33 356 296 c
356 392.67 368 550.33 392 769 c
298 769 392 769 298 769 c
244 769 201.67 759.17 171 739.5 c
140.33 719.83 110 682.67 80 628 c
43 628 80 628 43 628 c
91 756 134 836 172 868 c
210 900 264 916 334 916 c
813 916 334 916 813 916 c
closepath } bind def
end
/BuildGlyph {
 exch dup /Metrics get 2 index get 0 setcharwidth
/CharProcs get exch 2 copy known not{pop/.notdef}if get exec fill}bind def
/BuildChar {
1 index /Encoding get exch get
1 index /BuildGlyph get exec
} bind def
currentdict end /MC4_Symbol exch definefont pop
%%EndFont
/clipproc{clippath{[{/m cvx}{/l cvx}{/c cvx}{/cp cvx}pathforall}stopped
{cleartomark[pathbbox exch 3 i sub exch 2 i sub/rectpath cvx}if]np}bd
/iclmtx mtx cmtx def/iclpath clipproc xd/clinit{pathproc initclip np iclpath cl np exec}bd
/clmove{pathproc 3 1 roll clippath pathproc 2 i neg 2 i neg tr initclip np exec cl tr np exec}bd
/clrect[gs np iclpath{pathbbox}stopped{0 0 771.85 590.88 }if gr]def
/cloper{mtx cmtx iclmtx smtx exch exec smtx}bd
/cland{{exch cvx exec}cloper}bd
/clcopy{{exch clinit cvx exec}cloper}bd
/cldiff{{exch pathbbox 4 -1 roll clrect 0 get 2 copy gt{exch}if pop 4 1 roll
 3 -1 roll clrect 1 get 2 copy gt{exch}if pop 3 1 roll
 2 -1 roll clrect 2 get 2 copy lt{exch}if pop 2 1 roll
 1 -1 roll clrect 3 get 2 copy lt{exch}if pop 1 1 roll
 exch 3 i sub exch 2 i sub rectpath cvx exec}cloper}bd
/icl{{clinit}cloper}bd
0.851119 0.854583 sc

/initmtx mtx cmtx def
initmtx smtx
[1.0000 0.0000 0.0000 1.0000 0.0000 0.0000 ] concat
 [0.281988 -0 0 -0.28084 0 691.427] concat
gs
418 2166 m
3152 2166 l
7 sw
1 sj
1 scap
st
436 2166 m
436 2147 l
st
454 2166 m
454 2147 l
st
473 2166 m
473 2147 l
st
491 2166 m
491 2147 l
st
509 2166 m
509 2147 l
st
527 2166 m
527 2147 l
st
546 2166 m
546 2147 l
st
564 2166 m
564 2147 l
st
582 2166 m
582 2147 l
st
618 2166 m
618 2147 l
st
637 2166 m
637 2147 l
st
655 2166 m
655 2147 l
st
673 2166 m
673 2147 l
st
691 2166 m
691 2147 l
st
710 2166 m
710 2147 l
st
728 2166 m
728 2147 l
st
746 2166 m
746 2147 l
st
764 2166 m
764 2147 l
st
801 2166 m
801 2147 l
st
819 2166 m
819 2147 l
st
837 2166 m
837 2147 l
st
855 2166 m
855 2147 l
st
874 2166 m
874 2147 l
st
892 2166 m
892 2147 l
st
910 2166 m
910 2147 l
st
928 2166 m
928 2147 l
st
947 2166 m
947 2147 l
st
983 2166 m
983 2147 l
st
1001 2166 m
1001 2147 l
st
1019 2166 m
1019 2147 l
st
1038 2166 m
1038 2147 l
st
1056 2166 m
1056 2147 l
st
1074 2166 m
1074 2147 l
st
1092 2166 m
1092 2147 l
st
1111 2166 m
1111 2147 l
st
1129 2166 m
1129 2147 l
st
1165 2166 m
1165 2147 l
st
1184 2166 m
1184 2147 l
st
1202 2166 m
1202 2147 l
st
1220 2166 m
1220 2147 l
st
1238 2166 m
1238 2147 l
st
1256 2166 m
1256 2147 l
st
1275 2166 m
1275 2147 l
st
1293 2166 m
1293 2147 l
st
1311 2166 m
1311 2147 l
st
1348 2166 m
1348 2147 l
st
1366 2166 m
1366 2147 l
st
1384 2166 m
1384 2147 l
st
1402 2166 m
1402 2147 l
st
1420 2166 m
1420 2147 l
st
1439 2166 m
1439 2147 l
st
1457 2166 m
1457 2147 l
st
1475 2166 m
1475 2147 l
st
1493 2166 m
1493 2147 l
st
1530 2166 m
1530 2147 l
st
1548 2166 m
1548 2147 l
st
1566 2166 m
1566 2147 l
st
1585 2166 m
1585 2147 l
st
1603 2166 m
1603 2147 l
st
1621 2166 m
1621 2147 l
st
1639 2166 m
1639 2147 l
st
1657 2166 m
1657 2147 l
st
1676 2166 m
1676 2147 l
st
1712 2166 m
1712 2147 l
st
1730 2166 m
1730 2147 l
st
1749 2166 m
1749 2147 l
st
1767 2166 m
1767 2147 l
st
1785 2166 m
1785 2147 l
st
1803 2166 m
1803 2147 l
st
1821 2166 m
1821 2147 l
st
1840 2166 m
1840 2147 l
st
1858 2166 m
1858 2147 l
st
1894 2166 m
1894 2147 l
st
1913 2166 m
1913 2147 l
st
1931 2166 m
1931 2147 l
st
1949 2166 m
1949 2147 l
st
1967 2166 m
1967 2147 l
st
1985 2166 m
1985 2147 l
st
2004 2166 m
2004 2147 l
st
2022 2166 m
2022 2147 l
st
2040 2166 m
2040 2147 l
st
2077 2166 m
2077 2147 l
st
2095 2166 m
2095 2147 l
st
2113 2166 m
2113 2147 l
st
2131 2166 m
2131 2147 l
st
2150 2166 m
2150 2147 l
st
2168 2166 m
2168 2147 l
st
2186 2166 m
2186 2147 l
st
2204 2166 m
2204 2147 l
st
2222 2166 m
2222 2147 l
st
2259 2166 m
2259 2147 l
st
2277 2166 m
2277 2147 l
st
2295 2166 m
2295 2147 l
st
2314 2166 m
2314 2147 l
st
2332 2166 m
2332 2147 l
st
2350 2166 m
2350 2147 l
st
2368 2166 m
2368 2147 l
st
2386 2166 m
2386 2147 l
st
2405 2166 m
2405 2147 l
st
2441 2166 m
2441 2147 l
st
2459 2166 m
2459 2147 l
st
2478 2166 m
2478 2147 l
st
2496 2166 m
2496 2147 l
st
2514 2166 m
2514 2147 l
st
2532 2166 m
2532 2147 l
st
2551 2166 m
2551 2147 l
st
2569 2166 m
2569 2147 l
st
2587 2166 m
2587 2147 l
st
2623 2166 m
2623 2147 l
st
2642 2166 m
2642 2147 l
st
2660 2166 m
2660 2147 l
st
2678 2166 m
2678 2147 l
st
2696 2166 m
2696 2147 l
st
2715 2166 m
2715 2147 l
st
2733 2166 m
2733 2147 l
st
2751 2166 m
2751 2147 l
st
2769 2166 m
2769 2147 l
st
2806 2166 m
2806 2147 l
st
2824 2166 m
2824 2147 l
st
2842 2166 m
2842 2147 l
st
2860 2166 m
2860 2147 l
st
2879 2166 m
2879 2147 l
st
2897 2166 m
2897 2147 l
st
2915 2166 m
2915 2147 l
st
2933 2166 m
2933 2147 l
st
2952 2166 m
2952 2147 l
st
2988 2166 m
2988 2147 l
st
3006 2166 m
3006 2147 l
st
3024 2166 m
3024 2147 l
st
3043 2166 m
3043 2147 l
st
3061 2166 m
3061 2147 l
st
3079 2166 m
3079 2147 l
st
3097 2166 m
3097 2147 l
st
3116 2166 m
3116 2147 l
st
3134 2166 m
3134 2147 l
st
418 2166 m
418 2128 l
st
600 2166 m
600 2128 l
st
783 2166 m
783 2128 l
st
965 2166 m
965 2128 l
st
1147 2166 m
1147 2128 l
st
1329 2166 m
1329 2128 l
st
1512 2166 m
1512 2128 l
st
1694 2166 m
1694 2128 l
st
1876 2166 m
1876 2128 l
st
2058 2166 m
2058 2128 l
st
2241 2166 m
2241 2128 l
st
2423 2166 m
2423 2128 l
st
2605 2166 m
2605 2128 l
st
2787 2166 m
2787 2128 l
st
2970 2166 m
2970 2128 l
st
3152 2166 m
3152 2128 l
st
418 49 m
3152 49 l
st
436 49 m
436 68 l
st
454 49 m
454 68 l
st
473 49 m
473 68 l
st
491 49 m
491 68 l
st
509 49 m
509 68 l
st
527 49 m
527 68 l
st
546 49 m
546 68 l
st
564 49 m
564 68 l
st
582 49 m
582 68 l
st
618 49 m
618 68 l
st
637 49 m
637 68 l
st
655 49 m
655 68 l
st
673 49 m
673 68 l
st
691 49 m
691 68 l
st
710 49 m
710 68 l
st
728 49 m
728 68 l
st
746 49 m
746 68 l
st
764 49 m
764 68 l
st
801 49 m
801 68 l
st
819 49 m
819 68 l
st
837 49 m
837 68 l
st
855 49 m
855 68 l
st
874 49 m
874 68 l
st
892 49 m
892 68 l
st
910 49 m
910 68 l
st
928 49 m
928 68 l
st
947 49 m
947 68 l
st
983 49 m
983 68 l
st
1001 49 m
1001 68 l
st
1019 49 m
1019 68 l
st
1038 49 m
1038 68 l
st
1056 49 m
1056 68 l
st
1074 49 m
1074 68 l
st
1092 49 m
1092 68 l
st
1111 49 m
1111 68 l
st
1129 49 m
1129 68 l
st
1165 49 m
1165 68 l
st
1184 49 m
1184 68 l
st
1202 49 m
1202 68 l
st
1220 49 m
1220 68 l
st
1238 49 m
1238 68 l
st
1256 49 m
1256 68 l
st
1275 49 m
1275 68 l
st
1293 49 m
1293 68 l
st
1311 49 m
1311 68 l
st
1348 49 m
1348 68 l
st
1366 49 m
1366 68 l
st
1384 49 m
1384 68 l
st
1402 49 m
1402 68 l
st
1420 49 m
1420 68 l
st
1439 49 m
1439 68 l
st
1457 49 m
1457 68 l
st
1475 49 m
1475 68 l
st
1493 49 m
1493 68 l
st
1530 49 m
1530 68 l
st
1548 49 m
1548 68 l
st
1566 49 m
1566 68 l
st
1585 49 m
1585 68 l
st
1603 49 m
1603 68 l
st
1621 49 m
1621 68 l
st
1639 49 m
1639 68 l
st
1657 49 m
1657 68 l
st
1676 49 m
1676 68 l
st
1712 49 m
1712 68 l
st
1730 49 m
1730 68 l
st
1749 49 m
1749 68 l
st
1767 49 m
1767 68 l
st
1785 49 m
1785 68 l
st
1803 49 m
1803 68 l
st
1821 49 m
1821 68 l
st
1840 49 m
1840 68 l
st
1858 49 m
1858 68 l
st
1894 49 m
1894 68 l
st
1913 49 m
1913 68 l
st
1931 49 m
1931 68 l
st
1949 49 m
1949 68 l
st
1967 49 m
1967 68 l
st
1985 49 m
1985 68 l
st
2004 49 m
2004 68 l
st
2022 49 m
2022 68 l
st
2040 49 m
2040 68 l
st
2077 49 m
2077 68 l
st
2095 49 m
2095 68 l
st
2113 49 m
2113 68 l
st
2131 49 m
2131 68 l
st
2150 49 m
2150 68 l
st
2168 49 m
2168 68 l
st
2186 49 m
2186 68 l
st
2204 49 m
2204 68 l
st
2222 49 m
2222 68 l
st
2259 49 m
2259 68 l
st
2277 49 m
2277 68 l
st
2295 49 m
2295 68 l
st
2314 49 m
2314 68 l
st
2332 49 m
2332 68 l
st
2350 49 m
2350 68 l
st
2368 49 m
2368 68 l
st
2386 49 m
2386 68 l
st
2405 49 m
2405 68 l
st
2441 49 m
2441 68 l
st
2459 49 m
2459 68 l
st
2478 49 m
2478 68 l
st
2496 49 m
2496 68 l
st
2514 49 m
2514 68 l
st
2532 49 m
2532 68 l
st
2551 49 m
2551 68 l
st
2569 49 m
2569 68 l
st
2587 49 m
2587 68 l
st
2623 49 m
2623 68 l
st
2642 49 m
2642 68 l
st
2660 49 m
2660 68 l
st
2678 49 m
2678 68 l
st
2696 49 m
2696 68 l
st
2715 49 m
2715 68 l
st
2733 49 m
2733 68 l
st
2751 49 m
2751 68 l
st
2769 49 m
2769 68 l
st
2806 49 m
2806 68 l
st
2824 49 m
2824 68 l
st
2842 49 m
2842 68 l
st
2860 49 m
2860 68 l
st
2879 49 m
2879 68 l
st
2897 49 m
2897 68 l
st
2915 49 m
2915 68 l
st
2933 49 m
2933 68 l
st
2952 49 m
2952 68 l
st
2988 49 m
2988 68 l
st
3006 49 m
3006 68 l
st
3024 49 m
3024 68 l
st
3043 49 m
3043 68 l
st
3061 49 m
3061 68 l
st
3079 49 m
3079 68 l
st
3097 49 m
3097 68 l
st
3116 49 m
3116 68 l
st
3134 49 m
3134 68 l
st
418 49 m
418 87 l
st
600 49 m
600 87 l
st
783 49 m
783 87 l
st
965 49 m
965 87 l
st
1147 49 m
1147 87 l
st
1329 49 m
1329 87 l
st
1512 49 m
1512 87 l
st
1694 49 m
1694 87 l
st
1876 49 m
1876 87 l
st
2058 49 m
2058 87 l
st
2241 49 m
2241 87 l
st
2423 49 m
2423 87 l
st
2605 49 m
2605 87 l
st
2787 49 m
2787 87 l
st
2970 49 m
2970 87 l
st
3152 49 m
3152 87 l
st
418 2166 m
418 49 l
st
418 2145 m
437 2145 l
st
418 2124 m
437 2124 l
st
418 2102 m
437 2102 l
st
418 2081 m
437 2081 l
st
418 2060 m
437 2060 l
st
418 2039 m
437 2039 l
st
418 2018 m
437 2018 l
st
418 1997 m
437 1997 l
st
418 1975 m
437 1975 l
st
418 1933 m
437 1933 l
st
418 1912 m
437 1912 l
st
418 1891 m
437 1891 l
st
418 1870 m
437 1870 l
st
418 1848 m
437 1848 l
st
418 1827 m
437 1827 l
st
418 1806 m
437 1806 l
st
418 1785 m
437 1785 l
st
418 1764 m
437 1764 l
st
418 1721 m
437 1721 l
st
418 1700 m
437 1700 l
st
418 1679 m
437 1679 l
st
418 1658 m
437 1658 l
st
418 1637 m
437 1637 l
st
418 1616 m
437 1616 l
st
418 1594 m
437 1594 l
st
418 1573 m
437 1573 l
st
418 1552 m
437 1552 l
st
418 1510 m
437 1510 l
st
418 1489 m
437 1489 l
st
418 1467 m
437 1467 l
st
418 1446 m
437 1446 l
st
418 1425 m
437 1425 l
st
418 1404 m
437 1404 l
st
418 1383 m
437 1383 l
st
418 1362 m
437 1362 l
st
418 1340 m
437 1340 l
st
418 1298 m
437 1298 l
st
418 1277 m
437 1277 l
st
418 1256 m
437 1256 l
st
418 1235 m
437 1235 l
st
418 1213 m
437 1213 l
st
418 1192 m
437 1192 l
st
418 1171 m
437 1171 l
st
418 1150 m
437 1150 l
st
418 1129 m
437 1129 l
st
418 1086 m
437 1086 l
st
418 1065 m
437 1065 l
st
418 1044 m
437 1044 l
st
418 1023 m
437 1023 l
st
418 1002 m
437 1002 l
st
418 980 m
437 980 l
st
418 959 m
437 959 l
st
418 938 m
437 938 l
st
418 917 m
437 917 l
st
418 875 m
437 875 l
st
418 853 m
437 853 l
st
418 832 m
437 832 l
st
418 811 m
437 811 l
st
418 790 m
437 790 l
st
418 769 m
437 769 l
st
418 748 m
437 748 l
st
418 726 m
437 726 l
st
418 705 m
437 705 l
st
418 663 m
437 663 l
st
418 642 m
437 642 l
st
418 621 m
437 621 l
st
418 599 m
437 599 l
st
418 578 m
437 578 l
st
418 557 m
437 557 l
st
418 536 m
437 536 l
st
418 515 m
437 515 l
st
418 494 m
437 494 l
st
418 451 m
437 451 l
st
418 430 m
437 430 l
st
418 409 m
437 409 l
st
418 388 m
437 388 l
st
418 367 m
437 367 l
st
418 345 m
437 345 l
st
418 324 m
437 324 l
st
418 303 m
437 303 l
st
418 282 m
437 282 l
st
418 240 m
437 240 l
st
418 218 m
437 218 l
st
418 197 m
437 197 l
st
418 176 m
437 176 l
st
418 155 m
437 155 l
st
418 134 m
437 134 l
st
418 113 m
437 113 l
st
418 91 m
437 91 l
st
418 70 m
437 70 l
st
418 2166 m
456 2166 l
st
418 1954 m
456 1954 l
st
418 1743 m
456 1743 l
st
418 1531 m
456 1531 l
st
418 1319 m
456 1319 l
st
418 1108 m
456 1108 l
st
418 896 m
456 896 l
st
418 684 m
456 684 l
st
418 472 m
456 472 l
st
418 261 m
456 261 l
st
418 49 m
456 49 l
st
3152 2166 m
3152 49 l
st
3152 2145 m
3133 2145 l
st
3152 2124 m
3133 2124 l
st
3152 2102 m
3133 2102 l
st
3152 2081 m
3133 2081 l
st
3152 2060 m
3133 2060 l
st
3152 2039 m
3133 2039 l
st
3152 2018 m
3133 2018 l
st
3152 1997 m
3133 1997 l
st
3152 1975 m
3133 1975 l
st
3152 1933 m
3133 1933 l
st
3152 1912 m
3133 1912 l
st
3152 1891 m
3133 1891 l
st
3152 1870 m
3133 1870 l
st
3152 1848 m
3133 1848 l
st
3152 1827 m
3133 1827 l
st
3152 1806 m
3133 1806 l
st
3152 1785 m
3133 1785 l
st
3152 1764 m
3133 1764 l
st
3152 1721 m
3133 1721 l
st
3152 1700 m
3133 1700 l
st
3152 1679 m
3133 1679 l
st
3152 1658 m
3133 1658 l
st
3152 1637 m
3133 1637 l
st
3152 1616 m
3133 1616 l
st
3152 1594 m
3133 1594 l
st
3152 1573 m
3133 1573 l
st
3152 1552 m
3133 1552 l
st
3152 1510 m
3133 1510 l
st
3152 1489 m
3133 1489 l
st
3152 1467 m
3133 1467 l
st
3152 1446 m
3133 1446 l
st
3152 1425 m
3133 1425 l
st
3152 1404 m
3133 1404 l
st
3152 1383 m
3133 1383 l
st
3152 1362 m
3133 1362 l
st
3152 1340 m
3133 1340 l
st
3152 1298 m
3133 1298 l
st
3152 1277 m
3133 1277 l
st
3152 1256 m
3133 1256 l
st
3152 1235 m
3133 1235 l
st
3152 1213 m
3133 1213 l
st
3152 1192 m
3133 1192 l
st
3152 1171 m
3133 1171 l
st
3152 1150 m
3133 1150 l
st
3152 1129 m
3133 1129 l
st
3152 1086 m
3133 1086 l
st
3152 1065 m
3133 1065 l
st
3152 1044 m
3133 1044 l
st
3152 1023 m
3133 1023 l
st
3152 1002 m
3133 1002 l
st
3152 980 m
3133 980 l
st
3152 959 m
3133 959 l
st
3152 938 m
3133 938 l
st
3152 917 m
3133 917 l
st
3152 875 m
3133 875 l
st
3152 853 m
3133 853 l
st
3152 832 m
3133 832 l
st
3152 811 m
3133 811 l
st
3152 790 m
3133 790 l
st
3152 769 m
3133 769 l
st
3152 748 m
3133 748 l
st
3152 726 m
3133 726 l
st
3152 705 m
3133 705 l
st
3152 663 m
3133 663 l
st
3152 642 m
3133 642 l
st
3152 621 m
3133 621 l
st
3152 599 m
3133 599 l
st
3152 578 m
3133 578 l
st
3152 557 m
3133 557 l
st
3152 536 m
3133 536 l
st
3152 515 m
3133 515 l
st
3152 494 m
3133 494 l
st
3152 451 m
3133 451 l
st
3152 430 m
3133 430 l
st
3152 409 m
3133 409 l
st
3152 388 m
3133 388 l
st
3152 367 m
3133 367 l
st
3152 345 m
3133 345 l
st
3152 324 m
3133 324 l
st
3152 303 m
3133 303 l
st
3152 282 m
3133 282 l
st
3152 240 m
3133 240 l
st
3152 218 m
3133 218 l
st
3152 197 m
3133 197 l
st
3152 176 m
3133 176 l
st
3152 155 m
3133 155 l
st
3152 134 m
3133 134 l
st
3152 113 m
3133 113 l
st
3152 91 m
3133 91 l
st
3152 70 m
3133 70 l
st
3152 2166 m
3114 2166 l
st
3152 1954 m
3114 1954 l
st
3152 1743 m
3114 1743 l
st
3152 1531 m
3114 1531 l
st
3152 1319 m
3114 1319 l
st
3152 1108 m
3114 1108 l
st
3152 896 m
3114 896 l
st
3152 684 m
3114 684 l
st
3152 472 m
3114 472 l
st
3152 261 m
3114 261 l
st
3152 49 m
3114 49 l
st
gs
gr
gs
gr
gs
1 -1 sc
/MC1_Arial 91 self 355 -2278 m
(0.0)[51 25 51 ] xs
1 -1 sc
gr
gs
gr
gs
gr
gs
1 -1 sc
/MC1_Arial 91 self 537 -2278 m
(0.2)[51 25 51 ] xs
1 -1 sc
gr
gs
gr
gs
gr
gs
1 -1 sc
/MC1_Arial 91 self 720 -2278 m
(0.4)[51 25 51 ] xs
1 -1 sc
gr
gs
gr
gs
gr
gs
1 -1 sc
/MC1_Arial 91 self 902 -2278 m
(0.6)[51 25 51 ] xs
1 -1 sc
gr
gs
gr
gs
gr
gs
1 -1 sc
/MC1_Arial 91 self 1084 -2278 m
(0.8)[51 25 51 ] xs
1 -1 sc
gr
gs
gr
gs
gr
gs
1 -1 sc
/MC1_Arial 91 self 1266 -2278 m
(1.0)[51 25 51 ] xs
1 -1 sc
gr
gs
gr
gs
gr
gs
1 -1 sc
/MC1_Arial 91 self 1449 -2278 m
(1.2)[51 25 51 ] xs
1 -1 sc
gr
gs
gr
gs
gr
gs
1 -1 sc
/MC1_Arial 91 self 1631 -2278 m
(1.4)[51 25 51 ] xs
1 -1 sc
gr
gs
gr
gs
gr
gs
1 -1 sc
/MC1_Arial 91 self 1813 -2278 m
(1.6)[51 25 51 ] xs
1 -1 sc
gr
gs
gr
gs
gr
gs
1 -1 sc
/MC1_Arial 91 self 1995 -2278 m
(1.8)[51 25 51 ] xs
1 -1 sc
gr
gs
gr
gs
gr
gs
1 -1 sc
/MC1_Arial 91 self 2178 -2278 m
(2.0)[51 25 51 ] xs
1 -1 sc
gr
gs
gr
gs
gr
gs
1 -1 sc
/MC1_Arial 91 self 2360 -2278 m
(2.2)[51 25 51 ] xs
1 -1 sc
gr
gs
gr
gs
gr
gs
1 -1 sc
/MC1_Arial 91 self 2542 -2278 m
(2.4)[51 25 51 ] xs
1 -1 sc
gr
gs
gr
gs
gr
gs
1 -1 sc
/MC1_Arial 91 self 2724 -2278 m
(2.6)[51 25 51 ] xs
1 -1 sc
gr
gs
gr
gs
gr
gs
1 -1 sc
/MC1_Arial 91 self 2907 -2278 m
(2.8)[51 25 51 ] xs
1 -1 sc
gr
gs
gr
gs
gr
gs
1 -1 sc
/MC1_Arial 91 self 3089 -2278 m
(3.0)[51 25 51 ] xs
1 -1 sc
gr
gs
gr
gs
gr
gs
1 -1 sc
/MC1_Arial 91 self 199 -2193 m
(0.00)[51 25 51 51 ] xs
1 -1 sc
gr
gs
gr
gs
gr
gs
1 -1 sc
/MC1_Arial 91 self 199 -1981 m
(0.01)[51 25 51 51 ] xs
1 -1 sc
gr
gs
gr
gs
gr
gs
1 -1 sc
/MC1_Arial 91 self 199 -1770 m
(0.02)[51 25 51 51 ] xs
1 -1 sc
gr
gs
gr
gs
gr
gs
1 -1 sc
/MC1_Arial 91 self 199 -1558 m
(0.03)[51 25 51 51 ] xs
1 -1 sc
gr
gs
gr
gs
gr
gs
1 -1 sc
/MC1_Arial 91 self 199 -1346 m
(0.04)[51 25 51 51 ] xs
1 -1 sc
gr
gs
gr
gs
gr
gs
1 -1 sc
/MC1_Arial 91 self 199 -1135 m
(0.05)[51 25 51 51 ] xs
1 -1 sc
gr
gs
gr
gs
gr
gs
1 -1 sc
/MC1_Arial 91 self 199 -923 m
(0.06)[51 25 51 51 ] xs
1 -1 sc
gr
gs
gr
gs
gr
gs
1 -1 sc
/MC1_Arial 91 self 199 -711 m
(0.07)[51 25 51 51 ] xs
1 -1 sc
gr
gs
gr
gs
gr
gs
1 -1 sc
/MC1_Arial 91 self 199 -499 m
(0.08)[51 25 51 51 ] xs
1 -1 sc
gr
gs
gr
gs
gr
gs
1 -1 sc
/MC1_Arial 91 self 199 -288 m
(0.09)[51 25 51 51 ] xs
1 -1 sc
gr
gs
gr
gs
gr
gs
1 -1 sc
/MC1_Arial 91 self 199 -76 m
(0.10)[51 25 51 51 ] xs
1 -1 sc
gr
gs
gr
gs
gr
gs
gr
gs
gr
gs
gr
gs
gr
gs
gr
gs
gr
gs
gr
gs
gr
gs
gr
gs
gr
gs
gr
gs
gr
gs
gr
gs
gr
gs
gr
gs
gr
gs
gr
gs
gr
gs
gr
gs
gr
gs
gr
gs
gr
gs
gr
gs
gr
gs
gr
gs
gr
gs
gr
gs
gr
gs
gr
gs
pathproc 418 49 2735 2118 np rectpath
/eocl cland
np exec
gr
gs
pathproc 418 49 2735 2118 np rectpath
/eocl cland
np exec
gr
gs
pathproc 418 49 2735 2118 np rectpath
/eocl cland
np exec
464 372 m
503 361 m
516 357 l
3 sw
0 0 1 rgb
st
594 335 m
607 332 l
st
685 310 m
698 307 l
st
776 293 m
789 292 l
st
867 298 m
880 301 l
st
958 339 m
971 349 l
984 360 l
st
1036 412 m
1049 427 l
1062 442 l
1075 459 l
st
1128 537 m
1141 558 l
1154 581 l
1167 604 l
st
1219 701 m
1232 727 l
1245 753 l
1258 779 l
st
1310 887 m
1323 914 l
1336 942 l
1349 970 l
st
1401 1080 m
1414 1107 l
1427 1135 l
1440 1162 l
st
1492 1268 m
1505 1293 l
1518 1319 l
1531 1344 l
st
1583 1440 m
1596 1462 l
1609 1484 l
1622 1506 l
st
1674 1588 m
1687 1607 l
1700 1626 l
1713 1645 l
st
1765 1713 m
1778 1729 l
1791 1744 l
1804 1759 l
st
1857 1815 m
1870 1828 l
1883 1840 l
1896 1852 l
st
1948 1897 m
1961 1907 l
1974 1917 l
st
2052 1969 m
2065 1977 l
st
2143 2017 m
2156 2023 l
st
2234 2053 m
2247 2058 l
st
2325 2081 m
2338 2085 l
st
2416 2102 m
2429 2105 l
st
2508 2118 m
2521 2120 l
st
2599 2130 m
2612 2132 l
st
2690 2139 m
2703 2140 l
st
2781 2146 m
2794 2147 l
st
2872 2151 m
2885 2151 l
st
2963 2154 m
2976 2155 l
st
3054 2157 m
3067 2158 l
st
3145 2159 m
3158 2160 l
st
np
464 372 23 0 360  a
cp
gs
eofi
gr
st
np
555 346 23 0 360  a
cp
gs
eofi
gr
st
np
646 321 23 0 360  a
cp
gs
eofi
gr
st
np
737 298 23 0 360  a
cp
gs
eofi
gr
st
np
828 293 23 0 360  a
cp
gs
eofi
gr
st
np
919 315 23 0 360  a
cp
gs
eofi
gr
st
np
1010 385 23 0 360  a
cp
gs
eofi
gr
st
np
1102 496 23 0 360  a
cp
gs
eofi
gr
st
np
1193 652 23 0 360  a
cp
gs
eofi
gr
st
np
1284 832 23 0 360  a
cp
gs
eofi
gr
st
np
1375 1025 23 0 360  a
cp
gs
eofi
gr
st
np
1466 1215 23 0 360  a
cp
gs
eofi
gr
st
np
1557 1393 23 0 360  a
cp
gs
eofi
gr
st
np
1648 1548 23 0 360  a
cp
gs
eofi
gr
st
np
1739 1680 23 0 360  a
cp
gs
eofi
gr
st
np
1831 1788 23 0 360  a
cp
gs
eofi
gr
st
np
1922 1875 23 0 360  a
cp
gs
eofi
gr
st
np
2013 1944 23 0 360  a
cp
gs
eofi
gr
st
np
2104 1998 23 0 360  a
cp
gs
eofi
gr
st
np
2195 2039 23 0 360  a
cp
gs
eofi
gr
st
np
2286 2070 23 0 360  a
cp
gs
eofi
gr
st
np
2377 2094 23 0 360  a
cp
gs
eofi
gr
st
np
2469 2112 23 0 360  a
cp
gs
eofi
gr
st
np
2560 2125 23 0 360  a
cp
gs
eofi
gr
st
np
2651 2136 23 0 360  a
cp
gs
eofi
gr
st
np
2742 2143 23 0 360  a
cp
gs
eofi
gr
st
np
2833 2149 23 0 360  a
cp
gs
eofi
gr
st
np
2924 2153 23 0 360  a
cp
gs
eofi
gr
st
np
3015 2156 23 0 360  a
cp
gs
eofi
gr
st
np
3106 2159 23 0 360  a
cp
gs
eofi
gr
st
np
3198 2160 23 0 360  a
cp
gs
eofi
gr
st
gr
gs
pathproc 418 49 2735 2118 np rectpath
/eocl cland
np exec
464 360 m
464 350 l
3 sw
0 0 1 rgb
st
450 360 m
478 360 l
st
464 384 m
464 394 l
st
450 384 m
478 384 l
st
555 342 m
555 324 l
st
541 342 m
569 342 l
st
555 351 m
555 368 l
st
541 351 m
569 351 l
st
646 318 m
646 299 l
st
632 318 m
660 318 l
st
646 324 m
646 343 l
st
632 324 m
660 324 l
st
737 296 m
737 276 l
st
723 296 m
751 296 l
st
737 300 m
737 320 l
st
723 300 m
751 300 l
st
828 291 m
828 271 l
st
814 291 m
842 291 l
st
828 295 m
828 315 l
st
814 295 m
842 295 l
st
919 314 m
919 293 l
st
905 314 m
933 314 l
st
919 317 m
919 337 l
st
905 317 m
933 317 l
st
1010 383 m
1010 363 l
st
996 383 m
1024 383 l
st
1010 386 m
1010 407 l
st
996 386 m
1024 386 l
st
1102 495 m
1102 474 l
st
1088 495 m
1116 495 l
st
1102 497 m
1102 518 l
st
1088 497 m
1116 497 l
st
1193 651 m
1193 630 l
st
1179 651 m
1207 651 l
st
1193 653 m
1193 674 l
st
1179 653 m
1207 653 l
st
1284 832 m
1284 854 l
st
1270 832 m
1298 832 l
st
1284 833 m
1284 854 l
st
1270 833 m
1298 833 l
st
1375 1025 m
1375 1047 l
st
1361 1025 m
1389 1025 l
st
1375 1026 m
1375 1047 l
st
1361 1026 m
1389 1026 l
st
1466 1215 m
1466 1237 l
st
1452 1215 m
1480 1215 l
st
1466 1216 m
1466 1237 l
st
1452 1216 m
1480 1216 l
st
1557 1392 m
1557 1371 l
st
1543 1392 m
1571 1392 l
st
1557 1393 m
1557 1415 l
st
1543 1393 m
1571 1393 l
st
1648 1547 m
1648 1526 l
st
1634 1547 m
1662 1547 l
st
1648 1548 m
1648 1570 l
st
1634 1548 m
1662 1548 l
st
1739 1680 m
1739 1702 l
st
1725 1680 m
1753 1680 l
st
1739 1680 m
1739 1702 l
st
1725 1680 m
1753 1680 l
st
1831 1788 m
1831 1810 l
st
1817 1788 m
1845 1788 l
st
1831 1788 m
1831 1810 l
st
1817 1788 m
1845 1788 l
st
1922 1875 m
1922 1897 l
st
1908 1875 m
1936 1875 l
st
1922 1876 m
1922 1897 l
st
1908 1876 m
1936 1876 l
st
2013 1944 m
2013 1966 l
st
1999 1944 m
2027 1944 l
st
2013 1945 m
2013 1966 l
st
1999 1945 m
2027 1945 l
st
2104 1997 m
2104 1976 l
st
2090 1997 m
2118 1997 l
st
2104 1998 m
2104 2020 l
st
2090 1998 m
2118 1998 l
st
gr
gs
pathproc 418 49 2735 2118 np rectpath
/eocl cland
np exec
464 375 m
503 363 m
516 359 l
3 sw
1 0 0 rgb
st
594 337 m
607 334 l
st
685 312 m
698 308 l
st
776 293 m
789 292 l
st
867 295 m
880 298 l
st
958 335 m
971 344 l
984 355 l
st
1036 409 m
1049 425 l
1062 441 l
1075 459 l
st
1128 538 m
1141 560 l
1154 581 l
1167 604 l
st
1219 701 m
1232 726 l
1245 752 l
1258 779 l
st
1310 888 m
1323 915 l
1336 943 l
1349 971 l
st
1401 1082 m
1414 1109 l
1427 1137 l
1440 1164 l
st
1492 1270 m
1505 1296 l
1518 1321 l
1531 1346 l
st
1583 1442 m
1596 1464 l
1609 1486 l
1622 1508 l
st
1674 1590 m
1687 1609 l
1700 1628 l
1713 1646 l
st
1765 1714 m
1778 1730 l
1791 1745 l
1804 1760 l
st
1857 1816 m
1870 1829 l
1883 1841 l
1896 1853 l
st
1948 1898 m
1961 1908 l
1974 1918 l
st
2052 1969 m
2065 1977 l
st
2143 2017 m
2156 2023 l
st
2234 2053 m
2247 2058 l
st
2325 2081 m
2338 2085 l
st
2416 2102 m
2429 2105 l
st
2508 2118 m
2521 2120 l
st
2599 2130 m
2612 2131 l
st
2690 2139 m
2703 2140 l
st
2781 2146 m
2794 2147 l
st
2872 2151 m
2885 2152 l
st
2963 2154 m
2976 2155 l
st
3054 2157 m
3067 2157 l
st
3145 2159 m
3158 2159 l
st
444 355 40 40 rectfill
3158 2159 m
444 355 40 40 rectstroke
535 328 40 40 rectfill
535 328 40 40 rectstroke
626 303 40 40 rectfill
626 303 40 40 rectstroke
717 279 40 40 rectfill
717 279 40 40 rectstroke
808 271 40 40 rectfill
808 271 40 40 rectstroke
899 292 40 40 rectfill
899 292 40 40 rectstroke
990 360 40 40 rectfill
990 360 40 40 rectstroke
1082 478 40 40 rectfill
1082 478 40 40 rectstroke
1173 631 40 40 rectfill
1173 631 40 40 rectstroke
1264 813 40 40 rectfill
1264 813 40 40 rectstroke
1355 1006 40 40 rectfill
1355 1006 40 40 rectstroke
1446 1198 40 40 rectfill
1446 1198 40 40 rectstroke
1537 1375 40 40 rectfill
1537 1375 40 40 rectstroke
1628 1530 40 40 rectfill
1628 1530 40 40 rectstroke
1719 1661 40 40 rectfill
1719 1661 40 40 rectstroke
1811 1769 40 40 rectfill
1811 1769 40 40 rectstroke
1902 1856 40 40 rectfill
1902 1856 40 40 rectstroke
1993 1925 40 40 rectfill
1993 1925 40 40 rectstroke
2084 1978 40 40 rectfill
2084 1978 40 40 rectstroke
2175 2019 40 40 rectfill
2175 2019 40 40 rectstroke
2266 2050 40 40 rectfill
2266 2050 40 40 rectstroke
2357 2074 40 40 rectfill
2357 2074 40 40 rectstroke
2449 2092 40 40 rectfill
2449 2092 40 40 rectstroke
2540 2105 40 40 rectfill
2540 2105 40 40 rectstroke
2631 2115 40 40 rectfill
2631 2115 40 40 rectstroke
2722 2123 40 40 rectfill
2722 2123 40 40 rectstroke
2813 2129 40 40 rectfill
2813 2129 40 40 rectstroke
2904 2133 40 40 rectfill
2904 2133 40 40 rectstroke
2995 2136 40 40 rectfill
2995 2136 40 40 rectstroke
3086 2138 40 40 rectfill
3086 2138 40 40 rectstroke
3178 2140 40 40 rectfill
3178 2140 40 40 rectstroke
gr
gs
pathproc 418 49 2735 2118 np rectpath
/eocl cland
np exec
464 356 m
464 355 l
3 sw
1 0 0 rgb
st
450 356 m
478 356 l
st
464 393 m
464 395 l
st
450 393 m
478 393 l
st
555 341 m
555 328 l
st
541 341 m
569 341 l
st
555 355 m
555 368 l
st
541 355 m
569 355 l
st
646 318 m
646 303 l
st
632 318 m
660 318 l
st
646 327 m
646 343 l
st
632 327 m
660 327 l
st
737 296 m
737 279 l
st
723 296 m
751 296 l
st
737 302 m
737 319 l
st
723 302 m
751 302 l
st
828 289 m
828 271 l
st
814 289 m
842 289 l
st
828 294 m
828 311 l
st
814 294 m
842 294 l
st
919 310 m
919 292 l
st
905 310 m
933 310 l
st
919 314 m
919 332 l
st
905 314 m
933 314 l
st
1010 379 m
1010 360 l
st
996 379 m
1024 379 l
st
1010 382 m
1010 400 l
st
996 382 m
1024 382 l
st
1102 497 m
1102 478 l
st
1088 497 m
1116 497 l
st
1102 499 m
1102 518 l
st
1088 499 m
1116 499 l
st
1193 650 m
1193 631 l
st
1179 650 m
1207 650 l
st
1193 652 m
1193 671 l
st
1179 652 m
1207 652 l
st
1284 832 m
1284 813 l
st
1270 832 m
1298 832 l
st
1284 834 m
1284 853 l
st
1270 834 m
1298 834 l
st
1375 1026 m
1375 1046 l
st
1361 1026 m
1389 1026 l
st
1375 1027 m
1375 1046 l
st
1361 1027 m
1389 1027 l
st
1466 1217 m
1466 1198 l
st
1452 1217 m
1480 1217 l
st
1466 1219 m
1466 1238 l
st
1452 1219 m
1480 1219 l
st
1557 1394 m
1557 1375 l
st
1543 1394 m
1571 1394 l
st
1557 1395 m
1557 1415 l
st
1543 1395 m
1571 1395 l
st
1648 1550 m
1648 1570 l
st
1634 1550 m
1662 1550 l
st
1648 1550 m
1648 1570 l
st
1634 1550 m
1662 1550 l
st
1739 1681 m
1739 1701 l
st
1725 1681 m
1753 1681 l
st
1739 1682 m
1739 1701 l
st
1725 1682 m
1753 1682 l
st
1831 1788 m
1831 1769 l
st
1817 1788 m
1845 1788 l
st
1831 1789 m
1831 1809 l
st
1817 1789 m
1845 1789 l
st
1922 1876 m
1922 1896 l
st
1908 1876 m
1936 1876 l
st
1922 1876 m
1922 1896 l
st
1908 1876 m
1936 1876 l
st
2013 1944 m
2013 1925 l
st
1999 1944 m
2027 1944 l
st
2013 1945 m
2013 1965 l
st
1999 1945 m
2027 1945 l
st
2104 1998 m
2104 2018 l
st
2090 1998 m
2118 1998 l
st
2104 1998 m
2104 2018 l
st
2090 1998 m
2118 1998 l
st
2195 2039 m
2195 2059 l
st
2181 2039 m
2209 2039 l
st
2195 2039 m
2195 2059 l
st
2181 2039 m
2209 2039 l
st
2286 2070 m
2286 2090 l
st
2272 2070 m
2300 2070 l
st
2286 2071 m
2286 2090 l
st
2272 2071 m
2300 2071 l
st
gr
gs
pathproc 418 49 2735 2118 np rectpath
/eocl cland
np exec
464 380 m
490 369 m
503 363 l
516 358 l
529 353 l
3 sw
0 1 1 rgb
st
581 334 m
594 330 l
607 327 l
620 323 l
st
672 307 m
685 303 l
698 299 l
711 295 l
st
763 283 m
776 282 l
789 280 l
802 280 l
st
854 282 m
867 284 l
880 287 l
893 291 l
st
945 317 m
958 326 l
971 336 l
984 347 l
st
1036 400 m
1049 415 l
1062 431 l
1075 448 l
st
1128 527 m
1141 548 l
1154 571 l
1167 594 l
1180 618 l
1193 642 l
st
1206 667 m
1219 692 l
1232 718 l
1245 744 l
1258 771 l
1271 798 l
1284 825 l
st
1297 853 m
1310 881 l
1323 909 l
1336 937 l
1349 965 l
1362 993 l
1375 1021 l
st
1388 1049 m
1401 1077 l
1414 1104 l
1427 1131 l
1440 1158 l
1453 1185 l
1466 1212 l
st
1479 1238 m
1492 1265 l
1505 1291 l
1518 1316 l
1531 1342 l
1544 1367 l
1557 1391 l
st
1570 1415 m
1583 1438 l
1596 1461 l
1609 1483 l
1622 1505 l
st
1674 1587 m
1687 1607 l
1700 1625 l
1713 1644 l
st
1765 1712 m
1778 1728 l
1791 1744 l
1804 1759 l
st
1857 1816 m
1870 1829 l
1883 1841 l
1896 1853 l
st
1948 1897 m
1961 1908 l
1974 1917 l
1987 1927 l
st
2039 1962 m
2052 1969 l
2065 1977 l
2078 1984 l
st
2130 2011 m
2143 2017 l
2156 2023 l
2169 2029 l
st
2221 2050 m
2234 2054 l
2247 2059 l
2260 2063 l
st
2312 2079 m
2325 2082 l
2338 2086 l
2351 2089 l
st
2403 2100 m
2416 2103 l
2429 2105 l
2442 2108 l
st
2495 2116 m
2508 2119 l
2521 2121 l
2534 2122 l
st
2586 2129 m
2599 2131 l
2612 2132 l
2625 2133 l
st
2677 2139 m
2690 2140 l
2703 2141 l
2716 2142 l
st
2768 2146 m
2781 2146 l
2794 2147 l
2807 2148 l
st
2859 2150 m
2872 2151 l
2885 2151 l
2898 2152 l
st
2950 2154 m
2963 2154 l
2976 2155 l
2989 2155 l
st
3041 2157 m
3054 2157 l
3067 2158 l
3080 2158 l
st
3132 2159 m
3145 2160 l
3158 2160 l
3171 2160 l
st
442 380 m
464 358 l
486 380 l
464 402 l
cp
gs
eofi
gr
2 sw
st
533 343 m
555 321 l
577 343 l
555 365 l
cp
gs
eofi
gr
st
624 315 m
646 293 l
668 315 l
646 337 l
cp
gs
eofi
gr
st
715 288 m
737 266 l
759 288 l
737 310 l
cp
gs
eofi
gr
st
806 280 m
828 258 l
850 280 l
828 302 l
cp
gs
eofi
gr
st
897 302 m
919 280 l
941 302 l
919 324 l
cp
gs
eofi
gr
st
988 372 m
1010 350 l
1032 372 l
1010 394 l
cp
gs
eofi
gr
st
1080 486 m
1102 464 l
1124 486 l
1102 508 l
cp
gs
eofi
gr
st
1171 642 m
1193 620 l
1215 642 l
1193 664 l
cp
gs
eofi
gr
st
1262 825 m
1284 803 l
1306 825 l
1284 847 l
cp
gs
eofi
gr
st
1353 1021 m
1375 999 l
1397 1021 l
1375 1043 l
cp
gs
eofi
gr
st
1444 1212 m
1466 1190 l
1488 1212 l
1466 1234 l
cp
gs
eofi
gr
st
1535 1391 m
1557 1369 l
1579 1391 l
1557 1413 l
cp
gs
eofi
gr
st
1626 1547 m
1648 1525 l
1670 1547 l
1648 1569 l
cp
gs
eofi
gr
st
1717 1679 m
1739 1657 l
1761 1679 l
1739 1701 l
cp
gs
eofi
gr
st
1809 1789 m
1831 1767 l
1853 1789 l
1831 1811 l
cp
gs
eofi
gr
st
1900 1876 m
1922 1854 l
1944 1876 l
1922 1898 l
cp
gs
eofi
gr
st
1991 1945 m
2013 1923 l
2035 1945 l
2013 1967 l
cp
gs
eofi
gr
st
2082 1998 m
2104 1976 l
2126 1998 l
2104 2020 l
cp
gs
eofi
gr
st
2173 2040 m
2195 2018 l
2217 2040 l
2195 2062 l
cp
gs
eofi
gr
st
2264 2071 m
2286 2049 l
2308 2071 l
2286 2093 l
cp
gs
eofi
gr
st
2355 2095 m
2377 2073 l
2399 2095 l
2377 2117 l
cp
gs
eofi
gr
st
2447 2112 m
2469 2090 l
2491 2112 l
2469 2134 l
cp
gs
eofi
gr
st
2538 2126 m
2560 2104 l
2582 2126 l
2560 2148 l
cp
gs
eofi
gr
st
2629 2136 m
2651 2114 l
2673 2136 l
2651 2158 l
cp
gs
eofi
gr
st
2720 2144 m
2742 2122 l
2764 2144 l
2742 2166 l
cp
gs
eofi
gr
st
2811 2149 m
2833 2127 l
2855 2149 l
2833 2171 l
cp
gs
eofi
gr
st
2902 2153 m
2924 2131 l
2946 2153 l
2924 2175 l
cp
gs
eofi
gr
st
2993 2156 m
3015 2134 l
3037 2156 l
3015 2178 l
cp
gs
eofi
gr
st
3084 2159 m
3106 2137 l
3128 2159 l
3106 2181 l
cp
gs
eofi
gr
st
3176 2160 m
3198 2138 l
3220 2160 l
3198 2182 l
cp
gs
eofi
gr
st
gr
gs
pathproc 418 49 2735 2118 np rectpath
/eocl cland
np exec
464 367 m
464 358 l
3 sw
0 1 1 rgb
st
445 367 m
483 367 l
st
464 392 m
464 402 l
st
445 392 m
483 392 l
st
555 339 m
555 321 l
st
536 339 m
574 339 l
st
555 348 m
555 365 l
st
536 348 m
574 348 l
st
646 312 m
646 293 l
st
627 312 m
665 312 l
st
646 318 m
646 337 l
st
627 318 m
665 318 l
st
737 286 m
737 266 l
st
718 286 m
756 286 l
st
737 291 m
737 310 l
st
718 291 m
756 291 l
st
828 278 m
828 258 l
st
809 278 m
847 278 l
st
828 281 m
828 302 l
st
809 281 m
847 281 l
st
919 301 m
919 280 l
st
900 301 m
938 301 l
st
919 303 m
919 324 l
st
900 303 m
938 303 l
st
1010 371 m
1010 350 l
st
991 371 m
1029 371 l
st
1010 374 m
1010 394 l
st
991 374 m
1029 374 l
st
1102 485 m
1102 464 l
st
1083 485 m
1121 485 l
st
1102 487 m
1102 508 l
st
1083 487 m
1121 487 l
st
1193 641 m
1193 620 l
st
1174 641 m
1212 641 l
st
1193 643 m
1193 664 l
st
1174 643 m
1212 643 l
st
1284 824 m
1284 803 l
st
1265 824 m
1303 824 l
st
1284 826 m
1284 847 l
st
1265 826 m
1303 826 l
st
1375 1021 m
1375 1043 l
st
1356 1021 m
1394 1021 l
st
1375 1022 m
1375 1043 l
st
1356 1022 m
1394 1022 l
st
1466 1212 m
1466 1234 l
st
1447 1212 m
1485 1212 l
st
1466 1213 m
1466 1234 l
st
1447 1213 m
1485 1213 l
st
1557 1390 m
1557 1369 l
st
1538 1390 m
1576 1390 l
st
1557 1391 m
1557 1413 l
st
1538 1391 m
1576 1391 l
st
1648 1546 m
1648 1525 l
st
1629 1546 m
1667 1546 l
st
1648 1547 m
1648 1569 l
st
1629 1547 m
1667 1547 l
st
1739 1679 m
1739 1701 l
st
1720 1679 m
1758 1679 l
st
1739 1679 m
1739 1701 l
st
1720 1679 m
1758 1679 l
st
1831 1788 m
1831 1767 l
st
1812 1788 m
1850 1788 l
st
1831 1789 m
1831 1811 l
st
1812 1789 m
1850 1789 l
st
1922 1876 m
1922 1898 l
st
1903 1876 m
1941 1876 l
st
1922 1876 m
1922 1898 l
st
1903 1876 m
1941 1876 l
st
2013 1945 m
2013 1967 l
st
1994 1945 m
2032 1945 l
st
2013 1945 m
2013 1967 l
st
1994 1945 m
2032 1945 l
st
2104 1998 m
2104 2020 l
st
2085 1998 m
2123 1998 l
st
2104 1999 m
2104 2020 l
st
2085 1999 m
2123 1999 l
st
gr
gs
pathproc 418 49 2735 2118 np rectpath
/eocl cland
np exec
503 1254 m
515 1252 l
3 sw
st
594 1247 m
606 1247 l
st
685 1239 m
697 1236 l
st
776 1219 m
788 1217 l
st
867 1218 m
879 1221 l
st
958 1245 m
970 1250 l
st
1049 1289 m
1061 1296 l
st
1074 1304 m
1074 1304 l
st
1141 1354 m
1151 1362 l
st
1163 1373 m
1166 1376 l
st
1219 1427 m
1228 1437 l
st
1239 1448 m
1248 1457 l
st
1310 1523 m
1319 1533 l
st
1330 1544 m
1339 1553 l
st
1401 1619 m
1410 1629 l
st
1420 1640 m
1430 1650 l
st
1492 1715 m
1502 1725 l
st
1513 1735 m
1523 1745 l
st
1583 1800 m
1593 1808 l
st
1605 1819 m
1615 1828 l
st
1674 1877 m
1685 1885 l
st
1697 1894 m
1699 1895 l
st
1778 1947 m
1790 1954 l
st
1870 1997 m
1882 2003 l
st
1961 2037 m
1973 2042 l
st
2052 2069 m
2064 2072 l
st
2143 2092 m
2155 2095 l
st
2234 2110 m
2246 2113 l
st
2325 2124 m
2337 2126 l
st
2416 2134 m
2428 2136 l
st
2508 2143 m
2520 2144 l
st
2599 2148 m
2611 2149 l
st
2690 2153 m
2702 2153 l
st
2781 2156 m
2793 2157 l
st
2872 2159 m
2884 2159 l
st
2963 2161 m
2975 2161 l
st
3054 2161 m
3066 2162 l
st
3145 2162 m
3157 2163 l
st
490 1245 m
464 1291 l
437 1245 l
cp
gs
eofi
gr
st
581 1233 m
555 1279 l
528 1233 l
cp
gs
eofi
gr
st
672 1230 m
646 1276 l
619 1230 l
cp
gs
eofi
gr
st
763 1212 m
737 1258 l
710 1212 l
cp
gs
eofi
gr
st
854 1200 m
828 1246 l
801 1200 l
cp
gs
eofi
gr
st
945 1216 m
919 1262 l
892 1216 l
cp
gs
eofi
gr
st
1036 1253 m
1010 1299 l
983 1253 l
cp
gs
eofi
gr
st
1128 1309 m
1102 1355 l
1075 1309 l
cp
gs
eofi
gr
st
1219 1386 m
1193 1432 l
1166 1386 l
cp
gs
eofi
gr
st
1310 1481 m
1284 1527 l
1257 1481 l
cp
gs
eofi
gr
st
1401 1576 m
1375 1622 l
1348 1576 l
cp
gs
eofi
gr
st
1492 1674 m
1466 1720 l
1439 1674 l
cp
gs
eofi
gr
st
1583 1761 m
1557 1807 l
1530 1761 l
cp
gs
eofi
gr
st
1674 1841 m
1648 1887 l
1621 1841 l
cp
gs
eofi
gr
st
1765 1908 m
1739 1954 l
1712 1908 l
cp
gs
eofi
gr
st
1857 1962 m
1831 2008 l
1804 1962 l
cp
gs
eofi
gr
st
1948 2006 m
1922 2052 l
1895 2006 l
cp
gs
eofi
gr
st
2039 2041 m
2013 2087 l
1986 2041 l
cp
gs
eofi
gr
st
2130 2068 m
2104 2114 l
2077 2068 l
cp
gs
eofi
gr
st
2221 2088 m
2195 2134 l
2168 2088 l
cp
gs
eofi
gr
st
2312 2104 m
2286 2150 l
2259 2104 l
cp
gs
eofi
gr
st
2403 2115 m
2377 2161 l
2350 2115 l
cp
gs
eofi
gr
st
2495 2125 m
2469 2171 l
2442 2125 l
cp
gs
eofi
gr
st
2586 2131 m
2560 2177 l
2533 2131 l
cp
gs
eofi
gr
st
2677 2136 m
2651 2182 l
2624 2136 l
cp
gs
eofi
gr
st
2768 2140 m
2742 2186 l
2715 2140 l
cp
gs
eofi
gr
st
2859 2143 m
2833 2189 l
2806 2143 l
cp
gs
eofi
gr
st
2950 2145 m
2924 2191 l
2897 2145 l
cp
gs
eofi
gr
st
3041 2146 m
3015 2192 l
2988 2146 l
cp
gs
eofi
gr
st
3132 2147 m
3106 2193 l
3079 2147 l
cp
gs
eofi
gr
st
3224 2148 m
3198 2194 l
3171 2148 l
cp
gs
eofi
gr
st
gr
gs
pathproc 418 49 2735 2118 np rectpath
/eocl cland
np exec
503 1260 m
506 1260 l
3 sw
st
594 1253 m
597 1253 l
st
685 1245 m
688 1244 l
st
776 1225 m
779 1225 l
st
867 1224 m
870 1224 l
st
958 1250 m
961 1251 l
st
1049 1293 m
1052 1295 l
st
1141 1357 m
1144 1360 l
st
1155 1369 m
1158 1372 l
st
1219 1430 m
1222 1433 l
st
1232 1443 m
1234 1445 l
st
1244 1456 m
1246 1458 l
st
1255 1468 m
1257 1470 l
st
1310 1525 m
1313 1528 l
st
1322 1538 m
1324 1540 l
st
1335 1551 m
1337 1553 l
st
1346 1563 m
1348 1565 l
st
1401 1621 m
1404 1624 l
st
1413 1634 m
1415 1636 l
st
1425 1647 m
1427 1649 l
st
1437 1660 m
1439 1662 l
st
1492 1716 m
1495 1719 l
st
1505 1729 m
1507 1731 l
st
1518 1741 m
1520 1743 l
st
1530 1752 m
1530 1752 l
st
1583 1800 m
1586 1803 l
st
1596 1812 m
1599 1815 l
st
1609 1823 m
1612 1826 l
st
1687 1886 m
1690 1888 l
st
1778 1947 m
1781 1949 l
st
1870 1997 m
1873 1998 l
st
1961 2037 m
1964 2038 l
st
2052 2068 m
2055 2069 l
st
2143 2092 m
2146 2093 l
st
2234 2110 m
2237 2110 l
st
2325 2124 m
2328 2124 l
st
2416 2134 m
2419 2134 l
st
2508 2142 m
2511 2142 l
st
2599 2148 m
2602 2148 l
st
2690 2153 m
2693 2153 l
st
2781 2156 m
2784 2156 l
st
2872 2159 m
2875 2159 l
st
2963 2160 m
2966 2160 l
st
3054 2161 m
3057 2161 l
st
3145 2162 m
3148 2162 l
st
464 1235 m
490 1281 l
437 1281 l
cp
gs
eofi
gr
st
555 1223 m
581 1269 l
528 1269 l
cp
gs
eofi
gr
st
646 1220 m
672 1266 l
619 1266 l
cp
gs
eofi
gr
st
737 1202 m
763 1248 l
710 1248 l
cp
gs
eofi
gr
st
828 1189 m
854 1235 l
801 1235 l
cp
gs
eofi
gr
st
919 1205 m
945 1251 l
892 1251 l
cp
gs
eofi
gr
st
1010 1242 m
1036 1288 l
983 1288 l
cp
gs
eofi
gr
st
1102 1296 m
1128 1342 l
1075 1342 l
cp
gs
eofi
gr
st
1193 1373 m
1219 1419 l
1166 1419 l
cp
gs
eofi
gr
st
1284 1467 m
1310 1513 l
1257 1513 l
cp
gs
eofi
gr
st
1375 1562 m
1401 1608 l
1348 1608 l
cp
gs
eofi
gr
st
1466 1659 m
1492 1705 l
1439 1705 l
cp
gs
eofi
gr
st
1557 1746 m
1583 1792 l
1530 1792 l
cp
gs
eofi
gr
st
1648 1825 m
1674 1871 l
1621 1871 l
cp
gs
eofi
gr
st
1739 1892 m
1765 1938 l
1712 1938 l
cp
gs
eofi
gr
st
1831 1946 m
1857 1992 l
1804 1992 l
cp
gs
eofi
gr
st
1922 1990 m
1948 2036 l
1895 2036 l
cp
gs
eofi
gr
st
2013 2025 m
2039 2071 l
1986 2071 l
cp
gs
eofi
gr
st
2104 2051 m
2130 2097 l
2077 2097 l
cp
gs
eofi
gr
st
2195 2072 m
2221 2118 l
2168 2118 l
cp
gs
eofi
gr
st
2286 2087 m
2312 2133 l
2259 2133 l
cp
gs
eofi
gr
st
2377 2099 m
2403 2145 l
2350 2145 l
cp
gs
eofi
gr
st
2469 2108 m
2495 2154 l
2442 2154 l
cp
gs
eofi
gr
st
2560 2115 m
2586 2161 l
2533 2161 l
cp
gs
eofi
gr
st
2651 2120 m
2677 2166 l
2624 2166 l
cp
gs
eofi
gr
st
2742 2124 m
2768 2170 l
2715 2170 l
cp
gs
eofi
gr
st
2833 2127 m
2859 2173 l
2806 2173 l
cp
gs
eofi
gr
st
2924 2129 m
2950 2175 l
2897 2175 l
cp
gs
eofi
gr
st
3015 2130 m
3041 2176 l
2988 2176 l
cp
gs
eofi
gr
st
3106 2131 m
3132 2177 l
3079 2177 l
cp
gs
eofi
gr
st
3198 2132 m
3224 2178 l
3171 2178 l
cp
gs
eofi
gr
st
gr
gs
pathproc 418 49 2735 2118 np rectpath
/eocl cland
np exec
464 1239 m
464 1230 l
3 sw
st
445 1239 m
483 1239 l
st
464 1282 m
464 1290 l
st
445 1282 m
483 1282 l
st
555 1240 m
555 1218 l
st
536 1240 m
574 1240 l
st
555 1257 m
555 1278 l
st
536 1257 m
574 1257 l
st
646 1240 m
646 1215 l
st
627 1240 m
665 1240 l
st
646 1250 m
646 1275 l
st
627 1250 m
665 1250 l
st
737 1223 m
737 1197 l
st
718 1223 m
756 1223 l
st
737 1230 m
737 1257 l
st
718 1230 m
756 1230 l
st
828 1212 m
828 1185 l
st
809 1212 m
847 1212 l
st
828 1218 m
828 1245 l
st
809 1218 m
847 1218 l
st
919 1229 m
919 1201 l
st
900 1229 m
938 1229 l
st
919 1233 m
919 1261 l
st
900 1233 m
938 1233 l
st
1010 1266 m
1010 1238 l
st
991 1266 m
1029 1266 l
st
1010 1270 m
1010 1298 l
st
991 1270 m
1029 1270 l
st
1102 1322 m
1102 1294 l
st
1083 1322 m
1121 1322 l
st
1102 1326 m
1102 1354 l
st
1083 1326 m
1121 1326 l
st
1193 1400 m
1193 1371 l
st
1174 1400 m
1212 1400 l
st
1193 1402 m
1193 1431 l
st
1174 1402 m
1212 1402 l
st
1284 1495 m
1284 1466 l
st
1265 1495 m
1303 1495 l
st
1284 1497 m
1284 1526 l
st
1265 1497 m
1303 1497 l
st
1375 1590 m
1375 1561 l
st
1356 1590 m
1394 1590 l
st
1375 1592 m
1375 1621 l
st
1356 1592 m
1394 1592 l
st
1466 1688 m
1466 1659 l
st
1447 1688 m
1485 1688 l
st
1466 1690 m
1466 1719 l
st
1447 1690 m
1485 1690 l
st
1557 1776 m
1557 1806 l
st
1538 1776 m
1576 1776 l
st
1557 1777 m
1557 1806 l
st
1538 1777 m
1576 1777 l
st
1648 1855 m
1648 1826 l
st
1629 1855 m
1667 1855 l
st
1648 1856 m
1648 1886 l
st
1629 1856 m
1667 1856 l
st
1739 1922 m
1739 1893 l
st
1720 1922 m
1758 1922 l
st
1739 1923 m
1739 1953 l
st
1720 1923 m
1758 1923 l
st
1831 1977 m
1831 2007 l
st
1812 1977 m
1850 1977 l
st
1831 1978 m
1831 2007 l
st
1812 1978 m
1850 1978 l
st
1922 2021 m
1922 2051 l
st
1903 2021 m
1941 2021 l
st
1922 2021 m
1922 2051 l
st
1903 2021 m
1941 2021 l
st
2013 2056 m
2013 2086 l
st
1994 2056 m
2032 2056 l
st
2013 2056 m
2013 2086 l
st
1994 2056 m
2032 2056 l
st
2104 2082 m
2104 2053 l
st
2085 2082 m
2123 2082 l
st
2104 2083 m
2104 2113 l
st
2085 2083 m
2123 2083 l
st
2195 2103 m
2195 2133 l
st
2176 2103 m
2214 2103 l
st
2195 2103 m
2195 2133 l
st
2176 2103 m
2214 2103 l
st
2286 2119 m
2286 2149 l
st
2267 2119 m
2305 2119 l
st
2286 2119 m
2286 2149 l
st
2267 2119 m
2305 2119 l
st
2377 2130 m
2377 2160 l
st
2358 2130 m
2396 2130 l
st
2377 2131 m
2377 2160 l
st
2358 2131 m
2396 2131 l
st
gr
gs
pathproc 418 49 2735 2118 np rectpath
/eocl cland
np exec
464 1245 m
464 1236 l
3 sw
st
445 1245 m
483 1245 l
st
464 1287 m
464 1296 l
st
445 1287 m
483 1287 l
st
555 1246 m
555 1224 l
st
536 1246 m
574 1246 l
st
555 1262 m
555 1284 l
st
536 1262 m
574 1262 l
st
646 1246 m
646 1221 l
st
627 1246 m
665 1246 l
st
646 1256 m
646 1281 l
st
627 1256 m
665 1256 l
st
737 1229 m
737 1203 l
st
718 1229 m
756 1229 l
st
737 1236 m
737 1263 l
st
718 1236 m
756 1236 l
st
828 1217 m
828 1190 l
st
809 1217 m
847 1217 l
st
828 1223 m
828 1250 l
st
809 1223 m
847 1223 l
st
919 1233 m
919 1206 l
st
900 1233 m
938 1233 l
st
919 1238 m
919 1266 l
st
900 1238 m
938 1238 l
st
1010 1271 m
1010 1243 l
st
991 1271 m
1029 1271 l
st
1010 1275 m
1010 1303 l
st
991 1275 m
1029 1275 l
st
1102 1326 m
1102 1297 l
st
1083 1326 m
1121 1326 l
st
1102 1329 m
1102 1357 l
st
1083 1329 m
1121 1329 l
st
1193 1403 m
1193 1374 l
st
1174 1403 m
1212 1403 l
st
1193 1405 m
1193 1434 l
st
1174 1405 m
1212 1405 l
st
1284 1497 m
1284 1468 l
st
1265 1497 m
1303 1497 l
st
1284 1499 m
1284 1528 l
st
1265 1499 m
1303 1499 l
st
1375 1592 m
1375 1563 l
st
1356 1592 m
1394 1592 l
st
1375 1594 m
1375 1623 l
st
1356 1594 m
1394 1594 l
st
1466 1689 m
1466 1660 l
st
1447 1689 m
1485 1689 l
st
1466 1691 m
1466 1720 l
st
1447 1691 m
1485 1691 l
st
1557 1776 m
1557 1747 l
st
1538 1776 m
1576 1776 l
st
1557 1778 m
1557 1807 l
st
1538 1778 m
1576 1778 l
st
1648 1855 m
1648 1826 l
st
1629 1855 m
1667 1855 l
st
1648 1857 m
1648 1886 l
st
1629 1857 m
1667 1857 l
st
1739 1922 m
1739 1893 l
st
1720 1922 m
1758 1922 l
st
1739 1923 m
1739 1953 l
st
1720 1923 m
1758 1923 l
st
1831 1977 m
1831 2007 l
st
1812 1977 m
1850 1977 l
st
1831 1978 m
1831 2007 l
st
1812 1978 m
1850 1978 l
st
1922 2021 m
1922 2051 l
st
1903 2021 m
1941 2021 l
st
1922 2021 m
1922 2051 l
st
1903 2021 m
1941 2021 l
st
2013 2056 m
2013 2086 l
st
1994 2056 m
2032 2056 l
st
2013 2056 m
2013 2086 l
st
1994 2056 m
2032 2056 l
st
2104 2082 m
2104 2112 l
st
2085 2082 m
2123 2082 l
st
2104 2083 m
2104 2112 l
st
2085 2083 m
2123 2083 l
st
2195 2102 m
2195 2073 l
st
2176 2102 m
2214 2102 l
st
2195 2103 m
2195 2133 l
st
2176 2103 m
2214 2103 l
st
2286 2118 m
2286 2148 l
st
2267 2118 m
2305 2118 l
st
2286 2119 m
2286 2148 l
st
2267 2119 m
2305 2119 l
st
2377 2130 m
2377 2160 l
st
2358 2130 m
2396 2130 l
st
2377 2130 m
2377 2160 l
st
2358 2130 m
2396 2130 l
st
gr
gs
gs
1 -1 sc
104 -1794 tr
90 ro
/MC2_Arial 101 self 0 0 m
(One-particle number density)[79 56 56 34 56 56 34 28 22 51 22 56 28 56 56 84 56 56 34 28 56 56 56 51 22 28 51 ] xs
1 -1 sc
gr
gs
1 -1 sc
104 -526 tr
90 ro
/MC3_Symbol 101 self 0 0 m
/s61472 25 xgls
1 -1 sc
gr
gs
1 -1 sc
104 -501 tr
90 ro
/MC3_Symbol 101 self 0 0 m
(\()[34 ] xs
1 -1 sc
gr
gs
1 -1 sc
104 -467 tr
90 ro
/MC2_Arial 101 self 0 0 m
(fm)[28 84 ] xs
1 -1 sc
gr
gs
1 -1 sc
55 -355 tr
90 ro
/MC2_Arial 61 self 0 0 m
(-3)[20 34 ] xs
1 -1 sc
gr
gs
1 -1 sc
104 -301 tr
90 ro
/MC3_Symbol 101 self 0 0 m
(\))[34 ] xs
1 -1 sc
gr
gr
gs
1 -1 sc
/MC1_Arial 101 self 1664 -2438 m
(r \(fm\))[34 28 34 28 85 34 ] xs
1 -1 sc
gr
gs
1 -1 sc
/MC1_Arial 61 self 2900 -181 m
(4)[34 ] xs
1 -1 sc
1 -1 sc
/MC1_Arial 101 self 2934 -230 m
(He)[73 56 ] xs
1 -1 sc
gr
gs
gs
gr
gs
gs
1966 431 m
2049 431 l
3 sw
1 0 0 rgb
st
2109 431 m
2192 431 l
st
gr
1 0 0 rgb
2059 412 40 40 rectfill
3114 49 m
3 sw
2059 412 40 40 rectstroke
gr
1 -1 sc
/MC1_Arial 101 self 2192 -466 m
( )[28 ] xs
1 -1 sc
1 -1 sc
/MC4_Symbol 101 self 2220 -466 m
/s61554 55 xgls
1 -1 sc
1 -1 sc
/MC1_Arial 101 self 2275 -466 m
( @ )[28 103 28 ] xs
1 -1 sc
1 -1 sc
/MC4_Symbol 101 self 2434 -466 m
/s61556 42 xgls
/s61472 25 xgls
/s61501 55 xgls
/s61472 25 xgls
1 -1 sc
1 -1 sc
/MC1_Arial 101 self 2581 -466 m
(0.15 MeV)[56 28 56 56 28 83 56 67 ] xs
1 -1 sc
1 -1 sc
/MC1_Arial 61 self 3011 -417 m
(-1)[20 34 ] xs
1 -1 sc
gs
gr
gs
gs
1966 570 m
2049 570 l
3 sw
0 0 1 rgb
st
2109 570 m
2192 570 l
st
gr
np
2079 571 22 0 360  a
cp
gs
0 0 1 rgb
eofi
gr
3 sw
0 0 1 rgb
st
gr
1 -1 sc
/MC1_Arial 101 self 2192 -605 m
( )[28 ] xs
1 -1 sc
1 -1 sc
/MC4_Symbol 101 self 2220 -605 m
/s61554 55 xgls
/s61472 25 xgls
1 -1 sc
1 -1 sc
/MC1_Arial 101 self 2300 -605 m
(@ )[103 28 ] xs
1 -1 sc
1 -1 sc
/MC4_Symbol 101 self 2431 -605 m
/s61556 42 xgls
/s61472 25 xgls
/s61501 55 xgls
/s61472 25 xgls
1 -1 sc
1 -1 sc
/MC1_Arial 101 self 2578 -605 m
(0.2   MeV)[56 28 56 28 28 28 83 56 67 ] xs
1 -1 sc
1 -1 sc
/MC1_Arial 61 self 3008 -556 m
(-1)[20 34 ] xs
1 -1 sc
gs
gr
gs
gs
1966 709 m
2053 709 l
3 sw
0 1 1 rgb
st
2105 709 m
2192 709 l
st
gr
2057 710 m
2079 688 l
2101 710 l
2079 732 l
cp
gs
0 1 1 rgb
eofi
gr
2 sw
0 1 1 rgb
st
gr
1 -1 sc
/MC1_Arial 101 self 2192 -744 m
( )[28 ] xs
1 -1 sc
1 -1 sc
/MC4_Symbol 101 self 2220 -744 m
/s61554 55 xgls
1 -1 sc
1 -1 sc
/MC1_Arial 101 self 2275 -744 m
( @ )[28 103 28 ] xs
1 -1 sc
1 -1 sc
/MC4_Symbol 101 self 2434 -744 m
/s61556 42 xgls
/s61472 25 xgls
/s61501 55 xgls
/s61472 25 xgls
1 -1 sc
1 -1 sc
/MC1_Arial 101 self 2581 -744 m
(0.3   MeV)[56 28 56 28 28 28 83 56 67 ] xs
1 -1 sc
1 -1 sc
/MC1_Arial 61 self 3011 -695 m
(-1)[20 34 ] xs
1 -1 sc
gs
gr
gs
gs
1966 969 m
1979 969 l
3 sw
st
1994 969 m
2007 969 l
st
2022 969 m
2035 969 l
st
2109 969 m
2122 969 l
st
2137 969 m
2150 969 l
st
2165 969 m
2178 969 l
st
gr
2104 955 m
2079 1000 l
2053 955 l
cp
gs
eofi
gr
3 sw
st
gr
1 -1 sc
/MC1_Arial 101 self 2192 -1004 m
( )[28 ] xs
1 -1 sc
1 -1 sc
/MC4_Symbol 101 self 2220 -1004 m
/s61554 55 xgls
1 -1 sc
1 -1 sc
/MC1_Arial 61 self 2275 -1039 m
(n)[34 ] xs
1 -1 sc
gs
gr
gs
gs
1966 1134 m
1969 1134 l
3 sw
st
1983 1134 m
1986 1134 l
st
2000 1134 m
2003 1134 l
st
2017 1134 m
2020 1134 l
st
2034 1134 m
2037 1134 l
st
2109 1134 m
2112 1134 l
st
2126 1134 m
2129 1134 l
st
2143 1134 m
2146 1134 l
st
2160 1134 m
2163 1134 l
st
2177 1134 m
2180 1134 l
st
gr
2079 1105 m
2104 1150 l
2053 1150 l
cp
gs
eofi
gr
3 sw
st
gr
1 -1 sc
/MC1_Arial 101 self 2192 -1169 m
( )[28 ] xs
1 -1 sc
1 -1 sc
/MC4_Symbol 101 self 2220 -1169 m
/s61554 55 xgls
1 -1 sc
1 -1 sc
/MC1_Arial 61 self 2275 -1204 m
(p)[34 ] xs
1 -1 sc
gr
gr
Save0 restore end
showpage
%%EOF
