%!PS-Adobe-3.0 EPSF-3.0
%%BoundingBox: 0 0 772 591
%%LanguageLevel: 2
%%Creator: OriginLab Corporation
%%Title: (C:\Users\Rong\Desktop\rhoN2LO.eps)
%%CreationDate: Sun Apr 12 17:04:17 2020
%%EndComments

/OriginLab::PSL1 128 dict dup begin def
/Save0 save def
%%BeginResource: procset OriginLab::PSL1
/wd{1 index where{pop pop pop}{bind def}ifelse}bind def
/setcmykcolor{1 sub 4 1 roll 3{3 index add neg dup 0 lt{pop 0}if 3 1 roll}repeat setrgbcolor pop}wd
/selectfont{dup type/arraytype eq{exch findfont exch makefont setfont}{exch findfont exch scalefont setfont}ifelse}wd
/xshow{1 index length 0 le{}{currentpoint exch 3 index length 1 sub 0 exch 1 exch{dup 5 index exch 1 getinterval show 3 index exch get add 2 copy exch moveto}for pop pop}ifelse pop pop}wd
/glyphshow{matrix currentmatrix exch currentfont dup/FontMatrix get concat currentpoint translate
 dup/Metrics get 2 index get 0 4 2 roll gsave/CharProcs get exch 2 copy known not{pop/.notdef}if
 get exec fill grestore moveto setmatrix}wd
/grayimage/image load def/rgbtogray{cvx exec dup length 3 idiv 1 sub 0 exch 1 exch{dup 3 mul dup 3 index exch get 255 div .3 mul exch
 1 add dup 4 index exch get 255 div .59 mul exch 1 add 4 index exch get 255 div .11 mul add add
 255 mul dup 255 gt{255}if round cvi 2 index 3 1 roll put}for dup length 3 idiv 0 exch getinterval}bind def
/colorimage{0 setgray pop pop cvlit/rgbtogray cvx 2 packedarray cvx grayimage}wd
/bd{bind def}bind def/ld{load def}bd/ed{exch def}bd/xd{cvx def}bd
/np/newpath ld/a/arc ld/m/moveto ld/l/lineto ld/c/curveto ld/rm/rmoveto ld/rl/rlineto ld/rc/rcurveto ld/cp/closepath ld/cpt/currentpoint ld
/tr/translate ld/sc/scale ld/ro/rotate ld/t/transform ld/it/itransform ld/dt/dtransform ld/idt/idtransform ld
/mtx/matrix ld/cmtx/currentmatrix ld/dmtx/defaultmatrix ld/smtx/setmatrix ld/catmtx/concatmatrix ld
/sw/setlinewidth ld/scap/setlinecap ld/sj/setlinejoin ld/sm/setmiterlimit ld/sd/setdash ld/rgb/setrgbcolor ld/crgb/currentrgbcolor ld/cmyk/setcmykcolor ld/gs/gsave ld/gr/grestore ld
/st/stroke ld/fi/fill ld/eofi/eofill ld/cl/clip ld/eocl/eoclip ld
/df/definefont ld/ff/findfont ld/sf/setfont ld/scf/scalefont ld/self/selectfont ld/cf/currentfont ld
/s/show ld/xs/xshow ld/gls/glyphshow ld/xgls{cpt 3 1 roll add exch 3 -1 roll gls m}bd
/cd/currentdict ld/i/index ld
/DrawBox{4 2 roll m 1 index 0 rl 0 exch rl neg 0 rl cp}bd
/plus.re { 6 { 3 index } repeat moveto 0 exch rlineto 0 rlineto pop pop neg 0 exch rlineto pop lineto closepath } def
/DrawBcc{4 2 roll m 2 copy 0 lt exch 0 lt xor{dup 0 exch rl exch 0 rl neg 0 exch rl}{exch dup 0 rl exch 0 exch rl neg 0 rl}ifelse cp}bd
/rectline{dup type/arraytype eq{dup length 0 exch 4 exch 4 sub{0 1 3{3 copy add get 4 1 roll pop}for pop 5 1 roll DrawBox}for pop}{DrawBox}ifelse}bd
/rectpath{dup type/arraytype eq{dup length 0 exch 4 exch 4 sub{0 1 3{3 copy add get 4 1 roll pop}for pop 5 1 roll DrawBcc}for pop}{DrawBcc}ifelse}bd
/pathproc{[{/m cvx}{/l cvx}{/c cvx}{/cp cvx}pathforall]cvx}bd
/L1img/image ld/L1idx[{0}
 {dup 7 and 3 1 roll -3 bitshift get exch 7 sub 1 mul bitshift  1 and}bind 1 index dup
 {dup 1 and 3 1 roll -1 bitshift get exch 1 sub 4 mul bitshift 15 and}bind 1 index dup dup
 {get}bind]def
/image{dup type/dicttype eq {dup/ImgCS get 0 get/Indexed eq}{false}ifelse
 {begin Width Height 8 ImageMatrix {rgb_string rgb_lookup
 cd/DataSource get dup type/filetype eq
 {mystring readstring pop}{exec}ifelse
 dup length 0 ne
 {L1idx BitsPerComponent get 0 1 Width 1 sub
 {3 copy exch exec exch 3 mul exch
 3 mul dup 5 index exch get exch 1 add dup 6 index exch get exch 1 add 6 index exch get
 7 index exch 4 index 2 add exch put 6 index exch 3 index 1 add exch put 5 index exch 2 index exch put pop
 }for pop pop pop }{pop pop pop ()}ifelse }false 3 colorimage end} {dup type/dicttype eq
 {{dup mark exch L1img pop pop}stopped{cleartomark begin Width Height BitsPerComponent ImageMatrix
 {cd/DataSource get dup type/filetype eq {mystring readstring pop}{exec}ifelse
 }false 3 colorimage end} if}{L1img}ifelse}ifelse
 }bd
/L1imgmask/imagemask ld/imagemask{dup type/dicttype eq
 {{dup mark exch L1imgmask pop pop}stopped {cleartomark begin Width Height polarityflag ImageMatrix
 {cd/DataSource get dup type/filetype eq {mystring readstring pop}{exec}ifelse
 }L1imgmask end}if}{L1imgmask}ifelse
 }bd
% Gradient function
/GradientStep 1 150 div def
/GradientStartRGB { /R1 exch def /G1 exch def /B1 exch def } def
/GradientEndRGB { /R2 exch def /G2 exch def /B2 exch def
/GradientSteps GradientLength GradientStep div def
/GradientRStep R2 R1 sub GradientSteps div def
/GradientGStep G2 G1 sub GradientSteps div def
/GradientBStep B2 B1 sub GradientSteps div def
} def
/GradientStepRGB { /R1 R1 GradientRStep add def
/G1 G1 GradientGStep add def
/B1 B1 GradientBStep add def
R1 G1 B1 setrgbcolor
} def
%%EndResource
/rectclip{np rectpath clip np}wd
/rectfill{gs np rectpath fi gr}wd
/rectstroke{gs np dup type/arraytype eq{dup length 6 eq}{false}ifelse{1 index type/arraytype eq{exch}{5 1 roll}ifelse rectline concat st}{rectline st}ifelse gr}wd
%%BeginResource: procset OriginLab::Image
/OriginLab::Image 32 dict dup begin
/BinProc{[currentfile mystring /readstring cvx /pop cvx] cvx bind}bd
/HexProc{[currentfile mystring /readhexstring cvx /pop cvx] cvx bind}bd
/Ascii85Proc{currentfile /ASCII85Decode filter}bd
/LZWA85{currentfile /ASCII85Decode filter /LZWDecode filter}bd
/ImgProcArray[/BinProc /HexProc /Ascii85Proc /LZWA85]def
/ImgDict{/ImgDict 16 dict def ImgDict dup begin /ImageType 1 def /MultipleDataSource false def end}bd
/L2Dec{{[1 0]}{[0 1]}ifelse}bd
/BegImg{ /Img_sv save def
 /ImgDir ed ImgProcArray exch get /ImgProc exch ld
 dup /polarityflag ed L2Dec /polarity ed /smoothflag ed
 tr /dx 2 index def /dy 1 index abs def sc
 string /mystring ed /bpc ed /ih ed /iw ed
 }bd
/EndImg {Img_sv restore}bd
/DoXImg{ /rgb_lookup ed /hival ed ImgDict dup begin
 [/Indexed /DeviceRGB hival rgb_lookup] /L1img where{pop/ImgCS ed}{setcolorspace}ifelse
 /rgb_string iw 3 mul string def
 /Width iw def
 /Height ih def
 /Decode [0 1 bpc{2 mul}repeat 1 sub] def
 /ImageMatrix
  ImgDir 0 eq{[iw 0 0 ih 0 0]}if
  ImgDir 1 eq{[iw neg 0 0 ih iw 0]}if
  ImgDir 2 eq{[iw 0 0 ih neg 0 ih]}if
  ImgDir 3 eq{[iw neg 0 0 ih neg iw ih]}if
  def
 /DataSource ImgProc def
 /BitsPerComponent bpc def
 /Interpolate smoothflag def
 end image}bd
/DoImg{ ImgDict dup begin
 [/DeviceRGB] /L1img where{pop/ImgCS ed}{setcolorspace}ifelse
 /rgb_string iw 3 mul string def
 /Width iw def
 /Height ih def
 /Decode [0 1 0 1 0 1] def
 /ImageMatrix
  ImgDir 0 eq{[iw 0 0 ih 0 0]}if
  ImgDir 1 eq{[iw neg 0 0 ih iw 0]}if
  ImgDir 2 eq{[iw 0 0 ih neg 0 ih]}if
  ImgDir 3 eq{[iw neg 0 0 ih neg iw ih]}if
  def
 /DataSource ImgProc def
 /BitsPerComponent 8 def
 /Interpolate smoothflag def
 end image}bd
end def
%%EndResource
/initmtx mtx cmtx def
%%BeginFont: /MC1_Arial
12 dict begin
/FontInfo 8 dict dup begin
/ItalicAngle 0 def
/UnderlinePosition -217.00 def
/UnderlineThickness 150.00 def
/StrikeoutPosition 530.00 def
/StrikeoutThickness 102.00 def
/isFixedPitch false def
end readonly def
/FontName /MC1_Arial def
/FontType 3 def
/FontMatrix [1 2048 div 0 0 1 2048 div 0 0] def
/FontBBox [-1361 -665 4096 2129] def
/Encoding 256 array def 0 1 255{Encoding exch/.notdef put}for
Encoding 32/s32 put
Encoding 40/s40 put
Encoding 41/s41 put
Encoding 45/s45 put
Encoding 46/s46 put
Encoding 48/s48 put
Encoding 49/s49 put
Encoding 50/s50 put
Encoding 51/s51 put
Encoding 52/s52 put
Encoding 53/s53 put
Encoding 54/s54 put
Encoding 55/s55 put
Encoding 56/s56 put
Encoding 57/s57 put
Encoding 72/s72 put
Encoding 77/s77 put
Encoding 86/s86 put
Encoding 101/s101 put
Encoding 102/s102 put
Encoding 109/s109 put
Encoding 114/s114 put
/BoundingBoxes 23 dict def
BoundingBoxes begin
/s32 [0 -434 569 1854] def
/s40 [0 -434 682 1854] def
/s41 [0 -434 682 1854] def
/s45 [0 -434 682 1854] def
/s46 [0 -434 569 1854] def
/s48 [0 -434 1139 1854] def
/s49 [0 -434 1139 1854] def
/s50 [0 -434 1139 1854] def
/s51 [0 -434 1139 1854] def
/s52 [0 -434 1139 1854] def
/s53 [0 -434 1139 1854] def
/s54 [0 -434 1139 1854] def
/s55 [0 -434 1139 1854] def
/s56 [0 -434 1139 1854] def
/s57 [0 -434 1139 1854] def
/s72 [0 -434 1479 1854] def
/s77 [0 -434 1706 1854] def
/s86 [0 -434 1366 1854] def
/s101 [0 -434 1139 1854] def
/s102 [0 -434 569 1854] def
/s109 [0 -434 1706 1854] def
/s114 [0 -434 682 1854] def
end
/Metrics 23 dict def
 Metrics begin
/s32 569 def
/s40 682 def
/s41 682 def
/s45 682 def
/s46 569 def
/s48 1139 def
/s49 1139 def
/s50 1139 def
/s51 1139 def
/s52 1139 def
/s53 1139 def
/s54 1139 def
/s55 1139 def
/s56 1139 def
/s57 1139 def
/s72 1479 def
/s77 1706 def
/s86 1366 def
/s101 1139 def
/s102 569 def
/s109 1706 def
/s114 682 def
end
/CharProcs 23 dict def
CharProcs begin
/.notdef {} def
/s40 {
479 -431 m
379.67 -305.67 295.67 -159 227 9 c
158.33 177 124 351 124 531 c
124 689.67 149.67 841.67 201 987 c
261 1155.67 353.67 1323.67 479 1491 c
608 1491 479 1491 608 1491 c
527.33 1352.33 474 1253.33 448 1194 c
407.33 1102 375.33 1006 352 906 c
323.33 781.33 309 656 309 530 c
309 209.33 408.67 -111 608 -431 c
479 -431 608 -431 479 -431 c
closepath } bind def
/s41 {
253 -431 m
124 -431 253 -431 124 -431 c
323.33 -111 423 209.33 423 530 c
423 655.33 408.67 779.67 380 903 c
357.33 1003 325.67 1099 285 1191 c
259 1251 205.33 1351 124 1491 c
253 1491 124 1491 253 1491 c
378.33 1323.67 471 1155.67 531 987 c
582.33 841.67 608 689.67 608 531 c
608 351 573.5 177 504.5 9 c
435.5 -159 351.67 -305.67 253 -431 c
closepath } bind def
/s45 {
65 440 m
65 621 65 440 65 621 c
618 621 65 621 618 621 c
618 440 618 621 618 440 c
65 440 618 440 65 440 c
closepath } bind def
/s46 {
186 0 m
186 205 186 0 186 205 c
391 205 186 205 391 205 c
391 0 391 205 391 0 c
186 0 391 0 186 0 c
closepath } bind def
/s48 {
85 723 m
85 896.33 102.83 1035.83 138.5 1141.5 c
174.17 1247.17 227.17 1328.67 297.5 1386 c
367.83 1443.33 456.33 1472 563 1472 c
641.67 1472 710.67 1456.17 770 1424.5 c
829.33 1392.83 878.33 1347.17 917 1287.5 c
955.67 1227.83 986 1155.17 1008 1069.5 c
1030 983.83 1041 868.33 1041 723 c
1041 551 1023.33 412.17 988 306.5 c
952.67 200.83 899.83 119.17 829.5 61.5 c
759.17 3.83 670.33 -25 563 -25 c
421.67 -25 310.67 25.67 230 127 c
133.33 249 85 447.67 85 723 c
closepath 270 723 m
270 482.33 298.17 322.17 354.5 242.5 c
410.83 162.83 480.33 123 563 123 c
645.67 123 715.17 163 771.5 243 c
827.83 323 856 483 856 723 c
856 964.33 827.83 1124.67 771.5 1204 c
715.17 1283.33 645 1323 561 1323 c
478.33 1323 412.33 1288 363 1218 c
301 1128.67 270 963.67 270 723 c
closepath } bind def
/s49 {
763 0 m
583 0 763 0 583 0 c
583 1147 583 0 583 1147 c
539.67 1105.67 482.83 1064.33 412.5 1023 c
342.17 981.67 279 950.67 223 930 c
223 1104 223 930 223 1104 c
323.67 1151.33 411.67 1208.67 487 1276 c
562.33 1343.33 615.67 1408.67 647 1472 c
763 1472 647 1472 763 1472 c
763 0 763 1472 763 0 c
closepath } bind def
/s50 {
1031 173 m
1031 0 1031 173 1031 0 c
62 0 1031 0 62 0 c
60.67 43.33 67.67 85 83 125 c
107.67 191 147.17 256 201.5 320 c
255.83 384 334.33 458 437 542 c
596.33 672.67 704 776.17 760 852.5 c
816 928.83 844 1001 844 1069 c
844 1140.33 818.5 1200.5 767.5 1249.5 c
716.5 1298.5 650 1323 568 1323 c
481.33 1323 412 1297 360 1245 c
308 1193 281.67 1121 281 1029 c
96 1048 281 1029 96 1048 c
108.67 1186 156.33 1291.17 239 1363.5 c
321.67 1435.83 432.67 1472 572 1472 c
712.67 1472 824 1433 906 1355 c
988 1277 1029 1180.33 1029 1065 c
1029 1006.33 1017 948.67 993 892 c
969 835.33 929.17 775.67 873.5 713 c
817.83 650.33 725.33 564.33 596 455 c
488 364.33 418.67 302.83 388 270.5 c
357.33 238.17 332 205.67 312 173 c
1031 173 312 173 1031 173 c
closepath } bind def
/s51 {
86 387 m
266 411 86 387 266 411 c
286.67 309 321.83 235.5 371.5 190.5 c
421.17 145.5 481.67 123 553 123 c
637.67 123 709.17 152.33 767.5 211 c
825.83 269.67 855 342.33 855 429 c
855 511.67 828 579.83 774 633.5 c
720 687.17 651.33 714 568 714 c
534 714 491.67 707.33 441 694 c
461 852 441 694 461 852 c
473 850.67 482.67 850 490 850 c
566.67 850 635.67 870 697 910 c
758.33 950 789 1011.67 789 1095 c
789 1161 766.67 1215.67 722 1259 c
677.33 1302.33 619.67 1324 549 1324 c
479 1324 420.67 1302 374 1258 c
327.33 1214 297.33 1148 284 1060 c
104 1092 284 1060 104 1092 c
126 1212.67 176 1306.17 254 1372.5 c
332 1438.83 429 1472 545 1472 c
625 1472 698.67 1454.83 766 1420.5 c
833.33 1386.17 884.83 1339.33 920.5 1280 c
956.17 1220.67 974 1157.67 974 1091 c
974 1027.67 957 970 923 918 c
889 866 838.67 824.67 772 794 c
858.67 774 926 732.5 974 669.5 c
1022 606.5 1046 527.67 1046 433 c
1046 305 999.33 196.5 906 107.5 c
812.67 18.5 694.67 -26 552 -26 c
423.33 -26 316.5 12.33 231.5 89 c
146.5 165.67 98 265 86 387 c
closepath } bind def
/s52 {
662 0 m
662 351 662 0 662 351 c
26 351 662 351 26 351 c
26 516 26 351 26 516 c
695 1466 26 516 695 1466 c
842 1466 695 1466 842 1466 c
842 516 842 1466 842 516 c
1040 516 842 516 1040 516 c
1040 351 1040 516 1040 351 c
842 351 1040 351 842 351 c
842 0 842 351 842 0 c
662 0 842 0 662 0 c
closepath 662 516 m
662 1177 662 516 662 1177 c
203 516 662 1177 203 516 c
662 516 203 516 662 516 c
closepath } bind def
/s53 {
85 384 m
274 400 85 384 274 400 c
288 308 320.5 238.83 371.5 192.5 c
422.5 146.17 484 123 556 123 c
642.67 123 716 155.67 776 221 c
836 286.33 866 373 866 481 c
866 583.67 837.17 664.67 779.5 724 c
721.83 783.33 646.33 813 553 813 c
495 813 442.67 799.83 396 773.5 c
349.33 747.17 312.67 713 286 671 c
117 693 286 671 117 693 c
259 1446 117 693 259 1446 c
988 1446 259 1446 988 1446 c
988 1274 988 1446 988 1274 c
403 1274 988 1274 403 1274 c
324 880 403 1274 324 880 c
412 941.33 504.33 972 601 972 c
729 972 837 927.67 925 839 c
1013 750.33 1057 636.33 1057 497 c
1057 364.33 1018.33 249.67 941 153 c
847 34.33 718.67 -25 556 -25 c
422.67 -25 313.83 12.33 229.5 87 c
145.17 161.67 97 260.67 85 384 c
closepath } bind def
/s54 {
1019 1107 m
840 1093 1019 1107 840 1093 c
824 1163.67 801.33 1215 772 1247 c
723.33 1298.33 663.33 1324 592 1324 c
534.67 1324 484.33 1308 441 1276 c
384.33 1234.67 339.67 1174.33 307 1095 c
274.33 1015.67 257.33 902.67 256 756 c
299.33 822 352.33 871 415 903 c
477.67 935 543.33 951 612 951 c
732 951 834.17 906.83 918.5 818.5 c
1002.83 730.17 1045 616 1045 476 c
1045 384 1025.17 298.5 985.5 219.5 c
945.83 140.5 891.33 80 822 38 c
752.67 -4 674 -25 586 -25 c
436 -25 313.67 30.17 219 140.5 c
124.33 250.83 77 432.67 77 686 c
77 969.33 129.33 1175.33 234 1304 c
325.33 1416 448.33 1472 603 1472 c
718.33 1472 812.83 1439.67 886.5 1375 c
960.17 1310.33 1004.33 1221 1019 1107 c
closepath 284 475 m
284 413 297.17 353.67 323.5 297 c
349.83 240.33 386.67 197.17 434 167.5 c
481.33 137.83 531 123 583 123 c
659 123 724.33 153.67 779 215 c
833.67 276.33 861 359.67 861 465 c
861 566.33 834 646.17 780 704.5 c
726 762.83 658 792 576 792 c
494.67 792 425.67 762.83 369 704.5 c
312.33 646.17 284 569.67 284 475 c
closepath } bind def
/s55 {
97 1274 m
97 1447 97 1274 97 1447 c
1046 1447 97 1447 1046 1447 c
1046 1307 1046 1447 1046 1307 c
952.67 1207.67 860.17 1075.67 768.5 911 c
676.83 746.33 606 577 556 403 c
520 280.33 497 146 487 0 c
302 0 487 0 302 0 c
304 115.33 326.67 254.67 370 418 c
413.33 581.33 475.5 738.83 556.5 890.5 c
637.5 1042.17 723.67 1170 815 1274 c
97 1274 815 1274 97 1274 c
closepath } bind def
/s56 {
362 795 m
287.33 822.33 232 861.33 196 912 c
160 962.67 142 1023.33 142 1094 c
142 1200.67 180.33 1290.33 257 1363 c
333.67 1435.67 435.67 1472 563 1472 c
691 1472 794 1434.83 872 1360.5 c
950 1286.17 989 1195.67 989 1089 c
989 1021 971.17 961.83 935.5 911.5 c
899.83 861.17 845.67 822.33 773 795 c
863 765.67 931.5 718.33 978.5 653 c
1025.5 587.67 1049 509.67 1049 419 c
1049 293.67 1004.67 188.33 916 103 c
827.33 17.67 710.67 -25 566 -25 c
421.33 -25 304.67 17.83 216 103.5 c
127.33 189.17 83 296 83 424 c
83 519.33 107.17 599.17 155.5 663.5 c
203.83 727.83 272.67 771.67 362 795 c
closepath 326 1100 m
326 1030.67 348.33 974 393 930 c
437.67 886 495.67 864 567 864 c
636.33 864 693.17 885.83 737.5 929.5 c
781.83 973.17 804 1026.67 804 1090 c
804 1156 781.17 1211.5 735.5 1256.5 c
689.83 1301.5 633 1324 565 1324 c
496.33 1324 439.33 1302 394 1258 c
348.67 1214 326 1161.33 326 1100 c
closepath 268 423 m
268 371.67 280.17 322 304.5 274 c
328.83 226 365 188.83 413 162.5 c
461 136.17 512.67 123 568 123 c
654 123 725 150.67 781 206 c
837 261.33 865 331.67 865 417 c
865 503.67 836.17 575.33 778.5 632 c
720.83 688.67 648.67 717 562 717 c
477.33 717 407.17 689 351.5 633 c
295.83 577 268 507 268 423 c
closepath } bind def
/s57 {
112 339 m
285 355 112 339 285 355 c
299.67 273.67 327.67 214.67 369 178 c
410.33 141.33 463.33 123 528 123 c
583.33 123 631.83 135.67 673.5 161 c
715.17 186.33 749.33 220.17 776 262.5 c
802.67 304.83 825 362 843 434 c
861 506 870 579.33 870 654 c
870 662 869.67 674 869 690 c
833 632.67 783.83 586.17 721.5 550.5 c
659.17 514.83 591.67 497 519 497 c
397.67 497 295 541 211 629 c
127 717 85 833 85 977 c
85 1125.67 128.83 1245.33 216.5 1336 c
304.17 1426.67 414 1472 546 1472 c
641.33 1472 728.5 1446.33 807.5 1395 c
886.5 1343.67 946.5 1270.5 987.5 1175.5 c
1028.5 1080.5 1049 943 1049 763 c
1049 575.67 1028.67 426.5 988 315.5 c
947.33 204.5 886.83 120 806.5 62 c
726.17 4 632 -25 524 -25 c
409.33 -25 315.67 6.83 243 70.5 c
170.33 134.17 126.67 223.67 112 339 c
closepath 849 986 m
849 1089.33 821.5 1171.33 766.5 1232 c
711.5 1292.67 645.33 1323 568 1323 c
488 1323 418.33 1290.33 359 1225 c
299.67 1159.67 270 1075 270 971 c
270 877.67 298.17 801.83 354.5 743.5 c
410.83 685.17 480.33 656 563 656 c
646.33 656 714.83 685.17 768.5 743.5 c
822.17 801.83 849 882.67 849 986 c
closepath } bind def
/s72 {
164 0 m
164 1466 164 0 164 1466 c
358 1466 164 1466 358 1466 c
358 864 358 1466 358 864 c
1120 864 358 864 1120 864 c
1120 1466 1120 864 1120 1466 c
1314 1466 1120 1466 1314 1466 c
1314 0 1314 1466 1314 0 c
1120 0 1314 0 1120 0 c
1120 691 1120 0 1120 691 c
358 691 1120 691 358 691 c
358 0 358 691 358 0 c
164 0 358 0 164 0 c
closepath } bind def
/s77 {
152 0 m
152 1466 152 0 152 1466 c
444 1466 152 1466 444 1466 c
791 428 444 1466 791 428 c
823 331.33 846.33 259 861 211 c
877.67 264.33 903.67 342.67 939 446 c
1290 1466 939 446 1290 1466 c
1551 1466 1290 1466 1551 1466 c
1551 0 1551 1466 1551 0 c
1364 0 1551 0 1364 0 c
1364 1227 1364 0 1364 1227 c
938 0 1364 1227 938 0 c
763 0 938 0 763 0 c
339 1248 763 0 339 1248 c
339 0 339 1248 339 0 c
152 0 339 0 152 0 c
closepath } bind def
/s86 {
577 0 m
9 1466 577 0 9 1466 c
219 1466 9 1466 219 1466 c
600 401 219 1466 600 401 c
630.67 315.67 656.33 235.67 677 161 c
699.67 241 726 321 756 401 c
1152 1466 756 401 1152 1466 c
1350 1466 1152 1466 1350 1466 c
776 0 1350 1466 776 0 c
577 0 776 0 577 0 c
closepath } bind def
/s101 {
862 342 m
1048 319 862 342 1048 319 c
1018.67 210.33 964.33 126 885 66 c
805.67 6 704.33 -24 581 -24 c
425.67 -24 302.5 23.83 211.5 119.5 c
120.5 215.17 75 349.33 75 522 c
75 700.67 121 839.33 213 938 c
305 1036.67 424.33 1086 571 1086 c
713 1086 829 1037.67 919 941 c
1009 844.33 1054 708.33 1054 533 c
1054 522.33 1053.67 506.33 1053 485 c
261 485 1053 485 261 485 c
267.67 368.33 300.67 279 360 217 c
419.33 155 493.33 124 582 124 c
648 124 704.33 141.33 751 176 c
797.67 210.67 834.67 266 862 342 c
closepath 271 633 m
864 633 271 633 864 633 c
856 722.33 833.33 789.33 796 834 c
738.67 903.33 664.33 938 573 938 c
490.33 938 420.83 910.33 364.5 855 c
308.17 799.67 277 725.67 271 633 c
closepath } bind def
/s102 {
178 0 m
178 922 178 0 178 922 c
19 922 178 922 19 922 c
19 1062 19 922 19 1062 c
178 1062 19 1062 178 1062 c
178 1175 178 1062 178 1175 c
178 1246.33 184.33 1299.33 197 1334 c
214.33 1380.67 244.83 1418.5 288.5 1447.5 c
332.17 1476.5 393.33 1491 472 1491 c
522.67 1491 578.67 1485 640 1473 c
613 1316 640 1473 613 1316 c
575.67 1322.67 540.33 1326 507 1326 c
452.33 1326 413.67 1314.33 391 1291 c
368.33 1267.67 357 1224 357 1160 c
357 1062 357 1160 357 1062 c
564 1062 357 1062 564 1062 c
564 922 564 1062 564 922 c
357 922 564 922 357 922 c
357 0 357 922 357 0 c
178 0 357 0 178 0 c
closepath } bind def
/s109 {
135 0 m
135 1062 135 0 135 1062 c
296 1062 135 1062 296 1062 c
296 913 296 1062 296 913 c
329.33 965 373.67 1006.83 429 1038.5 c
484.33 1070.17 547.33 1086 618 1086 c
696.67 1086 761.17 1069.67 811.5 1037 c
861.83 1004.33 897.33 958.67 918 900 c
1002 1024 1111.33 1086 1246 1086 c
1351.33 1086 1432.33 1056.83 1489 998.5 c
1545.67 940.17 1574 850.33 1574 729 c
1574 0 1574 729 1574 0 c
1395 0 1574 0 1395 0 c
1395 669 1395 0 1395 669 c
1395 741 1389.17 792.83 1377.5 824.5 c
1365.83 856.17 1344.67 881.67 1314 901 c
1283.33 920.33 1247.33 930 1206 930 c
1131.33 930 1069.33 905.17 1020 855.5 c
970.67 805.83 946 726.33 946 617 c
946 0 946 617 946 0 c
766 0 946 0 766 0 c
766 690 766 0 766 690 c
766 770 751.33 830 722 870 c
692.67 910 644.67 930 578 930 c
527.33 930 480.5 916.67 437.5 890 c
394.5 863.33 363.33 824.33 344 773 c
324.67 721.67 315 647.67 315 551 c
315 0 315 551 315 0 c
135 0 315 0 135 0 c
closepath } bind def
/s114 {
133 0 m
133 1062 133 0 133 1062 c
295 1062 133 1062 295 1062 c
295 901 295 1062 295 901 c
336.33 976.33 374.5 1026 409.5 1050 c
444.5 1074 483 1086 525 1086 c
585.67 1086 647.33 1066.67 710 1028 c
648 861 710 1028 648 861 c
604 887 560 900 516 900 c
476.67 900 441.33 888.17 410 864.5 c
378.67 840.83 356.33 808 343 766 c
323 702 313 632 313 556 c
313 0 313 556 313 0 c
133 0 313 0 133 0 c
closepath } bind def
end
/BuildGlyph {
 exch dup /Metrics get 2 index get 0 setcharwidth
/CharProcs get exch 2 copy known not{pop/.notdef}if get exec fill}bind def
/BuildChar {
1 index /Encoding get exch get
1 index /BuildGlyph get exec
} bind def
currentdict end /MC1_Arial exch definefont pop
%%EndFont
%%BeginFont: /MC2_Symbol
12 dict begin
/FontInfo 8 dict dup begin
/ItalicAngle 0 def
/UnderlinePosition -223.00 def
/UnderlineThickness 100.00 def
/StrikeoutPosition 530.00 def
/StrikeoutThickness 102.00 def
/isFixedPitch false def
end readonly def
/FontName /MC2_Symbol def
/FontType 3 def
/FontMatrix [1 2048 div 0 0 1 2048 div 0 0] def
/FontBBox [-1 -450 2279 2059] def
/Encoding 256 array def 0 1 255{Encoding exch/.notdef put}for
Encoding 32/s32 put
Encoding 40/s40 put
Encoding 41/s41 put
/BoundingBoxes 6 dict def
BoundingBoxes begin
/s32 [0 -450 512 2059] def
/s40 [0 -450 682 2059] def
/s41 [0 -450 682 2059] def
/s61472 [0 -450 0 2059] def
/s61554 [0 -450 0 2059] def
end
/Metrics 6 dict def
 Metrics begin
/s32 512 def
/s40 682 def
/s41 682 def
/s61472 0 def
/s61554 0 def
end
/CharProcs 6 dict def
CharProcs begin
/.notdef {} def
/s40 {
636 -399 m
636 -442 636 -399 636 -442 c
462 -355.33 326.5 -228.17 229.5 -60.5 c
132.5 107.17 84 290.67 84 490 c
84 697.33 135 886.17 237 1056.5 c
339 1226.83 472 1348.67 636 1422 c
636 1380 636 1422 636 1380 c
554 1334.67 486.67 1272.67 434 1194 c
381.33 1115.33 342 1015.5 316 894.5 c
290 773.5 277 647.33 277 516 c
277 367.33 289 233 313 113 c
337 -7 373.67 -106.5 423 -185.5 c
472.33 -264.5 543.33 -335.67 636 -399 c
closepath } bind def
/s41 {
45 1380 m
45 1422 45 1380 45 1422 c
219 1336 354.5 1209.17 451.5 1041.5 c
548.5 873.83 597 690.33 597 491 c
597 283.67 546 94.67 444 -76 c
342 -246.67 209 -368.67 45 -442 c
45 -399 45 -442 45 -399 c
127.67 -353.67 195.33 -291.67 248 -213 c
300.67 -134.33 339.83 -34.67 365.5 86 c
391.17 206.67 404 333 404 465 c
404 613 392.17 747.17 368.5 867.5 c
344.83 987.83 308.17 1087.5 258.5 1166.5 c
208.83 1245.5 137.67 1316.67 45 1380 c
closepath } bind def
/s61554 {
307 55 m
307 -62 307 55 307 -62 c
307 -226.67 296.67 -353.33 276 -442 c
105 -442 276 -442 105 -442 c
119 -399.33 128 -364.67 132 -338 c
138.67 -292.67 142 -235.67 142 -167 c
142 474 142 -167 142 474 c
142 612 185.33 725 272 813 c
358.67 900.33 468 944 600 944 c
750.67 944 865.33 890 944 782 c
1004.67 698 1035 603 1035 497 c
1035 377.67 998 267.67 924 167 c
826 35 702 -31 552 -31 c
498 -31 449 -23 405 -7 c
375.67 4.33 343 25 307 55 c
closepath 307 357 m
307 265.67 315.17 202 331.5 166 c
347.83 130 377.67 99.5 421 74.5 c
464.33 49.5 513.67 37 569 37 c
652.33 37 723 69.67 781 135 c
839 200.33 868 289.33 868 402 c
868 486.67 850.17 565.17 814.5 637.5 c
778.83 709.83 733.33 763.33 678 798 c
622.67 832.67 564.33 850 503 850 c
426.33 850 371.33 820.33 338 761 c
317.33 725.67 307 647.33 307 526 c
307 357 307 526 307 357 c
closepath } bind def
end
/BuildGlyph {
 exch dup /Metrics get 2 index get 0 setcharwidth
/CharProcs get exch 2 copy known not{pop/.notdef}if get exec fill}bind def
/BuildChar {
1 index /Encoding get exch get
1 index /BuildGlyph get exec
} bind def
currentdict end /MC2_Symbol exch definefont pop
%%EndFont
%%BeginFont: /MC3_Arial
12 dict begin
/FontInfo 8 dict dup begin
/ItalicAngle 0 def
/UnderlinePosition -217.00 def
/UnderlineThickness 150.00 def
/StrikeoutPosition 530.00 def
/StrikeoutThickness 102.00 def
/isFixedPitch false def
end readonly def
/FontName /MC3_Arial def
/FontType 3 def
/FontMatrix [1 2048 div 0 0 1 2048 div 0 0] def
/FontBBox [-1361 -665 4096 2129] def
/Encoding 256 array def 0 1 255{Encoding exch/.notdef put}for
Encoding 32/s32 put
Encoding 45/s45 put
Encoding 51/s51 put
Encoding 102/s102 put
Encoding 109/s109 put
/BoundingBoxes 6 dict def
BoundingBoxes begin
/s32 [0 -434 569 1854] def
/s45 [0 -434 682 1854] def
/s51 [0 -434 1139 1854] def
/s102 [0 -434 569 1854] def
/s109 [0 -434 1706 1854] def
end
/Metrics 6 dict def
 Metrics begin
/s32 569 def
/s45 682 def
/s51 1139 def
/s102 569 def
/s109 1706 def
end
/CharProcs 6 dict def
CharProcs begin
/.notdef {} def
/s45 {
65 440 m
65 621 65 440 65 621 c
618 621 65 621 618 621 c
618 440 618 621 618 440 c
65 440 618 440 65 440 c
closepath } bind def
/s51 {
86 387 m
266 411 86 387 266 411 c
286.67 309 321.83 235.5 371.5 190.5 c
421.17 145.5 481.67 123 553 123 c
637.67 123 709.17 152.33 767.5 211 c
825.83 269.67 855 342.33 855 429 c
855 511.67 828 579.83 774 633.5 c
720 687.17 651.33 714 568 714 c
534 714 491.67 707.33 441 694 c
461 852 441 694 461 852 c
473 850.67 482.67 850 490 850 c
566.67 850 635.67 870 697 910 c
758.33 950 789 1011.67 789 1095 c
789 1161 766.67 1215.67 722 1259 c
677.33 1302.33 619.67 1324 549 1324 c
479 1324 420.67 1302 374 1258 c
327.33 1214 297.33 1148 284 1060 c
104 1092 284 1060 104 1092 c
126 1212.67 176 1306.17 254 1372.5 c
332 1438.83 429 1472 545 1472 c
625 1472 698.67 1454.83 766 1420.5 c
833.33 1386.17 884.83 1339.33 920.5 1280 c
956.17 1220.67 974 1157.67 974 1091 c
974 1027.67 957 970 923 918 c
889 866 838.67 824.67 772 794 c
858.67 774 926 732.5 974 669.5 c
1022 606.5 1046 527.67 1046 433 c
1046 305 999.33 196.5 906 107.5 c
812.67 18.5 694.67 -26 552 -26 c
423.33 -26 316.5 12.33 231.5 89 c
146.5 165.67 98 265 86 387 c
closepath } bind def
/s102 {
178 0 m
178 922 178 0 178 922 c
19 922 178 922 19 922 c
19 1062 19 922 19 1062 c
178 1062 19 1062 178 1062 c
178 1175 178 1062 178 1175 c
178 1246.33 184.33 1299.33 197 1334 c
214.33 1380.67 244.83 1418.5 288.5 1447.5 c
332.17 1476.5 393.33 1491 472 1491 c
522.67 1491 578.67 1485 640 1473 c
613 1316 640 1473 613 1316 c
575.67 1322.67 540.33 1326 507 1326 c
452.33 1326 413.67 1314.33 391 1291 c
368.33 1267.67 357 1224 357 1160 c
357 1062 357 1160 357 1062 c
564 1062 357 1062 564 1062 c
564 922 564 1062 564 922 c
357 922 564 922 357 922 c
357 0 357 922 357 0 c
178 0 357 0 178 0 c
closepath } bind def
/s109 {
135 0 m
135 1062 135 0 135 1062 c
296 1062 135 1062 296 1062 c
296 913 296 1062 296 913 c
329.33 965 373.67 1006.83 429 1038.5 c
484.33 1070.17 547.33 1086 618 1086 c
696.67 1086 761.17 1069.67 811.5 1037 c
861.83 1004.33 897.33 958.67 918 900 c
1002 1024 1111.33 1086 1246 1086 c
1351.33 1086 1432.33 1056.83 1489 998.5 c
1545.67 940.17 1574 850.33 1574 729 c
1574 0 1574 729 1574 0 c
1395 0 1574 0 1395 0 c
1395 669 1395 0 1395 669 c
1395 741 1389.17 792.83 1377.5 824.5 c
1365.83 856.17 1344.67 881.67 1314 901 c
1283.33 920.33 1247.33 930 1206 930 c
1131.33 930 1069.33 905.17 1020 855.5 c
970.67 805.83 946 726.33 946 617 c
946 0 946 617 946 0 c
766 0 946 0 766 0 c
766 690 766 0 766 690 c
766 770 751.33 830 722 870 c
692.67 910 644.67 930 578 930 c
527.33 930 480.5 916.67 437.5 890 c
394.5 863.33 363.33 824.33 344 773 c
324.67 721.67 315 647.67 315 551 c
315 0 315 551 315 0 c
135 0 315 0 135 0 c
closepath } bind def
end
/BuildGlyph {
 exch dup /Metrics get 2 index get 0 setcharwidth
/CharProcs get exch 2 copy known not{pop/.notdef}if get exec fill}bind def
/BuildChar {
1 index /Encoding get exch get
1 index /BuildGlyph get exec
} bind def
currentdict end /MC3_Arial exch definefont pop
%%EndFont
%%BeginFont: /MC4_Symbol
12 dict begin
/FontInfo 8 dict dup begin
/ItalicAngle 0 def
/UnderlinePosition -223.00 def
/UnderlineThickness 100.00 def
/StrikeoutPosition 530.00 def
/StrikeoutThickness 102.00 def
/isFixedPitch false def
end readonly def
/FontName /MC4_Symbol def
/FontType 3 def
/FontMatrix [1 2048 div 0 0 1 2048 div 0 0] def
/FontBBox [-1 -450 2279 2059] def
/Encoding 256 array def 0 1 255{Encoding exch/.notdef put}for
Encoding 32/s32 put
/BoundingBoxes 5 dict def
BoundingBoxes begin
/s32 [0 -450 512 2059] def
/s61472 [0 -450 0 2059] def
/s61501 [0 -450 0 2059] def
/s61556 [0 -450 0 2059] def
end
/Metrics 5 dict def
 Metrics begin
/s32 512 def
/s61472 0 def
/s61501 0 def
/s61556 0 def
end
/CharProcs 5 dict def
CharProcs begin
/.notdef {} def
/s61501 {
37 759 m
1087 759 37 759 1087 759 c
1087 662 1087 759 1087 662 c
37 662 1087 662 37 662 c
37 759 37 662 37 759 c
closepath 37 386 m
1087 386 37 386 1087 386 c
1087 287 1087 386 1087 287 c
37 287 1087 287 37 287 c
37 386 37 287 37 386 c
closepath } bind def
/s61556 {
813 916 m
813 769 813 916 813 769 c
501 769 813 769 501 769 c
478.33 549.67 467 399.33 467 318 c
467 253.33 479.17 206.5 503.5 177.5 c
527.83 148.5 558.33 134 595 134 c
622.33 134 646 143.33 666 162 c
686 180.67 700.67 212.67 710 258 c
745 258 710 258 745 258 c
733.67 148.67 709.33 73.17 672 31.5 c
634.67 -10.17 591 -31 541 -31 c
488.33 -31 444.33 -7.17 409 40.5 c
373.67 88.17 356 173.33 356 296 c
356 392.67 368 550.33 392 769 c
298 769 392 769 298 769 c
244 769 201.67 759.17 171 739.5 c
140.33 719.83 110 682.67 80 628 c
43 628 80 628 43 628 c
91 756 134 836 172 868 c
210 900 264 916 334 916 c
813 916 334 916 813 916 c
closepath } bind def
end
/BuildGlyph {
 exch dup /Metrics get 2 index get 0 setcharwidth
/CharProcs get exch 2 copy known not{pop/.notdef}if get exec fill}bind def
/BuildChar {
1 index /Encoding get exch get
1 index /BuildGlyph get exec
} bind def
currentdict end /MC4_Symbol exch definefont pop
%%EndFont
/clipproc{clippath{[{/m cvx}{/l cvx}{/c cvx}{/cp cvx}pathforall}stopped
{cleartomark[pathbbox exch 3 i sub exch 2 i sub/rectpath cvx}if]np}bd
/iclmtx mtx cmtx def/iclpath clipproc xd/clinit{pathproc initclip np iclpath cl np exec}bd
/clmove{pathproc 3 1 roll clippath pathproc 2 i neg 2 i neg tr initclip np exec cl tr np exec}bd
/clrect[gs np iclpath{pathbbox}stopped{0 0 771.85 590.88 }if gr]def
/cloper{mtx cmtx iclmtx smtx exch exec smtx}bd
/cland{{exch cvx exec}cloper}bd
/clcopy{{exch clinit cvx exec}cloper}bd
/cldiff{{exch pathbbox 4 -1 roll clrect 0 get 2 copy gt{exch}if pop 4 1 roll
 3 -1 roll clrect 1 get 2 copy gt{exch}if pop 3 1 roll
 2 -1 roll clrect 2 get 2 copy lt{exch}if pop 2 1 roll
 1 -1 roll clrect 3 get 2 copy lt{exch}if pop 1 1 roll
 exch 3 i sub exch 2 i sub rectpath cvx exec}cloper}bd
/icl{{clinit}cloper}bd
0.851119 0.854583 sc

/initmtx mtx cmtx def
initmtx smtx
[1.0000 0.0000 0.0000 1.0000 0.0000 0.0000 ] concat
 [0.281988 -0 0 -0.28084 0 691.427] concat
gs
386 2092 m
3056 2092 l
7 sw
1 sj
1 scap
st
404 2092 m
404 2075 l
st
422 2092 m
422 2075 l
st
439 2092 m
439 2075 l
st
457 2092 m
457 2075 l
st
475 2092 m
475 2075 l
st
493 2092 m
493 2075 l
st
511 2092 m
511 2075 l
st
528 2092 m
528 2075 l
st
546 2092 m
546 2075 l
st
582 2092 m
582 2075 l
st
600 2092 m
600 2075 l
st
617 2092 m
617 2075 l
st
635 2092 m
635 2075 l
st
653 2092 m
653 2075 l
st
671 2092 m
671 2075 l
st
689 2092 m
689 2075 l
st
706 2092 m
706 2075 l
st
724 2092 m
724 2075 l
st
760 2092 m
760 2075 l
st
778 2092 m
778 2075 l
st
795 2092 m
795 2075 l
st
813 2092 m
813 2075 l
st
831 2092 m
831 2075 l
st
849 2092 m
849 2075 l
st
867 2092 m
867 2075 l
st
884 2092 m
884 2075 l
st
902 2092 m
902 2075 l
st
938 2092 m
938 2075 l
st
956 2092 m
956 2075 l
st
973 2092 m
973 2075 l
st
991 2092 m
991 2075 l
st
1009 2092 m
1009 2075 l
st
1027 2092 m
1027 2075 l
st
1045 2092 m
1045 2075 l
st
1062 2092 m
1062 2075 l
st
1080 2092 m
1080 2075 l
st
1116 2092 m
1116 2075 l
st
1134 2092 m
1134 2075 l
st
1151 2092 m
1151 2075 l
st
1169 2092 m
1169 2075 l
st
1187 2092 m
1187 2075 l
st
1205 2092 m
1205 2075 l
st
1223 2092 m
1223 2075 l
st
1240 2092 m
1240 2075 l
st
1258 2092 m
1258 2075 l
st
1294 2092 m
1294 2075 l
st
1312 2092 m
1312 2075 l
st
1329 2092 m
1329 2075 l
st
1347 2092 m
1347 2075 l
st
1365 2092 m
1365 2075 l
st
1383 2092 m
1383 2075 l
st
1401 2092 m
1401 2075 l
st
1418 2092 m
1418 2075 l
st
1436 2092 m
1436 2075 l
st
1472 2092 m
1472 2075 l
st
1490 2092 m
1490 2075 l
st
1507 2092 m
1507 2075 l
st
1525 2092 m
1525 2075 l
st
1543 2092 m
1543 2075 l
st
1561 2092 m
1561 2075 l
st
1579 2092 m
1579 2075 l
st
1596 2092 m
1596 2075 l
st
1614 2092 m
1614 2075 l
st
1650 2092 m
1650 2075 l
st
1668 2092 m
1668 2075 l
st
1685 2092 m
1685 2075 l
st
1703 2092 m
1703 2075 l
st
1721 2092 m
1721 2075 l
st
1739 2092 m
1739 2075 l
st
1757 2092 m
1757 2075 l
st
1774 2092 m
1774 2075 l
st
1792 2092 m
1792 2075 l
st
1828 2092 m
1828 2075 l
st
1846 2092 m
1846 2075 l
st
1863 2092 m
1863 2075 l
st
1881 2092 m
1881 2075 l
st
1899 2092 m
1899 2075 l
st
1917 2092 m
1917 2075 l
st
1935 2092 m
1935 2075 l
st
1952 2092 m
1952 2075 l
st
1970 2092 m
1970 2075 l
st
2006 2092 m
2006 2075 l
st
2024 2092 m
2024 2075 l
st
2041 2092 m
2041 2075 l
st
2059 2092 m
2059 2075 l
st
2077 2092 m
2077 2075 l
st
2095 2092 m
2095 2075 l
st
2113 2092 m
2113 2075 l
st
2130 2092 m
2130 2075 l
st
2148 2092 m
2148 2075 l
st
2184 2092 m
2184 2075 l
st
2202 2092 m
2202 2075 l
st
2219 2092 m
2219 2075 l
st
2237 2092 m
2237 2075 l
st
2255 2092 m
2255 2075 l
st
2273 2092 m
2273 2075 l
st
2291 2092 m
2291 2075 l
st
2308 2092 m
2308 2075 l
st
2326 2092 m
2326 2075 l
st
2362 2092 m
2362 2075 l
st
2380 2092 m
2380 2075 l
st
2397 2092 m
2397 2075 l
st
2415 2092 m
2415 2075 l
st
2433 2092 m
2433 2075 l
st
2451 2092 m
2451 2075 l
st
2469 2092 m
2469 2075 l
st
2486 2092 m
2486 2075 l
st
2504 2092 m
2504 2075 l
st
2540 2092 m
2540 2075 l
st
2558 2092 m
2558 2075 l
st
2575 2092 m
2575 2075 l
st
2593 2092 m
2593 2075 l
st
2611 2092 m
2611 2075 l
st
2629 2092 m
2629 2075 l
st
2647 2092 m
2647 2075 l
st
2664 2092 m
2664 2075 l
st
2682 2092 m
2682 2075 l
st
2718 2092 m
2718 2075 l
st
2736 2092 m
2736 2075 l
st
2753 2092 m
2753 2075 l
st
2771 2092 m
2771 2075 l
st
2789 2092 m
2789 2075 l
st
2807 2092 m
2807 2075 l
st
2825 2092 m
2825 2075 l
st
2842 2092 m
2842 2075 l
st
2860 2092 m
2860 2075 l
st
2896 2092 m
2896 2075 l
st
2914 2092 m
2914 2075 l
st
2931 2092 m
2931 2075 l
st
2949 2092 m
2949 2075 l
st
2967 2092 m
2967 2075 l
st
2985 2092 m
2985 2075 l
st
3003 2092 m
3003 2075 l
st
3020 2092 m
3020 2075 l
st
3038 2092 m
3038 2075 l
st
386 2092 m
386 2058 l
st
564 2092 m
564 2058 l
st
742 2092 m
742 2058 l
st
920 2092 m
920 2058 l
st
1098 2092 m
1098 2058 l
st
1276 2092 m
1276 2058 l
st
1454 2092 m
1454 2058 l
st
1632 2092 m
1632 2058 l
st
1810 2092 m
1810 2058 l
st
1988 2092 m
1988 2058 l
st
2166 2092 m
2166 2058 l
st
2344 2092 m
2344 2058 l
st
2522 2092 m
2522 2058 l
st
2700 2092 m
2700 2058 l
st
2878 2092 m
2878 2058 l
st
3056 2092 m
3056 2058 l
st
386 123 m
3056 123 l
st
404 123 m
404 140 l
st
422 123 m
422 140 l
st
439 123 m
439 140 l
st
457 123 m
457 140 l
st
475 123 m
475 140 l
st
493 123 m
493 140 l
st
511 123 m
511 140 l
st
528 123 m
528 140 l
st
546 123 m
546 140 l
st
582 123 m
582 140 l
st
600 123 m
600 140 l
st
617 123 m
617 140 l
st
635 123 m
635 140 l
st
653 123 m
653 140 l
st
671 123 m
671 140 l
st
689 123 m
689 140 l
st
706 123 m
706 140 l
st
724 123 m
724 140 l
st
760 123 m
760 140 l
st
778 123 m
778 140 l
st
795 123 m
795 140 l
st
813 123 m
813 140 l
st
831 123 m
831 140 l
st
849 123 m
849 140 l
st
867 123 m
867 140 l
st
884 123 m
884 140 l
st
902 123 m
902 140 l
st
938 123 m
938 140 l
st
956 123 m
956 140 l
st
973 123 m
973 140 l
st
991 123 m
991 140 l
st
1009 123 m
1009 140 l
st
1027 123 m
1027 140 l
st
1045 123 m
1045 140 l
st
1062 123 m
1062 140 l
st
1080 123 m
1080 140 l
st
1116 123 m
1116 140 l
st
1134 123 m
1134 140 l
st
1151 123 m
1151 140 l
st
1169 123 m
1169 140 l
st
1187 123 m
1187 140 l
st
1205 123 m
1205 140 l
st
1223 123 m
1223 140 l
st
1240 123 m
1240 140 l
st
1258 123 m
1258 140 l
st
1294 123 m
1294 140 l
st
1312 123 m
1312 140 l
st
1329 123 m
1329 140 l
st
1347 123 m
1347 140 l
st
1365 123 m
1365 140 l
st
1383 123 m
1383 140 l
st
1401 123 m
1401 140 l
st
1418 123 m
1418 140 l
st
1436 123 m
1436 140 l
st
1472 123 m
1472 140 l
st
1490 123 m
1490 140 l
st
1507 123 m
1507 140 l
st
1525 123 m
1525 140 l
st
1543 123 m
1543 140 l
st
1561 123 m
1561 140 l
st
1579 123 m
1579 140 l
st
1596 123 m
1596 140 l
st
1614 123 m
1614 140 l
st
1650 123 m
1650 140 l
st
1668 123 m
1668 140 l
st
1685 123 m
1685 140 l
st
1703 123 m
1703 140 l
st
1721 123 m
1721 140 l
st
1739 123 m
1739 140 l
st
1757 123 m
1757 140 l
st
1774 123 m
1774 140 l
st
1792 123 m
1792 140 l
st
1828 123 m
1828 140 l
st
1846 123 m
1846 140 l
st
1863 123 m
1863 140 l
st
1881 123 m
1881 140 l
st
1899 123 m
1899 140 l
st
1917 123 m
1917 140 l
st
1935 123 m
1935 140 l
st
1952 123 m
1952 140 l
st
1970 123 m
1970 140 l
st
2006 123 m
2006 140 l
st
2024 123 m
2024 140 l
st
2041 123 m
2041 140 l
st
2059 123 m
2059 140 l
st
2077 123 m
2077 140 l
st
2095 123 m
2095 140 l
st
2113 123 m
2113 140 l
st
2130 123 m
2130 140 l
st
2148 123 m
2148 140 l
st
2184 123 m
2184 140 l
st
2202 123 m
2202 140 l
st
2219 123 m
2219 140 l
st
2237 123 m
2237 140 l
st
2255 123 m
2255 140 l
st
2273 123 m
2273 140 l
st
2291 123 m
2291 140 l
st
2308 123 m
2308 140 l
st
2326 123 m
2326 140 l
st
2362 123 m
2362 140 l
st
2380 123 m
2380 140 l
st
2397 123 m
2397 140 l
st
2415 123 m
2415 140 l
st
2433 123 m
2433 140 l
st
2451 123 m
2451 140 l
st
2469 123 m
2469 140 l
st
2486 123 m
2486 140 l
st
2504 123 m
2504 140 l
st
2540 123 m
2540 140 l
st
2558 123 m
2558 140 l
st
2575 123 m
2575 140 l
st
2593 123 m
2593 140 l
st
2611 123 m
2611 140 l
st
2629 123 m
2629 140 l
st
2647 123 m
2647 140 l
st
2664 123 m
2664 140 l
st
2682 123 m
2682 140 l
st
2718 123 m
2718 140 l
st
2736 123 m
2736 140 l
st
2753 123 m
2753 140 l
st
2771 123 m
2771 140 l
st
2789 123 m
2789 140 l
st
2807 123 m
2807 140 l
st
2825 123 m
2825 140 l
st
2842 123 m
2842 140 l
st
2860 123 m
2860 140 l
st
2896 123 m
2896 140 l
st
2914 123 m
2914 140 l
st
2931 123 m
2931 140 l
st
2949 123 m
2949 140 l
st
2967 123 m
2967 140 l
st
2985 123 m
2985 140 l
st
3003 123 m
3003 140 l
st
3020 123 m
3020 140 l
st
3038 123 m
3038 140 l
st
386 123 m
386 157 l
st
564 123 m
564 157 l
st
742 123 m
742 157 l
st
920 123 m
920 157 l
st
1098 123 m
1098 157 l
st
1276 123 m
1276 157 l
st
1454 123 m
1454 157 l
st
1632 123 m
1632 157 l
st
1810 123 m
1810 157 l
st
1988 123 m
1988 157 l
st
2166 123 m
2166 157 l
st
2344 123 m
2344 157 l
st
2522 123 m
2522 157 l
st
2700 123 m
2700 157 l
st
2878 123 m
2878 157 l
st
3056 123 m
3056 157 l
st
386 2092 m
386 123 l
st
386 2076 m
403 2076 l
st
386 2059 m
403 2059 l
st
386 2043 m
403 2043 l
st
386 2026 m
403 2026 l
st
386 2010 m
403 2010 l
st
386 1994 m
403 1994 l
st
386 1977 m
403 1977 l
st
386 1961 m
403 1961 l
st
386 1944 m
403 1944 l
st
386 1912 m
403 1912 l
st
386 1895 m
403 1895 l
st
386 1879 m
403 1879 l
st
386 1862 m
403 1862 l
st
386 1846 m
403 1846 l
st
386 1829 m
403 1829 l
st
386 1813 m
403 1813 l
st
386 1797 m
403 1797 l
st
386 1780 m
403 1780 l
st
386 1747 m
403 1747 l
st
386 1731 m
403 1731 l
st
386 1715 m
403 1715 l
st
386 1698 m
403 1698 l
st
386 1682 m
403 1682 l
st
386 1665 m
403 1665 l
st
386 1649 m
403 1649 l
st
386 1633 m
403 1633 l
st
386 1616 m
403 1616 l
st
386 1583 m
403 1583 l
st
386 1567 m
403 1567 l
st
386 1551 m
403 1551 l
st
386 1534 m
403 1534 l
st
386 1518 m
403 1518 l
st
386 1501 m
403 1501 l
st
386 1485 m
403 1485 l
st
386 1468 m
403 1468 l
st
386 1452 m
403 1452 l
st
386 1419 m
403 1419 l
st
386 1403 m
403 1403 l
st
386 1386 m
403 1386 l
st
386 1370 m
403 1370 l
st
386 1354 m
403 1354 l
st
386 1337 m
403 1337 l
st
386 1321 m
403 1321 l
st
386 1304 m
403 1304 l
st
386 1288 m
403 1288 l
st
386 1255 m
403 1255 l
st
386 1239 m
403 1239 l
st
386 1222 m
403 1222 l
st
386 1206 m
403 1206 l
st
386 1190 m
403 1190 l
st
386 1173 m
403 1173 l
st
386 1157 m
403 1157 l
st
386 1140 m
403 1140 l
st
386 1124 m
403 1124 l
st
386 1091 m
403 1091 l
st
386 1075 m
403 1075 l
st
386 1058 m
403 1058 l
st
386 1042 m
403 1042 l
st
386 1025 m
403 1025 l
st
386 1009 m
403 1009 l
st
386 993 m
403 993 l
st
386 976 m
403 976 l
st
386 960 m
403 960 l
st
386 927 m
403 927 l
st
386 911 m
403 911 l
st
386 894 m
403 894 l
st
386 878 m
403 878 l
st
386 861 m
403 861 l
st
386 845 m
403 845 l
st
386 829 m
403 829 l
st
386 812 m
403 812 l
st
386 796 m
403 796 l
st
386 763 m
403 763 l
st
386 747 m
403 747 l
st
386 730 m
403 730 l
st
386 714 m
403 714 l
st
386 697 m
403 697 l
st
386 681 m
403 681 l
st
386 664 m
403 664 l
st
386 648 m
403 648 l
st
386 632 m
403 632 l
st
386 599 m
403 599 l
st
386 582 m
403 582 l
st
386 566 m
403 566 l
st
386 550 m
403 550 l
st
386 533 m
403 533 l
st
386 517 m
403 517 l
st
386 500 m
403 500 l
st
386 484 m
403 484 l
st
386 468 m
403 468 l
st
386 435 m
403 435 l
st
386 418 m
403 418 l
st
386 402 m
403 402 l
st
386 386 m
403 386 l
st
386 369 m
403 369 l
st
386 353 m
403 353 l
st
386 336 m
403 336 l
st
386 320 m
403 320 l
st
386 303 m
403 303 l
st
386 271 m
403 271 l
st
386 254 m
403 254 l
st
386 238 m
403 238 l
st
386 221 m
403 221 l
st
386 205 m
403 205 l
st
386 189 m
403 189 l
st
386 172 m
403 172 l
st
386 156 m
403 156 l
st
386 139 m
403 139 l
st
386 2092 m
420 2092 l
st
386 1928 m
420 1928 l
st
386 1764 m
420 1764 l
st
386 1600 m
420 1600 l
st
386 1436 m
420 1436 l
st
386 1272 m
420 1272 l
st
386 1107 m
420 1107 l
st
386 943 m
420 943 l
st
386 779 m
420 779 l
st
386 615 m
420 615 l
st
386 451 m
420 451 l
st
386 287 m
420 287 l
st
386 123 m
420 123 l
st
3056 2092 m
3056 123 l
st
3056 2076 m
3039 2076 l
st
3056 2059 m
3039 2059 l
st
3056 2043 m
3039 2043 l
st
3056 2026 m
3039 2026 l
st
3056 2010 m
3039 2010 l
st
3056 1994 m
3039 1994 l
st
3056 1977 m
3039 1977 l
st
3056 1961 m
3039 1961 l
st
3056 1944 m
3039 1944 l
st
3056 1912 m
3039 1912 l
st
3056 1895 m
3039 1895 l
st
3056 1879 m
3039 1879 l
st
3056 1862 m
3039 1862 l
st
3056 1846 m
3039 1846 l
st
3056 1829 m
3039 1829 l
st
3056 1813 m
3039 1813 l
st
3056 1797 m
3039 1797 l
st
3056 1780 m
3039 1780 l
st
3056 1747 m
3039 1747 l
st
3056 1731 m
3039 1731 l
st
3056 1715 m
3039 1715 l
st
3056 1698 m
3039 1698 l
st
3056 1682 m
3039 1682 l
st
3056 1665 m
3039 1665 l
st
3056 1649 m
3039 1649 l
st
3056 1633 m
3039 1633 l
st
3056 1616 m
3039 1616 l
st
3056 1583 m
3039 1583 l
st
3056 1567 m
3039 1567 l
st
3056 1551 m
3039 1551 l
st
3056 1534 m
3039 1534 l
st
3056 1518 m
3039 1518 l
st
3056 1501 m
3039 1501 l
st
3056 1485 m
3039 1485 l
st
3056 1468 m
3039 1468 l
st
3056 1452 m
3039 1452 l
st
3056 1419 m
3039 1419 l
st
3056 1403 m
3039 1403 l
st
3056 1386 m
3039 1386 l
st
3056 1370 m
3039 1370 l
st
3056 1354 m
3039 1354 l
st
3056 1337 m
3039 1337 l
st
3056 1321 m
3039 1321 l
st
3056 1304 m
3039 1304 l
st
3056 1288 m
3039 1288 l
st
3056 1255 m
3039 1255 l
st
3056 1239 m
3039 1239 l
st
3056 1222 m
3039 1222 l
st
3056 1206 m
3039 1206 l
st
3056 1190 m
3039 1190 l
st
3056 1173 m
3039 1173 l
st
3056 1157 m
3039 1157 l
st
3056 1140 m
3039 1140 l
st
3056 1124 m
3039 1124 l
st
3056 1091 m
3039 1091 l
st
3056 1075 m
3039 1075 l
st
3056 1058 m
3039 1058 l
st
3056 1042 m
3039 1042 l
st
3056 1025 m
3039 1025 l
st
3056 1009 m
3039 1009 l
st
3056 993 m
3039 993 l
st
3056 976 m
3039 976 l
st
3056 960 m
3039 960 l
st
3056 927 m
3039 927 l
st
3056 911 m
3039 911 l
st
3056 894 m
3039 894 l
st
3056 878 m
3039 878 l
st
3056 861 m
3039 861 l
st
3056 845 m
3039 845 l
st
3056 829 m
3039 829 l
st
3056 812 m
3039 812 l
st
3056 796 m
3039 796 l
st
3056 763 m
3039 763 l
st
3056 747 m
3039 747 l
st
3056 730 m
3039 730 l
st
3056 714 m
3039 714 l
st
3056 697 m
3039 697 l
st
3056 681 m
3039 681 l
st
3056 664 m
3039 664 l
st
3056 648 m
3039 648 l
st
3056 632 m
3039 632 l
st
3056 599 m
3039 599 l
st
3056 582 m
3039 582 l
st
3056 566 m
3039 566 l
st
3056 550 m
3039 550 l
st
3056 533 m
3039 533 l
st
3056 517 m
3039 517 l
st
3056 500 m
3039 500 l
st
3056 484 m
3039 484 l
st
3056 468 m
3039 468 l
st
3056 435 m
3039 435 l
st
3056 418 m
3039 418 l
st
3056 402 m
3039 402 l
st
3056 386 m
3039 386 l
st
3056 369 m
3039 369 l
st
3056 353 m
3039 353 l
st
3056 336 m
3039 336 l
st
3056 320 m
3039 320 l
st
3056 303 m
3039 303 l
st
3056 271 m
3039 271 l
st
3056 254 m
3039 254 l
st
3056 238 m
3039 238 l
st
3056 221 m
3039 221 l
st
3056 205 m
3039 205 l
st
3056 189 m
3039 189 l
st
3056 172 m
3039 172 l
st
3056 156 m
3039 156 l
st
3056 139 m
3039 139 l
st
3056 2092 m
3022 2092 l
st
3056 1928 m
3022 1928 l
st
3056 1764 m
3022 1764 l
st
3056 1600 m
3022 1600 l
st
3056 1436 m
3022 1436 l
st
3056 1272 m
3022 1272 l
st
3056 1107 m
3022 1107 l
st
3056 943 m
3022 943 l
st
3056 779 m
3022 779 l
st
3056 615 m
3022 615 l
st
3056 451 m
3022 451 l
st
3056 287 m
3022 287 l
st
3056 123 m
3022 123 l
st
gs
gr
gs
gr
gs
1 -1 sc
/MC1_Arial 84 self 328 -2195 m
(0.0)[47 23 47 ] xs
1 -1 sc
gr
gs
gr
gs
gr
gs
1 -1 sc
/MC1_Arial 84 self 506 -2195 m
(0.2)[47 23 47 ] xs
1 -1 sc
gr
gs
gr
gs
gr
gs
1 -1 sc
/MC1_Arial 84 self 684 -2195 m
(0.4)[47 23 47 ] xs
1 -1 sc
gr
gs
gr
gs
gr
gs
1 -1 sc
/MC1_Arial 84 self 862 -2195 m
(0.6)[47 23 47 ] xs
1 -1 sc
gr
gs
gr
gs
gr
gs
1 -1 sc
/MC1_Arial 84 self 1040 -2195 m
(0.8)[47 23 47 ] xs
1 -1 sc
gr
gs
gr
gs
gr
gs
1 -1 sc
/MC1_Arial 84 self 1218 -2195 m
(1.0)[47 23 47 ] xs
1 -1 sc
gr
gs
gr
gs
gr
gs
1 -1 sc
/MC1_Arial 84 self 1396 -2195 m
(1.2)[47 23 47 ] xs
1 -1 sc
gr
gs
gr
gs
gr
gs
1 -1 sc
/MC1_Arial 84 self 1574 -2195 m
(1.4)[47 23 47 ] xs
1 -1 sc
gr
gs
gr
gs
gr
gs
1 -1 sc
/MC1_Arial 84 self 1752 -2195 m
(1.6)[47 23 47 ] xs
1 -1 sc
gr
gs
gr
gs
gr
gs
1 -1 sc
/MC1_Arial 84 self 1930 -2195 m
(1.8)[47 23 47 ] xs
1 -1 sc
gr
gs
gr
gs
gr
gs
1 -1 sc
/MC1_Arial 84 self 2108 -2195 m
(2.0)[47 23 47 ] xs
1 -1 sc
gr
gs
gr
gs
gr
gs
1 -1 sc
/MC1_Arial 84 self 2286 -2195 m
(2.2)[47 23 47 ] xs
1 -1 sc
gr
gs
gr
gs
gr
gs
1 -1 sc
/MC1_Arial 84 self 2464 -2195 m
(2.4)[47 23 47 ] xs
1 -1 sc
gr
gs
gr
gs
gr
gs
1 -1 sc
/MC1_Arial 84 self 2642 -2195 m
(2.6)[47 23 47 ] xs
1 -1 sc
gr
gs
gr
gs
gr
gs
1 -1 sc
/MC1_Arial 84 self 2820 -2195 m
(2.8)[47 23 47 ] xs
1 -1 sc
gr
gs
gr
gs
gr
gs
1 -1 sc
/MC1_Arial 84 self 2998 -2195 m
(3.0)[47 23 47 ] xs
1 -1 sc
gr
gs
gr
gs
gr
gs
1 -1 sc
/MC1_Arial 84 self 184 -2117 m
(0.00)[47 23 47 47 ] xs
1 -1 sc
gr
gs
gr
gs
gr
gs
1 -1 sc
/MC1_Arial 84 self 184 -1953 m
(0.01)[47 23 47 47 ] xs
1 -1 sc
gr
gs
gr
gs
gr
gs
1 -1 sc
/MC1_Arial 84 self 184 -1789 m
(0.02)[47 23 47 47 ] xs
1 -1 sc
gr
gs
gr
gs
gr
gs
1 -1 sc
/MC1_Arial 84 self 184 -1625 m
(0.03)[47 23 47 47 ] xs
1 -1 sc
gr
gs
gr
gs
gr
gs
1 -1 sc
/MC1_Arial 84 self 184 -1461 m
(0.04)[47 23 47 47 ] xs
1 -1 sc
gr
gs
gr
gs
gr
gs
1 -1 sc
/MC1_Arial 84 self 184 -1297 m
(0.05)[47 23 47 47 ] xs
1 -1 sc
gr
gs
gr
gs
gr
gs
1 -1 sc
/MC1_Arial 84 self 184 -1132 m
(0.06)[47 23 47 47 ] xs
1 -1 sc
gr
gs
gr
gs
gr
gs
1 -1 sc
/MC1_Arial 84 self 184 -968 m
(0.07)[47 23 47 47 ] xs
1 -1 sc
gr
gs
gr
gs
gr
gs
1 -1 sc
/MC1_Arial 84 self 184 -804 m
(0.08)[47 23 47 47 ] xs
1 -1 sc
gr
gs
gr
gs
gr
gs
1 -1 sc
/MC1_Arial 84 self 184 -640 m
(0.09)[47 23 47 47 ] xs
1 -1 sc
gr
gs
gr
gs
gr
gs
1 -1 sc
/MC1_Arial 84 self 184 -476 m
(0.10)[47 23 47 47 ] xs
1 -1 sc
gr
gs
gr
gs
gr
gs
1 -1 sc
/MC1_Arial 84 self 184 -312 m
(0.11)[47 23 47 47 ] xs
1 -1 sc
gr
gs
gr
gs
gr
gs
1 -1 sc
/MC1_Arial 84 self 184 -148 m
(0.12)[47 23 47 47 ] xs
1 -1 sc
gr
gs
gr
gs
gr
gs
gr
gs
gr
gs
gr
gs
gr
gs
gr
gs
gr
gs
gr
gs
gr
gs
gr
gs
gr
gs
gr
gs
gr
gs
gr
gs
gr
gs
gr
gs
gr
gs
gr
gs
gr
gs
gr
gs
gr
gs
gr
gs
gr
gs
gr
gs
gr
gs
gr
gs
gr
gs
gr
gs
gr
gs
gr
gs
gr
gs
gr
gs
pathproc 386 123 2671 1970 np rectpath
/eocl cland
np exec
gr
gs
pathproc 386 123 2671 1970 np rectpath
/eocl cland
np exec
gr
gs
pathproc 386 123 2671 1970 np rectpath
/eocl cland
np exec
np
431 494 14 0 360  a
cp
gs
0 0 1 rgb
eofi
gr
2 sw
0 0 1 rgb
st
np
520 474 14 0 360  a
cp
gs
eofi
gr
st
np
609 487 14 0 360  a
cp
gs
eofi
gr
st
np
698 513 14 0 360  a
cp
gs
eofi
gr
st
np
787 554 14 0 360  a
cp
gs
eofi
gr
st
np
876 622 14 0 360  a
cp
gs
eofi
gr
st
np
965 707 14 0 360  a
cp
gs
eofi
gr
st
np
1054 818 14 0 360  a
cp
gs
eofi
gr
st
np
1143 949 14 0 360  a
cp
gs
eofi
gr
st
np
1232 1093 14 0 360  a
cp
gs
eofi
gr
st
np
1321 1237 14 0 360  a
cp
gs
eofi
gr
st
np
1410 1378 14 0 360  a
cp
gs
eofi
gr
st
np
1499 1508 14 0 360  a
cp
gs
eofi
gr
st
np
1588 1622 14 0 360  a
cp
gs
eofi
gr
st
np
1677 1719 14 0 360  a
cp
gs
eofi
gr
st
np
1766 1801 14 0 360  a
cp
gs
eofi
gr
st
np
1855 1867 14 0 360  a
cp
gs
eofi
gr
st
np
1944 1919 14 0 360  a
cp
gs
eofi
gr
st
np
2033 1959 14 0 360  a
cp
gs
eofi
gr
st
np
2122 1991 14 0 360  a
cp
gs
eofi
gr
st
np
2211 2016 14 0 360  a
cp
gs
eofi
gr
st
np
2300 2034 14 0 360  a
cp
gs
eofi
gr
st
np
2389 2048 14 0 360  a
cp
gs
eofi
gr
st
np
2478 2059 14 0 360  a
cp
gs
eofi
gr
st
np
2567 2067 14 0 360  a
cp
gs
eofi
gr
st
np
2656 2073 14 0 360  a
cp
gs
eofi
gr
st
np
2745 2078 14 0 360  a
cp
gs
eofi
gr
st
np
2834 2081 14 0 360  a
cp
gs
eofi
gr
st
np
2923 2084 14 0 360  a
cp
gs
eofi
gr
st
np
3012 2086 14 0 360  a
cp
gs
eofi
gr
st
np
3101 2087 14 0 360  a
cp
gs
eofi
gr
st
gr
gs
pathproc 386 123 2671 1970 np rectpath
/eocl cland
np exec
431 477 m
431 481 l
3 sw
0 0 1 rgb
st
418 477 m
444 477 l
st
431 511 m
431 507 l
st
418 511 m
444 511 l
st
520 468 m
520 461 l
st
507 468 m
533 468 l
st
520 481 m
520 487 l
st
507 481 m
533 481 l
st
609 483 m
609 474 l
st
596 483 m
622 483 l
st
609 491 m
609 500 l
st
596 491 m
622 491 l
st
698 510 m
698 500 l
st
685 510 m
711 510 l
st
698 516 m
698 526 l
st
685 516 m
711 516 l
st
787 552 m
787 541 l
st
774 552 m
800 552 l
st
787 556 m
787 567 l
st
774 556 m
800 556 l
st
876 620 m
876 609 l
st
863 620 m
889 620 l
st
876 624 m
876 635 l
st
863 624 m
889 624 l
st
965 705 m
965 694 l
st
952 705 m
978 705 l
st
965 708 m
965 720 l
st
952 708 m
978 708 l
st
1054 816 m
1054 805 l
st
1041 816 m
1067 816 l
st
1054 819 m
1054 831 l
st
1041 819 m
1067 819 l
st
1143 949 m
1143 962 l
st
1130 949 m
1156 949 l
st
1143 950 m
1143 962 l
st
1130 950 m
1156 950 l
st
1232 1092 m
1232 1080 l
st
1219 1092 m
1245 1092 l
st
1232 1094 m
1232 1106 l
st
1219 1094 m
1245 1094 l
st
1321 1236 m
1321 1224 l
st
1308 1236 m
1334 1236 l
st
1321 1238 m
1321 1250 l
st
1308 1238 m
1334 1238 l
st
1410 1378 m
1410 1391 l
st
1397 1378 m
1423 1378 l
st
1410 1379 m
1410 1391 l
st
1397 1379 m
1423 1379 l
st
1499 1507 m
1499 1495 l
st
1486 1507 m
1512 1507 l
st
1499 1508 m
1499 1521 l
st
1486 1508 m
1512 1508 l
st
1588 1622 m
1588 1635 l
st
1575 1622 m
1601 1622 l
st
1588 1623 m
1588 1635 l
st
1575 1623 m
1601 1623 l
st
1677 1719 m
1677 1732 l
st
1664 1719 m
1690 1719 l
st
1677 1720 m
1677 1732 l
st
1664 1720 m
1690 1720 l
st
1766 1800 m
1766 1788 l
st
1753 1800 m
1779 1800 l
st
1766 1801 m
1766 1814 l
st
1753 1801 m
1779 1801 l
st
1855 1867 m
1855 1880 l
st
1842 1867 m
1868 1867 l
st
1855 1867 m
1855 1880 l
st
1842 1867 m
1868 1867 l
st
1944 1919 m
1944 1932 l
st
1931 1919 m
1957 1919 l
st
1944 1919 m
1944 1932 l
st
1931 1919 m
1957 1919 l
st
2033 1959 m
2033 1972 l
st
2020 1959 m
2046 1959 l
st
2033 1960 m
2033 1972 l
st
2020 1960 m
2046 1960 l
st
2122 1991 m
2122 2004 l
st
2109 1991 m
2135 1991 l
st
2122 1991 m
2122 2004 l
st
2109 1991 m
2135 1991 l
st
2211 2015 m
2211 2003 l
st
2198 2015 m
2224 2015 l
st
2211 2016 m
2211 2029 l
st
2198 2016 m
2224 2016 l
st
2300 2034 m
2300 2047 l
st
2287 2034 m
2313 2034 l
st
2300 2035 m
2300 2047 l
st
2287 2035 m
2313 2035 l
st
gr
gs
pathproc 386 123 2671 1970 np rectpath
/eocl cland
np exec
gr
gs
pathproc 386 123 2671 1970 np rectpath
/eocl cland
np exec
gr
gs
pathproc 386 123 2671 1970 np rectpath
/eocl cland
np exec
414 463 m
431 446 l
448 463 l
431 480 l
cp
gs
0 1 1 rgb
eofi
gr
2 sw
0 1 1 rgb
st
503 471 m
520 454 l
537 471 l
520 488 l
cp
gs
eofi
gr
st
592 476 m
609 459 l
626 476 l
609 493 l
cp
gs
eofi
gr
st
681 499 m
698 482 l
715 499 l
698 516 l
cp
gs
eofi
gr
st
770 546 m
787 529 l
804 546 l
787 563 l
cp
gs
eofi
gr
st
859 615 m
876 598 l
893 615 l
876 632 l
cp
gs
eofi
gr
st
948 700 m
965 683 l
982 700 l
965 717 l
cp
gs
eofi
gr
st
1037 812 m
1054 795 l
1071 812 l
1054 829 l
cp
gs
eofi
gr
st
1126 941 m
1143 924 l
1160 941 l
1143 958 l
cp
gs
eofi
gr
st
1215 1087 m
1232 1070 l
1249 1087 l
1232 1104 l
cp
gs
eofi
gr
st
1304 1233 m
1321 1216 l
1338 1233 l
1321 1250 l
cp
gs
eofi
gr
st
1393 1378 m
1410 1361 l
1427 1378 l
1410 1395 l
cp
gs
eofi
gr
st
1482 1507 m
1499 1490 l
1516 1507 l
1499 1524 l
cp
gs
eofi
gr
st
1571 1621 m
1588 1604 l
1605 1621 l
1588 1638 l
cp
gs
eofi
gr
st
1660 1718 m
1677 1701 l
1694 1718 l
1677 1735 l
cp
gs
eofi
gr
st
1749 1800 m
1766 1783 l
1783 1800 l
1766 1817 l
cp
gs
eofi
gr
st
1838 1867 m
1855 1850 l
1872 1867 l
1855 1884 l
cp
gs
eofi
gr
st
1927 1918 m
1944 1901 l
1961 1918 l
1944 1935 l
cp
gs
eofi
gr
st
2016 1960 m
2033 1943 l
2050 1960 l
2033 1977 l
cp
gs
eofi
gr
st
2105 1992 m
2122 1975 l
2139 1992 l
2122 2009 l
cp
gs
eofi
gr
st
2194 2016 m
2211 1999 l
2228 2016 l
2211 2033 l
cp
gs
eofi
gr
st
2283 2035 m
2300 2018 l
2317 2035 l
2300 2052 l
cp
gs
eofi
gr
st
2372 2049 m
2389 2032 l
2406 2049 l
2389 2066 l
cp
gs
eofi
gr
st
2461 2060 m
2478 2043 l
2495 2060 l
2478 2077 l
cp
gs
eofi
gr
st
2550 2068 m
2567 2051 l
2584 2068 l
2567 2085 l
cp
gs
eofi
gr
st
2639 2073 m
2656 2056 l
2673 2073 l
2656 2090 l
cp
gs
eofi
gr
st
2728 2078 m
2745 2061 l
2762 2078 l
2745 2095 l
cp
gs
eofi
gr
st
2817 2081 m
2834 2064 l
2851 2081 l
2834 2098 l
cp
gs
eofi
gr
st
2906 2084 m
2923 2067 l
2940 2084 l
2923 2101 l
cp
gs
eofi
gr
st
2995 2086 m
3012 2069 l
3029 2086 l
3012 2103 l
cp
gs
eofi
gr
st
3084 2087 m
3101 2070 l
3118 2087 l
3101 2104 l
cp
gs
eofi
gr
st
gr
gs
pathproc 386 123 2671 1970 np rectpath
/eocl cland
np exec
431 431 m
431 446 l
3 sw
0 1 1 rgb
st
414 431 m
448 431 l
st
431 494 m
431 480 l
st
414 494 m
448 494 l
st
520 459 m
520 454 l
st
503 459 m
537 459 l
st
520 483 m
520 488 l
st
503 483 m
537 483 l
st
609 469 m
609 459 l
st
592 469 m
626 469 l
st
609 483 m
609 493 l
st
592 483 m
626 483 l
st
698 494 m
698 482 l
st
681 494 m
715 494 l
st
698 504 m
698 516 l
st
681 504 m
715 504 l
st
787 542 m
787 529 l
st
770 542 m
804 542 l
st
787 550 m
787 563 l
st
770 550 m
804 550 l
st
876 611 m
876 598 l
st
859 611 m
893 611 l
st
876 618 m
876 632 l
st
859 618 m
893 618 l
st
965 697 m
965 683 l
st
948 697 m
982 697 l
st
965 703 m
965 717 l
st
948 703 m
982 703 l
st
1054 810 m
1054 795 l
st
1037 810 m
1071 810 l
st
1054 814 m
1054 829 l
st
1037 814 m
1071 814 l
st
1143 939 m
1143 924 l
st
1126 939 m
1160 939 l
st
1143 943 m
1143 958 l
st
1126 943 m
1160 943 l
st
1232 1086 m
1232 1070 l
st
1215 1086 m
1249 1086 l
st
1232 1089 m
1232 1104 l
st
1215 1089 m
1249 1089 l
st
1321 1231 m
1321 1216 l
st
1304 1231 m
1338 1231 l
st
1321 1234 m
1321 1250 l
st
1304 1234 m
1338 1234 l
st
1410 1377 m
1410 1361 l
st
1393 1377 m
1427 1377 l
st
1410 1380 m
1410 1395 l
st
1393 1380 m
1427 1380 l
st
1499 1506 m
1499 1490 l
st
1482 1506 m
1516 1506 l
st
1499 1508 m
1499 1524 l
st
1482 1508 m
1516 1508 l
st
1588 1620 m
1588 1604 l
st
1571 1620 m
1605 1620 l
st
1588 1622 m
1588 1638 l
st
1571 1622 m
1605 1622 l
st
1677 1718 m
1677 1735 l
st
1660 1718 m
1694 1718 l
st
1677 1719 m
1677 1735 l
st
1660 1719 m
1694 1719 l
st
1766 1799 m
1766 1783 l
st
1749 1799 m
1783 1799 l
st
1766 1800 m
1766 1817 l
st
1749 1800 m
1783 1800 l
st
1855 1866 m
1855 1850 l
st
1838 1866 m
1872 1866 l
st
1855 1867 m
1855 1884 l
st
1838 1867 m
1872 1867 l
st
1944 1918 m
1944 1935 l
st
1927 1918 m
1961 1918 l
st
1944 1919 m
1944 1935 l
st
1927 1919 m
1961 1919 l
st
2033 1960 m
2033 1977 l
st
2016 1960 m
2050 1960 l
st
2033 1960 m
2033 1977 l
st
2016 1960 m
2050 1960 l
st
2122 1991 m
2122 1975 l
st
2105 1991 m
2139 1991 l
st
2122 1992 m
2122 2009 l
st
2105 1992 m
2139 1992 l
st
2211 2016 m
2211 2033 l
st
2194 2016 m
2228 2016 l
st
2211 2017 m
2211 2033 l
st
2194 2017 m
2228 2017 l
st
2300 2035 m
2300 2052 l
st
2283 2035 m
2317 2035 l
st
2300 2035 m
2300 2052 l
st
2283 2035 m
2317 2035 l
st
2389 2049 m
2389 2066 l
st
2372 2049 m
2406 2049 l
st
2389 2049 m
2389 2066 l
st
2372 2049 m
2406 2049 l
st
2478 2059 m
2478 2043 l
st
2461 2059 m
2495 2059 l
st
2478 2060 m
2478 2077 l
st
2461 2060 m
2495 2060 l
st
2567 2067 m
2567 2051 l
st
2550 2067 m
2584 2067 l
st
2567 2068 m
2567 2085 l
st
2550 2068 m
2584 2068 l
st
gr
gs
gs
1 -1 sc
91 -1205 tr
90 ro
/MC2_Symbol 91 self 0 0 m
/s61554 50 xgls
/s61472 23 xgls
1 -1 sc
gr
gs
1 -1 sc
91 -1132 tr
90 ro
/MC2_Symbol 91 self 0 0 m
(\()[30 ] xs
1 -1 sc
gr
gs
1 -1 sc
91 -1102 tr
90 ro
/MC3_Arial 91 self 0 0 m
(fm)[25 76 ] xs
1 -1 sc
gr
gs
1 -1 sc
46 -1001 tr
90 ro
/MC3_Arial 55 self 0 0 m
(-3)[18 31 ] xs
1 -1 sc
gr
gs
1 -1 sc
91 -952 tr
90 ro
/MC2_Symbol 91 self 0 0 m
(\))[30 ] xs
1 -1 sc
gr
gr
gs
1 -1 sc
/MC1_Arial 91 self 1613 -2340 m
(r \(fm\))[30 25 30 26 76 30 ] xs
1 -1 sc
gr
gs
gs
gr
gs
np
2245 480 13 0 360  a
cp
gs
0 0 1 rgb
eofi
gr
2 sw
0 0 1 rgb
st
gr
1 -1 sc
/MC1_Arial 91 self 2346 -510 m
( )[25 ] xs
1 -1 sc
1 -1 sc
/MC4_Symbol 91 self 2371 -510 m
/s61556 38 xgls
/s61472 23 xgls
/s61501 50 xgls
/s61472 23 xgls
1 -1 sc
1 -1 sc
/MC1_Arial 91 self 2505 -510 m
(0.2   MeV)[51 25 51 25 25 25 75 51 61 ] xs
1 -1 sc
1 -1 sc
/MC1_Arial 55 self 2894 -465 m
(-1)[18 31 ] xs
1 -1 sc
gs
gr
gs
2228 608 m
2245 591 l
2262 608 l
2245 625 l
cp
gs
0 1 1 rgb
eofi
gr
2 sw
0 1 1 rgb
st
gr
1 -1 sc
/MC1_Arial 91 self 2346 -638 m
( )[25 ] xs
1 -1 sc
1 -1 sc
/MC4_Symbol 91 self 2371 -638 m
/s61556 38 xgls
/s61472 23 xgls
/s61501 50 xgls
/s61472 23 xgls
1 -1 sc
1 -1 sc
/MC1_Arial 91 self 2505 -638 m
(0.3   MeV)[51 25 51 25 25 25 75 51 61 ] xs
1 -1 sc
1 -1 sc
/MC1_Arial 55 self 2894 -593 m
(-1)[18 31 ] xs
1 -1 sc
gr
gs
1 -1 sc
/MC1_Arial 55 self 2810 -246 m
(4)[31 ] xs
1 -1 sc
1 -1 sc
/MC1_Arial 91 self 2841 -291 m
(He)[66 51 ] xs
1 -1 sc
gr
gr
Save0 restore end
showpage
%%EOF
