%!PS-Adobe-3.0 EPSF-3.0
%%BoundingBox: 0 0 842 595
%%LanguageLevel: 2
%%Creator: OriginLab Corporation
%%Title: (C:\Users\Rong\Desktop\rhopimcdmc.eps)
%%CreationDate: Sat Mar 28 04:50:41 2020
%%EndComments

/OriginLab::PSL1 128 dict dup begin def
/Save0 save def
%%BeginResource: procset OriginLab::PSL1
/wd{1 index where{pop pop pop}{bind def}ifelse}bind def
/setcmykcolor{1 sub 4 1 roll 3{3 index add neg dup 0 lt{pop 0}if 3 1 roll}repeat setrgbcolor pop}wd
/selectfont{dup type/arraytype eq{exch findfont exch makefont setfont}{exch findfont exch scalefont setfont}ifelse}wd
/xshow{1 index length 0 le{}{currentpoint exch 3 index length 1 sub 0 exch 1 exch{dup 5 index exch 1 getinterval show 3 index exch get add 2 copy exch moveto}for pop pop}ifelse pop pop}wd
/glyphshow{matrix currentmatrix exch currentfont dup/FontMatrix get concat currentpoint translate
 dup/Metrics get 2 index get 0 4 2 roll gsave/CharProcs get exch 2 copy known not{pop/.notdef}if
 get exec fill grestore moveto setmatrix}wd
/grayimage/image load def/rgbtogray{cvx exec dup length 3 idiv 1 sub 0 exch 1 exch{dup 3 mul dup 3 index exch get 255 div .3 mul exch
 1 add dup 4 index exch get 255 div .59 mul exch 1 add 4 index exch get 255 div .11 mul add add
 255 mul dup 255 gt{255}if round cvi 2 index 3 1 roll put}for dup length 3 idiv 0 exch getinterval}bind def
/colorimage{0 setgray pop pop cvlit/rgbtogray cvx 2 packedarray cvx grayimage}wd
/bd{bind def}bind def/ld{load def}bd/ed{exch def}bd/xd{cvx def}bd
/np/newpath ld/a/arc ld/m/moveto ld/l/lineto ld/c/curveto ld/rm/rmoveto ld/rl/rlineto ld/rc/rcurveto ld/cp/closepath ld/cpt/currentpoint ld
/tr/translate ld/sc/scale ld/ro/rotate ld/t/transform ld/it/itransform ld/dt/dtransform ld/idt/idtransform ld
/mtx/matrix ld/cmtx/currentmatrix ld/dmtx/defaultmatrix ld/smtx/setmatrix ld/catmtx/concatmatrix ld
/sw/setlinewidth ld/scap/setlinecap ld/sj/setlinejoin ld/sm/setmiterlimit ld/sd/setdash ld/rgb/setrgbcolor ld/crgb/currentrgbcolor ld/cmyk/setcmykcolor ld/gs/gsave ld/gr/grestore ld
/st/stroke ld/fi/fill ld/eofi/eofill ld/cl/clip ld/eocl/eoclip ld
/df/definefont ld/ff/findfont ld/sf/setfont ld/scf/scalefont ld/self/selectfont ld/cf/currentfont ld
/s/show ld/xs/xshow ld/gls/glyphshow ld/xgls{cpt 3 1 roll add exch 3 -1 roll gls m}bd
/cd/currentdict ld/i/index ld
/DrawBox{4 2 roll m 1 index 0 rl 0 exch rl neg 0 rl cp}bd
/plus.re { 6 { 3 index } repeat moveto 0 exch rlineto 0 rlineto pop pop neg 0 exch rlineto pop lineto closepath } def
/DrawBcc{4 2 roll m 2 copy 0 lt exch 0 lt xor{dup 0 exch rl exch 0 rl neg 0 exch rl}{exch dup 0 rl exch 0 exch rl neg 0 rl}ifelse cp}bd
/rectline{dup type/arraytype eq{dup length 0 exch 4 exch 4 sub{0 1 3{3 copy add get 4 1 roll pop}for pop 5 1 roll DrawBox}for pop}{DrawBox}ifelse}bd
/rectpath{dup type/arraytype eq{dup length 0 exch 4 exch 4 sub{0 1 3{3 copy add get 4 1 roll pop}for pop 5 1 roll DrawBcc}for pop}{DrawBcc}ifelse}bd
/pathproc{[{/m cvx}{/l cvx}{/c cvx}{/cp cvx}pathforall]cvx}bd
/L1img/image ld/L1idx[{0}
 {dup 7 and 3 1 roll -3 bitshift get exch 7 sub 1 mul bitshift  1 and}bind 1 index dup
 {dup 1 and 3 1 roll -1 bitshift get exch 1 sub 4 mul bitshift 15 and}bind 1 index dup dup
 {get}bind]def
/image{dup type/dicttype eq {dup/ImgCS get 0 get/Indexed eq}{false}ifelse
 {begin Width Height 8 ImageMatrix {rgb_string rgb_lookup
 cd/DataSource get dup type/filetype eq
 {mystring readstring pop}{exec}ifelse
 dup length 0 ne
 {L1idx BitsPerComponent get 0 1 Width 1 sub
 {3 copy exch exec exch 3 mul exch
 3 mul dup 5 index exch get exch 1 add dup 6 index exch get exch 1 add 6 index exch get
 7 index exch 4 index 2 add exch put 6 index exch 3 index 1 add exch put 5 index exch 2 index exch put pop
 }for pop pop pop }{pop pop pop ()}ifelse }false 3 colorimage end} {dup type/dicttype eq
 {{dup mark exch L1img pop pop}stopped{cleartomark begin Width Height BitsPerComponent ImageMatrix
 {cd/DataSource get dup type/filetype eq {mystring readstring pop}{exec}ifelse
 }false 3 colorimage end} if}{L1img}ifelse}ifelse
 }bd
/L1imgmask/imagemask ld/imagemask{dup type/dicttype eq
 {{dup mark exch L1imgmask pop pop}stopped {cleartomark begin Width Height polarityflag ImageMatrix
 {cd/DataSource get dup type/filetype eq {mystring readstring pop}{exec}ifelse
 }L1imgmask end}if}{L1imgmask}ifelse
 }bd
% Gradient function
/GradientStep 1 150 div def
/GradientStartRGB { /R1 exch def /G1 exch def /B1 exch def } def
/GradientEndRGB { /R2 exch def /G2 exch def /B2 exch def
/GradientSteps GradientLength GradientStep div def
/GradientRStep R2 R1 sub GradientSteps div def
/GradientGStep G2 G1 sub GradientSteps div def
/GradientBStep B2 B1 sub GradientSteps div def
} def
/GradientStepRGB { /R1 R1 GradientRStep add def
/G1 G1 GradientGStep add def
/B1 B1 GradientBStep add def
R1 G1 B1 setrgbcolor
} def
%%EndResource
/rectclip{np rectpath clip np}wd
/rectfill{gs np rectpath fi gr}wd
/rectstroke{gs np dup type/arraytype eq{dup length 6 eq}{false}ifelse{1 index type/arraytype eq{exch}{5 1 roll}ifelse rectline concat st}{rectline st}ifelse gr}wd
%%BeginResource: procset OriginLab::Image
/OriginLab::Image 32 dict dup begin
/BinProc{[currentfile mystring /readstring cvx /pop cvx] cvx bind}bd
/HexProc{[currentfile mystring /readhexstring cvx /pop cvx] cvx bind}bd
/Ascii85Proc{currentfile /ASCII85Decode filter}bd
/LZWA85{currentfile /ASCII85Decode filter /LZWDecode filter}bd
/ImgProcArray[/BinProc /HexProc /Ascii85Proc /LZWA85]def
/ImgDict{/ImgDict 16 dict def ImgDict dup begin /ImageType 1 def /MultipleDataSource false def end}bd
/L2Dec{{[1 0]}{[0 1]}ifelse}bd
/BegImg{ /Img_sv save def
 /ImgDir ed ImgProcArray exch get /ImgProc exch ld
 dup /polarityflag ed L2Dec /polarity ed /smoothflag ed
 tr /dx 2 index def /dy 1 index abs def sc
 string /mystring ed /bpc ed /ih ed /iw ed
 }bd
/EndImg {Img_sv restore}bd
/DoXImg{ /rgb_lookup ed /hival ed ImgDict dup begin
 [/Indexed /DeviceRGB hival rgb_lookup] /L1img where{pop/ImgCS ed}{setcolorspace}ifelse
 /rgb_string iw 3 mul string def
 /Width iw def
 /Height ih def
 /Decode [0 1 bpc{2 mul}repeat 1 sub] def
 /ImageMatrix
  ImgDir 0 eq{[iw 0 0 ih 0 0]}if
  ImgDir 1 eq{[iw neg 0 0 ih iw 0]}if
  ImgDir 2 eq{[iw 0 0 ih neg 0 ih]}if
  ImgDir 3 eq{[iw neg 0 0 ih neg iw ih]}if
  def
 /DataSource ImgProc def
 /BitsPerComponent bpc def
 /Interpolate smoothflag def
 end image}bd
/DoImg{ ImgDict dup begin
 [/DeviceRGB] /L1img where{pop/ImgCS ed}{setcolorspace}ifelse
 /rgb_string iw 3 mul string def
 /Width iw def
 /Height ih def
 /Decode [0 1 0 1 0 1] def
 /ImageMatrix
  ImgDir 0 eq{[iw 0 0 ih 0 0]}if
  ImgDir 1 eq{[iw neg 0 0 ih iw 0]}if
  ImgDir 2 eq{[iw 0 0 ih neg 0 ih]}if
  ImgDir 3 eq{[iw neg 0 0 ih neg iw ih]}if
  def
 /DataSource ImgProc def
 /BitsPerComponent 8 def
 /Interpolate smoothflag def
 end image}bd
end def
%%EndResource
/initmtx mtx cmtx def
%%BeginFont: /MC1_Arial
12 dict begin
/FontInfo 8 dict dup begin
/ItalicAngle 0 def
/UnderlinePosition -217.00 def
/UnderlineThickness 150.00 def
/StrikeoutPosition 530.00 def
/StrikeoutThickness 102.00 def
/isFixedPitch false def
end readonly def
/FontName /MC1_Arial def
/FontType 3 def
/FontMatrix [1 2048 div 0 0 1 2048 div 0 0] def
/FontBBox [-1361 -665 4096 2129] def
/Encoding 256 array def 0 1 255{Encoding exch/.notdef put}for
Encoding 32/s32 put
Encoding 46/s46 put
Encoding 48/s48 put
Encoding 49/s49 put
Encoding 50/s50 put
Encoding 51/s51 put
Encoding 52/s52 put
Encoding 53/s53 put
Encoding 54/s54 put
Encoding 55/s55 put
Encoding 56/s56 put
Encoding 57/s57 put
Encoding 67/s67 put
Encoding 68/s68 put
Encoding 73/s73 put
Encoding 77/s77 put
Encoding 78/s78 put
Encoding 80/s80 put
Encoding 91/s91 put
Encoding 93/s93 put
Encoding 97/s97 put
Encoding 101/s101 put
Encoding 102/s102 put
Encoding 103/s103 put
Encoding 109/s109 put
Encoding 114/s114 put
Encoding 118/s118 put
/BoundingBoxes 28 dict def
BoundingBoxes begin
/s32 [0 -434 569 1854] def
/s46 [0 -434 569 1854] def
/s48 [0 -434 1139 1854] def
/s49 [0 -434 1139 1854] def
/s50 [0 -434 1139 1854] def
/s51 [0 -434 1139 1854] def
/s52 [0 -434 1139 1854] def
/s53 [0 -434 1139 1854] def
/s54 [0 -434 1139 1854] def
/s55 [0 -434 1139 1854] def
/s56 [0 -434 1139 1854] def
/s57 [0 -434 1139 1854] def
/s67 [0 -434 1479 1854] def
/s68 [0 -434 1479 1854] def
/s73 [0 -434 569 1854] def
/s77 [0 -434 1706 1854] def
/s78 [0 -434 1479 1854] def
/s80 [0 -434 1366 1854] def
/s91 [0 -434 569 1854] def
/s93 [0 -434 569 1854] def
/s97 [0 -434 1139 1854] def
/s101 [0 -434 1139 1854] def
/s102 [0 -434 569 1854] def
/s103 [0 -434 1139 1854] def
/s109 [0 -434 1706 1854] def
/s114 [0 -434 682 1854] def
/s118 [0 -434 1024 1854] def
end
/Metrics 28 dict def
 Metrics begin
/s32 569 def
/s46 569 def
/s48 1139 def
/s49 1139 def
/s50 1139 def
/s51 1139 def
/s52 1139 def
/s53 1139 def
/s54 1139 def
/s55 1139 def
/s56 1139 def
/s57 1139 def
/s67 1479 def
/s68 1479 def
/s73 569 def
/s77 1706 def
/s78 1479 def
/s80 1366 def
/s91 569 def
/s93 569 def
/s97 1139 def
/s101 1139 def
/s102 569 def
/s103 1139 def
/s109 1706 def
/s114 682 def
/s118 1024 def
end
/CharProcs 28 dict def
CharProcs begin
/.notdef {} def
/s46 {
186 0 m
186 205 186 0 186 205 c
391 205 186 205 391 205 c
391 0 391 205 391 0 c
186 0 391 0 186 0 c
closepath } bind def
/s48 {
85 723 m
85 896.33 102.83 1035.83 138.5 1141.5 c
174.17 1247.17 227.17 1328.67 297.5 1386 c
367.83 1443.33 456.33 1472 563 1472 c
641.67 1472 710.67 1456.17 770 1424.5 c
829.33 1392.83 878.33 1347.17 917 1287.5 c
955.67 1227.83 986 1155.17 1008 1069.5 c
1030 983.83 1041 868.33 1041 723 c
1041 551 1023.33 412.17 988 306.5 c
952.67 200.83 899.83 119.17 829.5 61.5 c
759.17 3.83 670.33 -25 563 -25 c
421.67 -25 310.67 25.67 230 127 c
133.33 249 85 447.67 85 723 c
closepath 270 723 m
270 482.33 298.17 322.17 354.5 242.5 c
410.83 162.83 480.33 123 563 123 c
645.67 123 715.17 163 771.5 243 c
827.83 323 856 483 856 723 c
856 964.33 827.83 1124.67 771.5 1204 c
715.17 1283.33 645 1323 561 1323 c
478.33 1323 412.33 1288 363 1218 c
301 1128.67 270 963.67 270 723 c
closepath } bind def
/s49 {
763 0 m
583 0 763 0 583 0 c
583 1147 583 0 583 1147 c
539.67 1105.67 482.83 1064.33 412.5 1023 c
342.17 981.67 279 950.67 223 930 c
223 1104 223 930 223 1104 c
323.67 1151.33 411.67 1208.67 487 1276 c
562.33 1343.33 615.67 1408.67 647 1472 c
763 1472 647 1472 763 1472 c
763 0 763 1472 763 0 c
closepath } bind def
/s50 {
1031 173 m
1031 0 1031 173 1031 0 c
62 0 1031 0 62 0 c
60.67 43.33 67.67 85 83 125 c
107.67 191 147.17 256 201.5 320 c
255.83 384 334.33 458 437 542 c
596.33 672.67 704 776.17 760 852.5 c
816 928.83 844 1001 844 1069 c
844 1140.33 818.5 1200.5 767.5 1249.5 c
716.5 1298.5 650 1323 568 1323 c
481.33 1323 412 1297 360 1245 c
308 1193 281.67 1121 281 1029 c
96 1048 281 1029 96 1048 c
108.67 1186 156.33 1291.17 239 1363.5 c
321.67 1435.83 432.67 1472 572 1472 c
712.67 1472 824 1433 906 1355 c
988 1277 1029 1180.33 1029 1065 c
1029 1006.33 1017 948.67 993 892 c
969 835.33 929.17 775.67 873.5 713 c
817.83 650.33 725.33 564.33 596 455 c
488 364.33 418.67 302.83 388 270.5 c
357.33 238.17 332 205.67 312 173 c
1031 173 312 173 1031 173 c
closepath } bind def
/s51 {
86 387 m
266 411 86 387 266 411 c
286.67 309 321.83 235.5 371.5 190.5 c
421.17 145.5 481.67 123 553 123 c
637.67 123 709.17 152.33 767.5 211 c
825.83 269.67 855 342.33 855 429 c
855 511.67 828 579.83 774 633.5 c
720 687.17 651.33 714 568 714 c
534 714 491.67 707.33 441 694 c
461 852 441 694 461 852 c
473 850.67 482.67 850 490 850 c
566.67 850 635.67 870 697 910 c
758.33 950 789 1011.67 789 1095 c
789 1161 766.67 1215.67 722 1259 c
677.33 1302.33 619.67 1324 549 1324 c
479 1324 420.67 1302 374 1258 c
327.33 1214 297.33 1148 284 1060 c
104 1092 284 1060 104 1092 c
126 1212.67 176 1306.17 254 1372.5 c
332 1438.83 429 1472 545 1472 c
625 1472 698.67 1454.83 766 1420.5 c
833.33 1386.17 884.83 1339.33 920.5 1280 c
956.17 1220.67 974 1157.67 974 1091 c
974 1027.67 957 970 923 918 c
889 866 838.67 824.67 772 794 c
858.67 774 926 732.5 974 669.5 c
1022 606.5 1046 527.67 1046 433 c
1046 305 999.33 196.5 906 107.5 c
812.67 18.5 694.67 -26 552 -26 c
423.33 -26 316.5 12.33 231.5 89 c
146.5 165.67 98 265 86 387 c
closepath } bind def
/s52 {
662 0 m
662 351 662 0 662 351 c
26 351 662 351 26 351 c
26 516 26 351 26 516 c
695 1466 26 516 695 1466 c
842 1466 695 1466 842 1466 c
842 516 842 1466 842 516 c
1040 516 842 516 1040 516 c
1040 351 1040 516 1040 351 c
842 351 1040 351 842 351 c
842 0 842 351 842 0 c
662 0 842 0 662 0 c
closepath 662 516 m
662 1177 662 516 662 1177 c
203 516 662 1177 203 516 c
662 516 203 516 662 516 c
closepath } bind def
/s53 {
85 384 m
274 400 85 384 274 400 c
288 308 320.5 238.83 371.5 192.5 c
422.5 146.17 484 123 556 123 c
642.67 123 716 155.67 776 221 c
836 286.33 866 373 866 481 c
866 583.67 837.17 664.67 779.5 724 c
721.83 783.33 646.33 813 553 813 c
495 813 442.67 799.83 396 773.5 c
349.33 747.17 312.67 713 286 671 c
117 693 286 671 117 693 c
259 1446 117 693 259 1446 c
988 1446 259 1446 988 1446 c
988 1274 988 1446 988 1274 c
403 1274 988 1274 403 1274 c
324 880 403 1274 324 880 c
412 941.33 504.33 972 601 972 c
729 972 837 927.67 925 839 c
1013 750.33 1057 636.33 1057 497 c
1057 364.33 1018.33 249.67 941 153 c
847 34.33 718.67 -25 556 -25 c
422.67 -25 313.83 12.33 229.5 87 c
145.17 161.67 97 260.67 85 384 c
closepath } bind def
/s54 {
1019 1107 m
840 1093 1019 1107 840 1093 c
824 1163.67 801.33 1215 772 1247 c
723.33 1298.33 663.33 1324 592 1324 c
534.67 1324 484.33 1308 441 1276 c
384.33 1234.67 339.67 1174.33 307 1095 c
274.33 1015.67 257.33 902.67 256 756 c
299.33 822 352.33 871 415 903 c
477.67 935 543.33 951 612 951 c
732 951 834.17 906.83 918.5 818.5 c
1002.83 730.17 1045 616 1045 476 c
1045 384 1025.17 298.5 985.5 219.5 c
945.83 140.5 891.33 80 822 38 c
752.67 -4 674 -25 586 -25 c
436 -25 313.67 30.17 219 140.5 c
124.33 250.83 77 432.67 77 686 c
77 969.33 129.33 1175.33 234 1304 c
325.33 1416 448.33 1472 603 1472 c
718.33 1472 812.83 1439.67 886.5 1375 c
960.17 1310.33 1004.33 1221 1019 1107 c
closepath 284 475 m
284 413 297.17 353.67 323.5 297 c
349.83 240.33 386.67 197.17 434 167.5 c
481.33 137.83 531 123 583 123 c
659 123 724.33 153.67 779 215 c
833.67 276.33 861 359.67 861 465 c
861 566.33 834 646.17 780 704.5 c
726 762.83 658 792 576 792 c
494.67 792 425.67 762.83 369 704.5 c
312.33 646.17 284 569.67 284 475 c
closepath } bind def
/s55 {
97 1274 m
97 1447 97 1274 97 1447 c
1046 1447 97 1447 1046 1447 c
1046 1307 1046 1447 1046 1307 c
952.67 1207.67 860.17 1075.67 768.5 911 c
676.83 746.33 606 577 556 403 c
520 280.33 497 146 487 0 c
302 0 487 0 302 0 c
304 115.33 326.67 254.67 370 418 c
413.33 581.33 475.5 738.83 556.5 890.5 c
637.5 1042.17 723.67 1170 815 1274 c
97 1274 815 1274 97 1274 c
closepath } bind def
/s56 {
362 795 m
287.33 822.33 232 861.33 196 912 c
160 962.67 142 1023.33 142 1094 c
142 1200.67 180.33 1290.33 257 1363 c
333.67 1435.67 435.67 1472 563 1472 c
691 1472 794 1434.83 872 1360.5 c
950 1286.17 989 1195.67 989 1089 c
989 1021 971.17 961.83 935.5 911.5 c
899.83 861.17 845.67 822.33 773 795 c
863 765.67 931.5 718.33 978.5 653 c
1025.5 587.67 1049 509.67 1049 419 c
1049 293.67 1004.67 188.33 916 103 c
827.33 17.67 710.67 -25 566 -25 c
421.33 -25 304.67 17.83 216 103.5 c
127.33 189.17 83 296 83 424 c
83 519.33 107.17 599.17 155.5 663.5 c
203.83 727.83 272.67 771.67 362 795 c
closepath 326 1100 m
326 1030.67 348.33 974 393 930 c
437.67 886 495.67 864 567 864 c
636.33 864 693.17 885.83 737.5 929.5 c
781.83 973.17 804 1026.67 804 1090 c
804 1156 781.17 1211.5 735.5 1256.5 c
689.83 1301.5 633 1324 565 1324 c
496.33 1324 439.33 1302 394 1258 c
348.67 1214 326 1161.33 326 1100 c
closepath 268 423 m
268 371.67 280.17 322 304.5 274 c
328.83 226 365 188.83 413 162.5 c
461 136.17 512.67 123 568 123 c
654 123 725 150.67 781 206 c
837 261.33 865 331.67 865 417 c
865 503.67 836.17 575.33 778.5 632 c
720.83 688.67 648.67 717 562 717 c
477.33 717 407.17 689 351.5 633 c
295.83 577 268 507 268 423 c
closepath } bind def
/s57 {
112 339 m
285 355 112 339 285 355 c
299.67 273.67 327.67 214.67 369 178 c
410.33 141.33 463.33 123 528 123 c
583.33 123 631.83 135.67 673.5 161 c
715.17 186.33 749.33 220.17 776 262.5 c
802.67 304.83 825 362 843 434 c
861 506 870 579.33 870 654 c
870 662 869.67 674 869 690 c
833 632.67 783.83 586.17 721.5 550.5 c
659.17 514.83 591.67 497 519 497 c
397.67 497 295 541 211 629 c
127 717 85 833 85 977 c
85 1125.67 128.83 1245.33 216.5 1336 c
304.17 1426.67 414 1472 546 1472 c
641.33 1472 728.5 1446.33 807.5 1395 c
886.5 1343.67 946.5 1270.5 987.5 1175.5 c
1028.5 1080.5 1049 943 1049 763 c
1049 575.67 1028.67 426.5 988 315.5 c
947.33 204.5 886.83 120 806.5 62 c
726.17 4 632 -25 524 -25 c
409.33 -25 315.67 6.83 243 70.5 c
170.33 134.17 126.67 223.67 112 339 c
closepath 849 986 m
849 1089.33 821.5 1171.33 766.5 1232 c
711.5 1292.67 645.33 1323 568 1323 c
488 1323 418.33 1290.33 359 1225 c
299.67 1159.67 270 1075 270 971 c
270 877.67 298.17 801.83 354.5 743.5 c
410.83 685.17 480.33 656 563 656 c
646.33 656 714.83 685.17 768.5 743.5 c
822.17 801.83 849 882.67 849 986 c
closepath } bind def
/s67 {
1204 514 m
1398 465 1204 514 1398 465 c
1357.33 305.67 1284.17 184.17 1178.5 100.5 c
1072.83 16.83 943.67 -25 791 -25 c
633 -25 504.5 7.17 405.5 71.5 c
306.5 135.83 231.17 229 179.5 351 c
127.83 473 102 604 102 744 c
102 896.67 131.17 1029.83 189.5 1143.5 c
247.83 1257.17 330.83 1343.5 438.5 1402.5 c
546.17 1461.5 664.67 1491 794 1491 c
940.67 1491 1064 1453.67 1164 1379 c
1264 1304.33 1333.67 1199.33 1373 1064 c
1182 1019 1373 1064 1182 1019 c
1148 1125.67 1098.67 1203.33 1034 1252 c
969.33 1300.67 888 1325 790 1325 c
677.33 1325 583.17 1298 507.5 1244 c
431.83 1190 378.67 1117.5 348 1026.5 c
317.33 935.5 302 841.67 302 745 c
302 620.33 320.17 511.5 356.5 418.5 c
392.83 325.5 449.33 256 526 210 c
602.67 164 685.67 141 775 141 c
883.67 141 975.67 172.33 1051 235 c
1126.33 297.67 1177.33 390.67 1204 514 c
closepath } bind def
/s68 {
158 0 m
158 1466 158 0 158 1466 c
663 1466 158 1466 663 1466 c
777 1466 864 1459 924 1445 c
1008 1425.67 1079.67 1390.67 1139 1340 c
1216.33 1274.67 1274.17 1191.17 1312.5 1089.5 c
1350.83 987.83 1370 871.67 1370 741 c
1370 629.67 1357 531 1331 445 c
1305 359 1271.67 287.83 1231 231.5 c
1190.33 175.17 1145.83 130.83 1097.5 98.5 c
1049.17 66.17 990.83 41.67 922.5 25 c
854.17 8.33 775.67 0 687 0 c
158 0 687 0 158 0 c
closepath 352 173 m
665 173 352 173 665 173 c
761.67 173 837.5 182 892.5 200 c
947.5 218 991.33 243.33 1024 276 c
1070 322 1105.83 383.83 1131.5 461.5 c
1157.17 539.17 1170 633.33 1170 744 c
1170 897.33 1144.83 1015.17 1094.5 1097.5 c
1044.17 1179.83 983 1235 911 1263 c
859 1283 775.33 1293 660 1293 c
352 1293 660 1293 352 1293 c
352 173 352 1293 352 173 c
closepath } bind def
/s73 {
191 0 m
191 1466 191 0 191 1466 c
385 1466 191 1466 385 1466 c
385 0 385 1466 385 0 c
191 0 385 0 191 0 c
closepath } bind def
/s77 {
152 0 m
152 1466 152 0 152 1466 c
444 1466 152 1466 444 1466 c
791 428 444 1466 791 428 c
823 331.33 846.33 259 861 211 c
877.67 264.33 903.67 342.67 939 446 c
1290 1466 939 446 1290 1466 c
1551 1466 1290 1466 1551 1466 c
1551 0 1551 1466 1551 0 c
1364 0 1551 0 1364 0 c
1364 1227 1364 0 1364 1227 c
938 0 1364 1227 938 0 c
763 0 938 0 763 0 c
339 1248 763 0 339 1248 c
339 0 339 1248 339 0 c
152 0 339 0 152 0 c
closepath } bind def
/s78 {
156 0 m
156 1466 156 0 156 1466 c
355 1466 156 1466 355 1466 c
1125 315 355 1466 1125 315 c
1125 1466 1125 315 1125 1466 c
1311 1466 1125 1466 1311 1466 c
1311 0 1311 1466 1311 0 c
1112 0 1311 0 1112 0 c
342 1152 1112 0 342 1152 c
342 0 342 1152 342 0 c
156 0 342 0 156 0 c
closepath } bind def
/s80 {
158 0 m
158 1466 158 0 158 1466 c
711 1466 158 1466 711 1466 c
808.33 1466 882.67 1461.33 934 1452 c
1006 1440 1066.33 1417.17 1115 1383.5 c
1163.67 1349.83 1202.83 1302.67 1232.5 1242 c
1262.17 1181.33 1277 1114.67 1277 1042 c
1277 917.33 1237.33 811.83 1158 725.5 c
1078.67 639.17 935.33 596 728 596 c
352 596 728 596 352 596 c
352 0 352 596 352 0 c
158 0 352 0 158 0 c
closepath 352 769 m
731 769 352 769 731 769 c
856.33 769 945.33 792.33 998 839 c
1050.67 885.67 1077 951.33 1077 1036 c
1077 1097.33 1061.5 1149.83 1030.5 1193.5 c
999.5 1237.17 958.67 1266 908 1280 c
875.33 1288.67 815 1293 727 1293 c
352 1293 727 1293 352 1293 c
352 769 352 1293 352 769 c
closepath } bind def
/s91 {
139 -407 m
139 1466 139 -407 139 1466 c
536 1466 139 1466 536 1466 c
536 1317 536 1466 536 1317 c
319 1317 536 1317 319 1317 c
319 -258 319 1317 319 -258 c
536 -258 319 -258 536 -258 c
536 -407 536 -258 536 -407 c
139 -407 536 -407 139 -407 c
closepath } bind def
/s93 {
436 -407 m
39 -407 436 -407 39 -407 c
39 -258 39 -407 39 -258 c
256 -258 39 -258 256 -258 c
256 1317 256 -258 256 1317 c
39 1317 256 1317 39 1317 c
39 1466 39 1317 39 1466 c
436 1466 39 1466 436 1466 c
436 -407 436 1466 436 -407 c
closepath } bind def
/s97 {
828 131 m
761.33 74.33 697.17 34.33 635.5 11 c
573.83 -12.33 507.67 -24 437 -24 c
320.33 -24 230.67 4.5 168 61.5 c
105.33 118.5 74 191.33 74 280 c
74 332 85.83 379.5 109.5 422.5 c
133.17 465.5 164.17 500 202.5 526 c
240.83 552 284 571.67 332 585 c
367.33 594.33 420.67 603.33 492 612 c
637.33 629.33 744.33 650 813 674 c
813.67 698.67 814 714.33 814 721 c
814 794.33 797 846 763 876 c
717 916.67 648.67 937 558 937 c
473.33 937 410.83 922.17 370.5 892.5 c
330.17 862.83 300.33 810.33 281 735 c
105 759 281 735 105 759 c
121 834.33 147.33 895.17 184 941.5 c
220.67 987.83 273.67 1023.5 343 1048.5 c
412.33 1073.5 492.67 1086 584 1086 c
674.67 1086 748.33 1075.33 805 1054 c
861.67 1032.67 903.33 1005.83 930 973.5 c
956.67 941.17 975.33 900.33 986 851 c
992 820.33 995 765 995 685 c
995 445 995 685 995 445 c
995 277.67 998.83 171.83 1006.5 127.5 c
1014.17 83.17 1029.33 40.67 1052 0 c
864 0 1052 0 864 0 c
845.33 37.33 833.33 81 828 131 c
closepath 813 533 m
747.67 506.33 649.67 483.67 519 465 c
445 454.33 392.67 442.33 362 429 c
331.33 415.67 307.67 396.17 291 370.5 c
274.33 344.83 266 316.33 266 285 c
266 237 284.17 197 320.5 165 c
356.83 133 410 117 480 117 c
549.33 117 611 132.17 665 162.5 c
719 192.83 758.67 234.33 784 287 c
803.33 327.67 813 387.67 813 467 c
813 533 813 467 813 533 c
closepath } bind def
/s101 {
862 342 m
1048 319 862 342 1048 319 c
1018.67 210.33 964.33 126 885 66 c
805.67 6 704.33 -24 581 -24 c
425.67 -24 302.5 23.83 211.5 119.5 c
120.5 215.17 75 349.33 75 522 c
75 700.67 121 839.33 213 938 c
305 1036.67 424.33 1086 571 1086 c
713 1086 829 1037.67 919 941 c
1009 844.33 1054 708.33 1054 533 c
1054 522.33 1053.67 506.33 1053 485 c
261 485 1053 485 261 485 c
267.67 368.33 300.67 279 360 217 c
419.33 155 493.33 124 582 124 c
648 124 704.33 141.33 751 176 c
797.67 210.67 834.67 266 862 342 c
closepath 271 633 m
864 633 271 633 864 633 c
856 722.33 833.33 789.33 796 834 c
738.67 903.33 664.33 938 573 938 c
490.33 938 420.83 910.33 364.5 855 c
308.17 799.67 277 725.67 271 633 c
closepath } bind def
/s102 {
178 0 m
178 922 178 0 178 922 c
19 922 178 922 19 922 c
19 1062 19 922 19 1062 c
178 1062 19 1062 178 1062 c
178 1175 178 1062 178 1175 c
178 1246.33 184.33 1299.33 197 1334 c
214.33 1380.67 244.83 1418.5 288.5 1447.5 c
332.17 1476.5 393.33 1491 472 1491 c
522.67 1491 578.67 1485 640 1473 c
613 1316 640 1473 613 1316 c
575.67 1322.67 540.33 1326 507 1326 c
452.33 1326 413.67 1314.33 391 1291 c
368.33 1267.67 357 1224 357 1160 c
357 1062 357 1160 357 1062 c
564 1062 357 1062 564 1062 c
564 922 564 1062 564 922 c
357 922 564 922 357 922 c
357 0 357 922 357 0 c
178 0 357 0 178 0 c
closepath } bind def
/s103 {
102 -88 m
277 -114 102 -88 277 -114 c
284.33 -168 304.67 -207.33 338 -232 c
382.67 -265.33 443.67 -282 521 -282 c
604.33 -282 668.67 -265.33 714 -232 c
759.33 -198.67 790 -152 806 -92 c
815.33 -55.33 819.67 21.67 819 139 c
740.33 46.33 642.33 0 525 0 c
379 0 266 52.67 186 158 c
106 263.33 66 389.67 66 537 c
66 638.33 84.33 731.83 121 817.5 c
157.67 903.17 210.83 969.33 280.5 1016 c
350.17 1062.67 432 1086 526 1086 c
651.33 1086 754.67 1035.33 836 934 c
836 1062 836 934 836 1062 c
1002 1062 836 1062 1002 1062 c
1002 144 1002 1062 1002 144 c
1002 -21.33 985.17 -138.5 951.5 -207.5 c
917.83 -276.5 864.5 -331 791.5 -371 c
718.5 -411 628.67 -431 522 -431 c
395.33 -431 293 -402.5 215 -345.5 c
137 -288.5 99.33 -202.67 102 -88 c
closepath 251 550 m
251 410.67 278.67 309 334 245 c
389.33 181 458.67 149 542 149 c
624.67 149 694 180.83 750 244.5 c
806 308.17 834 408 834 544 c
834 674 805.17 772 747.5 838 c
689.83 904 620.33 937 539 937 c
459 937 391 904.5 335 839.5 c
279 774.5 251 678 251 550 c
closepath } bind def
/s109 {
135 0 m
135 1062 135 0 135 1062 c
296 1062 135 1062 296 1062 c
296 913 296 1062 296 913 c
329.33 965 373.67 1006.83 429 1038.5 c
484.33 1070.17 547.33 1086 618 1086 c
696.67 1086 761.17 1069.67 811.5 1037 c
861.83 1004.33 897.33 958.67 918 900 c
1002 1024 1111.33 1086 1246 1086 c
1351.33 1086 1432.33 1056.83 1489 998.5 c
1545.67 940.17 1574 850.33 1574 729 c
1574 0 1574 729 1574 0 c
1395 0 1574 0 1395 0 c
1395 669 1395 0 1395 669 c
1395 741 1389.17 792.83 1377.5 824.5 c
1365.83 856.17 1344.67 881.67 1314 901 c
1283.33 920.33 1247.33 930 1206 930 c
1131.33 930 1069.33 905.17 1020 855.5 c
970.67 805.83 946 726.33 946 617 c
946 0 946 617 946 0 c
766 0 946 0 766 0 c
766 690 766 0 766 690 c
766 770 751.33 830 722 870 c
692.67 910 644.67 930 578 930 c
527.33 930 480.5 916.67 437.5 890 c
394.5 863.33 363.33 824.33 344 773 c
324.67 721.67 315 647.67 315 551 c
315 0 315 551 315 0 c
135 0 315 0 135 0 c
closepath } bind def
/s114 {
133 0 m
133 1062 133 0 133 1062 c
295 1062 133 1062 295 1062 c
295 901 295 1062 295 901 c
336.33 976.33 374.5 1026 409.5 1050 c
444.5 1074 483 1086 525 1086 c
585.67 1086 647.33 1066.67 710 1028 c
648 861 710 1028 648 861 c
604 887 560 900 516 900 c
476.67 900 441.33 888.17 410 864.5 c
378.67 840.83 356.33 808 343 766 c
323 702 313 632 313 556 c
313 0 313 556 313 0 c
133 0 313 0 133 0 c
closepath } bind def
/s118 {
430 0 m
26 1062 430 0 26 1062 c
216 1062 26 1062 216 1062 c
444 426 216 1062 444 426 c
468.67 357.33 491.33 286 512 212 c
528 268 550.33 335.33 579 414 c
815 1062 579 414 815 1062 c
1000 1062 815 1062 1000 1062 c
598 0 1000 1062 598 0 c
430 0 598 0 430 0 c
closepath } bind def
end
/BuildGlyph {
 exch dup /Metrics get 2 index get 0 setcharwidth
/CharProcs get exch 2 copy known not{pop/.notdef}if get exec fill}bind def
/BuildChar {
1 index /Encoding get exch get
1 index /BuildGlyph get exec
} bind def
currentdict end /MC1_Arial exch definefont pop
%%EndFont
%%BeginFont: /MC2_Symbol
12 dict begin
/FontInfo 8 dict dup begin
/ItalicAngle 0 def
/UnderlinePosition -223.00 def
/UnderlineThickness 100.00 def
/StrikeoutPosition 530.00 def
/StrikeoutThickness 102.00 def
/isFixedPitch false def
end readonly def
/FontName /MC2_Symbol def
/FontType 3 def
/FontMatrix [1 2048 div 0 0 1 2048 div 0 0] def
/FontBBox [-1 -450 2279 2059] def
/Encoding 256 array def 0 1 255{Encoding exch/.notdef put}for
Encoding 32/s32 put
/BoundingBoxes 3 dict def
BoundingBoxes begin
/s32 [0 -450 512 2059] def
/s61554 [0 -450 0 2059] def
end
/Metrics 3 dict def
 Metrics begin
/s32 512 def
/s61554 0 def
end
/CharProcs 3 dict def
CharProcs begin
/.notdef {} def
/s61554 {
307 55 m
307 -62 307 55 307 -62 c
307 -226.67 296.67 -353.33 276 -442 c
105 -442 276 -442 105 -442 c
119 -399.33 128 -364.67 132 -338 c
138.67 -292.67 142 -235.67 142 -167 c
142 474 142 -167 142 474 c
142 612 185.33 725 272 813 c
358.67 900.33 468 944 600 944 c
750.67 944 865.33 890 944 782 c
1004.67 698 1035 603 1035 497 c
1035 377.67 998 267.67 924 167 c
826 35 702 -31 552 -31 c
498 -31 449 -23 405 -7 c
375.67 4.33 343 25 307 55 c
closepath 307 357 m
307 265.67 315.17 202 331.5 166 c
347.83 130 377.67 99.5 421 74.5 c
464.33 49.5 513.67 37 569 37 c
652.33 37 723 69.67 781 135 c
839 200.33 868 289.33 868 402 c
868 486.67 850.17 565.17 814.5 637.5 c
778.83 709.83 733.33 763.33 678 798 c
622.67 832.67 564.33 850 503 850 c
426.33 850 371.33 820.33 338 761 c
317.33 725.67 307 647.33 307 526 c
307 357 307 526 307 357 c
closepath } bind def
end
/BuildGlyph {
 exch dup /Metrics get 2 index get 0 setcharwidth
/CharProcs get exch 2 copy known not{pop/.notdef}if get exec fill}bind def
/BuildChar {
1 index /Encoding get exch get
1 index /BuildGlyph get exec
} bind def
currentdict end /MC2_Symbol exch definefont pop
%%EndFont
%%BeginFont: /MC3_Arial
12 dict begin
/FontInfo 8 dict dup begin
/ItalicAngle 0 def
/UnderlinePosition -217.00 def
/UnderlineThickness 150.00 def
/StrikeoutPosition 530.00 def
/StrikeoutThickness 102.00 def
/isFixedPitch false def
end readonly def
/FontName /MC3_Arial def
/FontType 3 def
/FontMatrix [1 2048 div 0 0 1 2048 div 0 0] def
/FontBBox [-1361 -665 4096 2129] def
/Encoding 256 array def 0 1 255{Encoding exch/.notdef put}for
Encoding 32/s32 put
Encoding 40/s40 put
Encoding 41/s41 put
Encoding 45/s45 put
Encoding 51/s51 put
Encoding 91/s91 put
Encoding 93/s93 put
Encoding 102/s102 put
Encoding 109/s109 put
Encoding 114/s114 put
/BoundingBoxes 11 dict def
BoundingBoxes begin
/s32 [0 -434 569 1854] def
/s40 [0 -434 682 1854] def
/s41 [0 -434 682 1854] def
/s45 [0 -434 682 1854] def
/s51 [0 -434 1139 1854] def
/s91 [0 -434 569 1854] def
/s93 [0 -434 569 1854] def
/s102 [0 -434 569 1854] def
/s109 [0 -434 1706 1854] def
/s114 [0 -434 682 1854] def
end
/Metrics 11 dict def
 Metrics begin
/s32 569 def
/s40 682 def
/s41 682 def
/s45 682 def
/s51 1139 def
/s91 569 def
/s93 569 def
/s102 569 def
/s109 1706 def
/s114 682 def
end
/CharProcs 11 dict def
CharProcs begin
/.notdef {} def
/s40 {
479 -431 m
379.67 -305.67 295.67 -159 227 9 c
158.33 177 124 351 124 531 c
124 689.67 149.67 841.67 201 987 c
261 1155.67 353.67 1323.67 479 1491 c
608 1491 479 1491 608 1491 c
527.33 1352.33 474 1253.33 448 1194 c
407.33 1102 375.33 1006 352 906 c
323.33 781.33 309 656 309 530 c
309 209.33 408.67 -111 608 -431 c
479 -431 608 -431 479 -431 c
closepath } bind def
/s41 {
253 -431 m
124 -431 253 -431 124 -431 c
323.33 -111 423 209.33 423 530 c
423 655.33 408.67 779.67 380 903 c
357.33 1003 325.67 1099 285 1191 c
259 1251 205.33 1351 124 1491 c
253 1491 124 1491 253 1491 c
378.33 1323.67 471 1155.67 531 987 c
582.33 841.67 608 689.67 608 531 c
608 351 573.5 177 504.5 9 c
435.5 -159 351.67 -305.67 253 -431 c
closepath } bind def
/s45 {
65 440 m
65 621 65 440 65 621 c
618 621 65 621 618 621 c
618 440 618 621 618 440 c
65 440 618 440 65 440 c
closepath } bind def
/s51 {
86 387 m
266 411 86 387 266 411 c
286.67 309 321.83 235.5 371.5 190.5 c
421.17 145.5 481.67 123 553 123 c
637.67 123 709.17 152.33 767.5 211 c
825.83 269.67 855 342.33 855 429 c
855 511.67 828 579.83 774 633.5 c
720 687.17 651.33 714 568 714 c
534 714 491.67 707.33 441 694 c
461 852 441 694 461 852 c
473 850.67 482.67 850 490 850 c
566.67 850 635.67 870 697 910 c
758.33 950 789 1011.67 789 1095 c
789 1161 766.67 1215.67 722 1259 c
677.33 1302.33 619.67 1324 549 1324 c
479 1324 420.67 1302 374 1258 c
327.33 1214 297.33 1148 284 1060 c
104 1092 284 1060 104 1092 c
126 1212.67 176 1306.17 254 1372.5 c
332 1438.83 429 1472 545 1472 c
625 1472 698.67 1454.83 766 1420.5 c
833.33 1386.17 884.83 1339.33 920.5 1280 c
956.17 1220.67 974 1157.67 974 1091 c
974 1027.67 957 970 923 918 c
889 866 838.67 824.67 772 794 c
858.67 774 926 732.5 974 669.5 c
1022 606.5 1046 527.67 1046 433 c
1046 305 999.33 196.5 906 107.5 c
812.67 18.5 694.67 -26 552 -26 c
423.33 -26 316.5 12.33 231.5 89 c
146.5 165.67 98 265 86 387 c
closepath } bind def
/s91 {
139 -407 m
139 1466 139 -407 139 1466 c
536 1466 139 1466 536 1466 c
536 1317 536 1466 536 1317 c
319 1317 536 1317 319 1317 c
319 -258 319 1317 319 -258 c
536 -258 319 -258 536 -258 c
536 -407 536 -258 536 -407 c
139 -407 536 -407 139 -407 c
closepath } bind def
/s93 {
436 -407 m
39 -407 436 -407 39 -407 c
39 -258 39 -407 39 -258 c
256 -258 39 -258 256 -258 c
256 1317 256 -258 256 1317 c
39 1317 256 1317 39 1317 c
39 1466 39 1317 39 1466 c
436 1466 39 1466 436 1466 c
436 -407 436 1466 436 -407 c
closepath } bind def
/s102 {
178 0 m
178 922 178 0 178 922 c
19 922 178 922 19 922 c
19 1062 19 922 19 1062 c
178 1062 19 1062 178 1062 c
178 1175 178 1062 178 1175 c
178 1246.33 184.33 1299.33 197 1334 c
214.33 1380.67 244.83 1418.5 288.5 1447.5 c
332.17 1476.5 393.33 1491 472 1491 c
522.67 1491 578.67 1485 640 1473 c
613 1316 640 1473 613 1316 c
575.67 1322.67 540.33 1326 507 1326 c
452.33 1326 413.67 1314.33 391 1291 c
368.33 1267.67 357 1224 357 1160 c
357 1062 357 1160 357 1062 c
564 1062 357 1062 564 1062 c
564 922 564 1062 564 922 c
357 922 564 922 357 922 c
357 0 357 922 357 0 c
178 0 357 0 178 0 c
closepath } bind def
/s109 {
135 0 m
135 1062 135 0 135 1062 c
296 1062 135 1062 296 1062 c
296 913 296 1062 296 913 c
329.33 965 373.67 1006.83 429 1038.5 c
484.33 1070.17 547.33 1086 618 1086 c
696.67 1086 761.17 1069.67 811.5 1037 c
861.83 1004.33 897.33 958.67 918 900 c
1002 1024 1111.33 1086 1246 1086 c
1351.33 1086 1432.33 1056.83 1489 998.5 c
1545.67 940.17 1574 850.33 1574 729 c
1574 0 1574 729 1574 0 c
1395 0 1574 0 1395 0 c
1395 669 1395 0 1395 669 c
1395 741 1389.17 792.83 1377.5 824.5 c
1365.83 856.17 1344.67 881.67 1314 901 c
1283.33 920.33 1247.33 930 1206 930 c
1131.33 930 1069.33 905.17 1020 855.5 c
970.67 805.83 946 726.33 946 617 c
946 0 946 617 946 0 c
766 0 946 0 766 0 c
766 690 766 0 766 690 c
766 770 751.33 830 722 870 c
692.67 910 644.67 930 578 930 c
527.33 930 480.5 916.67 437.5 890 c
394.5 863.33 363.33 824.33 344 773 c
324.67 721.67 315 647.67 315 551 c
315 0 315 551 315 0 c
135 0 315 0 135 0 c
closepath } bind def
/s114 {
133 0 m
133 1062 133 0 133 1062 c
295 1062 133 1062 295 1062 c
295 901 295 1062 295 901 c
336.33 976.33 374.5 1026 409.5 1050 c
444.5 1074 483 1086 525 1086 c
585.67 1086 647.33 1066.67 710 1028 c
648 861 710 1028 648 861 c
604 887 560 900 516 900 c
476.67 900 441.33 888.17 410 864.5 c
378.67 840.83 356.33 808 343 766 c
323 702 313 632 313 556 c
313 0 313 556 313 0 c
133 0 313 0 133 0 c
closepath } bind def
end
/BuildGlyph {
 exch dup /Metrics get 2 index get 0 setcharwidth
/CharProcs get exch 2 copy known not{pop/.notdef}if get exec fill}bind def
/BuildChar {
1 index /Encoding get exch get
1 index /BuildGlyph get exec
} bind def
currentdict end /MC3_Arial exch definefont pop
%%EndFont
/clipproc{clippath{[{/m cvx}{/l cvx}{/c cvx}{/cp cvx}pathforall}stopped
{cleartomark[pathbbox exch 3 i sub exch 2 i sub/rectpath cvx}if]np}bd
/iclmtx mtx cmtx def/iclpath clipproc xd/clinit{pathproc initclip np iclpath cl np exec}bd
/clmove{pathproc 3 1 roll clippath pathproc 2 i neg 2 i neg tr initclip np exec cl tr np exec}bd
/clrect[gs np iclpath{pathbbox}stopped{0 0 841.69 594.96 }if gr]def
/cloper{mtx cmtx iclmtx smtx exch exec smtx}bd
/cland{{exch cvx exec}cloper}bd
/clcopy{{exch clinit cvx exec}cloper}bd
/cldiff{{exch pathbbox 4 -1 roll clrect 0 get 2 copy gt{exch}if pop 4 1 roll
 3 -1 roll clrect 1 get 2 copy gt{exch}if pop 3 1 roll
 2 -1 roll clrect 2 get 2 copy lt{exch}if pop 2 1 roll
 1 -1 roll clrect 3 get 2 copy lt{exch}if pop 1 1 roll
 exch 3 i sub exch 2 i sub rectpath cvx exec}cloper}bd
/icl{{clinit}cloper}bd
0.851119 0.854601 sc

/initmtx mtx cmtx def
initmtx smtx
[1.0000 0.0000 0.0000 1.0000 0.0000 0.0000 ] concat
 [0.281988 -0 0 -0.28084 0 696.189] concat
gs
421 2182 m
3332 2182 l
7 sw
1 sj
1 scap
st
504 2182 m
504 2163 l
st
587 2182 m
587 2163 l
st
671 2182 m
671 2163 l
st
754 2182 m
754 2163 l
st
837 2182 m
837 2163 l
st
920 2182 m
920 2163 l
st
1003 2182 m
1003 2163 l
st
1086 2182 m
1086 2163 l
st
1170 2182 m
1170 2163 l
st
1336 2182 m
1336 2163 l
st
1419 2182 m
1419 2163 l
st
1502 2182 m
1502 2163 l
st
1585 2182 m
1585 2163 l
st
1669 2182 m
1669 2163 l
st
1752 2182 m
1752 2163 l
st
1835 2182 m
1835 2163 l
st
1918 2182 m
1918 2163 l
st
2001 2182 m
2001 2163 l
st
2168 2182 m
2168 2163 l
st
2251 2182 m
2251 2163 l
st
2334 2182 m
2334 2163 l
st
2417 2182 m
2417 2163 l
st
2500 2182 m
2500 2163 l
st
2583 2182 m
2583 2163 l
st
2667 2182 m
2667 2163 l
st
2750 2182 m
2750 2163 l
st
2833 2182 m
2833 2163 l
st
2999 2182 m
2999 2163 l
st
3082 2182 m
3082 2163 l
st
3166 2182 m
3166 2163 l
st
3249 2182 m
3249 2163 l
st
3332 2182 m
3332 2163 l
st
421 2182 m
421 2144 l
st
1253 2182 m
1253 2144 l
st
2084 2182 m
2084 2144 l
st
2916 2182 m
2916 2144 l
st
421 124 m
3332 124 l
st
504 124 m
504 143 l
st
587 124 m
587 143 l
st
671 124 m
671 143 l
st
754 124 m
754 143 l
st
837 124 m
837 143 l
st
920 124 m
920 143 l
st
1003 124 m
1003 143 l
st
1086 124 m
1086 143 l
st
1170 124 m
1170 143 l
st
1336 124 m
1336 143 l
st
1419 124 m
1419 143 l
st
1502 124 m
1502 143 l
st
1585 124 m
1585 143 l
st
1669 124 m
1669 143 l
st
1752 124 m
1752 143 l
st
1835 124 m
1835 143 l
st
1918 124 m
1918 143 l
st
2001 124 m
2001 143 l
st
2168 124 m
2168 143 l
st
2251 124 m
2251 143 l
st
2334 124 m
2334 143 l
st
2417 124 m
2417 143 l
st
2500 124 m
2500 143 l
st
2583 124 m
2583 143 l
st
2667 124 m
2667 143 l
st
2750 124 m
2750 143 l
st
2833 124 m
2833 143 l
st
2999 124 m
2999 143 l
st
3082 124 m
3082 143 l
st
3166 124 m
3166 143 l
st
3249 124 m
3249 143 l
st
3332 124 m
3332 143 l
st
421 124 m
421 162 l
st
1253 124 m
1253 162 l
st
2084 124 m
2084 162 l
st
2916 124 m
2916 162 l
st
421 2182 m
421 124 l
st
421 2145 m
440 2145 l
st
421 2108 m
440 2108 l
st
421 2072 m
440 2072 l
st
421 1998 m
440 1998 l
st
421 1961 m
440 1961 l
st
421 1925 m
440 1925 l
st
421 1851 m
440 1851 l
st
421 1814 m
440 1814 l
st
421 1778 m
440 1778 l
st
421 1704 m
440 1704 l
st
421 1667 m
440 1667 l
st
421 1631 m
440 1631 l
st
421 1557 m
440 1557 l
st
421 1520 m
440 1520 l
st
421 1484 m
440 1484 l
st
421 1410 m
440 1410 l
st
421 1373 m
440 1373 l
st
421 1337 m
440 1337 l
st
421 1263 m
440 1263 l
st
421 1226 m
440 1226 l
st
421 1190 m
440 1190 l
st
421 1116 m
440 1116 l
st
421 1079 m
440 1079 l
st
421 1043 m
440 1043 l
st
421 969 m
440 969 l
st
421 932 m
440 932 l
st
421 896 m
440 896 l
st
421 822 m
440 822 l
st
421 785 m
440 785 l
st
421 749 m
440 749 l
st
421 675 m
440 675 l
st
421 638 m
440 638 l
st
421 602 m
440 602 l
st
421 528 m
440 528 l
st
421 491 m
440 491 l
st
421 455 m
440 455 l
st
421 381 m
440 381 l
st
421 344 m
440 344 l
st
421 308 m
440 308 l
st
421 234 m
440 234 l
st
421 197 m
440 197 l
st
421 161 m
440 161 l
st
421 2182 m
459 2182 l
st
421 2035 m
459 2035 l
st
421 1888 m
459 1888 l
st
421 1741 m
459 1741 l
st
421 1594 m
459 1594 l
st
421 1447 m
459 1447 l
st
421 1300 m
459 1300 l
st
421 1153 m
459 1153 l
st
421 1006 m
459 1006 l
st
421 859 m
459 859 l
st
421 712 m
459 712 l
st
421 565 m
459 565 l
st
421 418 m
459 418 l
st
421 271 m
459 271 l
st
3332 2182 m
3332 124 l
st
3332 2145 m
3313 2145 l
st
3332 2108 m
3313 2108 l
st
3332 2072 m
3313 2072 l
st
3332 1998 m
3313 1998 l
st
3332 1961 m
3313 1961 l
st
3332 1925 m
3313 1925 l
st
3332 1851 m
3313 1851 l
st
3332 1814 m
3313 1814 l
st
3332 1778 m
3313 1778 l
st
3332 1704 m
3313 1704 l
st
3332 1667 m
3313 1667 l
st
3332 1631 m
3313 1631 l
st
3332 1557 m
3313 1557 l
st
3332 1520 m
3313 1520 l
st
3332 1484 m
3313 1484 l
st
3332 1410 m
3313 1410 l
st
3332 1373 m
3313 1373 l
st
3332 1337 m
3313 1337 l
st
3332 1263 m
3313 1263 l
st
3332 1226 m
3313 1226 l
st
3332 1190 m
3313 1190 l
st
3332 1116 m
3313 1116 l
st
3332 1079 m
3313 1079 l
st
3332 1043 m
3313 1043 l
st
3332 969 m
3313 969 l
st
3332 932 m
3313 932 l
st
3332 896 m
3313 896 l
st
3332 822 m
3313 822 l
st
3332 785 m
3313 785 l
st
3332 749 m
3313 749 l
st
3332 675 m
3313 675 l
st
3332 638 m
3313 638 l
st
3332 602 m
3313 602 l
st
3332 528 m
3313 528 l
st
3332 491 m
3313 491 l
st
3332 455 m
3313 455 l
st
3332 381 m
3313 381 l
st
3332 344 m
3313 344 l
st
3332 308 m
3313 308 l
st
3332 234 m
3313 234 l
st
3332 197 m
3313 197 l
st
3332 161 m
3313 161 l
st
3332 2182 m
3294 2182 l
st
3332 2035 m
3294 2035 l
st
3332 1888 m
3294 1888 l
st
3332 1741 m
3294 1741 l
st
3332 1594 m
3294 1594 l
st
3332 1447 m
3294 1447 l
st
3332 1300 m
3294 1300 l
st
3332 1153 m
3294 1153 l
st
3332 1006 m
3294 1006 l
st
3332 859 m
3294 859 l
st
3332 712 m
3294 712 l
st
3332 565 m
3294 565 l
st
3332 418 m
3294 418 l
st
3332 271 m
3294 271 l
st
gs
gr
gs
gr
gs
1 -1 sc
/MC1_Arial 83 self 398 -2288 m
(0)[46 ] xs
1 -1 sc
gr
gs
gr
gs
gr
gs
1 -1 sc
/MC1_Arial 83 self 1230 -2288 m
(1)[46 ] xs
1 -1 sc
gr
gs
gr
gs
gr
gs
1 -1 sc
/MC1_Arial 83 self 2061 -2288 m
(2)[46 ] xs
1 -1 sc
gr
gs
gr
gs
gr
gs
1 -1 sc
/MC1_Arial 83 self 2893 -2288 m
(3)[46 ] xs
1 -1 sc
gr
gs
gr
gs
gr
gs
1 -1 sc
/MC1_Arial 83 self 219 -2207 m
(0.00)[46 23 46 46 ] xs
1 -1 sc
gr
gs
gr
gs
gr
gs
1 -1 sc
/MC1_Arial 83 self 219 -2060 m
(0.01)[46 23 46 46 ] xs
1 -1 sc
gr
gs
gr
gs
gr
gs
1 -1 sc
/MC1_Arial 83 self 219 -1913 m
(0.02)[46 23 46 46 ] xs
1 -1 sc
gr
gs
gr
gs
gr
gs
1 -1 sc
/MC1_Arial 83 self 219 -1766 m
(0.03)[46 23 46 46 ] xs
1 -1 sc
gr
gs
gr
gs
gr
gs
1 -1 sc
/MC1_Arial 83 self 219 -1619 m
(0.04)[46 23 46 46 ] xs
1 -1 sc
gr
gs
gr
gs
gr
gs
1 -1 sc
/MC1_Arial 83 self 219 -1472 m
(0.05)[46 23 46 46 ] xs
1 -1 sc
gr
gs
gr
gs
gr
gs
1 -1 sc
/MC1_Arial 83 self 219 -1325 m
(0.06)[46 23 46 46 ] xs
1 -1 sc
gr
gs
gr
gs
gr
gs
1 -1 sc
/MC1_Arial 83 self 219 -1178 m
(0.07)[46 23 46 46 ] xs
1 -1 sc
gr
gs
gr
gs
gr
gs
1 -1 sc
/MC1_Arial 83 self 219 -1031 m
(0.08)[46 23 46 46 ] xs
1 -1 sc
gr
gs
gr
gs
gr
gs
1 -1 sc
/MC1_Arial 83 self 219 -884 m
(0.09)[46 23 46 46 ] xs
1 -1 sc
gr
gs
gr
gs
gr
gs
1 -1 sc
/MC1_Arial 83 self 219 -737 m
(0.10)[46 23 46 46 ] xs
1 -1 sc
gr
gs
gr
gs
gr
gs
1 -1 sc
/MC1_Arial 83 self 219 -590 m
(0.11)[46 23 46 46 ] xs
1 -1 sc
gr
gs
gr
gs
gr
gs
1 -1 sc
/MC1_Arial 83 self 219 -443 m
(0.12)[46 23 46 46 ] xs
1 -1 sc
gr
gs
gr
gs
gr
gs
1 -1 sc
/MC1_Arial 83 self 219 -296 m
(0.13)[46 23 46 46 ] xs
1 -1 sc
gr
gs
gr
gs
gr
gs
gr
gs
gr
gs
gr
gs
gr
gs
gr
gs
gr
gs
gr
gs
gr
gs
gr
gs
gr
gs
gr
gs
gr
gs
gr
gs
gr
gs
gr
gs
gr
gs
gr
gs
gr
gs
gr
gs
gr
gs
pathproc 421 124 2912 2059 np rectpath
/eocl cland
np exec
472 356 m
504 388 l
2 sw
0 0 1 rgb
st
504 356 m
472 388 l
st
538 449 m
570 481 l
st
570 449 m
538 481 l
st
605 488 m
637 520 l
st
637 488 m
605 520 l
st
671 566 m
703 598 l
st
703 566 m
671 598 l
st
738 624 m
770 656 l
st
770 624 m
738 656 l
st
804 693 m
836 725 l
st
836 693 m
804 725 l
st
871 749 m
903 781 l
st
903 749 m
871 781 l
st
937 864 m
969 896 l
st
969 864 m
937 896 l
st
1004 943 m
1036 975 l
st
1036 943 m
1004 975 l
st
1070 1026 m
1102 1058 l
st
1102 1026 m
1070 1058 l
st
1137 1140 m
1169 1172 l
st
1169 1140 m
1137 1172 l
st
1203 1260 m
1235 1292 l
st
1235 1260 m
1203 1292 l
st
1270 1391 m
1302 1423 l
st
1302 1391 m
1270 1423 l
st
1337 1496 m
1369 1528 l
st
1369 1496 m
1337 1528 l
st
1403 1611 m
1435 1643 l
st
1435 1611 m
1403 1643 l
st
1470 1703 m
1502 1735 l
st
1502 1703 m
1470 1735 l
st
1536 1788 m
1568 1820 l
st
1568 1788 m
1536 1820 l
st
1603 1852 m
1635 1884 l
st
1635 1852 m
1603 1884 l
st
1669 1910 m
1701 1942 l
st
1701 1910 m
1669 1942 l
st
1736 1959 m
1768 1991 l
st
1768 1959 m
1736 1991 l
st
1802 1998 m
1834 2030 l
st
1834 1998 m
1802 2030 l
st
1869 2035 m
1901 2067 l
st
1901 2035 m
1869 2067 l
st
1935 2064 m
1967 2096 l
st
1967 2064 m
1935 2096 l
st
2002 2087 m
2034 2119 l
st
2034 2087 m
2002 2119 l
st
2068 2105 m
2100 2137 l
st
2100 2105 m
2068 2137 l
st
2135 2119 m
2167 2151 l
st
2167 2119 m
2135 2151 l
st
2202 2130 m
2234 2162 l
st
2234 2130 m
2202 2162 l
st
2268 2137 m
2300 2169 l
st
2300 2137 m
2268 2169 l
st
2335 2143 m
2367 2175 l
st
2367 2143 m
2335 2175 l
st
2401 2147 m
2433 2179 l
st
2433 2147 m
2401 2179 l
st
2468 2152 m
2500 2184 l
st
2500 2152 m
2468 2184 l
st
2534 2155 m
2566 2187 l
st
2566 2155 m
2534 2187 l
st
2601 2158 m
2633 2190 l
st
2633 2158 m
2601 2190 l
st
2667 2160 m
2699 2192 l
st
2699 2160 m
2667 2192 l
st
2734 2162 m
2766 2194 l
st
2766 2162 m
2734 2194 l
st
2800 2163 m
2832 2195 l
st
2832 2163 m
2800 2195 l
st
2867 2164 m
2899 2196 l
st
2899 2164 m
2867 2196 l
st
2933 2164 m
2965 2196 l
st
2965 2164 m
2933 2196 l
st
3000 2165 m
3032 2197 l
st
3032 2165 m
3000 2197 l
st
3066 2165 m
3098 2197 l
st
3098 2165 m
3066 2197 l
st
3133 2166 m
3165 2198 l
st
3165 2166 m
3133 2198 l
st
3200 2166 m
3232 2198 l
st
3232 2166 m
3200 2198 l
st
3266 2166 m
3298 2198 l
st
3298 2166 m
3266 2198 l
st
3333 2166 m
3365 2198 l
st
3365 2166 m
3333 2198 l
st
gr
gs
pathproc 421 124 2912 2059 np rectpath
/eocl cland
np exec
472 567 m
504 599 l
2 sw
0 1 0 rgb
st
504 567 m
472 599 l
st
488 567 m
488 599 l
st
472 583 m
504 583 l
st
538 633 m
570 665 l
st
570 633 m
538 665 l
st
554 633 m
554 665 l
st
538 649 m
570 649 l
st
605 645 m
637 677 l
st
637 645 m
605 677 l
st
621 645 m
621 677 l
st
605 661 m
637 661 l
st
671 655 m
703 687 l
st
703 655 m
671 687 l
st
687 655 m
687 687 l
st
671 671 m
703 671 l
st
738 733 m
770 765 l
st
770 733 m
738 765 l
st
754 733 m
754 765 l
st
738 749 m
770 749 l
st
804 786 m
836 818 l
st
836 786 m
804 818 l
st
820 786 m
820 818 l
st
804 802 m
836 802 l
st
871 844 m
903 876 l
st
903 844 m
871 876 l
st
887 844 m
887 876 l
st
871 860 m
903 860 l
st
937 925 m
969 957 l
st
969 925 m
937 957 l
st
953 925 m
953 957 l
st
937 941 m
969 941 l
st
1004 1006 m
1036 1038 l
st
1036 1006 m
1004 1038 l
st
1020 1006 m
1020 1038 l
st
1004 1022 m
1036 1022 l
st
1070 1102 m
1102 1134 l
st
1102 1102 m
1070 1134 l
st
1086 1102 m
1086 1134 l
st
1070 1118 m
1102 1118 l
st
1137 1209 m
1169 1241 l
st
1169 1209 m
1137 1241 l
st
1153 1209 m
1153 1241 l
st
1137 1225 m
1169 1225 l
st
1203 1315 m
1235 1347 l
st
1235 1315 m
1203 1347 l
st
1219 1315 m
1219 1347 l
st
1203 1331 m
1235 1331 l
st
1270 1422 m
1302 1454 l
st
1302 1422 m
1270 1454 l
st
1286 1422 m
1286 1454 l
st
1270 1438 m
1302 1438 l
st
1337 1519 m
1369 1551 l
st
1369 1519 m
1337 1551 l
st
1353 1519 m
1353 1551 l
st
1337 1535 m
1369 1535 l
st
1403 1612 m
1435 1644 l
st
1435 1612 m
1403 1644 l
st
1419 1612 m
1419 1644 l
st
1403 1628 m
1435 1628 l
st
1470 1690 m
1502 1722 l
st
1502 1690 m
1470 1722 l
st
1486 1690 m
1486 1722 l
st
1470 1706 m
1502 1706 l
st
1536 1763 m
1568 1795 l
st
1568 1763 m
1536 1795 l
st
1552 1763 m
1552 1795 l
st
1536 1779 m
1568 1779 l
st
1603 1827 m
1635 1859 l
st
1635 1827 m
1603 1859 l
st
1619 1827 m
1619 1859 l
st
1603 1843 m
1635 1843 l
st
1669 1891 m
1701 1923 l
st
1701 1891 m
1669 1923 l
st
1685 1891 m
1685 1923 l
st
1669 1907 m
1701 1907 l
st
1736 1941 m
1768 1973 l
st
1768 1941 m
1736 1973 l
st
1752 1941 m
1752 1973 l
st
1736 1957 m
1768 1957 l
st
1802 1981 m
1834 2013 l
st
1834 1981 m
1802 2013 l
st
1818 1981 m
1818 2013 l
st
1802 1997 m
1834 1997 l
st
1869 2015 m
1901 2047 l
st
1901 2015 m
1869 2047 l
st
1885 2015 m
1885 2047 l
st
1869 2031 m
1901 2031 l
st
1935 2048 m
1967 2080 l
st
1967 2048 m
1935 2080 l
st
1951 2048 m
1951 2080 l
st
1935 2064 m
1967 2064 l
st
2002 2072 m
2034 2104 l
st
2034 2072 m
2002 2104 l
st
2018 2072 m
2018 2104 l
st
2002 2088 m
2034 2088 l
st
2068 2095 m
2100 2127 l
st
2100 2095 m
2068 2127 l
st
2084 2095 m
2084 2127 l
st
2068 2111 m
2100 2111 l
st
2135 2113 m
2167 2145 l
st
2167 2113 m
2135 2145 l
st
2151 2113 m
2151 2145 l
st
2135 2129 m
2167 2129 l
st
2202 2125 m
2234 2157 l
st
2234 2125 m
2202 2157 l
st
2218 2125 m
2218 2157 l
st
2202 2141 m
2234 2141 l
st
2268 2136 m
2300 2168 l
st
2300 2136 m
2268 2168 l
st
2284 2136 m
2284 2168 l
st
2268 2152 m
2300 2152 l
st
2335 2144 m
2367 2176 l
st
2367 2144 m
2335 2176 l
st
2351 2144 m
2351 2176 l
st
2335 2160 m
2367 2160 l
st
2401 2151 m
2433 2183 l
st
2433 2151 m
2401 2183 l
st
2417 2151 m
2417 2183 l
st
2401 2167 m
2433 2167 l
st
2468 2154 m
2500 2186 l
st
2500 2154 m
2468 2186 l
st
2484 2154 m
2484 2186 l
st
2468 2170 m
2500 2170 l
st
2534 2158 m
2566 2190 l
st
2566 2158 m
2534 2190 l
st
2550 2158 m
2550 2190 l
st
2534 2174 m
2566 2174 l
st
2601 2160 m
2633 2192 l
st
2633 2160 m
2601 2192 l
st
2617 2160 m
2617 2192 l
st
2601 2176 m
2633 2176 l
st
2667 2162 m
2699 2194 l
st
2699 2162 m
2667 2194 l
st
2683 2162 m
2683 2194 l
st
2667 2178 m
2699 2178 l
st
2734 2163 m
2766 2195 l
st
2766 2163 m
2734 2195 l
st
2750 2163 m
2750 2195 l
st
2734 2179 m
2766 2179 l
st
2800 2164 m
2832 2196 l
st
2832 2164 m
2800 2196 l
st
2816 2164 m
2816 2196 l
st
2800 2180 m
2832 2180 l
st
2867 2165 m
2899 2197 l
st
2899 2165 m
2867 2197 l
st
2883 2165 m
2883 2197 l
st
2867 2181 m
2899 2181 l
st
2933 2165 m
2965 2197 l
st
2965 2165 m
2933 2197 l
st
2949 2165 m
2949 2197 l
st
2933 2181 m
2965 2181 l
st
3000 2166 m
3032 2198 l
st
3032 2166 m
3000 2198 l
st
3016 2166 m
3016 2198 l
st
3000 2182 m
3032 2182 l
st
3066 2166 m
3098 2198 l
st
3098 2166 m
3066 2198 l
st
3082 2166 m
3082 2198 l
st
3066 2182 m
3098 2182 l
st
3133 2166 m
3165 2198 l
st
3165 2166 m
3133 2198 l
st
3149 2166 m
3149 2198 l
st
3133 2182 m
3165 2182 l
st
3200 2165 m
3232 2197 l
st
3232 2165 m
3200 2197 l
st
3216 2165 m
3216 2197 l
st
3200 2181 m
3232 2181 l
st
3266 2166 m
3298 2198 l
st
3298 2166 m
3266 2198 l
st
3282 2166 m
3282 2198 l
st
3266 2182 m
3298 2182 l
st
3333 2166 m
3365 2198 l
st
3365 2166 m
3333 2198 l
st
3349 2166 m
3349 2198 l
st
3333 2182 m
3365 2182 l
st
gr
gs
pathproc 421 124 2912 2059 np rectpath
/eocl cland
np exec
488 252 m
488 280 l
2 sw
1 0 0 rgb
st
474 266 m
502 266 l
st
554 303 m
554 331 l
st
540 317 m
568 317 l
st
621 392 m
621 420 l
st
607 406 m
635 406 l
st
687 507 m
687 535 l
st
673 521 m
701 521 l
st
754 529 m
754 557 l
st
740 543 m
768 543 l
st
820 556 m
820 584 l
st
806 570 m
834 570 l
st
887 653 m
887 681 l
st
873 667 m
901 667 l
st
953 740 m
953 768 l
st
939 754 m
967 754 l
st
1020 850 m
1020 878 l
st
1006 864 m
1034 864 l
st
1086 999 m
1086 1027 l
st
1072 1013 m
1100 1013 l
st
1153 1147 m
1153 1175 l
st
1139 1161 m
1167 1161 l
st
1219 1272 m
1219 1300 l
st
1205 1286 m
1233 1286 l
st
1286 1388 m
1286 1416 l
st
1272 1402 m
1300 1402 l
st
1353 1498 m
1353 1526 l
st
1339 1512 m
1367 1512 l
st
1419 1599 m
1419 1627 l
st
1405 1613 m
1433 1613 l
st
1486 1696 m
1486 1724 l
st
1472 1710 m
1500 1710 l
st
1552 1774 m
1552 1802 l
st
1538 1788 m
1566 1788 l
st
1619 1847 m
1619 1875 l
st
1605 1861 m
1633 1861 l
st
1685 1910 m
1685 1938 l
st
1671 1924 m
1699 1924 l
st
1752 1964 m
1752 1992 l
st
1738 1978 m
1766 1978 l
st
1818 2009 m
1818 2037 l
st
1804 2023 m
1832 2023 l
st
1885 2044 m
1885 2072 l
st
1871 2058 m
1899 2058 l
st
1951 2072 m
1951 2100 l
st
1937 2086 m
1965 2086 l
st
2018 2095 m
2018 2123 l
st
2004 2109 m
2032 2109 l
st
2084 2113 m
2084 2141 l
st
2070 2127 m
2098 2127 l
st
2151 2122 m
2151 2150 l
st
2137 2136 m
2165 2136 l
st
2218 2134 m
2218 2162 l
st
2204 2148 m
2232 2148 l
st
2284 2144 m
2284 2172 l
st
2270 2158 m
2298 2158 l
st
2351 2149 m
2351 2177 l
st
2337 2163 m
2365 2163 l
st
2417 2154 m
2417 2182 l
st
2403 2168 m
2431 2168 l
st
2484 2158 m
2484 2186 l
st
2470 2172 m
2498 2172 l
st
2550 2160 m
2550 2188 l
st
2536 2174 m
2564 2174 l
st
2617 2162 m
2617 2190 l
st
2603 2176 m
2631 2176 l
st
2683 2164 m
2683 2192 l
st
2669 2178 m
2697 2178 l
st
2750 2165 m
2750 2193 l
st
2736 2179 m
2764 2179 l
st
2816 2166 m
2816 2194 l
st
2802 2180 m
2830 2180 l
st
2883 2167 m
2883 2195 l
st
2869 2181 m
2897 2181 l
st
2949 2167 m
2949 2195 l
st
2935 2181 m
2963 2181 l
st
3016 2167 m
3016 2195 l
st
3002 2181 m
3030 2181 l
st
3082 2168 m
3082 2196 l
st
3068 2182 m
3096 2182 l
st
3149 2168 m
3149 2196 l
st
3135 2182 m
3163 2182 l
st
3216 2168 m
3216 2196 l
st
3202 2182 m
3230 2182 l
st
3282 2168 m
3282 2196 l
st
3268 2182 m
3296 2182 l
st
3349 2168 m
3349 2196 l
st
3335 2182 m
3363 2182 l
st
gr
gs
pathproc 421 124 2912 2059 np rectpath
/eocl cland
np exec
488 155 m
488 253 l
3 sw
1 0 0 rgb
st
481 155 m
495 155 l
st
488 377 m
488 279 l
st
481 377 m
495 377 l
st
554 246 m
554 304 l
st
547 246 m
561 246 l
st
554 389 m
554 330 l
st
547 389 m
561 389 l
st
621 357 m
621 393 l
st
614 357 m
628 357 l
st
621 455 m
621 419 l
st
614 455 m
628 455 l
st
687 484 m
687 508 l
st
680 484 m
694 484 l
st
687 558 m
687 534 l
st
680 558 m
694 558 l
st
754 515 m
754 530 l
st
747 515 m
761 515 l
st
754 572 m
754 556 l
st
747 572 m
761 572 l
st
820 546 m
820 557 l
st
813 546 m
827 546 l
st
820 595 m
820 583 l
st
813 595 m
827 595 l
st
887 645 m
887 654 l
st
880 645 m
894 645 l
st
887 689 m
887 680 l
st
880 689 m
894 689 l
st
953 735 m
953 741 l
st
946 735 m
960 735 l
st
953 772 m
953 767 l
st
946 772 m
960 772 l
st
1020 848 m
1020 851 l
st
1013 848 m
1027 848 l
st
1020 880 m
1020 877 l
st
1013 880 m
1027 880 l
st
1086 999 m
1086 1000 l
st
1079 999 m
1093 999 l
st
1086 1027 m
1086 1026 l
st
1079 1027 m
1093 1027 l
st
1153 1150 m
1153 1148 l
st
1146 1150 m
1160 1150 l
st
1153 1172 m
1153 1174 l
st
1146 1172 m
1160 1172 l
st
1219 1276 m
1219 1273 l
st
1212 1276 m
1226 1276 l
st
1219 1296 m
1219 1299 l
st
1212 1296 m
1226 1296 l
st
1286 1393 m
1286 1389 l
st
1279 1393 m
1293 1393 l
st
1286 1410 m
1286 1415 l
st
1279 1410 m
1293 1410 l
st
1353 1505 m
1353 1499 l
st
1346 1505 m
1360 1505 l
st
1353 1519 m
1353 1525 l
st
1346 1519 m
1360 1519 l
st
1419 1607 m
1419 1600 l
st
1412 1607 m
1426 1607 l
st
1419 1620 m
1419 1626 l
st
1412 1620 m
1426 1620 l
st
1486 1705 m
1486 1697 l
st
1479 1705 m
1493 1705 l
st
1486 1716 m
1486 1723 l
st
1479 1716 m
1493 1716 l
st
1552 1783 m
1552 1775 l
st
1545 1783 m
1559 1783 l
st
1552 1793 m
1552 1801 l
st
1545 1793 m
1559 1793 l
st
1619 1857 m
1619 1848 l
st
1612 1857 m
1626 1857 l
st
1619 1865 m
1619 1874 l
st
1612 1865 m
1626 1865 l
st
1685 1920 m
1685 1911 l
st
1678 1920 m
1692 1920 l
st
1685 1928 m
1685 1937 l
st
1678 1928 m
1692 1928 l
st
1752 1975 m
1752 1965 l
st
1745 1975 m
1759 1975 l
st
1752 1981 m
1752 1991 l
st
1745 1981 m
1759 1981 l
st
1818 2020 m
1818 2010 l
st
1811 2020 m
1825 2020 l
st
1818 2026 m
1818 2036 l
st
1811 2026 m
1825 2026 l
st
1885 2056 m
1885 2045 l
st
1878 2056 m
1892 2056 l
st
1885 2060 m
1885 2071 l
st
1878 2060 m
1892 2060 l
st
1951 2084 m
1951 2073 l
st
1944 2084 m
1958 2084 l
st
1951 2088 m
1951 2099 l
st
1944 2088 m
1958 2088 l
st
2018 2107 m
2018 2096 l
st
2011 2107 m
2025 2107 l
st
2018 2110 m
2018 2122 l
st
2011 2110 m
2025 2110 l
st
2084 2125 m
2084 2114 l
st
2077 2125 m
2091 2125 l
st
2084 2128 m
2084 2140 l
st
2077 2128 m
2091 2128 l
st
2151 2135 m
2151 2123 l
st
2144 2135 m
2158 2135 l
st
2151 2138 m
2151 2149 l
st
2144 2138 m
2158 2138 l
st
2218 2147 m
2218 2135 l
st
2211 2147 m
2225 2147 l
st
2218 2149 m
2218 2161 l
st
2211 2149 m
2225 2149 l
st
2284 2157 m
2284 2145 l
st
2277 2157 m
2291 2157 l
st
2284 2158 m
2284 2171 l
st
2277 2158 m
2291 2158 l
st
2351 2162 m
2351 2150 l
st
2344 2162 m
2358 2162 l
st
2351 2164 m
2351 2176 l
st
2344 2164 m
2358 2164 l
st
2417 2167 m
2417 2155 l
st
2410 2167 m
2424 2167 l
st
2417 2168 m
2417 2181 l
st
2410 2168 m
2424 2168 l
st
2484 2171 m
2484 2159 l
st
2477 2171 m
2491 2171 l
st
2484 2172 m
2484 2185 l
st
2477 2172 m
2491 2172 l
st
2550 2174 m
2550 2187 l
st
2543 2174 m
2557 2174 l
st
2550 2175 m
2550 2187 l
st
2543 2175 m
2557 2175 l
st
2617 2176 m
2617 2189 l
st
2610 2176 m
2624 2176 l
st
2617 2176 m
2617 2189 l
st
2610 2176 m
2624 2176 l
st
2683 2177 m
2683 2165 l
st
2676 2177 m
2690 2177 l
st
2683 2178 m
2683 2191 l
st
2676 2178 m
2690 2178 l
st
2750 2179 m
2750 2192 l
st
2743 2179 m
2757 2179 l
st
2750 2180 m
2750 2192 l
st
2743 2180 m
2757 2180 l
st
2816 2180 m
2816 2193 l
st
2809 2180 m
2823 2180 l
st
2816 2180 m
2816 2193 l
st
2809 2180 m
2823 2180 l
st
2883 2181 m
2883 2194 l
st
2876 2181 m
2890 2181 l
st
2883 2181 m
2883 2194 l
st
2876 2181 m
2890 2181 l
st
2949 2181 m
2949 2194 l
st
2942 2181 m
2956 2181 l
st
2949 2181 m
2949 2194 l
st
2942 2181 m
2956 2181 l
st
3016 2181 m
3016 2194 l
st
3009 2181 m
3023 2181 l
st
3016 2181 m
3016 2194 l
st
3009 2181 m
3023 2181 l
st
3082 2182 m
3082 2195 l
st
3075 2182 m
3089 2182 l
st
3082 2182 m
3082 2195 l
st
3075 2182 m
3089 2182 l
st
3149 2182 m
3149 2195 l
st
3142 2182 m
3156 2182 l
st
3149 2182 m
3149 2195 l
st
3142 2182 m
3156 2182 l
st
3216 2182 m
3216 2195 l
st
3209 2182 m
3223 2182 l
st
3216 2182 m
3216 2195 l
st
3209 2182 m
3223 2182 l
st
3282 2182 m
3282 2195 l
st
3275 2182 m
3289 2182 l
st
3282 2182 m
3282 2195 l
st
3275 2182 m
3289 2182 l
st
3349 2182 m
3349 2195 l
st
3342 2182 m
3356 2182 l
st
3349 2182 m
3349 2195 l
st
3342 2182 m
3356 2182 l
st
gr
gs
pathproc 421 124 2912 2059 np rectpath
/eocl cland
np exec
488 504 m
488 569 l
3 sw
0 1 0 rgb
st
481 504 m
495 504 l
st
488 661 m
488 597 l
st
481 661 m
495 661 l
st
554 601 m
554 635 l
st
547 601 m
561 601 l
st
554 697 m
554 663 l
st
547 697 m
561 697 l
st
621 625 m
621 647 l
st
614 625 m
628 625 l
st
621 698 m
621 675 l
st
614 698 m
628 698 l
st
687 641 m
687 657 l
st
680 641 m
694 641 l
st
687 701 m
687 685 l
st
680 701 m
694 701 l
st
754 726 m
754 735 l
st
747 726 m
761 726 l
st
754 773 m
754 763 l
st
747 773 m
761 773 l
st
820 783 m
820 788 l
st
813 783 m
827 783 l
st
820 822 m
820 816 l
st
813 822 m
827 822 l
st
887 843 m
887 846 l
st
880 843 m
894 843 l
st
887 876 m
887 874 l
st
880 876 m
894 876 l
st
953 926 m
953 927 l
st
946 926 m
960 926 l
st
953 955 m
953 955 l
st
946 955 m
960 955 l
st
1020 1009 m
1020 1008 l
st
1013 1009 m
1027 1009 l
st
1020 1034 m
1020 1036 l
st
1013 1034 m
1027 1034 l
st
1086 1108 m
1086 1104 l
st
1079 1108 m
1093 1108 l
st
1086 1128 m
1086 1132 l
st
1079 1128 m
1093 1128 l
st
1153 1216 m
1153 1211 l
st
1146 1216 m
1160 1216 l
st
1153 1233 m
1153 1239 l
st
1146 1233 m
1160 1233 l
st
1219 1323 m
1219 1317 l
st
1212 1323 m
1226 1323 l
st
1219 1339 m
1219 1345 l
st
1212 1339 m
1226 1339 l
st
1286 1431 m
1286 1424 l
st
1279 1431 m
1293 1431 l
st
1286 1445 m
1286 1452 l
st
1279 1445 m
1293 1445 l
st
1353 1529 m
1353 1521 l
st
1346 1529 m
1360 1529 l
st
1353 1541 m
1353 1549 l
st
1346 1541 m
1360 1541 l
st
1419 1623 m
1419 1614 l
st
1412 1623 m
1426 1623 l
st
1419 1633 m
1419 1642 l
st
1412 1633 m
1426 1633 l
st
1486 1701 m
1486 1692 l
st
1479 1701 m
1493 1701 l
st
1486 1711 m
1486 1720 l
st
1479 1711 m
1493 1711 l
st
1552 1774 m
1552 1765 l
st
1545 1774 m
1559 1774 l
st
1552 1783 m
1552 1793 l
st
1545 1783 m
1559 1783 l
st
1619 1839 m
1619 1829 l
st
1612 1839 m
1626 1839 l
st
1619 1847 m
1619 1857 l
st
1612 1847 m
1626 1847 l
st
1685 1904 m
1685 1893 l
st
1678 1904 m
1692 1904 l
st
1685 1911 m
1685 1921 l
st
1678 1911 m
1692 1911 l
st
1752 1954 m
1752 1943 l
st
1745 1954 m
1759 1954 l
st
1752 1960 m
1752 1971 l
st
1745 1960 m
1759 1960 l
st
1818 1994 m
1818 1983 l
st
1811 1994 m
1825 1994 l
st
1818 1999 m
1818 2011 l
st
1811 1999 m
1825 1999 l
st
1885 2029 m
1885 2017 l
st
1878 2029 m
1892 2029 l
st
1885 2033 m
1885 2045 l
st
1878 2033 m
1892 2033 l
st
1951 2061 m
1951 2050 l
st
1944 2061 m
1958 2061 l
st
1951 2066 m
1951 2078 l
st
1944 2066 m
1958 2066 l
st
2018 2086 m
2018 2074 l
st
2011 2086 m
2025 2086 l
st
2018 2089 m
2018 2102 l
st
2011 2089 m
2025 2089 l
st
2084 2110 m
2084 2097 l
st
2077 2110 m
2091 2110 l
st
2084 2113 m
2084 2125 l
st
2077 2113 m
2091 2113 l
st
2151 2128 m
2151 2115 l
st
2144 2128 m
2158 2128 l
st
2151 2130 m
2151 2143 l
st
2144 2130 m
2158 2130 l
st
2218 2140 m
2218 2127 l
st
2211 2140 m
2225 2140 l
st
2218 2142 m
2218 2155 l
st
2211 2142 m
2225 2142 l
st
2284 2151 m
2284 2138 l
st
2277 2151 m
2291 2151 l
st
2284 2153 m
2284 2166 l
st
2277 2153 m
2291 2153 l
st
2351 2159 m
2351 2146 l
st
2344 2159 m
2358 2159 l
st
2351 2161 m
2351 2174 l
st
2344 2161 m
2358 2161 l
st
2417 2166 m
2417 2153 l
st
2410 2166 m
2424 2166 l
st
2417 2168 m
2417 2181 l
st
2410 2168 m
2424 2168 l
st
2484 2170 m
2484 2184 l
st
2477 2170 m
2491 2170 l
st
2484 2171 m
2484 2184 l
st
2477 2171 m
2491 2171 l
st
2550 2173 m
2550 2160 l
st
2543 2173 m
2557 2173 l
st
2550 2175 m
2550 2188 l
st
2543 2175 m
2557 2175 l
st
2617 2175 m
2617 2162 l
st
2610 2175 m
2624 2175 l
st
2617 2176 m
2617 2190 l
st
2610 2176 m
2624 2176 l
st
2683 2178 m
2683 2192 l
st
2676 2178 m
2690 2178 l
st
2683 2179 m
2683 2192 l
st
2676 2179 m
2690 2179 l
st
2750 2179 m
2750 2193 l
st
2743 2179 m
2757 2179 l
st
2750 2180 m
2750 2193 l
st
2743 2180 m
2757 2180 l
st
2816 2180 m
2816 2194 l
st
2809 2180 m
2823 2180 l
st
2816 2181 m
2816 2194 l
st
2809 2181 m
2823 2181 l
st
2883 2181 m
2883 2195 l
st
2876 2181 m
2890 2181 l
st
2883 2181 m
2883 2195 l
st
2876 2181 m
2890 2181 l
st
2949 2181 m
2949 2195 l
st
2942 2181 m
2956 2181 l
st
2949 2182 m
2949 2195 l
st
2942 2182 m
2956 2182 l
st
3016 2181 m
3016 2168 l
st
3009 2181 m
3023 2181 l
st
3016 2182 m
3016 2196 l
st
3009 2182 m
3023 2182 l
st
3149 2182 m
3149 2196 l
st
3142 2182 m
3156 2182 l
st
3149 2182 m
3149 2196 l
st
3142 2182 m
3156 2182 l
st
3216 2181 m
3216 2195 l
st
3209 2181 m
3223 2181 l
st
3216 2182 m
3216 2195 l
st
3209 2182 m
3223 2182 l
st
3282 2181 m
3282 2168 l
st
3275 2181 m
3289 2181 l
st
3282 2182 m
3282 2196 l
st
3275 2182 m
3289 2182 l
st
3349 2181 m
3349 2168 l
st
3342 2181 m
3356 2181 l
st
3349 2182 m
3349 2196 l
st
3342 2182 m
3356 2182 l
st
gr
gs
pathproc 421 124 2912 2059 np rectpath
/eocl cland
np exec
488 407 m
503 423 l
5 sw
st
521 442 m
536 456 l
st
554 473 m
570 486 l
st
589 501 m
608 516 l
st
626 532 m
641 545 l
st
658 562 m
674 576 l
st
693 594 m
712 610 l
st
733 627 m
748 639 l
st
767 654 m
783 666 l
st
801 681 m
817 694 l
st
837 713 m
854 730 l
st
871 750 m
886 766 l
st
902 788 m
914 803 l
st
930 825 m
943 843 l
st
956 861 m
967 877 l
st
983 898 m
995 916 l
st
1010 937 m
1023 956 l
st
1036 976 m
1046 993 l
st
1058 1013 m
1068 1030 l
st
1080 1048 m
1089 1065 l
st
1101 1086 m
1112 1105 l
st
1124 1128 m
1135 1148 l
st
1148 1171 m
1158 1190 l
st
1171 1211 m
1180 1228 l
st
1191 1248 m
1201 1266 l
st
1213 1286 m
1223 1304 l
st
1234 1324 m
1245 1344 l
st
1258 1366 m
1269 1386 l
st
1282 1406 m
1292 1424 l
st
1305 1445 m
1317 1465 l
st
1329 1483 m
1342 1503 l
st
1356 1525 m
1368 1544 l
st
1380 1562 m
1390 1578 l
st
1402 1596 m
1416 1615 l
st
1430 1636 m
1441 1652 l
st
1457 1673 m
1470 1690 l
st
1486 1710 m
1499 1727 l
st
1516 1747 m
1529 1762 l
st
1545 1780 m
1558 1794 l
st
1578 1815 m
1592 1830 l
st
1611 1849 m
1628 1865 l
st
1648 1884 m
1664 1899 l
st
1682 1914 m
1697 1927 l
st
1719 1944 m
1737 1958 l
st
1757 1972 m
1774 1983 l
st
1793 1995 m
1812 2006 l
st
1835 2019 m
1856 2031 l
st
1875 2041 m
1895 2050 l
st
1918 2062 m
1938 2070 l
st
1961 2079 m
1981 2087 l
st
2005 2095 m
2027 2102 l
st
2038 2106 m
2060 2112 l
st
2083 2118 m
2104 2123 l
st
2128 2129 m
2149 2132 l
st
2174 2137 m
2195 2141 l
st
2218 2145 m
2240 2148 l
st
2265 2151 m
2287 2154 l
st
2310 2156 m
2332 2159 l
st
2357 2161 m
2379 2163 l
st
2404 2165 m
2426 2166 l
st
2451 2168 m
2473 2169 l
st
2496 2170 m
2517 2171 l
st
2542 2172 m
2564 2173 l
st
2589 2174 m
2611 2175 l
st
2635 2176 m
2657 2176 l
st
2682 2177 m
2704 2178 l
st
2729 2178 m
2751 2179 l
st
2776 2179 m
2798 2180 l
st
2823 2180 m
2845 2180 l
st
2870 2181 m
2892 2181 l
st
2917 2181 m
2939 2181 l
st
2964 2181 m
2986 2181 l
st
3011 2181 m
3033 2181 l
st
3058 2182 m
3080 2182 l
st
3105 2182 m
3127 2182 l
st
3152 2182 m
3174 2182 l
st
3199 2182 m
3221 2182 l
st
3246 2182 m
3268 2182 l
st
3293 2182 m
3315 2182 l
st
3340 2182 m
3348 2182 l
st
gr
gs
pathproc 421 124 2912 2059 np rectpath
/eocl cland
np exec
488 259 m
488 358 l
3 sw
0 0 1 rgb
st
469 259 m
507 259 l
st
488 486 m
488 386 l
st
469 486 m
507 486 l
st
554 391 m
554 451 l
st
535 391 m
573 391 l
st
554 540 m
554 479 l
st
535 540 m
573 540 l
st
621 451 m
621 490 l
st
602 451 m
640 451 l
st
621 557 m
621 518 l
st
602 557 m
640 557 l
st
687 541 m
687 568 l
st
668 541 m
706 541 l
st
687 623 m
687 596 l
st
668 623 m
706 623 l
st
754 605 m
754 626 l
st
735 605 m
773 605 l
st
754 675 m
754 654 l
st
735 675 m
773 675 l
st
820 680 m
820 695 l
st
801 680 m
839 680 l
st
820 737 m
820 723 l
st
801 737 m
839 737 l
st
887 740 m
887 751 l
st
868 740 m
906 740 l
st
887 789 m
887 779 l
st
868 789 m
906 789 l
st
953 859 m
953 866 l
st
934 859 m
972 859 l
st
953 900 m
953 894 l
st
934 900 m
972 900 l
st
1020 943 m
1020 945 l
st
1001 943 m
1039 943 l
st
1020 976 m
1020 973 l
st
1001 976 m
1039 976 l
st
1086 1029 m
1086 1028 l
st
1067 1029 m
1105 1029 l
st
1086 1055 m
1086 1056 l
st
1067 1055 m
1105 1055 l
st
1153 1144 m
1153 1142 l
st
1134 1144 m
1172 1144 l
st
1153 1168 m
1153 1170 l
st
1134 1168 m
1172 1168 l
st
1219 1265 m
1219 1262 l
st
1200 1265 m
1238 1265 l
st
1219 1286 m
1219 1290 l
st
1200 1286 m
1238 1286 l
st
1286 1399 m
1286 1393 l
st
1267 1399 m
1305 1399 l
st
1286 1416 m
1286 1421 l
st
1267 1416 m
1305 1416 l
st
1353 1505 m
1353 1498 l
st
1334 1505 m
1372 1505 l
st
1353 1519 m
1353 1526 l
st
1334 1519 m
1372 1519 l
st
1419 1620 m
1419 1613 l
st
1400 1620 m
1438 1620 l
st
1419 1633 m
1419 1641 l
st
1400 1633 m
1438 1633 l
st
1486 1713 m
1486 1705 l
st
1467 1713 m
1505 1713 l
st
1486 1724 m
1486 1733 l
st
1467 1724 m
1505 1724 l
st
1552 1799 m
1552 1790 l
st
1533 1799 m
1571 1799 l
st
1552 1809 m
1552 1818 l
st
1533 1809 m
1571 1809 l
st
1619 1864 m
1619 1854 l
st
1600 1864 m
1638 1864 l
st
1619 1872 m
1619 1882 l
st
1600 1872 m
1638 1872 l
st
1685 1922 m
1685 1912 l
st
1666 1922 m
1704 1922 l
st
1685 1929 m
1685 1940 l
st
1666 1929 m
1704 1929 l
st
1752 1972 m
1752 1961 l
st
1733 1972 m
1771 1972 l
st
1752 1978 m
1752 1989 l
st
1733 1978 m
1771 1978 l
st
1818 2012 m
1818 2000 l
st
1799 2012 m
1837 2012 l
st
1818 2017 m
1818 2028 l
st
1799 2017 m
1837 2017 l
st
1885 2048 m
1885 2037 l
st
1866 2048 m
1904 2048 l
st
1885 2053 m
1885 2065 l
st
1866 2053 m
1904 2053 l
st
1951 2078 m
1951 2066 l
st
1932 2078 m
1970 2078 l
st
1951 2082 m
1951 2094 l
st
1932 2082 m
1970 2082 l
st
2018 2101 m
2018 2089 l
st
1999 2101 m
2037 2101 l
st
2018 2104 m
2018 2117 l
st
1999 2104 m
2037 2104 l
st
2084 2120 m
2084 2107 l
st
2065 2120 m
2103 2120 l
st
2084 2123 m
2084 2135 l
st
2065 2123 m
2103 2123 l
st
2151 2133 m
2151 2121 l
st
2132 2133 m
2170 2133 l
st
2151 2136 m
2151 2149 l
st
2132 2136 m
2170 2136 l
st
2218 2145 m
2218 2132 l
st
2199 2145 m
2237 2145 l
st
2218 2147 m
2218 2160 l
st
2199 2147 m
2237 2147 l
st
2284 2152 m
2284 2139 l
st
2265 2152 m
2303 2152 l
st
2284 2154 m
2284 2167 l
st
2265 2154 m
2303 2154 l
st
2351 2158 m
2351 2145 l
st
2332 2158 m
2370 2158 l
st
2351 2159 m
2351 2173 l
st
2332 2159 m
2370 2159 l
st
2417 2163 m
2417 2177 l
st
2398 2163 m
2436 2163 l
st
2417 2164 m
2417 2177 l
st
2398 2164 m
2436 2164 l
st
2484 2168 m
2484 2182 l
st
2465 2168 m
2503 2168 l
st
2484 2169 m
2484 2182 l
st
2465 2169 m
2503 2169 l
st
2550 2171 m
2550 2185 l
st
2531 2171 m
2569 2171 l
st
2550 2172 m
2550 2185 l
st
2531 2172 m
2569 2172 l
st
2617 2173 m
2617 2160 l
st
2598 2173 m
2636 2173 l
st
2617 2174 m
2617 2188 l
st
2598 2174 m
2636 2174 l
st
2683 2176 m
2683 2190 l
st
2664 2176 m
2702 2176 l
st
2683 2176 m
2683 2190 l
st
2664 2176 m
2702 2176 l
st
2750 2178 m
2750 2192 l
st
2731 2178 m
2769 2178 l
st
2750 2178 m
2750 2192 l
st
2731 2178 m
2769 2178 l
st
2816 2179 m
2816 2193 l
st
2797 2179 m
2835 2179 l
st
2816 2179 m
2816 2193 l
st
2797 2179 m
2835 2179 l
st
2883 2180 m
2883 2194 l
st
2864 2180 m
2902 2180 l
st
2883 2180 m
2883 2194 l
st
2864 2180 m
2902 2180 l
st
2949 2180 m
2949 2194 l
st
2930 2180 m
2968 2180 l
st
2949 2181 m
2949 2194 l
st
2930 2181 m
2968 2181 l
st
3016 2181 m
3016 2195 l
st
2997 2181 m
3035 2181 l
st
3016 2181 m
3016 2195 l
st
2997 2181 m
3035 2181 l
st
3082 2181 m
3082 2195 l
st
3063 2181 m
3101 2181 l
st
3082 2181 m
3082 2195 l
st
3063 2181 m
3101 2181 l
st
3149 2181 m
3149 2168 l
st
3130 2181 m
3168 2181 l
st
3149 2182 m
3149 2196 l
st
3130 2182 m
3168 2182 l
st
3216 2182 m
3216 2196 l
st
3197 2182 m
3235 2182 l
st
3216 2182 m
3216 2196 l
st
3197 2182 m
3235 2182 l
st
3282 2182 m
3282 2196 l
st
3263 2182 m
3301 2182 l
st
3282 2182 m
3282 2196 l
st
3263 2182 m
3301 2182 l
st
3349 2182 m
3349 2196 l
st
3330 2182 m
3368 2182 l
st
3349 2182 m
3349 2196 l
st
3330 2182 m
3368 2182 l
st
gr
gs
pathproc 421 124 2912 2059 np rectpath
/eocl cland
np exec
np
459 270 15 0 360  a
cp
gs
0 0 1 rgb
eofi
gr
2 sw
0 0 1 rgb
st
np
534 314 15 0 360  a
cp
gs
eofi
gr
st
np
610 356 15 0 360  a
cp
gs
eofi
gr
st
np
686 403 15 0 360  a
cp
gs
eofi
gr
st
np
761 483 15 0 360  a
cp
gs
eofi
gr
st
np
837 575 15 0 360  a
cp
gs
eofi
gr
st
np
912 676 15 0 360  a
cp
gs
eofi
gr
st
np
988 796 15 0 360  a
cp
gs
eofi
gr
st
np
1064 929 15 0 360  a
cp
gs
eofi
gr
st
np
1139 1073 15 0 360  a
cp
gs
eofi
gr
st
np
1215 1215 15 0 360  a
cp
gs
eofi
gr
st
np
1291 1359 15 0 360  a
cp
gs
eofi
gr
st
np
1366 1493 15 0 360  a
cp
gs
eofi
gr
st
np
1442 1615 15 0 360  a
cp
gs
eofi
gr
st
np
1517 1725 15 0 360  a
cp
gs
eofi
gr
st
np
1593 1817 15 0 360  a
cp
gs
eofi
gr
st
np
1669 1895 15 0 360  a
cp
gs
eofi
gr
st
np
1744 1957 15 0 360  a
cp
gs
eofi
gr
st
np
1820 2009 15 0 360  a
cp
gs
eofi
gr
st
np
1895 2049 15 0 360  a
cp
gs
eofi
gr
st
np
1971 2081 15 0 360  a
cp
gs
eofi
gr
st
np
2047 2105 15 0 360  a
cp
gs
eofi
gr
st
np
2122 2123 15 0 360  a
cp
gs
eofi
gr
st
np
2198 2138 15 0 360  a
cp
gs
eofi
gr
st
np
2273 2149 15 0 360  a
cp
gs
eofi
gr
st
np
2349 2157 15 0 360  a
cp
gs
eofi
gr
st
np
2425 2163 15 0 360  a
cp
gs
eofi
gr
st
np
2500 2168 15 0 360  a
cp
gs
eofi
gr
st
np
2576 2171 15 0 360  a
cp
gs
eofi
gr
st
np
2652 2174 15 0 360  a
cp
gs
eofi
gr
st
np
2727 2176 15 0 360  a
cp
gs
eofi
gr
st
np
2803 2178 15 0 360  a
cp
gs
eofi
gr
st
np
2878 2179 15 0 360  a
cp
gs
eofi
gr
st
np
2954 2180 15 0 360  a
cp
gs
eofi
gr
st
np
3030 2180 15 0 360  a
cp
gs
eofi
gr
st
np
3105 2181 15 0 360  a
cp
gs
eofi
gr
st
np
3181 2181 15 0 360  a
cp
gs
eofi
gr
st
np
3256 2181 15 0 360  a
cp
gs
eofi
gr
st
np
3332 2181 15 0 360  a
cp
gs
eofi
gr
st
np
3408 2182 15 0 360  a
cp
gs
eofi
gr
st
gr
gs
pathproc 421 124 2912 2059 np rectpath
/eocl cland
np exec
459 223 m
459 256 l
3 sw
0 0 1 rgb
st
452 223 m
466 223 l
st
459 317 m
459 284 l
st
452 317 m
466 317 l
st
534 297 m
534 300 l
st
527 297 m
541 297 l
st
534 332 m
534 328 l
st
527 332 m
541 332 l
st
610 345 m
610 342 l
st
603 345 m
617 345 l
st
610 366 m
610 370 l
st
603 366 m
617 366 l
st
686 396 m
686 389 l
st
679 396 m
693 396 l
st
686 411 m
686 417 l
st
679 411 m
693 411 l
st
761 478 m
761 469 l
st
754 478 m
768 478 l
st
761 489 m
761 497 l
st
754 489 m
768 489 l
st
837 571 m
837 561 l
st
830 571 m
844 571 l
st
837 580 m
837 589 l
st
830 580 m
844 580 l
st
912 672 m
912 662 l
st
905 672 m
919 672 l
st
912 679 m
912 690 l
st
905 679 m
919 679 l
st
988 793 m
988 782 l
st
981 793 m
995 793 l
st
988 799 m
988 810 l
st
981 799 m
995 799 l
st
1064 926 m
1064 915 l
st
1057 926 m
1071 926 l
st
1064 931 m
1064 943 l
st
1057 931 m
1071 931 l
st
1139 1070 m
1139 1059 l
st
1132 1070 m
1146 1070 l
st
1139 1075 m
1139 1087 l
st
1132 1075 m
1146 1075 l
st
1215 1213 m
1215 1201 l
st
1208 1213 m
1222 1213 l
st
1215 1217 m
1215 1229 l
st
1208 1217 m
1222 1217 l
st
1291 1358 m
1291 1345 l
st
1284 1358 m
1298 1358 l
st
1291 1361 m
1291 1373 l
st
1284 1361 m
1298 1361 l
st
1366 1491 m
1366 1479 l
st
1359 1491 m
1373 1491 l
st
1366 1494 m
1366 1507 l
st
1359 1494 m
1373 1494 l
st
1442 1614 m
1442 1601 l
st
1435 1614 m
1449 1614 l
st
1442 1616 m
1442 1629 l
st
1435 1616 m
1449 1616 l
st
1517 1725 m
1517 1739 l
st
1510 1725 m
1524 1725 l
st
1517 1726 m
1517 1739 l
st
1510 1726 m
1524 1726 l
st
1593 1817 m
1593 1831 l
st
1586 1817 m
1600 1817 l
st
1593 1818 m
1593 1831 l
st
1586 1818 m
1600 1818 l
st
1669 1894 m
1669 1881 l
st
1662 1894 m
1676 1894 l
st
1669 1896 m
1669 1909 l
st
1662 1896 m
1676 1896 l
st
1744 1957 m
1744 1971 l
st
1737 1957 m
1751 1957 l
st
1744 1958 m
1744 1971 l
st
1737 1958 m
1751 1958 l
st
1820 2009 m
1820 2023 l
st
1813 2009 m
1827 2009 l
st
1820 2010 m
1820 2023 l
st
1813 2010 m
1827 2010 l
st
1895 2049 m
1895 2063 l
st
1888 2049 m
1902 2049 l
st
1895 2049 m
1895 2063 l
st
1888 2049 m
1902 2049 l
st
1971 2080 m
1971 2067 l
st
1964 2080 m
1978 2080 l
st
1971 2081 m
1971 2095 l
st
1964 2081 m
1978 2081 l
st
2047 2104 m
2047 2091 l
st
2040 2104 m
2054 2104 l
st
2047 2105 m
2047 2119 l
st
2040 2105 m
2054 2105 l
st
2122 2123 m
2122 2137 l
st
2115 2123 m
2129 2123 l
st
2122 2124 m
2122 2137 l
st
2115 2124 m
2129 2124 l
st
2198 2138 m
2198 2152 l
st
2191 2138 m
2205 2138 l
st
2198 2138 m
2198 2152 l
st
2191 2138 m
2205 2138 l
st
2273 2149 m
2273 2163 l
st
2266 2149 m
2280 2149 l
st
2273 2149 m
2273 2163 l
st
2266 2149 m
2280 2149 l
st
2349 2157 m
2349 2171 l
st
2342 2157 m
2356 2157 l
st
2349 2157 m
2349 2171 l
st
2342 2157 m
2356 2157 l
st
2425 2163 m
2425 2177 l
st
2418 2163 m
2432 2163 l
st
2425 2163 m
2425 2177 l
st
2418 2163 m
2432 2163 l
st
2500 2168 m
2500 2182 l
st
2493 2168 m
2507 2168 l
st
2500 2168 m
2500 2182 l
st
2493 2168 m
2507 2168 l
st
gr
gs
pathproc 421 124 2912 2059 np rectpath
/eocl cland
np exec
np
459 305 15 0 360  a
cp
gs
1 0 0 rgb
eofi
gr
2 sw
1 0 0 rgb
st
np
534 303 15 0 360  a
cp
gs
eofi
gr
st
np
610 351 15 0 360  a
cp
gs
eofi
gr
st
np
686 403 15 0 360  a
cp
gs
eofi
gr
st
np
761 477 15 0 360  a
cp
gs
eofi
gr
st
np
837 573 15 0 360  a
cp
gs
eofi
gr
st
np
912 675 15 0 360  a
cp
gs
eofi
gr
st
np
988 799 15 0 360  a
cp
gs
eofi
gr
st
np
1064 929 15 0 360  a
cp
gs
eofi
gr
st
np
1139 1067 15 0 360  a
cp
gs
eofi
gr
st
np
1215 1215 15 0 360  a
cp
gs
eofi
gr
st
np
1291 1357 15 0 360  a
cp
gs
eofi
gr
st
np
1366 1493 15 0 360  a
cp
gs
eofi
gr
st
np
1442 1616 15 0 360  a
cp
gs
eofi
gr
st
np
1517 1725 15 0 360  a
cp
gs
eofi
gr
st
np
1593 1818 15 0 360  a
cp
gs
eofi
gr
st
np
1669 1895 15 0 360  a
cp
gs
eofi
gr
st
np
1744 1956 15 0 360  a
cp
gs
eofi
gr
st
np
1820 2009 15 0 360  a
cp
gs
eofi
gr
st
np
1895 2049 15 0 360  a
cp
gs
eofi
gr
st
np
1971 2081 15 0 360  a
cp
gs
eofi
gr
st
np
2047 2105 15 0 360  a
cp
gs
eofi
gr
st
np
2122 2124 15 0 360  a
cp
gs
eofi
gr
st
np
2198 2138 15 0 360  a
cp
gs
eofi
gr
st
np
2273 2149 15 0 360  a
cp
gs
eofi
gr
st
np
2349 2157 15 0 360  a
cp
gs
eofi
gr
st
np
2425 2163 15 0 360  a
cp
gs
eofi
gr
st
np
2500 2168 15 0 360  a
cp
gs
eofi
gr
st
np
2576 2171 15 0 360  a
cp
gs
eofi
gr
st
np
2652 2174 15 0 360  a
cp
gs
eofi
gr
st
np
2727 2176 15 0 360  a
cp
gs
eofi
gr
st
np
2803 2177 15 0 360  a
cp
gs
eofi
gr
st
np
2878 2179 15 0 360  a
cp
gs
eofi
gr
st
np
2954 2180 15 0 360  a
cp
gs
eofi
gr
st
np
3030 2180 15 0 360  a
cp
gs
eofi
gr
st
np
3105 2181 15 0 360  a
cp
gs
eofi
gr
st
np
3181 2181 15 0 360  a
cp
gs
eofi
gr
st
np
3256 2181 15 0 360  a
cp
gs
eofi
gr
st
np
3332 2181 15 0 360  a
cp
gs
eofi
gr
st
np
3408 2182 15 0 360  a
cp
gs
eofi
gr
st
gr
gs
pathproc 421 124 2912 2059 np rectpath
/eocl cland
np exec
np
459 308 15 0 360  a
cp
gs
0 1 0 rgb
eofi
gr
2 sw
0 1 0 rgb
st
np
534 304 15 0 360  a
cp
gs
eofi
gr
st
np
610 361 15 0 360  a
cp
gs
eofi
gr
st
np
686 425 15 0 360  a
cp
gs
eofi
gr
st
np
761 483 15 0 360  a
cp
gs
eofi
gr
st
np
837 568 15 0 360  a
cp
gs
eofi
gr
st
np
912 670 15 0 360  a
cp
gs
eofi
gr
st
np
988 793 15 0 360  a
cp
gs
eofi
gr
st
np
1064 928 15 0 360  a
cp
gs
eofi
gr
st
np
1139 1071 15 0 360  a
cp
gs
eofi
gr
st
np
1215 1218 15 0 360  a
cp
gs
eofi
gr
st
np
1291 1359 15 0 360  a
cp
gs
eofi
gr
st
np
1366 1494 15 0 360  a
cp
gs
eofi
gr
st
np
1442 1617 15 0 360  a
cp
gs
eofi
gr
st
np
1517 1724 15 0 360  a
cp
gs
eofi
gr
st
np
1593 1816 15 0 360  a
cp
gs
eofi
gr
st
np
1669 1894 15 0 360  a
cp
gs
eofi
gr
st
np
1744 1959 15 0 360  a
cp
gs
eofi
gr
st
np
1820 2009 15 0 360  a
cp
gs
eofi
gr
st
np
1895 2049 15 0 360  a
cp
gs
eofi
gr
st
np
1971 2081 15 0 360  a
cp
gs
eofi
gr
st
np
2047 2105 15 0 360  a
cp
gs
eofi
gr
st
np
2122 2123 15 0 360  a
cp
gs
eofi
gr
st
np
2198 2138 15 0 360  a
cp
gs
eofi
gr
st
np
2273 2149 15 0 360  a
cp
gs
eofi
gr
st
np
2349 2157 15 0 360  a
cp
gs
eofi
gr
st
np
2425 2163 15 0 360  a
cp
gs
eofi
gr
st
np
2500 2168 15 0 360  a
cp
gs
eofi
gr
st
np
2576 2171 15 0 360  a
cp
gs
eofi
gr
st
np
2652 2174 15 0 360  a
cp
gs
eofi
gr
st
np
2727 2176 15 0 360  a
cp
gs
eofi
gr
st
np
2803 2178 15 0 360  a
cp
gs
eofi
gr
st
np
2878 2179 15 0 360  a
cp
gs
eofi
gr
st
np
2954 2180 15 0 360  a
cp
gs
eofi
gr
st
np
3030 2180 15 0 360  a
cp
gs
eofi
gr
st
np
3105 2181 15 0 360  a
cp
gs
eofi
gr
st
np
3181 2181 15 0 360  a
cp
gs
eofi
gr
st
np
3256 2181 15 0 360  a
cp
gs
eofi
gr
st
np
3332 2181 15 0 360  a
cp
gs
eofi
gr
st
np
3408 2182 15 0 360  a
cp
gs
eofi
gr
st
gr
gs
pathproc 421 124 2912 2059 np rectpath
/eocl cland
np exec
459 261 m
459 294 l
3 sw
0 1 0 rgb
st
452 261 m
466 261 l
st
459 354 m
459 322 l
st
452 354 m
466 354 l
st
534 286 m
534 290 l
st
527 286 m
541 286 l
st
534 322 m
534 318 l
st
527 322 m
541 322 l
st
610 350 m
610 347 l
st
603 350 m
617 350 l
st
610 371 m
610 375 l
st
603 371 m
617 371 l
st
686 417 m
686 411 l
st
679 417 m
693 417 l
st
686 432 m
686 439 l
st
679 432 m
693 432 l
st
761 477 m
761 469 l
st
754 477 m
768 477 l
st
761 488 m
761 497 l
st
754 488 m
768 488 l
st
837 563 m
837 554 l
st
830 563 m
844 563 l
st
837 572 m
837 582 l
st
830 572 m
844 572 l
st
912 667 m
912 656 l
st
905 667 m
919 667 l
st
912 674 m
912 684 l
st
905 674 m
919 674 l
st
988 790 m
988 779 l
st
981 790 m
995 790 l
st
988 796 m
988 807 l
st
981 796 m
995 796 l
st
1064 926 m
1064 914 l
st
1057 926 m
1071 926 l
st
1064 930 m
1064 942 l
st
1057 930 m
1071 930 l
st
1139 1069 m
1139 1057 l
st
1132 1069 m
1146 1069 l
st
1139 1073 m
1139 1085 l
st
1132 1073 m
1146 1073 l
st
1215 1216 m
1215 1204 l
st
1208 1216 m
1222 1216 l
st
1215 1220 m
1215 1232 l
st
1208 1220 m
1222 1220 l
st
1291 1358 m
1291 1345 l
st
1284 1358 m
1298 1358 l
st
1291 1361 m
1291 1373 l
st
1284 1361 m
1298 1361 l
st
1366 1492 m
1366 1480 l
st
1359 1492 m
1373 1492 l
st
1366 1495 m
1366 1508 l
st
1359 1495 m
1373 1495 l
st
1442 1616 m
1442 1603 l
st
1435 1616 m
1449 1616 l
st
1442 1618 m
1442 1631 l
st
1435 1618 m
1449 1618 l
st
1517 1723 m
1517 1710 l
st
1510 1723 m
1524 1723 l
st
1517 1725 m
1517 1738 l
st
1510 1725 m
1524 1725 l
st
1593 1815 m
1593 1802 l
st
1586 1815 m
1600 1815 l
st
1593 1817 m
1593 1830 l
st
1586 1817 m
1600 1817 l
st
1669 1894 m
1669 1908 l
st
1662 1894 m
1676 1894 l
st
1669 1895 m
1669 1908 l
st
1662 1895 m
1676 1895 l
st
1744 1958 m
1744 1945 l
st
1737 1958 m
1751 1958 l
st
1744 1959 m
1744 1973 l
st
1737 1959 m
1751 1959 l
st
1820 2008 m
1820 1995 l
st
1813 2008 m
1827 2008 l
st
1820 2009 m
1820 2023 l
st
1813 2009 m
1827 2009 l
st
1895 2048 m
1895 2035 l
st
1888 2048 m
1902 2048 l
st
1895 2049 m
1895 2063 l
st
1888 2049 m
1902 2049 l
st
1971 2081 m
1971 2095 l
st
1964 2081 m
1978 2081 l
st
1971 2081 m
1971 2095 l
st
1964 2081 m
1978 2081 l
st
2047 2105 m
2047 2119 l
st
2040 2105 m
2054 2105 l
st
2047 2105 m
2047 2119 l
st
2040 2105 m
2054 2105 l
st
2122 2123 m
2122 2137 l
st
2115 2123 m
2129 2123 l
st
2122 2124 m
2122 2137 l
st
2115 2124 m
2129 2124 l
st
2198 2138 m
2198 2152 l
st
2191 2138 m
2205 2138 l
st
2198 2138 m
2198 2152 l
st
2191 2138 m
2205 2138 l
st
2273 2149 m
2273 2163 l
st
2266 2149 m
2280 2149 l
st
2273 2149 m
2273 2163 l
st
2266 2149 m
2280 2149 l
st
2349 2157 m
2349 2171 l
st
2342 2157 m
2356 2157 l
st
2349 2157 m
2349 2171 l
st
2342 2157 m
2356 2157 l
st
2425 2163 m
2425 2177 l
st
2418 2163 m
2432 2163 l
st
2425 2163 m
2425 2177 l
st
2418 2163 m
2432 2163 l
st
2500 2168 m
2500 2182 l
st
2493 2168 m
2507 2168 l
st
2500 2168 m
2500 2182 l
st
2493 2168 m
2507 2168 l
st
gr
gs
pathproc 421 124 2912 2059 np rectpath
/eocl cland
np exec
459 259 m
459 291 l
3 sw
1 0 0 rgb
st
452 259 m
466 259 l
st
459 352 m
459 319 l
st
452 352 m
466 352 l
st
534 285 m
534 289 l
st
527 285 m
541 285 l
st
534 320 m
534 317 l
st
527 320 m
541 320 l
st
610 341 m
610 337 l
st
603 341 m
617 341 l
st
610 362 m
610 365 l
st
603 362 m
617 362 l
st
686 396 m
686 389 l
st
679 396 m
693 396 l
st
686 411 m
686 417 l
st
679 411 m
693 411 l
st
761 471 m
761 463 l
st
754 471 m
768 471 l
st
761 482 m
761 491 l
st
754 482 m
768 482 l
st
837 569 m
837 559 l
st
830 569 m
844 569 l
st
837 577 m
837 587 l
st
830 577 m
844 577 l
st
912 671 m
912 661 l
st
905 671 m
919 671 l
st
912 679 m
912 689 l
st
905 679 m
919 679 l
st
988 796 m
988 785 l
st
981 796 m
995 796 l
st
988 802 m
988 813 l
st
981 802 m
995 802 l
st
1064 926 m
1064 915 l
st
1057 926 m
1071 926 l
st
1064 931 m
1064 943 l
st
1057 931 m
1071 931 l
st
1139 1065 m
1139 1053 l
st
1132 1065 m
1146 1065 l
st
1139 1069 m
1139 1081 l
st
1132 1069 m
1146 1069 l
st
1215 1213 m
1215 1201 l
st
1208 1213 m
1222 1213 l
st
1215 1216 m
1215 1229 l
st
1208 1216 m
1222 1216 l
st
1291 1355 m
1291 1343 l
st
1284 1355 m
1298 1355 l
st
1291 1358 m
1291 1371 l
st
1284 1358 m
1298 1358 l
st
1366 1491 m
1366 1479 l
st
1359 1491 m
1373 1491 l
st
1366 1494 m
1366 1507 l
st
1359 1494 m
1373 1494 l
st
1442 1615 m
1442 1602 l
st
1435 1615 m
1449 1615 l
st
1442 1617 m
1442 1630 l
st
1435 1617 m
1449 1617 l
st
1517 1724 m
1517 1711 l
st
1510 1724 m
1524 1724 l
st
1517 1725 m
1517 1739 l
st
1510 1725 m
1524 1725 l
st
1593 1818 m
1593 1832 l
st
1586 1818 m
1600 1818 l
st
1593 1819 m
1593 1832 l
st
1586 1819 m
1600 1819 l
st
1669 1895 m
1669 1909 l
st
1662 1895 m
1676 1895 l
st
1669 1896 m
1669 1909 l
st
1662 1896 m
1676 1896 l
st
1744 1956 m
1744 1970 l
st
1737 1956 m
1751 1956 l
st
1744 1957 m
1744 1970 l
st
1737 1957 m
1751 1957 l
st
1820 2008 m
1820 1995 l
st
1813 2008 m
1827 2008 l
st
1820 2009 m
1820 2023 l
st
1813 2009 m
1827 2009 l
st
1895 2049 m
1895 2063 l
st
1888 2049 m
1902 2049 l
st
1895 2050 m
1895 2063 l
st
1888 2050 m
1902 2050 l
st
1971 2080 m
1971 2067 l
st
1964 2080 m
1978 2080 l
st
1971 2081 m
1971 2095 l
st
1964 2081 m
1978 2081 l
st
2047 2105 m
2047 2119 l
st
2040 2105 m
2054 2105 l
st
2047 2106 m
2047 2119 l
st
2040 2106 m
2054 2106 l
st
2122 2124 m
2122 2138 l
st
2115 2124 m
2129 2124 l
st
2122 2124 m
2122 2138 l
st
2115 2124 m
2129 2124 l
st
2198 2138 m
2198 2152 l
st
2191 2138 m
2205 2138 l
st
2198 2138 m
2198 2152 l
st
2191 2138 m
2205 2138 l
st
2273 2149 m
2273 2163 l
st
2266 2149 m
2280 2149 l
st
2273 2149 m
2273 2163 l
st
2266 2149 m
2280 2149 l
st
2349 2157 m
2349 2171 l
st
2342 2157 m
2356 2157 l
st
2349 2157 m
2349 2171 l
st
2342 2157 m
2356 2157 l
st
2425 2163 m
2425 2177 l
st
2418 2163 m
2432 2163 l
st
2425 2163 m
2425 2177 l
st
2418 2163 m
2432 2163 l
st
2500 2168 m
2500 2182 l
st
2493 2168 m
2507 2168 l
st
2500 2168 m
2500 2182 l
st
2493 2168 m
2507 2168 l
st
gr
gs
gs
1 -1 sc
105 -1295 tr
90 ro
/MC2_Symbol 101 self 0 0 m
/s61554 55 xgls
1 -1 sc
gr
gs
1 -1 sc
105 -1240 tr
90 ro
/MC3_Arial 101 self 0 0 m
(\(r\) [fm)[34 34 34 28 28 28 84 ] xs
1 -1 sc
gr
gs
1 -1 sc
56 -970 tr
90 ro
/MC3_Arial 61 self 0 0 m
(-3)[20 34 ] xs
1 -1 sc
gr
gs
1 -1 sc
105 -916 tr
90 ro
/MC3_Arial 101 self 0 0 m
(])[28 ] xs
1 -1 sc
gr
gr
gs
1 -1 sc
/MC1_Arial 101 self 1761 -2443 m
(r [fm])[34 28 28 28 85 28 ] xs
1 -1 sc
gr
gs
gs
gr
gs
2256 226 m
2286 256 l
2 sw
0 0 1 rgb
st
2286 226 m
2256 256 l
st
gr
1 -1 sc
/MC1_Arial 120 self 2405 -281 m
( Nr.1 DMC)[33 87 40 33 67 33 87 100 87 ] xs
1 -1 sc
gs
gr
gs
2256 373 m
2286 403 l
2 sw
0 1 0 rgb
st
2286 373 m
2256 403 l
st
2271 373 m
2271 403 l
st
2256 388 m
2286 388 l
st
gr
1 -1 sc
2405 -428 m
( Nr.2 DMC)[33 87 40 33 67 33 87 100 87 ] xs
1 -1 sc
gs
gr
gs
2271 521 m
2271 549 l
2 sw
1 0 0 rgb
st
2257 535 m
2285 535 l
st
gr
1 -1 sc
2405 -575 m
( Nr.3 DMC)[33 87 40 33 67 33 87 100 87 ] xs
1 -1 sc
gs
gr
gs
gs
2137 682 m
2159 682 l
5 sw
st
2184 682 m
2206 682 l
st
2231 682 m
2253 682 l
st
2278 682 m
2300 682 l
st
2325 682 m
2347 682 l
st
2372 682 m
2394 682 l
st
gr
gr
1 -1 sc
2405 -722 m
( DMC average)[33 87 100 87 33 67 59 67 40 67 67 67 ] xs
1 -1 sc
gs
gr
gs
np
2271 829 14 0 360  a
cp
gs
0 0 1 rgb
eofi
gr
2 sw
0 0 1 rgb
st
gr
1 -1 sc
2405 -869 m
( Nr.1 PIMC)[33 87 40 33 67 33 80 33 100 87 ] xs
1 -1 sc
gs
gr
gs
np
2271 976 14 0 360  a
cp
gs
0 1 0 rgb
eofi
gr
2 sw
0 1 0 rgb
st
gr
1 -1 sc
2405 -1016 m
( Nr.2 PIMC)[33 87 40 33 67 33 80 33 100 87 ] xs
1 -1 sc
gs
gr
gs
np
2271 1123 14 0 360  a
cp
gs
1 0 0 rgb
eofi
gr
2 sw
1 0 0 rgb
st
gr
1 -1 sc
2405 -1163 m
( Nr.3 PIMC)[33 87 40 33 67 33 80 33 100 87 ] xs
1 -1 sc
gr
gr
Save0 restore end
showpage
%%EOF
