%!PS-Adobe-3.0 EPSF-3.0
%%BoundingBox: 0 0 772 591
%%LanguageLevel: 2
%%Creator: OriginLab Corporation
%%Title: (C:\Users\Rong\Desktop\energy.eps)
%%CreationDate: Wed Apr 29 23:46:09 2020
%%EndComments

/OriginLab::PSL1 128 dict dup begin def
/Save0 save def
%%BeginResource: procset OriginLab::PSL1
/wd{1 index where{pop pop pop}{bind def}ifelse}bind def
/setcmykcolor{1 sub 4 1 roll 3{3 index add neg dup 0 lt{pop 0}if 3 1 roll}repeat setrgbcolor pop}wd
/selectfont{dup type/arraytype eq{exch findfont exch makefont setfont}{exch findfont exch scalefont setfont}ifelse}wd
/xshow{1 index length 0 le{}{currentpoint exch 3 index length 1 sub 0 exch 1 exch{dup 5 index exch 1 getinterval show 3 index exch get add 2 copy exch moveto}for pop pop}ifelse pop pop}wd
/glyphshow{matrix currentmatrix exch currentfont dup/FontMatrix get concat currentpoint translate
 dup/Metrics get 2 index get 0 4 2 roll gsave/CharProcs get exch 2 copy known not{pop/.notdef}if
 get exec fill grestore moveto setmatrix}wd
/grayimage/image load def/rgbtogray{cvx exec dup length 3 idiv 1 sub 0 exch 1 exch{dup 3 mul dup 3 index exch get 255 div .3 mul exch
 1 add dup 4 index exch get 255 div .59 mul exch 1 add 4 index exch get 255 div .11 mul add add
 255 mul dup 255 gt{255}if round cvi 2 index 3 1 roll put}for dup length 3 idiv 0 exch getinterval}bind def
/colorimage{0 setgray pop pop cvlit/rgbtogray cvx 2 packedarray cvx grayimage}wd
/bd{bind def}bind def/ld{load def}bd/ed{exch def}bd/xd{cvx def}bd
/np/newpath ld/a/arc ld/m/moveto ld/l/lineto ld/c/curveto ld/rm/rmoveto ld/rl/rlineto ld/rc/rcurveto ld/cp/closepath ld/cpt/currentpoint ld
/tr/translate ld/sc/scale ld/ro/rotate ld/t/transform ld/it/itransform ld/dt/dtransform ld/idt/idtransform ld
/mtx/matrix ld/cmtx/currentmatrix ld/dmtx/defaultmatrix ld/smtx/setmatrix ld/catmtx/concatmatrix ld
/sw/setlinewidth ld/scap/setlinecap ld/sj/setlinejoin ld/sm/setmiterlimit ld/sd/setdash ld/rgb/setrgbcolor ld/crgb/currentrgbcolor ld/cmyk/setcmykcolor ld/gs/gsave ld/gr/grestore ld
/st/stroke ld/fi/fill ld/eofi/eofill ld/cl/clip ld/eocl/eoclip ld
/df/definefont ld/ff/findfont ld/sf/setfont ld/scf/scalefont ld/self/selectfont ld/cf/currentfont ld
/s/show ld/xs/xshow ld/gls/glyphshow ld/xgls{cpt 3 1 roll add exch 3 -1 roll gls m}bd
/cd/currentdict ld/i/index ld
/DrawBox{4 2 roll m 1 index 0 rl 0 exch rl neg 0 rl cp}bd
/plus.re { 6 { 3 index } repeat moveto 0 exch rlineto 0 rlineto pop pop neg 0 exch rlineto pop lineto closepath } def
/DrawBcc{4 2 roll m 2 copy 0 lt exch 0 lt xor{dup 0 exch rl exch 0 rl neg 0 exch rl}{exch dup 0 rl exch 0 exch rl neg 0 rl}ifelse cp}bd
/rectline{dup type/arraytype eq{dup length 0 exch 4 exch 4 sub{0 1 3{3 copy add get 4 1 roll pop}for pop 5 1 roll DrawBox}for pop}{DrawBox}ifelse}bd
/rectpath{dup type/arraytype eq{dup length 0 exch 4 exch 4 sub{0 1 3{3 copy add get 4 1 roll pop}for pop 5 1 roll DrawBcc}for pop}{DrawBcc}ifelse}bd
/pathproc{[{/m cvx}{/l cvx}{/c cvx}{/cp cvx}pathforall]cvx}bd
/L1img/image ld/L1idx[{0}
 {dup 7 and 3 1 roll -3 bitshift get exch 7 sub 1 mul bitshift  1 and}bind 1 index dup
 {dup 1 and 3 1 roll -1 bitshift get exch 1 sub 4 mul bitshift 15 and}bind 1 index dup dup
 {get}bind]def
/image{dup type/dicttype eq {dup/ImgCS get 0 get/Indexed eq}{false}ifelse
 {begin Width Height 8 ImageMatrix {rgb_string rgb_lookup
 cd/DataSource get dup type/filetype eq
 {mystring readstring pop}{exec}ifelse
 dup length 0 ne
 {L1idx BitsPerComponent get 0 1 Width 1 sub
 {3 copy exch exec exch 3 mul exch
 3 mul dup 5 index exch get exch 1 add dup 6 index exch get exch 1 add 6 index exch get
 7 index exch 4 index 2 add exch put 6 index exch 3 index 1 add exch put 5 index exch 2 index exch put pop
 }for pop pop pop }{pop pop pop ()}ifelse }false 3 colorimage end} {dup type/dicttype eq
 {{dup mark exch L1img pop pop}stopped{cleartomark begin Width Height BitsPerComponent ImageMatrix
 {cd/DataSource get dup type/filetype eq {mystring readstring pop}{exec}ifelse
 }false 3 colorimage end} if}{L1img}ifelse}ifelse
 }bd
/L1imgmask/imagemask ld/imagemask{dup type/dicttype eq
 {{dup mark exch L1imgmask pop pop}stopped {cleartomark begin Width Height polarityflag ImageMatrix
 {cd/DataSource get dup type/filetype eq {mystring readstring pop}{exec}ifelse
 }L1imgmask end}if}{L1imgmask}ifelse
 }bd
% Gradient function
/GradientStep 1 150 div def
/GradientStartRGB { /R1 exch def /G1 exch def /B1 exch def } def
/GradientEndRGB { /R2 exch def /G2 exch def /B2 exch def
/GradientSteps GradientLength GradientStep div def
/GradientRStep R2 R1 sub GradientSteps div def
/GradientGStep G2 G1 sub GradientSteps div def
/GradientBStep B2 B1 sub GradientSteps div def
} def
/GradientStepRGB { /R1 R1 GradientRStep add def
/G1 G1 GradientGStep add def
/B1 B1 GradientBStep add def
R1 G1 B1 setrgbcolor
} def
%%EndResource
/rectclip{np rectpath clip np}wd
/rectfill{gs np rectpath fi gr}wd
/rectstroke{gs np dup type/arraytype eq{dup length 6 eq}{false}ifelse{1 index type/arraytype eq{exch}{5 1 roll}ifelse rectline concat st}{rectline st}ifelse gr}wd
%%BeginResource: procset OriginLab::Image
/OriginLab::Image 32 dict dup begin
/BinProc{[currentfile mystring /readstring cvx /pop cvx] cvx bind}bd
/HexProc{[currentfile mystring /readhexstring cvx /pop cvx] cvx bind}bd
/Ascii85Proc{currentfile /ASCII85Decode filter}bd
/LZWA85{currentfile /ASCII85Decode filter /LZWDecode filter}bd
/ImgProcArray[/BinProc /HexProc /Ascii85Proc /LZWA85]def
/ImgDict{/ImgDict 16 dict def ImgDict dup begin /ImageType 1 def /MultipleDataSource false def end}bd
/L2Dec{{[1 0]}{[0 1]}ifelse}bd
/BegImg{ /Img_sv save def
 /ImgDir ed ImgProcArray exch get /ImgProc exch ld
 dup /polarityflag ed L2Dec /polarity ed /smoothflag ed
 tr /dx 2 index def /dy 1 index abs def sc
 string /mystring ed /bpc ed /ih ed /iw ed
 }bd
/EndImg {Img_sv restore}bd
/DoXImg{ /rgb_lookup ed /hival ed ImgDict dup begin
 [/Indexed /DeviceRGB hival rgb_lookup] /L1img where{pop/ImgCS ed}{setcolorspace}ifelse
 /rgb_string iw 3 mul string def
 /Width iw def
 /Height ih def
 /Decode [0 1 bpc{2 mul}repeat 1 sub] def
 /ImageMatrix
  ImgDir 0 eq{[iw 0 0 ih 0 0]}if
  ImgDir 1 eq{[iw neg 0 0 ih iw 0]}if
  ImgDir 2 eq{[iw 0 0 ih neg 0 ih]}if
  ImgDir 3 eq{[iw neg 0 0 ih neg iw ih]}if
  def
 /DataSource ImgProc def
 /BitsPerComponent bpc def
 /Interpolate smoothflag def
 end image}bd
/DoImg{ ImgDict dup begin
 [/DeviceRGB] /L1img where{pop/ImgCS ed}{setcolorspace}ifelse
 /rgb_string iw 3 mul string def
 /Width iw def
 /Height ih def
 /Decode [0 1 0 1 0 1] def
 /ImageMatrix
  ImgDir 0 eq{[iw 0 0 ih 0 0]}if
  ImgDir 1 eq{[iw neg 0 0 ih iw 0]}if
  ImgDir 2 eq{[iw 0 0 ih neg 0 ih]}if
  ImgDir 3 eq{[iw neg 0 0 ih neg iw ih]}if
  def
 /DataSource ImgProc def
 /BitsPerComponent 8 def
 /Interpolate smoothflag def
 end image}bd
end def
%%EndResource
/initmtx mtx cmtx def
%%BeginFont: /MC1_Arial
12 dict begin
/FontInfo 8 dict dup begin
/ItalicAngle 0 def
/UnderlinePosition -217.00 def
/UnderlineThickness 150.00 def
/StrikeoutPosition 530.00 def
/StrikeoutThickness 102.00 def
/isFixedPitch false def
end readonly def
/FontName /MC1_Arial def
/FontType 3 def
/FontMatrix [1 2048 div 0 0 1 2048 div 0 0] def
/FontBBox [-1361 -665 4096 2129] def
/Encoding 256 array def 0 1 255{Encoding exch/.notdef put}for
Encoding 32/s32 put
Encoding 45/s45 put
Encoding 46/s46 put
Encoding 48/s48 put
Encoding 49/s49 put
Encoding 50/s50 put
Encoding 51/s51 put
Encoding 52/s52 put
Encoding 53/s53 put
Encoding 54/s54 put
Encoding 55/s55 put
Encoding 56/s56 put
Encoding 57/s57 put
Encoding 61/s61 put
Encoding 65/s65 put
Encoding 67/s67 put
Encoding 68/s68 put
Encoding 70/s70 put
Encoding 71/s71 put
Encoding 72/s72 put
Encoding 77/s77 put
Encoding 84/s84 put
Encoding 86/s86 put
Encoding 101/s101 put
Encoding 105/s105 put
Encoding 109/s109 put
Encoding 112/s112 put
Encoding 115/s115 put
Encoding 116/s116 put
/BoundingBoxes 30 dict def
BoundingBoxes begin
/s32 [0 -434 569 1854] def
/s45 [0 -434 682 1854] def
/s46 [0 -434 569 1854] def
/s48 [0 -434 1139 1854] def
/s49 [0 -434 1139 1854] def
/s50 [0 -434 1139 1854] def
/s51 [0 -434 1139 1854] def
/s52 [0 -434 1139 1854] def
/s53 [0 -434 1139 1854] def
/s54 [0 -434 1139 1854] def
/s55 [0 -434 1139 1854] def
/s56 [0 -434 1139 1854] def
/s57 [0 -434 1139 1854] def
/s61 [0 -434 1196 1854] def
/s65 [-3 -434 1366 1854] def
/s67 [0 -434 1479 1854] def
/s68 [0 -434 1479 1854] def
/s70 [0 -434 1251 1854] def
/s71 [0 -434 1593 1854] def
/s72 [0 -434 1479 1854] def
/s77 [0 -434 1706 1854] def
/s84 [0 -434 1251 1854] def
/s86 [0 -434 1366 1854] def
/s101 [0 -434 1139 1854] def
/s105 [0 -434 455 1854] def
/s109 [0 -434 1706 1854] def
/s112 [0 -434 1139 1854] def
/s115 [0 -434 1024 1854] def
/s116 [0 -434 569 1854] def
end
/Metrics 30 dict def
 Metrics begin
/s32 569 def
/s45 682 def
/s46 569 def
/s48 1139 def
/s49 1139 def
/s50 1139 def
/s51 1139 def
/s52 1139 def
/s53 1139 def
/s54 1139 def
/s55 1139 def
/s56 1139 def
/s57 1139 def
/s61 1196 def
/s65 1366 def
/s67 1479 def
/s68 1479 def
/s70 1251 def
/s71 1593 def
/s72 1479 def
/s77 1706 def
/s84 1251 def
/s86 1366 def
/s101 1139 def
/s105 455 def
/s109 1706 def
/s112 1139 def
/s115 1024 def
/s116 569 def
end
/CharProcs 30 dict def
CharProcs begin
/.notdef {} def
/s45 {
65 440 m
65 621 65 440 65 621 c
618 621 65 621 618 621 c
618 440 618 621 618 440 c
65 440 618 440 65 440 c
closepath } bind def
/s46 {
186 0 m
186 205 186 0 186 205 c
391 205 186 205 391 205 c
391 0 391 205 391 0 c
186 0 391 0 186 0 c
closepath } bind def
/s48 {
85 723 m
85 896.33 102.83 1035.83 138.5 1141.5 c
174.17 1247.17 227.17 1328.67 297.5 1386 c
367.83 1443.33 456.33 1472 563 1472 c
641.67 1472 710.67 1456.17 770 1424.5 c
829.33 1392.83 878.33 1347.17 917 1287.5 c
955.67 1227.83 986 1155.17 1008 1069.5 c
1030 983.83 1041 868.33 1041 723 c
1041 551 1023.33 412.17 988 306.5 c
952.67 200.83 899.83 119.17 829.5 61.5 c
759.17 3.83 670.33 -25 563 -25 c
421.67 -25 310.67 25.67 230 127 c
133.33 249 85 447.67 85 723 c
closepath 270 723 m
270 482.33 298.17 322.17 354.5 242.5 c
410.83 162.83 480.33 123 563 123 c
645.67 123 715.17 163 771.5 243 c
827.83 323 856 483 856 723 c
856 964.33 827.83 1124.67 771.5 1204 c
715.17 1283.33 645 1323 561 1323 c
478.33 1323 412.33 1288 363 1218 c
301 1128.67 270 963.67 270 723 c
closepath } bind def
/s49 {
763 0 m
583 0 763 0 583 0 c
583 1147 583 0 583 1147 c
539.67 1105.67 482.83 1064.33 412.5 1023 c
342.17 981.67 279 950.67 223 930 c
223 1104 223 930 223 1104 c
323.67 1151.33 411.67 1208.67 487 1276 c
562.33 1343.33 615.67 1408.67 647 1472 c
763 1472 647 1472 763 1472 c
763 0 763 1472 763 0 c
closepath } bind def
/s50 {
1031 173 m
1031 0 1031 173 1031 0 c
62 0 1031 0 62 0 c
60.67 43.33 67.67 85 83 125 c
107.67 191 147.17 256 201.5 320 c
255.83 384 334.33 458 437 542 c
596.33 672.67 704 776.17 760 852.5 c
816 928.83 844 1001 844 1069 c
844 1140.33 818.5 1200.5 767.5 1249.5 c
716.5 1298.5 650 1323 568 1323 c
481.33 1323 412 1297 360 1245 c
308 1193 281.67 1121 281 1029 c
96 1048 281 1029 96 1048 c
108.67 1186 156.33 1291.17 239 1363.5 c
321.67 1435.83 432.67 1472 572 1472 c
712.67 1472 824 1433 906 1355 c
988 1277 1029 1180.33 1029 1065 c
1029 1006.33 1017 948.67 993 892 c
969 835.33 929.17 775.67 873.5 713 c
817.83 650.33 725.33 564.33 596 455 c
488 364.33 418.67 302.83 388 270.5 c
357.33 238.17 332 205.67 312 173 c
1031 173 312 173 1031 173 c
closepath } bind def
/s51 {
86 387 m
266 411 86 387 266 411 c
286.67 309 321.83 235.5 371.5 190.5 c
421.17 145.5 481.67 123 553 123 c
637.67 123 709.17 152.33 767.5 211 c
825.83 269.67 855 342.33 855 429 c
855 511.67 828 579.83 774 633.5 c
720 687.17 651.33 714 568 714 c
534 714 491.67 707.33 441 694 c
461 852 441 694 461 852 c
473 850.67 482.67 850 490 850 c
566.67 850 635.67 870 697 910 c
758.33 950 789 1011.67 789 1095 c
789 1161 766.67 1215.67 722 1259 c
677.33 1302.33 619.67 1324 549 1324 c
479 1324 420.67 1302 374 1258 c
327.33 1214 297.33 1148 284 1060 c
104 1092 284 1060 104 1092 c
126 1212.67 176 1306.17 254 1372.5 c
332 1438.83 429 1472 545 1472 c
625 1472 698.67 1454.83 766 1420.5 c
833.33 1386.17 884.83 1339.33 920.5 1280 c
956.17 1220.67 974 1157.67 974 1091 c
974 1027.67 957 970 923 918 c
889 866 838.67 824.67 772 794 c
858.67 774 926 732.5 974 669.5 c
1022 606.5 1046 527.67 1046 433 c
1046 305 999.33 196.5 906 107.5 c
812.67 18.5 694.67 -26 552 -26 c
423.33 -26 316.5 12.33 231.5 89 c
146.5 165.67 98 265 86 387 c
closepath } bind def
/s52 {
662 0 m
662 351 662 0 662 351 c
26 351 662 351 26 351 c
26 516 26 351 26 516 c
695 1466 26 516 695 1466 c
842 1466 695 1466 842 1466 c
842 516 842 1466 842 516 c
1040 516 842 516 1040 516 c
1040 351 1040 516 1040 351 c
842 351 1040 351 842 351 c
842 0 842 351 842 0 c
662 0 842 0 662 0 c
closepath 662 516 m
662 1177 662 516 662 1177 c
203 516 662 1177 203 516 c
662 516 203 516 662 516 c
closepath } bind def
/s53 {
85 384 m
274 400 85 384 274 400 c
288 308 320.5 238.83 371.5 192.5 c
422.5 146.17 484 123 556 123 c
642.67 123 716 155.67 776 221 c
836 286.33 866 373 866 481 c
866 583.67 837.17 664.67 779.5 724 c
721.83 783.33 646.33 813 553 813 c
495 813 442.67 799.83 396 773.5 c
349.33 747.17 312.67 713 286 671 c
117 693 286 671 117 693 c
259 1446 117 693 259 1446 c
988 1446 259 1446 988 1446 c
988 1274 988 1446 988 1274 c
403 1274 988 1274 403 1274 c
324 880 403 1274 324 880 c
412 941.33 504.33 972 601 972 c
729 972 837 927.67 925 839 c
1013 750.33 1057 636.33 1057 497 c
1057 364.33 1018.33 249.67 941 153 c
847 34.33 718.67 -25 556 -25 c
422.67 -25 313.83 12.33 229.5 87 c
145.17 161.67 97 260.67 85 384 c
closepath } bind def
/s54 {
1019 1107 m
840 1093 1019 1107 840 1093 c
824 1163.67 801.33 1215 772 1247 c
723.33 1298.33 663.33 1324 592 1324 c
534.67 1324 484.33 1308 441 1276 c
384.33 1234.67 339.67 1174.33 307 1095 c
274.33 1015.67 257.33 902.67 256 756 c
299.33 822 352.33 871 415 903 c
477.67 935 543.33 951 612 951 c
732 951 834.17 906.83 918.5 818.5 c
1002.83 730.17 1045 616 1045 476 c
1045 384 1025.17 298.5 985.5 219.5 c
945.83 140.5 891.33 80 822 38 c
752.67 -4 674 -25 586 -25 c
436 -25 313.67 30.17 219 140.5 c
124.33 250.83 77 432.67 77 686 c
77 969.33 129.33 1175.33 234 1304 c
325.33 1416 448.33 1472 603 1472 c
718.33 1472 812.83 1439.67 886.5 1375 c
960.17 1310.33 1004.33 1221 1019 1107 c
closepath 284 475 m
284 413 297.17 353.67 323.5 297 c
349.83 240.33 386.67 197.17 434 167.5 c
481.33 137.83 531 123 583 123 c
659 123 724.33 153.67 779 215 c
833.67 276.33 861 359.67 861 465 c
861 566.33 834 646.17 780 704.5 c
726 762.83 658 792 576 792 c
494.67 792 425.67 762.83 369 704.5 c
312.33 646.17 284 569.67 284 475 c
closepath } bind def
/s55 {
97 1274 m
97 1447 97 1274 97 1447 c
1046 1447 97 1447 1046 1447 c
1046 1307 1046 1447 1046 1307 c
952.67 1207.67 860.17 1075.67 768.5 911 c
676.83 746.33 606 577 556 403 c
520 280.33 497 146 487 0 c
302 0 487 0 302 0 c
304 115.33 326.67 254.67 370 418 c
413.33 581.33 475.5 738.83 556.5 890.5 c
637.5 1042.17 723.67 1170 815 1274 c
97 1274 815 1274 97 1274 c
closepath } bind def
/s56 {
362 795 m
287.33 822.33 232 861.33 196 912 c
160 962.67 142 1023.33 142 1094 c
142 1200.67 180.33 1290.33 257 1363 c
333.67 1435.67 435.67 1472 563 1472 c
691 1472 794 1434.83 872 1360.5 c
950 1286.17 989 1195.67 989 1089 c
989 1021 971.17 961.83 935.5 911.5 c
899.83 861.17 845.67 822.33 773 795 c
863 765.67 931.5 718.33 978.5 653 c
1025.5 587.67 1049 509.67 1049 419 c
1049 293.67 1004.67 188.33 916 103 c
827.33 17.67 710.67 -25 566 -25 c
421.33 -25 304.67 17.83 216 103.5 c
127.33 189.17 83 296 83 424 c
83 519.33 107.17 599.17 155.5 663.5 c
203.83 727.83 272.67 771.67 362 795 c
closepath 326 1100 m
326 1030.67 348.33 974 393 930 c
437.67 886 495.67 864 567 864 c
636.33 864 693.17 885.83 737.5 929.5 c
781.83 973.17 804 1026.67 804 1090 c
804 1156 781.17 1211.5 735.5 1256.5 c
689.83 1301.5 633 1324 565 1324 c
496.33 1324 439.33 1302 394 1258 c
348.67 1214 326 1161.33 326 1100 c
closepath 268 423 m
268 371.67 280.17 322 304.5 274 c
328.83 226 365 188.83 413 162.5 c
461 136.17 512.67 123 568 123 c
654 123 725 150.67 781 206 c
837 261.33 865 331.67 865 417 c
865 503.67 836.17 575.33 778.5 632 c
720.83 688.67 648.67 717 562 717 c
477.33 717 407.17 689 351.5 633 c
295.83 577 268 507 268 423 c
closepath } bind def
/s57 {
112 339 m
285 355 112 339 285 355 c
299.67 273.67 327.67 214.67 369 178 c
410.33 141.33 463.33 123 528 123 c
583.33 123 631.83 135.67 673.5 161 c
715.17 186.33 749.33 220.17 776 262.5 c
802.67 304.83 825 362 843 434 c
861 506 870 579.33 870 654 c
870 662 869.67 674 869 690 c
833 632.67 783.83 586.17 721.5 550.5 c
659.17 514.83 591.67 497 519 497 c
397.67 497 295 541 211 629 c
127 717 85 833 85 977 c
85 1125.67 128.83 1245.33 216.5 1336 c
304.17 1426.67 414 1472 546 1472 c
641.33 1472 728.5 1446.33 807.5 1395 c
886.5 1343.67 946.5 1270.5 987.5 1175.5 c
1028.5 1080.5 1049 943 1049 763 c
1049 575.67 1028.67 426.5 988 315.5 c
947.33 204.5 886.83 120 806.5 62 c
726.17 4 632 -25 524 -25 c
409.33 -25 315.67 6.83 243 70.5 c
170.33 134.17 126.67 223.67 112 339 c
closepath 849 986 m
849 1089.33 821.5 1171.33 766.5 1232 c
711.5 1292.67 645.33 1323 568 1323 c
488 1323 418.33 1290.33 359 1225 c
299.67 1159.67 270 1075 270 971 c
270 877.67 298.17 801.83 354.5 743.5 c
410.83 685.17 480.33 656 563 656 c
646.33 656 714.83 685.17 768.5 743.5 c
822.17 801.83 849 882.67 849 986 c
closepath } bind def
/s61 {
1082 862 m
114 862 1082 862 114 862 c
114 1030 114 862 114 1030 c
1082 1030 114 1030 1082 1030 c
1082 862 1082 1030 1082 862 c
closepath 1082 417 m
114 417 1082 417 114 417 c
114 585 114 417 114 585 c
1082 585 114 585 1082 585 c
1082 417 1082 585 1082 417 c
closepath } bind def
/s65 {
-3 0 m
560 1466 -3 0 560 1466 c
769 1466 560 1466 769 1466 c
1369 0 769 1466 1369 0 c
1148 0 1369 0 1148 0 c
977 444 1148 0 977 444 c
364 444 977 444 364 444 c
203 0 364 444 203 0 c
-3 0 203 0 -3 0 c
closepath 420 602 m
917 602 420 602 917 602 c
764 1008 917 602 764 1008 c
717.33 1131.33 682.67 1232.67 660 1312 c
641.33 1218 615 1124.67 581 1032 c
420 602 581 1032 420 602 c
closepath } bind def
/s67 {
1204 514 m
1398 465 1204 514 1398 465 c
1357.33 305.67 1284.17 184.17 1178.5 100.5 c
1072.83 16.83 943.67 -25 791 -25 c
633 -25 504.5 7.17 405.5 71.5 c
306.5 135.83 231.17 229 179.5 351 c
127.83 473 102 604 102 744 c
102 896.67 131.17 1029.83 189.5 1143.5 c
247.83 1257.17 330.83 1343.5 438.5 1402.5 c
546.17 1461.5 664.67 1491 794 1491 c
940.67 1491 1064 1453.67 1164 1379 c
1264 1304.33 1333.67 1199.33 1373 1064 c
1182 1019 1373 1064 1182 1019 c
1148 1125.67 1098.67 1203.33 1034 1252 c
969.33 1300.67 888 1325 790 1325 c
677.33 1325 583.17 1298 507.5 1244 c
431.83 1190 378.67 1117.5 348 1026.5 c
317.33 935.5 302 841.67 302 745 c
302 620.33 320.17 511.5 356.5 418.5 c
392.83 325.5 449.33 256 526 210 c
602.67 164 685.67 141 775 141 c
883.67 141 975.67 172.33 1051 235 c
1126.33 297.67 1177.33 390.67 1204 514 c
closepath } bind def
/s68 {
158 0 m
158 1466 158 0 158 1466 c
663 1466 158 1466 663 1466 c
777 1466 864 1459 924 1445 c
1008 1425.67 1079.67 1390.67 1139 1340 c
1216.33 1274.67 1274.17 1191.17 1312.5 1089.5 c
1350.83 987.83 1370 871.67 1370 741 c
1370 629.67 1357 531 1331 445 c
1305 359 1271.67 287.83 1231 231.5 c
1190.33 175.17 1145.83 130.83 1097.5 98.5 c
1049.17 66.17 990.83 41.67 922.5 25 c
854.17 8.33 775.67 0 687 0 c
158 0 687 0 158 0 c
closepath 352 173 m
665 173 352 173 665 173 c
761.67 173 837.5 182 892.5 200 c
947.5 218 991.33 243.33 1024 276 c
1070 322 1105.83 383.83 1131.5 461.5 c
1157.17 539.17 1170 633.33 1170 744 c
1170 897.33 1144.83 1015.17 1094.5 1097.5 c
1044.17 1179.83 983 1235 911 1263 c
859 1283 775.33 1293 660 1293 c
352 1293 660 1293 352 1293 c
352 173 352 1293 352 173 c
closepath } bind def
/s70 {
168 0 m
168 1466 168 0 168 1466 c
1157 1466 168 1466 1157 1466 c
1157 1293 1157 1466 1157 1293 c
362 1293 1157 1293 362 1293 c
362 839 362 1293 362 839 c
1050 839 362 839 1050 839 c
1050 666 1050 839 1050 666 c
362 666 1050 666 362 666 c
362 0 362 666 362 0 c
168 0 362 0 168 0 c
closepath } bind def
/s71 {
844 575 m
844 747 844 575 844 747 c
1465 748 844 747 1465 748 c
1465 204 1465 748 1465 204 c
1369.67 128 1271.33 70.83 1170 32.5 c
1068.67 -5.83 964.67 -25 858 -25 c
714 -25 583.17 5.83 465.5 67.5 c
347.83 129.17 259 218.33 199 335 c
139 451.67 109 582 109 726 c
109 868.67 138.83 1001.83 198.5 1125.5 c
258.17 1249.17 344 1341 456 1401 c
568 1461 697 1491 843 1491 c
949 1491 1044.83 1473.83 1130.5 1439.5 c
1216.17 1405.17 1283.33 1357.33 1332 1296 c
1380.67 1234.67 1417.67 1154.67 1443 1056 c
1268 1008 1443 1056 1268 1008 c
1246 1082.67 1218.67 1141.33 1186 1184 c
1153.33 1226.67 1106.67 1260.83 1046 1286.5 c
985.33 1312.17 918 1325 844 1325 c
755.33 1325 678.67 1311.5 614 1284.5 c
549.33 1257.5 497.17 1222 457.5 1178 c
417.83 1134 387 1085.67 365 1033 c
327.67 942.33 309 844 309 738 c
309 607.33 331.5 498 376.5 410 c
421.5 322 487 256.67 573 214 c
659 171.33 750.33 150 847 150 c
931 150 1013 166.17 1093 198.5 c
1173 230.83 1233.67 265.33 1275 302 c
1275 575 1275 302 1275 575 c
844 575 1275 575 844 575 c
closepath } bind def
/s72 {
164 0 m
164 1466 164 0 164 1466 c
358 1466 164 1466 358 1466 c
358 864 358 1466 358 864 c
1120 864 358 864 1120 864 c
1120 1466 1120 864 1120 1466 c
1314 1466 1120 1466 1314 1466 c
1314 0 1314 1466 1314 0 c
1120 0 1314 0 1120 0 c
1120 691 1120 0 1120 691 c
358 691 1120 691 358 691 c
358 0 358 691 358 0 c
164 0 358 0 164 0 c
closepath } bind def
/s77 {
152 0 m
152 1466 152 0 152 1466 c
444 1466 152 1466 444 1466 c
791 428 444 1466 791 428 c
823 331.33 846.33 259 861 211 c
877.67 264.33 903.67 342.67 939 446 c
1290 1466 939 446 1290 1466 c
1551 1466 1290 1466 1551 1466 c
1551 0 1551 1466 1551 0 c
1364 0 1551 0 1364 0 c
1364 1227 1364 0 1364 1227 c
938 0 1364 1227 938 0 c
763 0 938 0 763 0 c
339 1248 763 0 339 1248 c
339 0 339 1248 339 0 c
152 0 339 0 152 0 c
closepath } bind def
/s84 {
531 0 m
531 1293 531 0 531 1293 c
48 1293 531 1293 48 1293 c
48 1466 48 1293 48 1466 c
1210 1466 48 1466 1210 1466 c
1210 1293 1210 1466 1210 1293 c
725 1293 1210 1293 725 1293 c
725 0 725 1293 725 0 c
531 0 725 0 531 0 c
closepath } bind def
/s86 {
577 0 m
9 1466 577 0 9 1466 c
219 1466 9 1466 219 1466 c
600 401 219 1466 600 401 c
630.67 315.67 656.33 235.67 677 161 c
699.67 241 726 321 756 401 c
1152 1466 756 401 1152 1466 c
1350 1466 1152 1466 1350 1466 c
776 0 1350 1466 776 0 c
577 0 776 0 577 0 c
closepath } bind def
/s101 {
862 342 m
1048 319 862 342 1048 319 c
1018.67 210.33 964.33 126 885 66 c
805.67 6 704.33 -24 581 -24 c
425.67 -24 302.5 23.83 211.5 119.5 c
120.5 215.17 75 349.33 75 522 c
75 700.67 121 839.33 213 938 c
305 1036.67 424.33 1086 571 1086 c
713 1086 829 1037.67 919 941 c
1009 844.33 1054 708.33 1054 533 c
1054 522.33 1053.67 506.33 1053 485 c
261 485 1053 485 261 485 c
267.67 368.33 300.67 279 360 217 c
419.33 155 493.33 124 582 124 c
648 124 704.33 141.33 751 176 c
797.67 210.67 834.67 266 862 342 c
closepath 271 633 m
864 633 271 633 864 633 c
856 722.33 833.33 789.33 796 834 c
738.67 903.33 664.33 938 573 938 c
490.33 938 420.83 910.33 364.5 855 c
308.17 799.67 277 725.67 271 633 c
closepath } bind def
/s105 {
136 1259 m
136 1466 136 1259 136 1466 c
316 1466 136 1466 316 1466 c
316 1259 316 1466 316 1259 c
136 1259 316 1259 136 1259 c
closepath 136 0 m
136 1062 136 0 136 1062 c
316 1062 136 1062 316 1062 c
316 0 316 1062 316 0 c
136 0 316 0 136 0 c
closepath } bind def
/s109 {
135 0 m
135 1062 135 0 135 1062 c
296 1062 135 1062 296 1062 c
296 913 296 1062 296 913 c
329.33 965 373.67 1006.83 429 1038.5 c
484.33 1070.17 547.33 1086 618 1086 c
696.67 1086 761.17 1069.67 811.5 1037 c
861.83 1004.33 897.33 958.67 918 900 c
1002 1024 1111.33 1086 1246 1086 c
1351.33 1086 1432.33 1056.83 1489 998.5 c
1545.67 940.17 1574 850.33 1574 729 c
1574 0 1574 729 1574 0 c
1395 0 1574 0 1395 0 c
1395 669 1395 0 1395 669 c
1395 741 1389.17 792.83 1377.5 824.5 c
1365.83 856.17 1344.67 881.67 1314 901 c
1283.33 920.33 1247.33 930 1206 930 c
1131.33 930 1069.33 905.17 1020 855.5 c
970.67 805.83 946 726.33 946 617 c
946 0 946 617 946 0 c
766 0 946 0 766 0 c
766 690 766 0 766 690 c
766 770 751.33 830 722 870 c
692.67 910 644.67 930 578 930 c
527.33 930 480.5 916.67 437.5 890 c
394.5 863.33 363.33 824.33 344 773 c
324.67 721.67 315 647.67 315 551 c
315 0 315 551 315 0 c
135 0 315 0 135 0 c
closepath } bind def
/s112 {
135 -407 m
135 1062 135 -407 135 1062 c
299 1062 135 1062 299 1062 c
299 924 299 1062 299 924 c
337.67 978 381.33 1018.5 430 1045.5 c
478.67 1072.5 537.67 1086 607 1086 c
697.67 1086 777.67 1062.67 847 1016 c
916.33 969.33 968.67 903.5 1004 818.5 c
1039.33 733.5 1057 640.33 1057 539 c
1057 430.33 1037.5 332.5 998.5 245.5 c
959.5 158.5 902.83 91.83 828.5 45.5 c
754.17 -0.83 676 -24 594 -24 c
534 -24 480.17 -11.33 432.5 14 c
384.83 39.33 345.67 71.33 315 110 c
315 -407 315 110 315 -407 c
135 -407 315 -407 135 -407 c
closepath 298 525 m
298 388.33 325.67 287.33 381 222 c
436.33 156.67 503.33 124 582 124 c
662 124 730.5 157.83 787.5 225.5 c
844.5 293.17 873 398 873 540 c
873 675.33 845.17 776.67 789.5 844 c
733.83 911.33 667.33 945 590 945 c
513.33 945 445.5 909.17 386.5 837.5 c
327.5 765.83 298 661.67 298 525 c
closepath } bind def
/s115 {
63 317 m
241 345 63 317 241 345 c
251 273.67 278.83 219 324.5 181 c
370.17 143 434 124 516 124 c
598.67 124 660 140.83 700 174.5 c
740 208.17 760 247.67 760 293 c
760 333.67 742.33 365.67 707 389 c
682.33 405 621 425.33 523 450 c
391 483.33 299.5 512.17 248.5 536.5 c
197.5 560.83 158.83 594.5 132.5 637.5 c
106.17 680.5 93 728 93 780 c
93 827.33 103.83 871.17 125.5 911.5 c
147.17 951.83 176.67 985.33 214 1012 c
242 1032.67 280.17 1050.17 328.5 1064.5 c
376.83 1078.83 428.67 1086 484 1086 c
567.33 1086 640.5 1074 703.5 1050 c
766.5 1026 813 993.5 843 952.5 c
873 911.5 893.67 856.67 905 788 c
729 764 905 788 729 764 c
721 818.67 697.83 861.33 659.5 892 c
621.17 922.67 567 938 497 938 c
414.33 938 355.33 924.33 320 897 c
284.67 869.67 267 837.67 267 801 c
267 777.67 274.33 756.67 289 738 c
303.67 718.67 326.67 702.67 358 690 c
376 683.33 429 668 517 644 c
644.33 610 733.17 582.17 783.5 560.5 c
833.83 538.83 873.33 507.33 902 466 c
930.67 424.67 945 373.33 945 312 c
945 252 927.5 195.5 892.5 142.5 c
857.5 89.5 807 48.5 741 19.5 c
675 -9.5 600.33 -24 517 -24 c
379 -24 273.83 4.67 201.5 62 c
129.17 119.33 83 204.33 63 317 c
closepath } bind def
/s116 {
528 161 m
554 2 528 161 554 2 c
503.33 -8.67 458 -14 418 -14 c
352.67 -14 302 -3.67 266 17 c
230 37.67 204.67 64.83 190 98.5 c
175.33 132.17 168 203 168 311 c
168 922 168 311 168 922 c
36 922 168 922 36 922 c
36 1062 36 922 36 1062 c
168 1062 36 1062 168 1062 c
168 1325 168 1062 168 1325 c
347 1433 168 1325 347 1433 c
347 1062 347 1433 347 1062 c
528 1062 347 1062 528 1062 c
528 922 528 1062 528 922 c
347 922 528 922 347 922 c
347 301 347 922 347 301 c
347 249.67 350.17 216.67 356.5 202 c
362.83 187.33 373.17 175.67 387.5 167 c
401.83 158.33 422.33 154 449 154 c
469 154 495.33 156.33 528 161 c
closepath } bind def
end
/BuildGlyph {
 exch dup /Metrics get 2 index get 0 setcharwidth
/CharProcs get exch 2 copy known not{pop/.notdef}if get exec fill}bind def
/BuildChar {
1 index /Encoding get exch get
1 index /BuildGlyph get exec
} bind def
currentdict end /MC1_Arial exch definefont pop
%%EndFont
%%BeginFont: /MC2_Arial
12 dict begin
/FontInfo 8 dict dup begin
/ItalicAngle 0 def
/UnderlinePosition -217.00 def
/UnderlineThickness 150.00 def
/StrikeoutPosition 530.00 def
/StrikeoutThickness 102.00 def
/isFixedPitch false def
end readonly def
/FontName /MC2_Arial def
/FontType 3 def
/FontMatrix [1 2048 div 0 0 1 2048 div 0 0] def
/FontBBox [-1361 -665 4096 2129] def
/Encoding 256 array def 0 1 255{Encoding exch/.notdef put}for
Encoding 32/s32 put
Encoding 40/s40 put
Encoding 41/s41 put
Encoding 71/s71 put
Encoding 77/s77 put
Encoding 86/s86 put
Encoding 97/s97 put
Encoding 100/s100 put
Encoding 101/s101 put
Encoding 103/s103 put
Encoding 110/s110 put
Encoding 111/s111 put
Encoding 114/s114 put
Encoding 115/s115 put
Encoding 116/s116 put
Encoding 117/s117 put
Encoding 121/s121 put
/BoundingBoxes 18 dict def
BoundingBoxes begin
/s32 [0 -434 569 1854] def
/s40 [0 -434 682 1854] def
/s41 [0 -434 682 1854] def
/s71 [0 -434 1593 1854] def
/s77 [0 -434 1706 1854] def
/s86 [0 -434 1366 1854] def
/s97 [0 -434 1139 1854] def
/s100 [0 -434 1139 1854] def
/s101 [0 -434 1139 1854] def
/s103 [0 -434 1139 1854] def
/s110 [0 -434 1139 1854] def
/s111 [0 -434 1139 1854] def
/s114 [0 -434 682 1854] def
/s115 [0 -434 1024 1854] def
/s116 [0 -434 569 1854] def
/s117 [0 -434 1139 1854] def
/s121 [0 -434 1024 1854] def
end
/Metrics 18 dict def
 Metrics begin
/s32 569 def
/s40 682 def
/s41 682 def
/s71 1593 def
/s77 1706 def
/s86 1366 def
/s97 1139 def
/s100 1139 def
/s101 1139 def
/s103 1139 def
/s110 1139 def
/s111 1139 def
/s114 682 def
/s115 1024 def
/s116 569 def
/s117 1139 def
/s121 1024 def
end
/CharProcs 18 dict def
CharProcs begin
/.notdef {} def
/s40 {
479 -431 m
379.67 -305.67 295.67 -159 227 9 c
158.33 177 124 351 124 531 c
124 689.67 149.67 841.67 201 987 c
261 1155.67 353.67 1323.67 479 1491 c
608 1491 479 1491 608 1491 c
527.33 1352.33 474 1253.33 448 1194 c
407.33 1102 375.33 1006 352 906 c
323.33 781.33 309 656 309 530 c
309 209.33 408.67 -111 608 -431 c
479 -431 608 -431 479 -431 c
closepath } bind def
/s41 {
253 -431 m
124 -431 253 -431 124 -431 c
323.33 -111 423 209.33 423 530 c
423 655.33 408.67 779.67 380 903 c
357.33 1003 325.67 1099 285 1191 c
259 1251 205.33 1351 124 1491 c
253 1491 124 1491 253 1491 c
378.33 1323.67 471 1155.67 531 987 c
582.33 841.67 608 689.67 608 531 c
608 351 573.5 177 504.5 9 c
435.5 -159 351.67 -305.67 253 -431 c
closepath } bind def
/s71 {
844 575 m
844 747 844 575 844 747 c
1465 748 844 747 1465 748 c
1465 204 1465 748 1465 204 c
1369.67 128 1271.33 70.83 1170 32.5 c
1068.67 -5.83 964.67 -25 858 -25 c
714 -25 583.17 5.83 465.5 67.5 c
347.83 129.17 259 218.33 199 335 c
139 451.67 109 582 109 726 c
109 868.67 138.83 1001.83 198.5 1125.5 c
258.17 1249.17 344 1341 456 1401 c
568 1461 697 1491 843 1491 c
949 1491 1044.83 1473.83 1130.5 1439.5 c
1216.17 1405.17 1283.33 1357.33 1332 1296 c
1380.67 1234.67 1417.67 1154.67 1443 1056 c
1268 1008 1443 1056 1268 1008 c
1246 1082.67 1218.67 1141.33 1186 1184 c
1153.33 1226.67 1106.67 1260.83 1046 1286.5 c
985.33 1312.17 918 1325 844 1325 c
755.33 1325 678.67 1311.5 614 1284.5 c
549.33 1257.5 497.17 1222 457.5 1178 c
417.83 1134 387 1085.67 365 1033 c
327.67 942.33 309 844 309 738 c
309 607.33 331.5 498 376.5 410 c
421.5 322 487 256.67 573 214 c
659 171.33 750.33 150 847 150 c
931 150 1013 166.17 1093 198.5 c
1173 230.83 1233.67 265.33 1275 302 c
1275 575 1275 302 1275 575 c
844 575 1275 575 844 575 c
closepath } bind def
/s77 {
152 0 m
152 1466 152 0 152 1466 c
444 1466 152 1466 444 1466 c
791 428 444 1466 791 428 c
823 331.33 846.33 259 861 211 c
877.67 264.33 903.67 342.67 939 446 c
1290 1466 939 446 1290 1466 c
1551 1466 1290 1466 1551 1466 c
1551 0 1551 1466 1551 0 c
1364 0 1551 0 1364 0 c
1364 1227 1364 0 1364 1227 c
938 0 1364 1227 938 0 c
763 0 938 0 763 0 c
339 1248 763 0 339 1248 c
339 0 339 1248 339 0 c
152 0 339 0 152 0 c
closepath } bind def
/s86 {
577 0 m
9 1466 577 0 9 1466 c
219 1466 9 1466 219 1466 c
600 401 219 1466 600 401 c
630.67 315.67 656.33 235.67 677 161 c
699.67 241 726 321 756 401 c
1152 1466 756 401 1152 1466 c
1350 1466 1152 1466 1350 1466 c
776 0 1350 1466 776 0 c
577 0 776 0 577 0 c
closepath } bind def
/s97 {
828 131 m
761.33 74.33 697.17 34.33 635.5 11 c
573.83 -12.33 507.67 -24 437 -24 c
320.33 -24 230.67 4.5 168 61.5 c
105.33 118.5 74 191.33 74 280 c
74 332 85.83 379.5 109.5 422.5 c
133.17 465.5 164.17 500 202.5 526 c
240.83 552 284 571.67 332 585 c
367.33 594.33 420.67 603.33 492 612 c
637.33 629.33 744.33 650 813 674 c
813.67 698.67 814 714.33 814 721 c
814 794.33 797 846 763 876 c
717 916.67 648.67 937 558 937 c
473.33 937 410.83 922.17 370.5 892.5 c
330.17 862.83 300.33 810.33 281 735 c
105 759 281 735 105 759 c
121 834.33 147.33 895.17 184 941.5 c
220.67 987.83 273.67 1023.5 343 1048.5 c
412.33 1073.5 492.67 1086 584 1086 c
674.67 1086 748.33 1075.33 805 1054 c
861.67 1032.67 903.33 1005.83 930 973.5 c
956.67 941.17 975.33 900.33 986 851 c
992 820.33 995 765 995 685 c
995 445 995 685 995 445 c
995 277.67 998.83 171.83 1006.5 127.5 c
1014.17 83.17 1029.33 40.67 1052 0 c
864 0 1052 0 864 0 c
845.33 37.33 833.33 81 828 131 c
closepath 813 533 m
747.67 506.33 649.67 483.67 519 465 c
445 454.33 392.67 442.33 362 429 c
331.33 415.67 307.67 396.17 291 370.5 c
274.33 344.83 266 316.33 266 285 c
266 237 284.17 197 320.5 165 c
356.83 133 410 117 480 117 c
549.33 117 611 132.17 665 162.5 c
719 192.83 758.67 234.33 784 287 c
803.33 327.67 813 387.67 813 467 c
813 533 813 467 813 533 c
closepath } bind def
/s100 {
824 0 m
824 134 824 0 824 134 c
756.67 28.67 657.67 -24 527 -24 c
442.33 -24 364.5 -0.67 293.5 46 c
222.5 92.67 167.5 157.83 128.5 241.5 c
89.5 325.17 70 421.33 70 530 c
70 636 87.67 732.17 123 818.5 c
158.33 904.83 211.33 971 282 1017 c
352.67 1063 431.67 1086 519 1086 c
583 1086 640 1072.5 690 1045.5 c
740 1018.5 780.67 983.33 812 940 c
812 1466 812 940 812 1466 c
991 1466 812 1466 991 1466 c
991 0 991 1466 991 0 c
824 0 991 0 824 0 c
closepath 255 530 m
255 394 283.67 292.33 341 225 c
398.33 157.67 466 124 544 124 c
622.67 124 689.5 156.17 744.5 220.5 c
799.5 284.83 827 383 827 515 c
827 660.33 799 767 743 835 c
687 903 618 937 536 937 c
456 937 389.17 904.33 335.5 839 c
281.83 773.67 255 670.67 255 530 c
closepath } bind def
/s101 {
862 342 m
1048 319 862 342 1048 319 c
1018.67 210.33 964.33 126 885 66 c
805.67 6 704.33 -24 581 -24 c
425.67 -24 302.5 23.83 211.5 119.5 c
120.5 215.17 75 349.33 75 522 c
75 700.67 121 839.33 213 938 c
305 1036.67 424.33 1086 571 1086 c
713 1086 829 1037.67 919 941 c
1009 844.33 1054 708.33 1054 533 c
1054 522.33 1053.67 506.33 1053 485 c
261 485 1053 485 261 485 c
267.67 368.33 300.67 279 360 217 c
419.33 155 493.33 124 582 124 c
648 124 704.33 141.33 751 176 c
797.67 210.67 834.67 266 862 342 c
closepath 271 633 m
864 633 271 633 864 633 c
856 722.33 833.33 789.33 796 834 c
738.67 903.33 664.33 938 573 938 c
490.33 938 420.83 910.33 364.5 855 c
308.17 799.67 277 725.67 271 633 c
closepath } bind def
/s103 {
102 -88 m
277 -114 102 -88 277 -114 c
284.33 -168 304.67 -207.33 338 -232 c
382.67 -265.33 443.67 -282 521 -282 c
604.33 -282 668.67 -265.33 714 -232 c
759.33 -198.67 790 -152 806 -92 c
815.33 -55.33 819.67 21.67 819 139 c
740.33 46.33 642.33 0 525 0 c
379 0 266 52.67 186 158 c
106 263.33 66 389.67 66 537 c
66 638.33 84.33 731.83 121 817.5 c
157.67 903.17 210.83 969.33 280.5 1016 c
350.17 1062.67 432 1086 526 1086 c
651.33 1086 754.67 1035.33 836 934 c
836 1062 836 934 836 1062 c
1002 1062 836 1062 1002 1062 c
1002 144 1002 1062 1002 144 c
1002 -21.33 985.17 -138.5 951.5 -207.5 c
917.83 -276.5 864.5 -331 791.5 -371 c
718.5 -411 628.67 -431 522 -431 c
395.33 -431 293 -402.5 215 -345.5 c
137 -288.5 99.33 -202.67 102 -88 c
closepath 251 550 m
251 410.67 278.67 309 334 245 c
389.33 181 458.67 149 542 149 c
624.67 149 694 180.83 750 244.5 c
806 308.17 834 408 834 544 c
834 674 805.17 772 747.5 838 c
689.83 904 620.33 937 539 937 c
459 937 391 904.5 335 839.5 c
279 774.5 251 678 251 550 c
closepath } bind def
/s110 {
135 0 m
135 1062 135 0 135 1062 c
297 1062 135 1062 297 1062 c
297 911 297 1062 297 911 c
375 1027.67 487.67 1086 635 1086 c
699 1086 757.83 1074.5 811.5 1051.5 c
865.17 1028.5 905.33 998.33 932 961 c
958.67 923.67 977.33 879.33 988 828 c
994.67 794.67 998 736.33 998 653 c
998 0 998 653 998 0 c
818 0 998 0 818 0 c
818 646 818 0 818 646 c
818 719.33 811 774.17 797 810.5 c
783 846.83 758.17 875.83 722.5 897.5 c
686.83 919.17 645 930 597 930 c
520.33 930 454.17 905.67 398.5 857 c
342.83 808.33 315 716 315 580 c
315 0 315 580 315 0 c
135 0 315 0 135 0 c
closepath } bind def
/s111 {
68 531 m
68 727.67 122.67 873.33 232 968 c
323.33 1046.67 434.67 1086 566 1086 c
712 1086 831.33 1038.17 924 942.5 c
1016.67 846.83 1063 714.67 1063 546 c
1063 409.33 1042.5 301.83 1001.5 223.5 c
960.5 145.17 900.83 84.33 822.5 41 c
744.17 -2.33 658.67 -24 566 -24 c
417.33 -24 297.17 23.67 205.5 119 c
113.83 214.33 68 351.67 68 531 c
closepath 253 531 m
253 395 282.67 293.17 342 225.5 c
401.33 157.83 476 124 566 124 c
655.33 124 729.67 158 789 226 c
848.33 294 878 397.67 878 537 c
878 668.33 848.17 767.83 788.5 835.5 c
728.83 903.17 654.67 937 566 937 c
476 937 401.33 903.33 342 836 c
282.67 768.67 253 667 253 531 c
closepath } bind def
/s114 {
133 0 m
133 1062 133 0 133 1062 c
295 1062 133 1062 295 1062 c
295 901 295 1062 295 901 c
336.33 976.33 374.5 1026 409.5 1050 c
444.5 1074 483 1086 525 1086 c
585.67 1086 647.33 1066.67 710 1028 c
648 861 710 1028 648 861 c
604 887 560 900 516 900 c
476.67 900 441.33 888.17 410 864.5 c
378.67 840.83 356.33 808 343 766 c
323 702 313 632 313 556 c
313 0 313 556 313 0 c
133 0 313 0 133 0 c
closepath } bind def
/s115 {
63 317 m
241 345 63 317 241 345 c
251 273.67 278.83 219 324.5 181 c
370.17 143 434 124 516 124 c
598.67 124 660 140.83 700 174.5 c
740 208.17 760 247.67 760 293 c
760 333.67 742.33 365.67 707 389 c
682.33 405 621 425.33 523 450 c
391 483.33 299.5 512.17 248.5 536.5 c
197.5 560.83 158.83 594.5 132.5 637.5 c
106.17 680.5 93 728 93 780 c
93 827.33 103.83 871.17 125.5 911.5 c
147.17 951.83 176.67 985.33 214 1012 c
242 1032.67 280.17 1050.17 328.5 1064.5 c
376.83 1078.83 428.67 1086 484 1086 c
567.33 1086 640.5 1074 703.5 1050 c
766.5 1026 813 993.5 843 952.5 c
873 911.5 893.67 856.67 905 788 c
729 764 905 788 729 764 c
721 818.67 697.83 861.33 659.5 892 c
621.17 922.67 567 938 497 938 c
414.33 938 355.33 924.33 320 897 c
284.67 869.67 267 837.67 267 801 c
267 777.67 274.33 756.67 289 738 c
303.67 718.67 326.67 702.67 358 690 c
376 683.33 429 668 517 644 c
644.33 610 733.17 582.17 783.5 560.5 c
833.83 538.83 873.33 507.33 902 466 c
930.67 424.67 945 373.33 945 312 c
945 252 927.5 195.5 892.5 142.5 c
857.5 89.5 807 48.5 741 19.5 c
675 -9.5 600.33 -24 517 -24 c
379 -24 273.83 4.67 201.5 62 c
129.17 119.33 83 204.33 63 317 c
closepath } bind def
/s116 {
528 161 m
554 2 528 161 554 2 c
503.33 -8.67 458 -14 418 -14 c
352.67 -14 302 -3.67 266 17 c
230 37.67 204.67 64.83 190 98.5 c
175.33 132.17 168 203 168 311 c
168 922 168 311 168 922 c
36 922 168 922 36 922 c
36 1062 36 922 36 1062 c
168 1062 36 1062 168 1062 c
168 1325 168 1062 168 1325 c
347 1433 168 1325 347 1433 c
347 1062 347 1433 347 1062 c
528 1062 347 1062 528 1062 c
528 922 528 1062 528 922 c
347 922 528 922 347 922 c
347 301 347 922 347 301 c
347 249.67 350.17 216.67 356.5 202 c
362.83 187.33 373.17 175.67 387.5 167 c
401.83 158.33 422.33 154 449 154 c
469 154 495.33 156.33 528 161 c
closepath } bind def
/s117 {
831 0 m
831 156 831 0 831 156 c
748.33 36 636 -24 494 -24 c
431.33 -24 372.83 -12 318.5 12 c
264.17 36 223.83 66.17 197.5 102.5 c
171.17 138.83 152.67 183.33 142 236 c
134.67 271.33 131 327.33 131 404 c
131 1062 131 404 131 1062 c
311 1062 131 1062 311 1062 c
311 473 311 1062 311 473 c
311 379 314.67 315.67 322 283 c
333.33 235.67 357.33 198.5 394 171.5 c
430.67 144.5 476 131 530 131 c
584 131 634.67 144.83 682 172.5 c
729.33 200.17 762.83 237.83 782.5 285.5 c
802.17 333.17 812 402.33 812 493 c
812 1062 812 493 812 1062 c
992 1062 812 1062 992 1062 c
992 0 992 1062 992 0 c
831 0 992 0 831 0 c
closepath } bind def
/s121 {
127 -409 m
107 -240 127 -409 107 -240 c
146.33 -250.67 180.67 -256 210 -256 c
250 -256 282 -249.33 306 -236 c
330 -222.67 349.67 -204 365 -180 c
376.33 -162 394.67 -117.33 420 -46 c
423.33 -36 428.67 -21.33 436 -2 c
33 1062 436 -2 33 1062 c
227 1062 33 1062 227 1062 c
448 447 227 1062 448 447 c
476.67 369 502.33 287 525 201 c
545.67 283.67 570.33 364.33 599 443 c
826 1062 599 443 826 1062 c
1006 1062 826 1062 1006 1062 c
602 -18 1006 1062 602 -18 c
558.67 -134.67 525 -215 501 -259 c
469 -318.33 432.33 -361.83 391 -389.5 c
349.67 -417.17 300.33 -431 243 -431 c
208.33 -431 169.67 -423.67 127 -409 c
closepath } bind def
end
/BuildGlyph {
 exch dup /Metrics get 2 index get 0 setcharwidth
/CharProcs get exch 2 copy known not{pop/.notdef}if get exec fill}bind def
/BuildChar {
1 index /Encoding get exch get
1 index /BuildGlyph get exec
} bind def
currentdict end /MC2_Arial exch definefont pop
%%EndFont
%%BeginFont: /MC3_Symbol
12 dict begin
/FontInfo 8 dict dup begin
/ItalicAngle 0 def
/UnderlinePosition -223.00 def
/UnderlineThickness 100.00 def
/StrikeoutPosition 530.00 def
/StrikeoutThickness 102.00 def
/isFixedPitch false def
end readonly def
/FontName /MC3_Symbol def
/FontType 3 def
/FontMatrix [1 2048 div 0 0 1 2048 div 0 0] def
/FontBBox [-1 -450 2279 2059] def
/Encoding 256 array def 0 1 255{Encoding exch/.notdef put}for
Encoding 32/s32 put
Encoding 40/s40 put
Encoding 41/s41 put
/BoundingBoxes 7 dict def
BoundingBoxes begin
/s32 [0 -450 512 2059] def
/s40 [0 -450 682 2059] def
/s41 [0 -450 682 2059] def
/s61472 [0 -450 0 2059] def
/s61508 [0 -450 0 2059] def
/s61556 [0 -450 0 2059] def
end
/Metrics 7 dict def
 Metrics begin
/s32 512 def
/s40 682 def
/s41 682 def
/s61472 0 def
/s61508 0 def
/s61556 0 def
end
/CharProcs 7 dict def
CharProcs begin
/.notdef {} def
/s40 {
636 -399 m
636 -442 636 -399 636 -442 c
462 -355.33 326.5 -228.17 229.5 -60.5 c
132.5 107.17 84 290.67 84 490 c
84 697.33 135 886.17 237 1056.5 c
339 1226.83 472 1348.67 636 1422 c
636 1380 636 1422 636 1380 c
554 1334.67 486.67 1272.67 434 1194 c
381.33 1115.33 342 1015.5 316 894.5 c
290 773.5 277 647.33 277 516 c
277 367.33 289 233 313 113 c
337 -7 373.67 -106.5 423 -185.5 c
472.33 -264.5 543.33 -335.67 636 -399 c
closepath } bind def
/s41 {
45 1380 m
45 1422 45 1380 45 1422 c
219 1336 354.5 1209.17 451.5 1041.5 c
548.5 873.83 597 690.33 597 491 c
597 283.67 546 94.67 444 -76 c
342 -246.67 209 -368.67 45 -442 c
45 -399 45 -442 45 -399 c
127.67 -353.67 195.33 -291.67 248 -213 c
300.67 -134.33 339.83 -34.67 365.5 86 c
391.17 206.67 404 333 404 465 c
404 613 392.17 747.17 368.5 867.5 c
344.83 987.83 308.17 1087.5 258.5 1166.5 c
208.83 1245.5 137.67 1316.67 45 1380 c
closepath } bind def
/s61508 {
1226 0 m
26 0 1226 0 26 0 c
654 1387 26 0 654 1387 c
1226 0 654 1387 1226 0 c
closepath 990 82 m
591 1049 990 82 591 1049 c
151 82 591 1049 151 82 c
990 82 151 82 990 82 c
closepath } bind def
/s61556 {
813 916 m
813 769 813 916 813 769 c
501 769 813 769 501 769 c
478.33 549.67 467 399.33 467 318 c
467 253.33 479.17 206.5 503.5 177.5 c
527.83 148.5 558.33 134 595 134 c
622.33 134 646 143.33 666 162 c
686 180.67 700.67 212.67 710 258 c
745 258 710 258 745 258 c
733.67 148.67 709.33 73.17 672 31.5 c
634.67 -10.17 591 -31 541 -31 c
488.33 -31 444.33 -7.17 409 40.5 c
373.67 88.17 356 173.33 356 296 c
356 392.67 368 550.33 392 769 c
298 769 392 769 298 769 c
244 769 201.67 759.17 171 739.5 c
140.33 719.83 110 682.67 80 628 c
43 628 80 628 43 628 c
91 756 134 836 172 868 c
210 900 264 916 334 916 c
813 916 334 916 813 916 c
closepath } bind def
end
/BuildGlyph {
 exch dup /Metrics get 2 index get 0 setcharwidth
/CharProcs get exch 2 copy known not{pop/.notdef}if get exec fill}bind def
/BuildChar {
1 index /Encoding get exch get
1 index /BuildGlyph get exec
} bind def
currentdict end /MC3_Symbol exch definefont pop
%%EndFont
/clipproc{clippath{[{/m cvx}{/l cvx}{/c cvx}{/cp cvx}pathforall}stopped
{cleartomark[pathbbox exch 3 i sub exch 2 i sub/rectpath cvx}if]np}bd
/iclmtx mtx cmtx def/iclpath clipproc xd/clinit{pathproc initclip np iclpath cl np exec}bd
/clmove{pathproc 3 1 roll clippath pathproc 2 i neg 2 i neg tr initclip np exec cl tr np exec}bd
/clrect[gs np iclpath{pathbbox}stopped{0 0 771.85 590.88 }if gr]def
/cloper{mtx cmtx iclmtx smtx exch exec smtx}bd
/cland{{exch cvx exec}cloper}bd
/clcopy{{exch clinit cvx exec}cloper}bd
/cldiff{{exch pathbbox 4 -1 roll clrect 0 get 2 copy gt{exch}if pop 4 1 roll
 3 -1 roll clrect 1 get 2 copy gt{exch}if pop 3 1 roll
 2 -1 roll clrect 2 get 2 copy lt{exch}if pop 2 1 roll
 1 -1 roll clrect 3 get 2 copy lt{exch}if pop 1 1 roll
 exch 3 i sub exch 2 i sub rectpath cvx exec}cloper}bd
/icl{{clinit}cloper}bd
0.851119 0.854583 sc

/initmtx mtx cmtx def
initmtx smtx
[1.0000 0.0000 0.0000 1.0000 0.0000 0.0000 ] concat
 [0.281988 -0 0 -0.28084 0 691.427] concat
gs
483 2191 m
3153 2191 l
7 sw
1 sj
1 scap
st
504 2191 m
504 2172 l
st
524 2191 m
524 2172 l
st
545 2191 m
545 2172 l
st
565 2191 m
565 2172 l
st
586 2191 m
586 2172 l
st
606 2191 m
606 2172 l
st
627 2191 m
627 2172 l
st
647 2191 m
647 2172 l
st
668 2191 m
668 2172 l
st
709 2191 m
709 2172 l
st
729 2191 m
729 2172 l
st
750 2191 m
750 2172 l
st
771 2191 m
771 2172 l
st
791 2191 m
791 2172 l
st
812 2191 m
812 2172 l
st
832 2191 m
832 2172 l
st
853 2191 m
853 2172 l
st
873 2191 m
873 2172 l
st
914 2191 m
914 2172 l
st
935 2191 m
935 2172 l
st
955 2191 m
955 2172 l
st
976 2191 m
976 2172 l
st
996 2191 m
996 2172 l
st
1017 2191 m
1017 2172 l
st
1038 2191 m
1038 2172 l
st
1058 2191 m
1058 2172 l
st
1079 2191 m
1079 2172 l
st
1120 2191 m
1120 2172 l
st
1140 2191 m
1140 2172 l
st
1161 2191 m
1161 2172 l
st
1181 2191 m
1181 2172 l
st
1202 2191 m
1202 2172 l
st
1222 2191 m
1222 2172 l
st
1243 2191 m
1243 2172 l
st
1263 2191 m
1263 2172 l
st
1284 2191 m
1284 2172 l
st
1325 2191 m
1325 2172 l
st
1346 2191 m
1346 2172 l
st
1366 2191 m
1366 2172 l
st
1387 2191 m
1387 2172 l
st
1407 2191 m
1407 2172 l
st
1428 2191 m
1428 2172 l
st
1448 2191 m
1448 2172 l
st
1469 2191 m
1469 2172 l
st
1489 2191 m
1489 2172 l
st
1530 2191 m
1530 2172 l
st
1551 2191 m
1551 2172 l
st
1572 2191 m
1572 2172 l
st
1592 2191 m
1592 2172 l
st
1613 2191 m
1613 2172 l
st
1633 2191 m
1633 2172 l
st
1654 2191 m
1654 2172 l
st
1674 2191 m
1674 2172 l
st
1695 2191 m
1695 2172 l
st
1736 2191 m
1736 2172 l
st
1756 2191 m
1756 2172 l
st
1777 2191 m
1777 2172 l
st
1797 2191 m
1797 2172 l
st
1818 2191 m
1818 2172 l
st
1839 2191 m
1839 2172 l
st
1859 2191 m
1859 2172 l
st
1880 2191 m
1880 2172 l
st
1900 2191 m
1900 2172 l
st
1941 2191 m
1941 2172 l
st
1962 2191 m
1962 2172 l
st
1982 2191 m
1982 2172 l
st
2003 2191 m
2003 2172 l
st
2023 2191 m
2023 2172 l
st
2044 2191 m
2044 2172 l
st
2064 2191 m
2064 2172 l
st
2085 2191 m
2085 2172 l
st
2106 2191 m
2106 2172 l
st
2147 2191 m
2147 2172 l
st
2167 2191 m
2167 2172 l
st
2188 2191 m
2188 2172 l
st
2208 2191 m
2208 2172 l
st
2229 2191 m
2229 2172 l
st
2249 2191 m
2249 2172 l
st
2270 2191 m
2270 2172 l
st
2290 2191 m
2290 2172 l
st
2311 2191 m
2311 2172 l
st
2352 2191 m
2352 2172 l
st
2373 2191 m
2373 2172 l
st
2393 2191 m
2393 2172 l
st
2414 2191 m
2414 2172 l
st
2434 2191 m
2434 2172 l
st
2455 2191 m
2455 2172 l
st
2475 2191 m
2475 2172 l
st
2496 2191 m
2496 2172 l
st
2516 2191 m
2516 2172 l
st
2557 2191 m
2557 2172 l
st
2578 2191 m
2578 2172 l
st
2598 2191 m
2598 2172 l
st
2619 2191 m
2619 2172 l
st
2640 2191 m
2640 2172 l
st
2660 2191 m
2660 2172 l
st
2681 2191 m
2681 2172 l
st
2701 2191 m
2701 2172 l
st
2722 2191 m
2722 2172 l
st
2763 2191 m
2763 2172 l
st
2783 2191 m
2783 2172 l
st
2804 2191 m
2804 2172 l
st
2824 2191 m
2824 2172 l
st
2845 2191 m
2845 2172 l
st
2865 2191 m
2865 2172 l
st
2886 2191 m
2886 2172 l
st
2907 2191 m
2907 2172 l
st
2927 2191 m
2927 2172 l
st
2968 2191 m
2968 2172 l
st
2989 2191 m
2989 2172 l
st
3009 2191 m
3009 2172 l
st
3030 2191 m
3030 2172 l
st
3050 2191 m
3050 2172 l
st
3071 2191 m
3071 2172 l
st
3091 2191 m
3091 2172 l
st
3112 2191 m
3112 2172 l
st
3132 2191 m
3132 2172 l
st
483 2191 m
483 2153 l
st
688 2191 m
688 2153 l
st
894 2191 m
894 2153 l
st
1099 2191 m
1099 2153 l
st
1305 2191 m
1305 2153 l
st
1510 2191 m
1510 2153 l
st
1715 2191 m
1715 2153 l
st
1921 2191 m
1921 2153 l
st
2126 2191 m
2126 2153 l
st
2331 2191 m
2331 2153 l
st
2537 2191 m
2537 2153 l
st
2742 2191 m
2742 2153 l
st
2948 2191 m
2948 2153 l
st
3153 2191 m
3153 2153 l
st
483 74 m
3153 74 l
st
504 74 m
504 93 l
st
524 74 m
524 93 l
st
545 74 m
545 93 l
st
565 74 m
565 93 l
st
586 74 m
586 93 l
st
606 74 m
606 93 l
st
627 74 m
627 93 l
st
647 74 m
647 93 l
st
668 74 m
668 93 l
st
709 74 m
709 93 l
st
729 74 m
729 93 l
st
750 74 m
750 93 l
st
771 74 m
771 93 l
st
791 74 m
791 93 l
st
812 74 m
812 93 l
st
832 74 m
832 93 l
st
853 74 m
853 93 l
st
873 74 m
873 93 l
st
914 74 m
914 93 l
st
935 74 m
935 93 l
st
955 74 m
955 93 l
st
976 74 m
976 93 l
st
996 74 m
996 93 l
st
1017 74 m
1017 93 l
st
1038 74 m
1038 93 l
st
1058 74 m
1058 93 l
st
1079 74 m
1079 93 l
st
1120 74 m
1120 93 l
st
1140 74 m
1140 93 l
st
1161 74 m
1161 93 l
st
1181 74 m
1181 93 l
st
1202 74 m
1202 93 l
st
1222 74 m
1222 93 l
st
1243 74 m
1243 93 l
st
1263 74 m
1263 93 l
st
1284 74 m
1284 93 l
st
1325 74 m
1325 93 l
st
1346 74 m
1346 93 l
st
1366 74 m
1366 93 l
st
1387 74 m
1387 93 l
st
1407 74 m
1407 93 l
st
1428 74 m
1428 93 l
st
1448 74 m
1448 93 l
st
1469 74 m
1469 93 l
st
1489 74 m
1489 93 l
st
1530 74 m
1530 93 l
st
1551 74 m
1551 93 l
st
1572 74 m
1572 93 l
st
1592 74 m
1592 93 l
st
1613 74 m
1613 93 l
st
1633 74 m
1633 93 l
st
1654 74 m
1654 93 l
st
1674 74 m
1674 93 l
st
1695 74 m
1695 93 l
st
1736 74 m
1736 93 l
st
1756 74 m
1756 93 l
st
1777 74 m
1777 93 l
st
1797 74 m
1797 93 l
st
1818 74 m
1818 93 l
st
1839 74 m
1839 93 l
st
1859 74 m
1859 93 l
st
1880 74 m
1880 93 l
st
1900 74 m
1900 93 l
st
1941 74 m
1941 93 l
st
1962 74 m
1962 93 l
st
1982 74 m
1982 93 l
st
2003 74 m
2003 93 l
st
2023 74 m
2023 93 l
st
2044 74 m
2044 93 l
st
2064 74 m
2064 93 l
st
2085 74 m
2085 93 l
st
2106 74 m
2106 93 l
st
2147 74 m
2147 93 l
st
2167 74 m
2167 93 l
st
2188 74 m
2188 93 l
st
2208 74 m
2208 93 l
st
2229 74 m
2229 93 l
st
2249 74 m
2249 93 l
st
2270 74 m
2270 93 l
st
2290 74 m
2290 93 l
st
2311 74 m
2311 93 l
st
2352 74 m
2352 93 l
st
2373 74 m
2373 93 l
st
2393 74 m
2393 93 l
st
2414 74 m
2414 93 l
st
2434 74 m
2434 93 l
st
2455 74 m
2455 93 l
st
2475 74 m
2475 93 l
st
2496 74 m
2496 93 l
st
2516 74 m
2516 93 l
st
2557 74 m
2557 93 l
st
2578 74 m
2578 93 l
st
2598 74 m
2598 93 l
st
2619 74 m
2619 93 l
st
2640 74 m
2640 93 l
st
2660 74 m
2660 93 l
st
2681 74 m
2681 93 l
st
2701 74 m
2701 93 l
st
2722 74 m
2722 93 l
st
2763 74 m
2763 93 l
st
2783 74 m
2783 93 l
st
2804 74 m
2804 93 l
st
2824 74 m
2824 93 l
st
2845 74 m
2845 93 l
st
2865 74 m
2865 93 l
st
2886 74 m
2886 93 l
st
2907 74 m
2907 93 l
st
2927 74 m
2927 93 l
st
2968 74 m
2968 93 l
st
2989 74 m
2989 93 l
st
3009 74 m
3009 93 l
st
3030 74 m
3030 93 l
st
3050 74 m
3050 93 l
st
3071 74 m
3071 93 l
st
3091 74 m
3091 93 l
st
3112 74 m
3112 93 l
st
3132 74 m
3132 93 l
st
483 74 m
483 112 l
st
688 74 m
688 112 l
st
894 74 m
894 112 l
st
1099 74 m
1099 112 l
st
1305 74 m
1305 112 l
st
1510 74 m
1510 112 l
st
1715 74 m
1715 112 l
st
1921 74 m
1921 112 l
st
2126 74 m
2126 112 l
st
2331 74 m
2331 112 l
st
2537 74 m
2537 112 l
st
2742 74 m
2742 112 l
st
2948 74 m
2948 112 l
st
3153 74 m
3153 112 l
st
483 2191 m
483 74 l
st
483 2191 m
502 2191 l
st
483 2147 m
502 2147 l
st
483 2059 m
502 2059 l
st
483 2015 m
502 2015 l
st
483 1970 m
502 1970 l
st
483 1926 m
502 1926 l
st
483 1882 m
502 1882 l
st
483 1838 m
502 1838 l
st
483 1794 m
502 1794 l
st
483 1750 m
502 1750 l
st
483 1706 m
502 1706 l
st
483 1618 m
502 1618 l
st
483 1574 m
502 1574 l
st
483 1529 m
502 1529 l
st
483 1485 m
502 1485 l
st
483 1441 m
502 1441 l
st
483 1397 m
502 1397 l
st
483 1353 m
502 1353 l
st
483 1309 m
502 1309 l
st
483 1265 m
502 1265 l
st
483 1177 m
502 1177 l
st
483 1132 m
502 1132 l
st
483 1088 m
502 1088 l
st
483 1044 m
502 1044 l
st
483 1000 m
502 1000 l
st
483 956 m
502 956 l
st
483 912 m
502 912 l
st
483 868 m
502 868 l
st
483 824 m
502 824 l
st
483 736 m
502 736 l
st
483 691 m
502 691 l
st
483 647 m
502 647 l
st
483 603 m
502 603 l
st
483 559 m
502 559 l
st
483 515 m
502 515 l
st
483 471 m
502 471 l
st
483 427 m
502 427 l
st
483 383 m
502 383 l
st
483 295 m
502 295 l
st
483 250 m
502 250 l
st
483 206 m
502 206 l
st
483 162 m
502 162 l
st
483 118 m
502 118 l
st
483 74 m
502 74 l
st
483 2103 m
521 2103 l
st
483 1662 m
521 1662 l
st
483 1221 m
521 1221 l
st
483 780 m
521 780 l
st
483 339 m
521 339 l
st
3153 2191 m
3153 74 l
st
3153 2191 m
3134 2191 l
st
3153 2147 m
3134 2147 l
st
3153 2059 m
3134 2059 l
st
3153 2015 m
3134 2015 l
st
3153 1970 m
3134 1970 l
st
3153 1926 m
3134 1926 l
st
3153 1882 m
3134 1882 l
st
3153 1838 m
3134 1838 l
st
3153 1794 m
3134 1794 l
st
3153 1750 m
3134 1750 l
st
3153 1706 m
3134 1706 l
st
3153 1618 m
3134 1618 l
st
3153 1574 m
3134 1574 l
st
3153 1529 m
3134 1529 l
st
3153 1485 m
3134 1485 l
st
3153 1441 m
3134 1441 l
st
3153 1397 m
3134 1397 l
st
3153 1353 m
3134 1353 l
st
3153 1309 m
3134 1309 l
st
3153 1265 m
3134 1265 l
st
3153 1177 m
3134 1177 l
st
3153 1132 m
3134 1132 l
st
3153 1088 m
3134 1088 l
st
3153 1044 m
3134 1044 l
st
3153 1000 m
3134 1000 l
st
3153 956 m
3134 956 l
st
3153 912 m
3134 912 l
st
3153 868 m
3134 868 l
st
3153 824 m
3134 824 l
st
3153 736 m
3134 736 l
st
3153 691 m
3134 691 l
st
3153 647 m
3134 647 l
st
3153 603 m
3134 603 l
st
3153 559 m
3134 559 l
st
3153 515 m
3134 515 l
st
3153 471 m
3134 471 l
st
3153 427 m
3134 427 l
st
3153 383 m
3134 383 l
st
3153 295 m
3134 295 l
st
3153 250 m
3134 250 l
st
3153 206 m
3134 206 l
st
3153 162 m
3134 162 l
st
3153 118 m
3134 118 l
st
3153 74 m
3134 74 l
st
3153 2103 m
3115 2103 l
st
3153 1662 m
3115 1662 l
st
3153 1221 m
3115 1221 l
st
3153 780 m
3115 780 l
st
3153 339 m
3115 339 l
st
gs
gr
gs
gr
gs
1 -1 sc
/MC1_Arial 83 self 426 -2297 m
(0.0)[46 23 46 ] xs
1 -1 sc
gr
gs
gr
gs
gr
gs
1 -1 sc
/MC1_Arial 83 self 631 -2297 m
(0.1)[46 23 46 ] xs
1 -1 sc
gr
gs
gr
gs
gr
gs
1 -1 sc
/MC1_Arial 83 self 837 -2297 m
(0.2)[46 23 46 ] xs
1 -1 sc
gr
gs
gr
gs
gr
gs
1 -1 sc
/MC1_Arial 83 self 1042 -2297 m
(0.3)[46 23 46 ] xs
1 -1 sc
gr
gs
gr
gs
gr
gs
1 -1 sc
/MC1_Arial 83 self 1248 -2297 m
(0.4)[46 23 46 ] xs
1 -1 sc
gr
gs
gr
gs
gr
gs
1 -1 sc
/MC1_Arial 83 self 1453 -2297 m
(0.5)[46 23 46 ] xs
1 -1 sc
gr
gs
gr
gs
gr
gs
1 -1 sc
/MC1_Arial 83 self 1658 -2297 m
(0.6)[46 23 46 ] xs
1 -1 sc
gr
gs
gr
gs
gr
gs
1 -1 sc
/MC1_Arial 83 self 1864 -2297 m
(0.7)[46 23 46 ] xs
1 -1 sc
gr
gs
gr
gs
gr
gs
1 -1 sc
/MC1_Arial 83 self 2069 -2297 m
(0.8)[46 23 46 ] xs
1 -1 sc
gr
gs
gr
gs
gr
gs
1 -1 sc
/MC1_Arial 83 self 2274 -2297 m
(0.9)[46 23 46 ] xs
1 -1 sc
gr
gs
gr
gs
gr
gs
1 -1 sc
/MC1_Arial 83 self 2480 -2297 m
(1.0)[46 23 46 ] xs
1 -1 sc
gr
gs
gr
gs
gr
gs
1 -1 sc
/MC1_Arial 83 self 2685 -2297 m
(1.1)[46 23 46 ] xs
1 -1 sc
gr
gs
gr
gs
gr
gs
1 -1 sc
/MC1_Arial 83 self 2891 -2297 m
(1.2)[46 23 46 ] xs
1 -1 sc
gr
gs
gr
gs
gr
gs
1 -1 sc
/MC1_Arial 83 self 3096 -2297 m
(1.3)[46 23 46 ] xs
1 -1 sc
gr
gs
gr
gs
gr
gs
1 -1 sc
/MC1_Arial 83 self 207 -2128 m
(-26.35)[28 46 46 23 46 46 ] xs
1 -1 sc
gr
gs
gr
gs
gr
gs
1 -1 sc
/MC1_Arial 83 self 207 -1687 m
(-26.30)[28 46 46 23 46 46 ] xs
1 -1 sc
gr
gs
gr
gs
gr
gs
1 -1 sc
/MC1_Arial 83 self 207 -1246 m
(-26.25)[28 46 46 23 46 46 ] xs
1 -1 sc
gr
gs
gr
gs
gr
gs
1 -1 sc
/MC1_Arial 83 self 207 -805 m
(-26.20)[28 46 46 23 46 46 ] xs
1 -1 sc
gr
gs
gr
gs
gr
gs
1 -1 sc
/MC1_Arial 83 self 207 -364 m
(-26.15)[28 46 46 23 46 46 ] xs
1 -1 sc
gr
gs
gr
gs
gr
gs
gr
gs
gr
gs
gr
gs
gr
gs
gr
gs
gr
gs
gr
gs
gr
gs
gr
gs
gr
gs
gr
gs
gr
gs
gr
gs
gr
gs
gr
gs
gr
gs
gr
gs
gr
gs
gr
gs
gr
gs
gr
gs
483 366 m
506 352 l
506 326 l
483 312 l
459 326 l
459 352 l
cp
gs
0 1 0 rgb
eofi
gr
4 sw
0 1 0 rgb
st
gr
gs
483 162 m
483 312 l
15 sw
0 1 0 rgb
st
459 162 m
507 162 l
st
483 515 m
483 366 l
st
459 515 m
507 515 l
st
gr
gs
np
2023 653 20 0 360  a
cp
gs
eofi
gr
3 sw
st
np
1510 546 20 0 360  a
cp
gs
eofi
gr
st
np
2537 798 20 0 360  a
cp
gs
eofi
gr
st
np
3050 1009 20 0 360  a
cp
gs
eofi
gr
st
np
996 457 20 0 360  a
cp
gs
eofi
gr
st
np
791 448 20 0 360  a
cp
gs
eofi
gr
st
np
1781 580 20 0 360  a
cp
gs
eofi
gr
st
np
1194 448 20 0 360  a
cp
gs
eofi
gr
st
np
1305 514 20 0 360  a
cp
gs
eofi
gr
st
gr
gs
2023 613 m
2023 633 l
5 sw
st
2004 613 m
2042 613 l
st
2023 692 m
2023 673 l
st
2004 692 m
2042 692 l
st
1510 517 m
1510 526 l
st
1491 517 m
1529 517 l
st
1510 575 m
1510 566 l
st
1491 575 m
1529 575 l
st
2537 746 m
2537 778 l
st
2518 746 m
2556 746 l
st
2537 849 m
2537 818 l
st
2518 849 m
2556 849 l
st
3050 951 m
3050 989 l
st
3031 951 m
3069 951 l
st
3050 1067 m
3050 1029 l
st
3031 1067 m
3069 1067 l
st
996 409 m
996 437 l
st
977 409 m
1015 409 l
st
996 506 m
996 477 l
st
977 506 m
1015 506 l
st
791 408 m
791 428 l
st
772 408 m
810 408 l
st
791 488 m
791 468 l
st
772 488 m
810 488 l
st
1781 525 m
1781 560 l
st
1762 525 m
1800 525 l
st
1781 636 m
1781 600 l
st
1762 636 m
1800 636 l
st
1194 410 m
1194 428 l
st
1175 410 m
1213 410 l
st
1194 485 m
1194 468 l
st
1175 485 m
1213 485 l
st
1305 481 m
1305 494 l
st
1286 481 m
1324 481 l
st
1305 547 m
1305 534 l
st
1286 547 m
1324 547 l
st
gr
gs
1 0 0 rgb
1702 540 26 26 rectfill
3115 339 m
2 sw
1702 540 26 26 rectstroke
1497 398 26 26 rectfill
1497 398 26 26 rectstroke
983 381 26 26 rectfill
983 381 26 26 rectstroke
778 422 26 26 rectfill
778 422 26 26 rectstroke
1240 443 26 26 rectfill
1240 443 26 26 rectstroke
gr
gs
1715 513 m
1715 540 l
3 sw
1 0 0 rgb
st
1696 513 m
1734 513 l
st
1715 594 m
1715 566 l
st
1696 594 m
1734 594 l
st
1510 369 m
1510 398 l
st
1491 369 m
1529 369 l
st
1510 452 m
1510 424 l
st
1491 452 m
1529 452 l
st
996 358 m
996 381 l
st
977 358 m
1015 358 l
st
996 430 m
996 407 l
st
977 430 m
1015 430 l
st
791 391 m
791 422 l
st
772 391 m
810 391 l
st
791 479 m
791 448 l
st
772 479 m
810 479 l
st
1253 427 m
1253 443 l
st
1234 427 m
1272 427 l
st
1253 485 m
1253 469 l
st
1234 485 m
1272 485 l
st
gr
gs
1045 513 m
1064 494 l
1083 513 l
1064 532 l
cp
gs
0 1 1 rgb
eofi
gr
2 sw
0 1 1 rgb
st
1624 629 m
1643 610 l
1662 629 l
1643 648 l
cp
gs
eofi
gr
st
1382 519 m
1401 500 l
1420 519 l
1401 538 l
cp
gs
eofi
gr
st
875 538 m
894 519 l
913 538 l
894 557 l
cp
gs
eofi
gr
st
1174 515 m
1193 496 l
1212 515 l
1193 534 l
cp
gs
eofi
gr
st
gr
gs
1064 460 m
1064 495 l
3 sw
0 1 1 rgb
st
1045 460 m
1083 460 l
st
1064 565 m
1064 531 l
st
1045 565 m
1083 565 l
st
1643 574 m
1643 611 l
st
1624 574 m
1662 574 l
st
1643 685 m
1643 647 l
st
1624 685 m
1662 685 l
st
1401 453 m
1401 501 l
st
1382 453 m
1420 453 l
st
1401 585 m
1401 537 l
st
1382 585 m
1420 585 l
st
894 485 m
894 520 l
st
875 485 m
913 485 l
st
894 591 m
894 556 l
st
875 591 m
913 591 l
st
1193 442 m
1193 497 l
st
1174 442 m
1212 442 l
st
1193 588 m
1193 533 l
st
1174 588 m
1212 588 l
st
gr
gs
483 440 m
483 440 m
510 440 l
537 441 l
564 441 l
591 441 l
618 442 l
645 443 l
672 444 l
699 444 l
726 446 l
753 447 l
780 448 l
807 450 l
834 451 l
861 453 l
888 455 l
915 457 l
941 459 l
968 461 l
995 463 l
1022 466 l
1049 468 l
1076 471 l
1103 474 l
1130 477 l
1157 480 l
1184 483 l
1211 486 l
1238 490 l
1265 493 l
1292 497 l
1319 501 l
1346 505 l
1373 509 l
1400 513 l
1427 518 l
1454 522 l
1481 527 l
1508 532 l
1535 536 l
1562 541 l
1589 546 l
1616 552 l
1643 557 l
1670 563 l
1697 568 l
1724 574 l
1751 580 l
1778 586 l
1805 592 l
1831 598 l
1858 604 l
1885 611 l
1912 618 l
1939 624 l
1966 631 l
1993 638 l
2020 645 l
2047 653 l
2074 660 l
2101 668 l
2128 675 l
2155 683 l
2182 691 l
2209 699 l
2236 707 l
2263 715 l
2290 724 l
2317 732 l
2344 741 l
2371 750 l
2398 758 l
2425 767 l
2452 777 l
2479 786 l
2506 795 l
2533 805 l
2560 814 l
2587 824 l
2614 834 l
2641 844 l
2668 854 l
2695 865 l
2721 875 l
2748 886 l
2775 896 l
2802 907 l
2829 918 l
2856 929 l
2883 940 l
2910 951 l
2937 963 l
2964 974 l
2991 986 l
3018 998 l
3045 1010 l
3072 1022 l
3099 1034 l
3126 1046 l
3153 1059 l
5 sw
st
gr
gs
483 1397 m
483 1725 l
15 sw
0 0 1 rgb
st
459 1397 m
507 1397 l
st
483 2103 m
483 1775 l
st
459 2103 m
507 2103 l
st
gr
gs
483 1723 m
508 1741 l
498 1771 l
467 1771 l
457 1741 l
cp
gs
0 0 1 rgb
eofi
gr
3 sw
0 0 1 rgb
st
gr
gs
gs
1 -1 sc
100 -1683 tr
90 ro
/MC2_Arial 101 self 0 0 m
(Ground state energy \(MeV\))[79 34 56 56 56 56 28 51 28 56 28 56 28 56 56 56 34 56 51 28 34 84 56 67 34 ] xs
1 -1 sc
gr
gr
gs
1 -1 sc
/MC1_Arial 101 self 1262 -2433 m
(Time step )[62 22 85 56 28 51 28 56 56 28 ] xs
1 -1 sc
1 -1 sc
/MC3_Symbol 101 self 1734 -2433 m
/s61508 62 xgls
/s61556 42 xgls
/s61472 25 xgls
1 -1 sc
1 -1 sc
1863 -2433 m
(\()[34 ] xs
1 -1 sc
1 -1 sc
/MC1_Arial 101 self 1897 -2433 m
(10)[56 56 ] xs
1 -1 sc
1 -1 sc
/MC1_Arial 61 self 2009 -2384 m
(-3 )[20 34 17 ] xs
1 -1 sc
1 -1 sc
/MC1_Arial 101 self 2080 -2433 m
(MeV)[83 56 67 ] xs
1 -1 sc
1 -1 sc
/MC1_Arial 61 self 2286 -2384 m
(-1)[20 34 ] xs
1 -1 sc
1 -1 sc
/MC3_Symbol 101 self 2340 -2433 m
(\))[34 ] xs
1 -1 sc
gr
gs
gs
gr
gs
2312 1522 m
2336 1508 l
2336 1480 l
2312 1466 l
2287 1480 l
2287 1508 l
cp
gs
0 1 0 rgb
eofi
gr
3 sw
0 1 0 rgb
st
gr
1 -1 sc
/MC1_Arial 101 self 2425 -1528 m
(GFMC)[79 62 83 73 ] xs
1 -1 sc
gs
gr
gs
2312 1592 m
2336 1609 l
2327 1639 l
2296 1639 l
2287 1609 l
cp
gs
0 0 1 rgb
eofi
gr
3 sw
0 0 1 rgb
st
gr
1 -1 sc
2425 -1652 m
(AFDMC)[67 62 73 83 73 ] xs
1 -1 sc
gs
gr
gs
1 0 0 rgb
2299 1744 26 26 rectfill
2 sw
2299 1744 26 26 rectstroke
gr
1 -1 sc
/MC3_Symbol 101 self 2425 -1791 m
/s61556 42 xgls
1 -1 sc
1 -1 sc
/MC1_Arial 101 self 2467 -1791 m
( = 0.15 MeV)[28 59 28 56 28 56 56 28 83 56 67 ] xs
1 -1 sc
1 -1 sc
/MC1_Arial 61 self 3012 -1742 m
(-1)[20 34 ] xs
1 -1 sc
gs
gr
gs
np
2312 1896 20 0 360  a
cp
gs
eofi
gr
3 sw
st
gr
1 -1 sc
/MC3_Symbol 101 self 2425 -1930 m
/s61556 42 xgls
1 -1 sc
1 -1 sc
/MC1_Arial 101 self 2467 -1930 m
( = 0.20 MeV)[28 59 28 56 28 56 56 28 83 56 67 ] xs
1 -1 sc
1 -1 sc
/MC1_Arial 61 self 3012 -1881 m
(-1)[20 34 ] xs
1 -1 sc
gs
gr
gs
2294 2035 m
2312 2017 l
2330 2035 l
2312 2053 l
cp
gs
0 1 1 rgb
eofi
gr
2 sw
0 1 1 rgb
st
gr
1 -1 sc
/MC3_Symbol 101 self 2425 -2069 m
/s61556 42 xgls
1 -1 sc
1 -1 sc
/MC1_Arial 101 self 2467 -2069 m
( = 0.30 MeV)[28 59 28 56 28 56 56 28 83 56 67 ] xs
1 -1 sc
1 -1 sc
/MC1_Arial 61 self 3012 -2020 m
(-1)[20 34 ] xs
1 -1 sc
gr
gs
1 -1 sc
/MC1_Arial 66 self 2883 -215 m
(4)[37 ] xs
1 -1 sc
1 -1 sc
/MC1_Arial 110 self 2920 -269 m
(He)[79 61 ] xs
1 -1 sc
gr
gr
Save0 restore end
showpage
%%EOF
