%!PS-Adobe-3.0 EPSF-3.0
%%BoundingBox: 0 0 772 591
%%LanguageLevel: 2
%%Creator: OriginLab Corporation
%%Title: (C:\Users\Rong\Desktop\energyN2LO.eps)
%%CreationDate: Thu Jul 16 19:23:04 2020
%%EndComments

/OriginLab::PSL1 128 dict dup begin def
/Save0 save def
%%BeginResource: procset OriginLab::PSL1
/wd{1 index where{pop pop pop}{bind def}ifelse}bind def
/setcmykcolor{1 sub 4 1 roll 3{3 index add neg dup 0 lt{pop 0}if 3 1 roll}repeat setrgbcolor pop}wd
/selectfont{dup type/arraytype eq{exch findfont exch makefont setfont}{exch findfont exch scalefont setfont}ifelse}wd
/xshow{1 index length 0 le{}{currentpoint exch 3 index length 1 sub 0 exch 1 exch{dup 5 index exch 1 getinterval show 3 index exch get add 2 copy exch moveto}for pop pop}ifelse pop pop}wd
/glyphshow{matrix currentmatrix exch currentfont dup/FontMatrix get concat currentpoint translate
 dup/Metrics get 2 index get 0 4 2 roll gsave/CharProcs get exch 2 copy known not{pop/.notdef}if
 get exec fill grestore moveto setmatrix}wd
/grayimage/image load def/rgbtogray{cvx exec dup length 3 idiv 1 sub 0 exch 1 exch{dup 3 mul dup 3 index exch get 255 div .3 mul exch
 1 add dup 4 index exch get 255 div .59 mul exch 1 add 4 index exch get 255 div .11 mul add add
 255 mul dup 255 gt{255}if round cvi 2 index 3 1 roll put}for dup length 3 idiv 0 exch getinterval}bind def
/colorimage{0 setgray pop pop cvlit/rgbtogray cvx 2 packedarray cvx grayimage}wd
/bd{bind def}bind def/ld{load def}bd/ed{exch def}bd/xd{cvx def}bd
/np/newpath ld/a/arc ld/m/moveto ld/l/lineto ld/c/curveto ld/rm/rmoveto ld/rl/rlineto ld/rc/rcurveto ld/cp/closepath ld/cpt/currentpoint ld
/tr/translate ld/sc/scale ld/ro/rotate ld/t/transform ld/it/itransform ld/dt/dtransform ld/idt/idtransform ld
/mtx/matrix ld/cmtx/currentmatrix ld/dmtx/defaultmatrix ld/smtx/setmatrix ld/catmtx/concatmatrix ld
/sw/setlinewidth ld/scap/setlinecap ld/sj/setlinejoin ld/sm/setmiterlimit ld/sd/setdash ld/rgb/setrgbcolor ld/crgb/currentrgbcolor ld/cmyk/setcmykcolor ld/gs/gsave ld/gr/grestore ld
/st/stroke ld/fi/fill ld/eofi/eofill ld/cl/clip ld/eocl/eoclip ld
/df/definefont ld/ff/findfont ld/sf/setfont ld/scf/scalefont ld/self/selectfont ld/cf/currentfont ld
/s/show ld/xs/xshow ld/gls/glyphshow ld/xgls{cpt 3 1 roll add exch 3 -1 roll gls m}bd
/cd/currentdict ld/i/index ld
/DrawBox{4 2 roll m 1 index 0 rl 0 exch rl neg 0 rl cp}bd
/plus.re { 6 { 3 index } repeat moveto 0 exch rlineto 0 rlineto pop pop neg 0 exch rlineto pop lineto closepath } def
/DrawBcc{4 2 roll m 2 copy 0 lt exch 0 lt xor{dup 0 exch rl exch 0 rl neg 0 exch rl}{exch dup 0 rl exch 0 exch rl neg 0 rl}ifelse cp}bd
/rectline{dup type/arraytype eq{dup length 0 exch 4 exch 4 sub{0 1 3{3 copy add get 4 1 roll pop}for pop 5 1 roll DrawBox}for pop}{DrawBox}ifelse}bd
/rectpath{dup type/arraytype eq{dup length 0 exch 4 exch 4 sub{0 1 3{3 copy add get 4 1 roll pop}for pop 5 1 roll DrawBcc}for pop}{DrawBcc}ifelse}bd
/pathproc{[{/m cvx}{/l cvx}{/c cvx}{/cp cvx}pathforall]cvx}bd
/L1img/image ld/L1idx[{0}
 {dup 7 and 3 1 roll -3 bitshift get exch 7 sub 1 mul bitshift  1 and}bind 1 index dup
 {dup 1 and 3 1 roll -1 bitshift get exch 1 sub 4 mul bitshift 15 and}bind 1 index dup dup
 {get}bind]def
/image{dup type/dicttype eq {dup/ImgCS get 0 get/Indexed eq}{false}ifelse
 {begin Width Height 8 ImageMatrix {rgb_string rgb_lookup
 cd/DataSource get dup type/filetype eq
 {mystring readstring pop}{exec}ifelse
 dup length 0 ne
 {L1idx BitsPerComponent get 0 1 Width 1 sub
 {3 copy exch exec exch 3 mul exch
 3 mul dup 5 index exch get exch 1 add dup 6 index exch get exch 1 add 6 index exch get
 7 index exch 4 index 2 add exch put 6 index exch 3 index 1 add exch put 5 index exch 2 index exch put pop
 }for pop pop pop }{pop pop pop ()}ifelse }false 3 colorimage end} {dup type/dicttype eq
 {{dup mark exch L1img pop pop}stopped{cleartomark begin Width Height BitsPerComponent ImageMatrix
 {cd/DataSource get dup type/filetype eq {mystring readstring pop}{exec}ifelse
 }false 3 colorimage end} if}{L1img}ifelse}ifelse
 }bd
/L1imgmask/imagemask ld/imagemask{dup type/dicttype eq
 {{dup mark exch L1imgmask pop pop}stopped {cleartomark begin Width Height polarityflag ImageMatrix
 {cd/DataSource get dup type/filetype eq {mystring readstring pop}{exec}ifelse
 }L1imgmask end}if}{L1imgmask}ifelse
 }bd
% Gradient function
/GradientStep 1 150 div def
/GradientStartRGB { /R1 exch def /G1 exch def /B1 exch def } def
/GradientEndRGB { /R2 exch def /G2 exch def /B2 exch def
/GradientSteps GradientLength GradientStep div def
/GradientRStep R2 R1 sub GradientSteps div def
/GradientGStep G2 G1 sub GradientSteps div def
/GradientBStep B2 B1 sub GradientSteps div def
} def
/GradientStepRGB { /R1 R1 GradientRStep add def
/G1 G1 GradientGStep add def
/B1 B1 GradientBStep add def
R1 G1 B1 setrgbcolor
} def
%%EndResource
/rectclip{np rectpath clip np}wd
/rectfill{gs np rectpath fi gr}wd
/rectstroke{gs np dup type/arraytype eq{dup length 6 eq}{false}ifelse{1 index type/arraytype eq{exch}{5 1 roll}ifelse rectline concat st}{rectline st}ifelse gr}wd
%%BeginResource: procset OriginLab::Image
/OriginLab::Image 32 dict dup begin
/BinProc{[currentfile mystring /readstring cvx /pop cvx] cvx bind}bd
/HexProc{[currentfile mystring /readhexstring cvx /pop cvx] cvx bind}bd
/Ascii85Proc{currentfile /ASCII85Decode filter}bd
/LZWA85{currentfile /ASCII85Decode filter /LZWDecode filter}bd
/ImgProcArray[/BinProc /HexProc /Ascii85Proc /LZWA85]def
/ImgDict{/ImgDict 16 dict def ImgDict dup begin /ImageType 1 def /MultipleDataSource false def end}bd
/L2Dec{{[1 0]}{[0 1]}ifelse}bd
/BegImg{ /Img_sv save def
 /ImgDir ed ImgProcArray exch get /ImgProc exch ld
 dup /polarityflag ed L2Dec /polarity ed /smoothflag ed
 tr /dx 2 index def /dy 1 index abs def sc
 string /mystring ed /bpc ed /ih ed /iw ed
 }bd
/EndImg {Img_sv restore}bd
/DoXImg{ /rgb_lookup ed /hival ed ImgDict dup begin
 [/Indexed /DeviceRGB hival rgb_lookup] /L1img where{pop/ImgCS ed}{setcolorspace}ifelse
 /rgb_string iw 3 mul string def
 /Width iw def
 /Height ih def
 /Decode [0 1 bpc{2 mul}repeat 1 sub] def
 /ImageMatrix
  ImgDir 0 eq{[iw 0 0 ih 0 0]}if
  ImgDir 1 eq{[iw neg 0 0 ih iw 0]}if
  ImgDir 2 eq{[iw 0 0 ih neg 0 ih]}if
  ImgDir 3 eq{[iw neg 0 0 ih neg iw ih]}if
  def
 /DataSource ImgProc def
 /BitsPerComponent bpc def
 /Interpolate smoothflag def
 end image}bd
/DoImg{ ImgDict dup begin
 [/DeviceRGB] /L1img where{pop/ImgCS ed}{setcolorspace}ifelse
 /rgb_string iw 3 mul string def
 /Width iw def
 /Height ih def
 /Decode [0 1 0 1 0 1] def
 /ImageMatrix
  ImgDir 0 eq{[iw 0 0 ih 0 0]}if
  ImgDir 1 eq{[iw neg 0 0 ih iw 0]}if
  ImgDir 2 eq{[iw 0 0 ih neg 0 ih]}if
  ImgDir 3 eq{[iw neg 0 0 ih neg iw ih]}if
  def
 /DataSource ImgProc def
 /BitsPerComponent 8 def
 /Interpolate smoothflag def
 end image}bd
end def
%%EndResource
/initmtx mtx cmtx def
%%BeginFont: /MC1_Arial
12 dict begin
/FontInfo 8 dict dup begin
/ItalicAngle 0 def
/UnderlinePosition -217.00 def
/UnderlineThickness 150.00 def
/StrikeoutPosition 530.00 def
/StrikeoutThickness 102.00 def
/isFixedPitch false def
end readonly def
/FontName /MC1_Arial def
/FontType 3 def
/FontMatrix [1 2048 div 0 0 1 2048 div 0 0] def
/FontBBox [-1361 -665 4096 2129] def
/Encoding 256 array def 0 1 255{Encoding exch/.notdef put}for
Encoding 32/s32 put
Encoding 40/s40 put
Encoding 41/s41 put
Encoding 45/s45 put
Encoding 46/s46 put
Encoding 48/s48 put
Encoding 49/s49 put
Encoding 50/s50 put
Encoding 51/s51 put
Encoding 52/s52 put
Encoding 53/s53 put
Encoding 54/s54 put
Encoding 55/s55 put
Encoding 56/s56 put
Encoding 57/s57 put
Encoding 64/s64 put
Encoding 72/s72 put
Encoding 77/s77 put
Encoding 86/s86 put
Encoding 101/s101 put
Encoding 102/s102 put
Encoding 109/s109 put
Encoding 110/s110 put
Encoding 112/s112 put
Encoding 114/s114 put
/BoundingBoxes 26 dict def
BoundingBoxes begin
/s32 [0 -434 569 1854] def
/s40 [0 -434 682 1854] def
/s41 [0 -434 682 1854] def
/s45 [0 -434 682 1854] def
/s46 [0 -434 569 1854] def
/s48 [0 -434 1139 1854] def
/s49 [0 -434 1139 1854] def
/s50 [0 -434 1139 1854] def
/s51 [0 -434 1139 1854] def
/s52 [0 -434 1139 1854] def
/s53 [0 -434 1139 1854] def
/s54 [0 -434 1139 1854] def
/s55 [0 -434 1139 1854] def
/s56 [0 -434 1139 1854] def
/s57 [0 -434 1139 1854] def
/s64 [0 -434 2079 1854] def
/s72 [0 -434 1479 1854] def
/s77 [0 -434 1706 1854] def
/s86 [0 -434 1366 1854] def
/s101 [0 -434 1139 1854] def
/s102 [0 -434 569 1854] def
/s109 [0 -434 1706 1854] def
/s110 [0 -434 1139 1854] def
/s112 [0 -434 1139 1854] def
/s114 [0 -434 682 1854] def
end
/Metrics 26 dict def
 Metrics begin
/s32 569 def
/s40 682 def
/s41 682 def
/s45 682 def
/s46 569 def
/s48 1139 def
/s49 1139 def
/s50 1139 def
/s51 1139 def
/s52 1139 def
/s53 1139 def
/s54 1139 def
/s55 1139 def
/s56 1139 def
/s57 1139 def
/s64 2079 def
/s72 1479 def
/s77 1706 def
/s86 1366 def
/s101 1139 def
/s102 569 def
/s109 1706 def
/s110 1139 def
/s112 1139 def
/s114 682 def
end
/CharProcs 26 dict def
CharProcs begin
/.notdef {} def
/s40 {
479 -431 m
379.67 -305.67 295.67 -159 227 9 c
158.33 177 124 351 124 531 c
124 689.67 149.67 841.67 201 987 c
261 1155.67 353.67 1323.67 479 1491 c
608 1491 479 1491 608 1491 c
527.33 1352.33 474 1253.33 448 1194 c
407.33 1102 375.33 1006 352 906 c
323.33 781.33 309 656 309 530 c
309 209.33 408.67 -111 608 -431 c
479 -431 608 -431 479 -431 c
closepath } bind def
/s41 {
253 -431 m
124 -431 253 -431 124 -431 c
323.33 -111 423 209.33 423 530 c
423 655.33 408.67 779.67 380 903 c
357.33 1003 325.67 1099 285 1191 c
259 1251 205.33 1351 124 1491 c
253 1491 124 1491 253 1491 c
378.33 1323.67 471 1155.67 531 987 c
582.33 841.67 608 689.67 608 531 c
608 351 573.5 177 504.5 9 c
435.5 -159 351.67 -305.67 253 -431 c
closepath } bind def
/s45 {
65 440 m
65 621 65 440 65 621 c
618 621 65 621 618 621 c
618 440 618 621 618 440 c
65 440 618 440 65 440 c
closepath } bind def
/s46 {
186 0 m
186 205 186 0 186 205 c
391 205 186 205 391 205 c
391 0 391 205 391 0 c
186 0 391 0 186 0 c
closepath } bind def
/s48 {
85 723 m
85 896.33 102.83 1035.83 138.5 1141.5 c
174.17 1247.17 227.17 1328.67 297.5 1386 c
367.83 1443.33 456.33 1472 563 1472 c
641.67 1472 710.67 1456.17 770 1424.5 c
829.33 1392.83 878.33 1347.17 917 1287.5 c
955.67 1227.83 986 1155.17 1008 1069.5 c
1030 983.83 1041 868.33 1041 723 c
1041 551 1023.33 412.17 988 306.5 c
952.67 200.83 899.83 119.17 829.5 61.5 c
759.17 3.83 670.33 -25 563 -25 c
421.67 -25 310.67 25.67 230 127 c
133.33 249 85 447.67 85 723 c
closepath 270 723 m
270 482.33 298.17 322.17 354.5 242.5 c
410.83 162.83 480.33 123 563 123 c
645.67 123 715.17 163 771.5 243 c
827.83 323 856 483 856 723 c
856 964.33 827.83 1124.67 771.5 1204 c
715.17 1283.33 645 1323 561 1323 c
478.33 1323 412.33 1288 363 1218 c
301 1128.67 270 963.67 270 723 c
closepath } bind def
/s49 {
763 0 m
583 0 763 0 583 0 c
583 1147 583 0 583 1147 c
539.67 1105.67 482.83 1064.33 412.5 1023 c
342.17 981.67 279 950.67 223 930 c
223 1104 223 930 223 1104 c
323.67 1151.33 411.67 1208.67 487 1276 c
562.33 1343.33 615.67 1408.67 647 1472 c
763 1472 647 1472 763 1472 c
763 0 763 1472 763 0 c
closepath } bind def
/s50 {
1031 173 m
1031 0 1031 173 1031 0 c
62 0 1031 0 62 0 c
60.67 43.33 67.67 85 83 125 c
107.67 191 147.17 256 201.5 320 c
255.83 384 334.33 458 437 542 c
596.33 672.67 704 776.17 760 852.5 c
816 928.83 844 1001 844 1069 c
844 1140.33 818.5 1200.5 767.5 1249.5 c
716.5 1298.5 650 1323 568 1323 c
481.33 1323 412 1297 360 1245 c
308 1193 281.67 1121 281 1029 c
96 1048 281 1029 96 1048 c
108.67 1186 156.33 1291.17 239 1363.5 c
321.67 1435.83 432.67 1472 572 1472 c
712.67 1472 824 1433 906 1355 c
988 1277 1029 1180.33 1029 1065 c
1029 1006.33 1017 948.67 993 892 c
969 835.33 929.17 775.67 873.5 713 c
817.83 650.33 725.33 564.33 596 455 c
488 364.33 418.67 302.83 388 270.5 c
357.33 238.17 332 205.67 312 173 c
1031 173 312 173 1031 173 c
closepath } bind def
/s51 {
86 387 m
266 411 86 387 266 411 c
286.67 309 321.83 235.5 371.5 190.5 c
421.17 145.5 481.67 123 553 123 c
637.67 123 709.17 152.33 767.5 211 c
825.83 269.67 855 342.33 855 429 c
855 511.67 828 579.83 774 633.5 c
720 687.17 651.33 714 568 714 c
534 714 491.67 707.33 441 694 c
461 852 441 694 461 852 c
473 850.67 482.67 850 490 850 c
566.67 850 635.67 870 697 910 c
758.33 950 789 1011.67 789 1095 c
789 1161 766.67 1215.67 722 1259 c
677.33 1302.33 619.67 1324 549 1324 c
479 1324 420.67 1302 374 1258 c
327.33 1214 297.33 1148 284 1060 c
104 1092 284 1060 104 1092 c
126 1212.67 176 1306.17 254 1372.5 c
332 1438.83 429 1472 545 1472 c
625 1472 698.67 1454.83 766 1420.5 c
833.33 1386.17 884.83 1339.33 920.5 1280 c
956.17 1220.67 974 1157.67 974 1091 c
974 1027.67 957 970 923 918 c
889 866 838.67 824.67 772 794 c
858.67 774 926 732.5 974 669.5 c
1022 606.5 1046 527.67 1046 433 c
1046 305 999.33 196.5 906 107.5 c
812.67 18.5 694.67 -26 552 -26 c
423.33 -26 316.5 12.33 231.5 89 c
146.5 165.67 98 265 86 387 c
closepath } bind def
/s52 {
662 0 m
662 351 662 0 662 351 c
26 351 662 351 26 351 c
26 516 26 351 26 516 c
695 1466 26 516 695 1466 c
842 1466 695 1466 842 1466 c
842 516 842 1466 842 516 c
1040 516 842 516 1040 516 c
1040 351 1040 516 1040 351 c
842 351 1040 351 842 351 c
842 0 842 351 842 0 c
662 0 842 0 662 0 c
closepath 662 516 m
662 1177 662 516 662 1177 c
203 516 662 1177 203 516 c
662 516 203 516 662 516 c
closepath } bind def
/s53 {
85 384 m
274 400 85 384 274 400 c
288 308 320.5 238.83 371.5 192.5 c
422.5 146.17 484 123 556 123 c
642.67 123 716 155.67 776 221 c
836 286.33 866 373 866 481 c
866 583.67 837.17 664.67 779.5 724 c
721.83 783.33 646.33 813 553 813 c
495 813 442.67 799.83 396 773.5 c
349.33 747.17 312.67 713 286 671 c
117 693 286 671 117 693 c
259 1446 117 693 259 1446 c
988 1446 259 1446 988 1446 c
988 1274 988 1446 988 1274 c
403 1274 988 1274 403 1274 c
324 880 403 1274 324 880 c
412 941.33 504.33 972 601 972 c
729 972 837 927.67 925 839 c
1013 750.33 1057 636.33 1057 497 c
1057 364.33 1018.33 249.67 941 153 c
847 34.33 718.67 -25 556 -25 c
422.67 -25 313.83 12.33 229.5 87 c
145.17 161.67 97 260.67 85 384 c
closepath } bind def
/s54 {
1019 1107 m
840 1093 1019 1107 840 1093 c
824 1163.67 801.33 1215 772 1247 c
723.33 1298.33 663.33 1324 592 1324 c
534.67 1324 484.33 1308 441 1276 c
384.33 1234.67 339.67 1174.33 307 1095 c
274.33 1015.67 257.33 902.67 256 756 c
299.33 822 352.33 871 415 903 c
477.67 935 543.33 951 612 951 c
732 951 834.17 906.83 918.5 818.5 c
1002.83 730.17 1045 616 1045 476 c
1045 384 1025.17 298.5 985.5 219.5 c
945.83 140.5 891.33 80 822 38 c
752.67 -4 674 -25 586 -25 c
436 -25 313.67 30.17 219 140.5 c
124.33 250.83 77 432.67 77 686 c
77 969.33 129.33 1175.33 234 1304 c
325.33 1416 448.33 1472 603 1472 c
718.33 1472 812.83 1439.67 886.5 1375 c
960.17 1310.33 1004.33 1221 1019 1107 c
closepath 284 475 m
284 413 297.17 353.67 323.5 297 c
349.83 240.33 386.67 197.17 434 167.5 c
481.33 137.83 531 123 583 123 c
659 123 724.33 153.67 779 215 c
833.67 276.33 861 359.67 861 465 c
861 566.33 834 646.17 780 704.5 c
726 762.83 658 792 576 792 c
494.67 792 425.67 762.83 369 704.5 c
312.33 646.17 284 569.67 284 475 c
closepath } bind def
/s55 {
97 1274 m
97 1447 97 1274 97 1447 c
1046 1447 97 1447 1046 1447 c
1046 1307 1046 1447 1046 1307 c
952.67 1207.67 860.17 1075.67 768.5 911 c
676.83 746.33 606 577 556 403 c
520 280.33 497 146 487 0 c
302 0 487 0 302 0 c
304 115.33 326.67 254.67 370 418 c
413.33 581.33 475.5 738.83 556.5 890.5 c
637.5 1042.17 723.67 1170 815 1274 c
97 1274 815 1274 97 1274 c
closepath } bind def
/s56 {
362 795 m
287.33 822.33 232 861.33 196 912 c
160 962.67 142 1023.33 142 1094 c
142 1200.67 180.33 1290.33 257 1363 c
333.67 1435.67 435.67 1472 563 1472 c
691 1472 794 1434.83 872 1360.5 c
950 1286.17 989 1195.67 989 1089 c
989 1021 971.17 961.83 935.5 911.5 c
899.83 861.17 845.67 822.33 773 795 c
863 765.67 931.5 718.33 978.5 653 c
1025.5 587.67 1049 509.67 1049 419 c
1049 293.67 1004.67 188.33 916 103 c
827.33 17.67 710.67 -25 566 -25 c
421.33 -25 304.67 17.83 216 103.5 c
127.33 189.17 83 296 83 424 c
83 519.33 107.17 599.17 155.5 663.5 c
203.83 727.83 272.67 771.67 362 795 c
closepath 326 1100 m
326 1030.67 348.33 974 393 930 c
437.67 886 495.67 864 567 864 c
636.33 864 693.17 885.83 737.5 929.5 c
781.83 973.17 804 1026.67 804 1090 c
804 1156 781.17 1211.5 735.5 1256.5 c
689.83 1301.5 633 1324 565 1324 c
496.33 1324 439.33 1302 394 1258 c
348.67 1214 326 1161.33 326 1100 c
closepath 268 423 m
268 371.67 280.17 322 304.5 274 c
328.83 226 365 188.83 413 162.5 c
461 136.17 512.67 123 568 123 c
654 123 725 150.67 781 206 c
837 261.33 865 331.67 865 417 c
865 503.67 836.17 575.33 778.5 632 c
720.83 688.67 648.67 717 562 717 c
477.33 717 407.17 689 351.5 633 c
295.83 577 268 507 268 423 c
closepath } bind def
/s57 {
112 339 m
285 355 112 339 285 355 c
299.67 273.67 327.67 214.67 369 178 c
410.33 141.33 463.33 123 528 123 c
583.33 123 631.83 135.67 673.5 161 c
715.17 186.33 749.33 220.17 776 262.5 c
802.67 304.83 825 362 843 434 c
861 506 870 579.33 870 654 c
870 662 869.67 674 869 690 c
833 632.67 783.83 586.17 721.5 550.5 c
659.17 514.83 591.67 497 519 497 c
397.67 497 295 541 211 629 c
127 717 85 833 85 977 c
85 1125.67 128.83 1245.33 216.5 1336 c
304.17 1426.67 414 1472 546 1472 c
641.33 1472 728.5 1446.33 807.5 1395 c
886.5 1343.67 946.5 1270.5 987.5 1175.5 c
1028.5 1080.5 1049 943 1049 763 c
1049 575.67 1028.67 426.5 988 315.5 c
947.33 204.5 886.83 120 806.5 62 c
726.17 4 632 -25 524 -25 c
409.33 -25 315.67 6.83 243 70.5 c
170.33 134.17 126.67 223.67 112 339 c
closepath 849 986 m
849 1089.33 821.5 1171.33 766.5 1232 c
711.5 1292.67 645.33 1323 568 1323 c
488 1323 418.33 1290.33 359 1225 c
299.67 1159.67 270 1075 270 971 c
270 877.67 298.17 801.83 354.5 743.5 c
410.83 685.17 480.33 656 563 656 c
646.33 656 714.83 685.17 768.5 743.5 c
822.17 801.83 849 882.67 849 986 c
closepath } bind def
/s64 {
1161 163 m
1117.67 113 1069.17 72.83 1015.5 42.5 c
961.83 12.17 908 -3 854 -3 c
794.67 -3 737 14.33 681 49 c
625 83.67 579.5 137 544.5 209 c
509.5 281 492 360 492 446 c
492 552 519.17 658.17 573.5 764.5 c
627.83 870.83 695.33 950.67 776 1004 c
856.67 1057.33 935 1084 1011 1084 c
1069 1084 1124.33 1068.83 1177 1038.5 c
1229.67 1008.17 1275 962 1313 900 c
1347 1055 1313 900 1347 1055 c
1526 1055 1347 1055 1526 1055 c
1382 384 1526 1055 1382 384 c
1362 290.67 1352 239 1352 229 c
1352 211 1358.83 195.5 1372.5 182.5 c
1386.17 169.5 1402.67 163 1422 163 c
1457.33 163 1503.67 183.33 1561 224 c
1637 277.33 1697.17 348.83 1741.5 438.5 c
1785.83 528.17 1808 620.67 1808 716 c
1808 827.33 1779.5 931.33 1722.5 1028 c
1665.5 1124.67 1580.5 1202 1467.5 1260 c
1354.5 1318 1229.67 1347 1093 1347 c
937 1347 794.5 1310.5 665.5 1237.5 c
536.5 1164.5 436.5 1059.83 365.5 923.5 c
294.5 787.17 259 641 259 485 c
259 321.67 294.5 181 365.5 63 c
436.5 -55 539.17 -142.17 673.5 -198.5 c
807.83 -254.83 956.67 -283 1120 -283 c
1294.67 -283 1441 -253.67 1559 -195 c
1677 -136.33 1765.33 -65 1824 19 c
2005 19 1824 19 2005 19 c
1971 -51 1912.67 -122.33 1830 -195 c
1747.33 -267.67 1649 -325.17 1535 -367.5 c
1421 -409.83 1283.67 -431 1123 -431 c
975 -431 838.5 -412 713.5 -374 c
588.5 -336 482 -278.83 394 -202.5 c
306 -126.17 239.67 -38.33 195 61 c
139 187 111 323 111 469 c
111 631.67 144.33 786.67 211 934 c
292.33 1114.67 407.83 1253 557.5 1349 c
707.17 1445 888.67 1493 1102 1493 c
1267.33 1493 1415.83 1459.17 1547.5 1391.5 c
1679.17 1323.83 1783 1223 1859 1089 c
1923.67 973.67 1956 848.33 1956 713 c
1956 519.67 1888 348 1752 198 c
1630.67 63.33 1498 -4 1354 -4 c
1308 -4 1270.83 3 1242.5 17 c
1214.17 31 1193.33 51 1180 77 c
1171.33 93.67 1165 122.33 1161 163 c
closepath 677 434 m
677 342.67 698.67 271.67 742 221 c
785.33 170.33 835 145 891 145 c
928.33 145 967.67 156.17 1009 178.5 c
1050.33 200.83 1089.83 234 1127.5 278 c
1165.17 322 1196 377.83 1220 445.5 c
1244 513.17 1256 581 1256 649 c
1256 739.67 1233.5 810 1188.5 860 c
1143.5 910 1088.67 935 1024 935 c
981.33 935 941.17 924.17 903.5 902.5 c
865.83 880.83 829.33 846 794 798 c
758.67 750 730.33 691.67 709 623 c
687.67 554.33 677 491.33 677 434 c
closepath } bind def
/s72 {
164 0 m
164 1466 164 0 164 1466 c
358 1466 164 1466 358 1466 c
358 864 358 1466 358 864 c
1120 864 358 864 1120 864 c
1120 1466 1120 864 1120 1466 c
1314 1466 1120 1466 1314 1466 c
1314 0 1314 1466 1314 0 c
1120 0 1314 0 1120 0 c
1120 691 1120 0 1120 691 c
358 691 1120 691 358 691 c
358 0 358 691 358 0 c
164 0 358 0 164 0 c
closepath } bind def
/s77 {
152 0 m
152 1466 152 0 152 1466 c
444 1466 152 1466 444 1466 c
791 428 444 1466 791 428 c
823 331.33 846.33 259 861 211 c
877.67 264.33 903.67 342.67 939 446 c
1290 1466 939 446 1290 1466 c
1551 1466 1290 1466 1551 1466 c
1551 0 1551 1466 1551 0 c
1364 0 1551 0 1364 0 c
1364 1227 1364 0 1364 1227 c
938 0 1364 1227 938 0 c
763 0 938 0 763 0 c
339 1248 763 0 339 1248 c
339 0 339 1248 339 0 c
152 0 339 0 152 0 c
closepath } bind def
/s86 {
577 0 m
9 1466 577 0 9 1466 c
219 1466 9 1466 219 1466 c
600 401 219 1466 600 401 c
630.67 315.67 656.33 235.67 677 161 c
699.67 241 726 321 756 401 c
1152 1466 756 401 1152 1466 c
1350 1466 1152 1466 1350 1466 c
776 0 1350 1466 776 0 c
577 0 776 0 577 0 c
closepath } bind def
/s101 {
862 342 m
1048 319 862 342 1048 319 c
1018.67 210.33 964.33 126 885 66 c
805.67 6 704.33 -24 581 -24 c
425.67 -24 302.5 23.83 211.5 119.5 c
120.5 215.17 75 349.33 75 522 c
75 700.67 121 839.33 213 938 c
305 1036.67 424.33 1086 571 1086 c
713 1086 829 1037.67 919 941 c
1009 844.33 1054 708.33 1054 533 c
1054 522.33 1053.67 506.33 1053 485 c
261 485 1053 485 261 485 c
267.67 368.33 300.67 279 360 217 c
419.33 155 493.33 124 582 124 c
648 124 704.33 141.33 751 176 c
797.67 210.67 834.67 266 862 342 c
closepath 271 633 m
864 633 271 633 864 633 c
856 722.33 833.33 789.33 796 834 c
738.67 903.33 664.33 938 573 938 c
490.33 938 420.83 910.33 364.5 855 c
308.17 799.67 277 725.67 271 633 c
closepath } bind def
/s102 {
178 0 m
178 922 178 0 178 922 c
19 922 178 922 19 922 c
19 1062 19 922 19 1062 c
178 1062 19 1062 178 1062 c
178 1175 178 1062 178 1175 c
178 1246.33 184.33 1299.33 197 1334 c
214.33 1380.67 244.83 1418.5 288.5 1447.5 c
332.17 1476.5 393.33 1491 472 1491 c
522.67 1491 578.67 1485 640 1473 c
613 1316 640 1473 613 1316 c
575.67 1322.67 540.33 1326 507 1326 c
452.33 1326 413.67 1314.33 391 1291 c
368.33 1267.67 357 1224 357 1160 c
357 1062 357 1160 357 1062 c
564 1062 357 1062 564 1062 c
564 922 564 1062 564 922 c
357 922 564 922 357 922 c
357 0 357 922 357 0 c
178 0 357 0 178 0 c
closepath } bind def
/s109 {
135 0 m
135 1062 135 0 135 1062 c
296 1062 135 1062 296 1062 c
296 913 296 1062 296 913 c
329.33 965 373.67 1006.83 429 1038.5 c
484.33 1070.17 547.33 1086 618 1086 c
696.67 1086 761.17 1069.67 811.5 1037 c
861.83 1004.33 897.33 958.67 918 900 c
1002 1024 1111.33 1086 1246 1086 c
1351.33 1086 1432.33 1056.83 1489 998.5 c
1545.67 940.17 1574 850.33 1574 729 c
1574 0 1574 729 1574 0 c
1395 0 1574 0 1395 0 c
1395 669 1395 0 1395 669 c
1395 741 1389.17 792.83 1377.5 824.5 c
1365.83 856.17 1344.67 881.67 1314 901 c
1283.33 920.33 1247.33 930 1206 930 c
1131.33 930 1069.33 905.17 1020 855.5 c
970.67 805.83 946 726.33 946 617 c
946 0 946 617 946 0 c
766 0 946 0 766 0 c
766 690 766 0 766 690 c
766 770 751.33 830 722 870 c
692.67 910 644.67 930 578 930 c
527.33 930 480.5 916.67 437.5 890 c
394.5 863.33 363.33 824.33 344 773 c
324.67 721.67 315 647.67 315 551 c
315 0 315 551 315 0 c
135 0 315 0 135 0 c
closepath } bind def
/s110 {
135 0 m
135 1062 135 0 135 1062 c
297 1062 135 1062 297 1062 c
297 911 297 1062 297 911 c
375 1027.67 487.67 1086 635 1086 c
699 1086 757.83 1074.5 811.5 1051.5 c
865.17 1028.5 905.33 998.33 932 961 c
958.67 923.67 977.33 879.33 988 828 c
994.67 794.67 998 736.33 998 653 c
998 0 998 653 998 0 c
818 0 998 0 818 0 c
818 646 818 0 818 646 c
818 719.33 811 774.17 797 810.5 c
783 846.83 758.17 875.83 722.5 897.5 c
686.83 919.17 645 930 597 930 c
520.33 930 454.17 905.67 398.5 857 c
342.83 808.33 315 716 315 580 c
315 0 315 580 315 0 c
135 0 315 0 135 0 c
closepath } bind def
/s112 {
135 -407 m
135 1062 135 -407 135 1062 c
299 1062 135 1062 299 1062 c
299 924 299 1062 299 924 c
337.67 978 381.33 1018.5 430 1045.5 c
478.67 1072.5 537.67 1086 607 1086 c
697.67 1086 777.67 1062.67 847 1016 c
916.33 969.33 968.67 903.5 1004 818.5 c
1039.33 733.5 1057 640.33 1057 539 c
1057 430.33 1037.5 332.5 998.5 245.5 c
959.5 158.5 902.83 91.83 828.5 45.5 c
754.17 -0.83 676 -24 594 -24 c
534 -24 480.17 -11.33 432.5 14 c
384.83 39.33 345.67 71.33 315 110 c
315 -407 315 110 315 -407 c
135 -407 315 -407 135 -407 c
closepath 298 525 m
298 388.33 325.67 287.33 381 222 c
436.33 156.67 503.33 124 582 124 c
662 124 730.5 157.83 787.5 225.5 c
844.5 293.17 873 398 873 540 c
873 675.33 845.17 776.67 789.5 844 c
733.83 911.33 667.33 945 590 945 c
513.33 945 445.5 909.17 386.5 837.5 c
327.5 765.83 298 661.67 298 525 c
closepath } bind def
/s114 {
133 0 m
133 1062 133 0 133 1062 c
295 1062 133 1062 295 1062 c
295 901 295 1062 295 901 c
336.33 976.33 374.5 1026 409.5 1050 c
444.5 1074 483 1086 525 1086 c
585.67 1086 647.33 1066.67 710 1028 c
648 861 710 1028 648 861 c
604 887 560 900 516 900 c
476.67 900 441.33 888.17 410 864.5 c
378.67 840.83 356.33 808 343 766 c
323 702 313 632 313 556 c
313 0 313 556 313 0 c
133 0 313 0 133 0 c
closepath } bind def
end
/BuildGlyph {
 exch dup /Metrics get 2 index get 0 setcharwidth
/CharProcs get exch 2 copy known not{pop/.notdef}if get exec fill}bind def
/BuildChar {
1 index /Encoding get exch get
1 index /BuildGlyph get exec
} bind def
currentdict end /MC1_Arial exch definefont pop
%%EndFont
%%BeginFont: /MC2_Arial
12 dict begin
/FontInfo 8 dict dup begin
/ItalicAngle 0 def
/UnderlinePosition -217.00 def
/UnderlineThickness 150.00 def
/StrikeoutPosition 530.00 def
/StrikeoutThickness 102.00 def
/isFixedPitch false def
end readonly def
/FontName /MC2_Arial def
/FontType 3 def
/FontMatrix [1 2048 div 0 0 1 2048 div 0 0] def
/FontBBox [-1361 -665 4096 2129] def
/Encoding 256 array def 0 1 255{Encoding exch/.notdef put}for
Encoding 32/s32 put
Encoding 45/s45 put
Encoding 51/s51 put
Encoding 79/s79 put
Encoding 97/s97 put
Encoding 98/s98 put
Encoding 99/s99 put
Encoding 100/s100 put
Encoding 101/s101 put
Encoding 102/s102 put
Encoding 105/s105 put
Encoding 108/s108 put
Encoding 109/s109 put
Encoding 110/s110 put
Encoding 112/s112 put
Encoding 114/s114 put
Encoding 115/s115 put
Encoding 116/s116 put
Encoding 117/s117 put
Encoding 121/s121 put
/BoundingBoxes 21 dict def
BoundingBoxes begin
/s32 [0 -434 569 1854] def
/s45 [0 -434 682 1854] def
/s51 [0 -434 1139 1854] def
/s79 [0 -434 1593 1854] def
/s97 [0 -434 1139 1854] def
/s98 [0 -434 1139 1854] def
/s99 [0 -434 1024 1854] def
/s100 [0 -434 1139 1854] def
/s101 [0 -434 1139 1854] def
/s102 [0 -434 569 1854] def
/s105 [0 -434 455 1854] def
/s108 [0 -434 455 1854] def
/s109 [0 -434 1706 1854] def
/s110 [0 -434 1139 1854] def
/s112 [0 -434 1139 1854] def
/s114 [0 -434 682 1854] def
/s115 [0 -434 1024 1854] def
/s116 [0 -434 569 1854] def
/s117 [0 -434 1139 1854] def
/s121 [0 -434 1024 1854] def
end
/Metrics 21 dict def
 Metrics begin
/s32 569 def
/s45 682 def
/s51 1139 def
/s79 1593 def
/s97 1139 def
/s98 1139 def
/s99 1024 def
/s100 1139 def
/s101 1139 def
/s102 569 def
/s105 455 def
/s108 455 def
/s109 1706 def
/s110 1139 def
/s112 1139 def
/s114 682 def
/s115 1024 def
/s116 569 def
/s117 1139 def
/s121 1024 def
end
/CharProcs 21 dict def
CharProcs begin
/.notdef {} def
/s45 {
65 440 m
65 621 65 440 65 621 c
618 621 65 621 618 621 c
618 440 618 621 618 440 c
65 440 618 440 65 440 c
closepath } bind def
/s51 {
86 387 m
266 411 86 387 266 411 c
286.67 309 321.83 235.5 371.5 190.5 c
421.17 145.5 481.67 123 553 123 c
637.67 123 709.17 152.33 767.5 211 c
825.83 269.67 855 342.33 855 429 c
855 511.67 828 579.83 774 633.5 c
720 687.17 651.33 714 568 714 c
534 714 491.67 707.33 441 694 c
461 852 441 694 461 852 c
473 850.67 482.67 850 490 850 c
566.67 850 635.67 870 697 910 c
758.33 950 789 1011.67 789 1095 c
789 1161 766.67 1215.67 722 1259 c
677.33 1302.33 619.67 1324 549 1324 c
479 1324 420.67 1302 374 1258 c
327.33 1214 297.33 1148 284 1060 c
104 1092 284 1060 104 1092 c
126 1212.67 176 1306.17 254 1372.5 c
332 1438.83 429 1472 545 1472 c
625 1472 698.67 1454.83 766 1420.5 c
833.33 1386.17 884.83 1339.33 920.5 1280 c
956.17 1220.67 974 1157.67 974 1091 c
974 1027.67 957 970 923 918 c
889 866 838.67 824.67 772 794 c
858.67 774 926 732.5 974 669.5 c
1022 606.5 1046 527.67 1046 433 c
1046 305 999.33 196.5 906 107.5 c
812.67 18.5 694.67 -26 552 -26 c
423.33 -26 316.5 12.33 231.5 89 c
146.5 165.67 98 265 86 387 c
closepath } bind def
/s79 {
99 714 m
99 957.33 164.33 1147.83 295 1285.5 c
425.67 1423.17 594.33 1492 801 1492 c
936.33 1492 1058.33 1459.67 1167 1395 c
1275.67 1330.33 1358.5 1240.17 1415.5 1124.5 c
1472.5 1008.83 1501 877.67 1501 731 c
1501 582.33 1471 449.33 1411 332 c
1351 214.67 1266 125.83 1156 65.5 c
1046 5.17 927.33 -25 800 -25 c
662 -25 538.67 8.33 430 75 c
321.33 141.67 239 232.67 183 348 c
127 463.33 99 585.33 99 714 c
closepath 299 711 m
299 534.33 346.5 395.17 441.5 293.5 c
536.5 191.83 655.67 141 799 141 c
945 141 1065.17 192.33 1159.5 295 c
1253.83 397.67 1301 543.33 1301 732 c
1301 851.33 1280.83 955.5 1240.5 1044.5 c
1200.17 1133.5 1141.17 1202.5 1063.5 1251.5 c
985.83 1300.5 898.67 1325 802 1325 c
664.67 1325 546.5 1277.83 447.5 1183.5 c
348.5 1089.17 299 931.67 299 711 c
closepath } bind def
/s97 {
828 131 m
761.33 74.33 697.17 34.33 635.5 11 c
573.83 -12.33 507.67 -24 437 -24 c
320.33 -24 230.67 4.5 168 61.5 c
105.33 118.5 74 191.33 74 280 c
74 332 85.83 379.5 109.5 422.5 c
133.17 465.5 164.17 500 202.5 526 c
240.83 552 284 571.67 332 585 c
367.33 594.33 420.67 603.33 492 612 c
637.33 629.33 744.33 650 813 674 c
813.67 698.67 814 714.33 814 721 c
814 794.33 797 846 763 876 c
717 916.67 648.67 937 558 937 c
473.33 937 410.83 922.17 370.5 892.5 c
330.17 862.83 300.33 810.33 281 735 c
105 759 281 735 105 759 c
121 834.33 147.33 895.17 184 941.5 c
220.67 987.83 273.67 1023.5 343 1048.5 c
412.33 1073.5 492.67 1086 584 1086 c
674.67 1086 748.33 1075.33 805 1054 c
861.67 1032.67 903.33 1005.83 930 973.5 c
956.67 941.17 975.33 900.33 986 851 c
992 820.33 995 765 995 685 c
995 445 995 685 995 445 c
995 277.67 998.83 171.83 1006.5 127.5 c
1014.17 83.17 1029.33 40.67 1052 0 c
864 0 1052 0 864 0 c
845.33 37.33 833.33 81 828 131 c
closepath 813 533 m
747.67 506.33 649.67 483.67 519 465 c
445 454.33 392.67 442.33 362 429 c
331.33 415.67 307.67 396.17 291 370.5 c
274.33 344.83 266 316.33 266 285 c
266 237 284.17 197 320.5 165 c
356.83 133 410 117 480 117 c
549.33 117 611 132.17 665 162.5 c
719 192.83 758.67 234.33 784 287 c
803.33 327.67 813 387.67 813 467 c
813 533 813 467 813 533 c
closepath } bind def
/s98 {
301 0 m
134 0 301 0 134 0 c
134 1466 134 0 134 1466 c
314 1466 134 1466 314 1466 c
314 943 314 1466 314 943 c
390 1038.33 487 1086 605 1086 c
670.33 1086 732.17 1072.83 790.5 1046.5 c
848.83 1020.17 896.83 983.17 934.5 935.5 c
972.17 887.83 1001.67 830.33 1023 763 c
1044.33 695.67 1055 623.67 1055 547 c
1055 365 1010 224.33 920 125 c
830 25.67 722 -24 596 -24 c
470.67 -24 372.33 28.33 301 133 c
301 0 301 133 301 0 c
closepath 299 539 m
299 411.67 316.33 319.67 351 263 c
407.67 170.33 484.33 124 581 124 c
659.67 124 727.67 158.17 785 226.5 c
842.33 294.83 871 396.67 871 532 c
871 670.67 843.5 773 788.5 839 c
733.5 905 667 938 589 938 c
510.33 938 442.33 903.83 385 835.5 c
327.67 767.17 299 668.33 299 539 c
closepath } bind def
/s99 {
828 389 m
1005 366 828 389 1005 366 c
985.67 244 936.17 148.5 856.5 79.5 c
776.83 10.5 679 -24 563 -24 c
417.67 -24 300.83 23.5 212.5 118.5 c
124.17 213.5 80 349.67 80 527 c
80 641.67 99 742 137 828 c
175 914 232.83 978.5 310.5 1021.5 c
388.17 1064.5 472.67 1086 564 1086 c
679.33 1086 773.67 1056.83 847 998.5 c
920.33 940.17 967.33 857.33 988 750 c
813 723 988 750 813 723 c
796.33 794.33 766.83 848 724.5 884 c
682.17 920 631 938 571 938 c
480.33 938 406.67 905.5 350 840.5 c
293.33 775.5 265 672.67 265 532 c
265 389.33 292.33 285.67 347 221 c
401.67 156.33 473 124 561 124 c
631.67 124 690.67 145.67 738 189 c
785.33 232.33 815.33 299 828 389 c
closepath } bind def
/s100 {
824 0 m
824 134 824 0 824 134 c
756.67 28.67 657.67 -24 527 -24 c
442.33 -24 364.5 -0.67 293.5 46 c
222.5 92.67 167.5 157.83 128.5 241.5 c
89.5 325.17 70 421.33 70 530 c
70 636 87.67 732.17 123 818.5 c
158.33 904.83 211.33 971 282 1017 c
352.67 1063 431.67 1086 519 1086 c
583 1086 640 1072.5 690 1045.5 c
740 1018.5 780.67 983.33 812 940 c
812 1466 812 940 812 1466 c
991 1466 812 1466 991 1466 c
991 0 991 1466 991 0 c
824 0 991 0 824 0 c
closepath 255 530 m
255 394 283.67 292.33 341 225 c
398.33 157.67 466 124 544 124 c
622.67 124 689.5 156.17 744.5 220.5 c
799.5 284.83 827 383 827 515 c
827 660.33 799 767 743 835 c
687 903 618 937 536 937 c
456 937 389.17 904.33 335.5 839 c
281.83 773.67 255 670.67 255 530 c
closepath } bind def
/s101 {
862 342 m
1048 319 862 342 1048 319 c
1018.67 210.33 964.33 126 885 66 c
805.67 6 704.33 -24 581 -24 c
425.67 -24 302.5 23.83 211.5 119.5 c
120.5 215.17 75 349.33 75 522 c
75 700.67 121 839.33 213 938 c
305 1036.67 424.33 1086 571 1086 c
713 1086 829 1037.67 919 941 c
1009 844.33 1054 708.33 1054 533 c
1054 522.33 1053.67 506.33 1053 485 c
261 485 1053 485 261 485 c
267.67 368.33 300.67 279 360 217 c
419.33 155 493.33 124 582 124 c
648 124 704.33 141.33 751 176 c
797.67 210.67 834.67 266 862 342 c
closepath 271 633 m
864 633 271 633 864 633 c
856 722.33 833.33 789.33 796 834 c
738.67 903.33 664.33 938 573 938 c
490.33 938 420.83 910.33 364.5 855 c
308.17 799.67 277 725.67 271 633 c
closepath } bind def
/s102 {
178 0 m
178 922 178 0 178 922 c
19 922 178 922 19 922 c
19 1062 19 922 19 1062 c
178 1062 19 1062 178 1062 c
178 1175 178 1062 178 1175 c
178 1246.33 184.33 1299.33 197 1334 c
214.33 1380.67 244.83 1418.5 288.5 1447.5 c
332.17 1476.5 393.33 1491 472 1491 c
522.67 1491 578.67 1485 640 1473 c
613 1316 640 1473 613 1316 c
575.67 1322.67 540.33 1326 507 1326 c
452.33 1326 413.67 1314.33 391 1291 c
368.33 1267.67 357 1224 357 1160 c
357 1062 357 1160 357 1062 c
564 1062 357 1062 564 1062 c
564 922 564 1062 564 922 c
357 922 564 922 357 922 c
357 0 357 922 357 0 c
178 0 357 0 178 0 c
closepath } bind def
/s105 {
136 1259 m
136 1466 136 1259 136 1466 c
316 1466 136 1466 316 1466 c
316 1259 316 1466 316 1259 c
136 1259 316 1259 136 1259 c
closepath 136 0 m
136 1062 136 0 136 1062 c
316 1062 136 1062 316 1062 c
316 0 316 1062 316 0 c
136 0 316 0 136 0 c
closepath } bind def
/s108 {
131 0 m
131 1466 131 0 131 1466 c
311 1466 131 1466 311 1466 c
311 0 311 1466 311 0 c
131 0 311 0 131 0 c
closepath } bind def
/s109 {
135 0 m
135 1062 135 0 135 1062 c
296 1062 135 1062 296 1062 c
296 913 296 1062 296 913 c
329.33 965 373.67 1006.83 429 1038.5 c
484.33 1070.17 547.33 1086 618 1086 c
696.67 1086 761.17 1069.67 811.5 1037 c
861.83 1004.33 897.33 958.67 918 900 c
1002 1024 1111.33 1086 1246 1086 c
1351.33 1086 1432.33 1056.83 1489 998.5 c
1545.67 940.17 1574 850.33 1574 729 c
1574 0 1574 729 1574 0 c
1395 0 1574 0 1395 0 c
1395 669 1395 0 1395 669 c
1395 741 1389.17 792.83 1377.5 824.5 c
1365.83 856.17 1344.67 881.67 1314 901 c
1283.33 920.33 1247.33 930 1206 930 c
1131.33 930 1069.33 905.17 1020 855.5 c
970.67 805.83 946 726.33 946 617 c
946 0 946 617 946 0 c
766 0 946 0 766 0 c
766 690 766 0 766 690 c
766 770 751.33 830 722 870 c
692.67 910 644.67 930 578 930 c
527.33 930 480.5 916.67 437.5 890 c
394.5 863.33 363.33 824.33 344 773 c
324.67 721.67 315 647.67 315 551 c
315 0 315 551 315 0 c
135 0 315 0 135 0 c
closepath } bind def
/s110 {
135 0 m
135 1062 135 0 135 1062 c
297 1062 135 1062 297 1062 c
297 911 297 1062 297 911 c
375 1027.67 487.67 1086 635 1086 c
699 1086 757.83 1074.5 811.5 1051.5 c
865.17 1028.5 905.33 998.33 932 961 c
958.67 923.67 977.33 879.33 988 828 c
994.67 794.67 998 736.33 998 653 c
998 0 998 653 998 0 c
818 0 998 0 818 0 c
818 646 818 0 818 646 c
818 719.33 811 774.17 797 810.5 c
783 846.83 758.17 875.83 722.5 897.5 c
686.83 919.17 645 930 597 930 c
520.33 930 454.17 905.67 398.5 857 c
342.83 808.33 315 716 315 580 c
315 0 315 580 315 0 c
135 0 315 0 135 0 c
closepath } bind def
/s112 {
135 -407 m
135 1062 135 -407 135 1062 c
299 1062 135 1062 299 1062 c
299 924 299 1062 299 924 c
337.67 978 381.33 1018.5 430 1045.5 c
478.67 1072.5 537.67 1086 607 1086 c
697.67 1086 777.67 1062.67 847 1016 c
916.33 969.33 968.67 903.5 1004 818.5 c
1039.33 733.5 1057 640.33 1057 539 c
1057 430.33 1037.5 332.5 998.5 245.5 c
959.5 158.5 902.83 91.83 828.5 45.5 c
754.17 -0.83 676 -24 594 -24 c
534 -24 480.17 -11.33 432.5 14 c
384.83 39.33 345.67 71.33 315 110 c
315 -407 315 110 315 -407 c
135 -407 315 -407 135 -407 c
closepath 298 525 m
298 388.33 325.67 287.33 381 222 c
436.33 156.67 503.33 124 582 124 c
662 124 730.5 157.83 787.5 225.5 c
844.5 293.17 873 398 873 540 c
873 675.33 845.17 776.67 789.5 844 c
733.83 911.33 667.33 945 590 945 c
513.33 945 445.5 909.17 386.5 837.5 c
327.5 765.83 298 661.67 298 525 c
closepath } bind def
/s114 {
133 0 m
133 1062 133 0 133 1062 c
295 1062 133 1062 295 1062 c
295 901 295 1062 295 901 c
336.33 976.33 374.5 1026 409.5 1050 c
444.5 1074 483 1086 525 1086 c
585.67 1086 647.33 1066.67 710 1028 c
648 861 710 1028 648 861 c
604 887 560 900 516 900 c
476.67 900 441.33 888.17 410 864.5 c
378.67 840.83 356.33 808 343 766 c
323 702 313 632 313 556 c
313 0 313 556 313 0 c
133 0 313 0 133 0 c
closepath } bind def
/s115 {
63 317 m
241 345 63 317 241 345 c
251 273.67 278.83 219 324.5 181 c
370.17 143 434 124 516 124 c
598.67 124 660 140.83 700 174.5 c
740 208.17 760 247.67 760 293 c
760 333.67 742.33 365.67 707 389 c
682.33 405 621 425.33 523 450 c
391 483.33 299.5 512.17 248.5 536.5 c
197.5 560.83 158.83 594.5 132.5 637.5 c
106.17 680.5 93 728 93 780 c
93 827.33 103.83 871.17 125.5 911.5 c
147.17 951.83 176.67 985.33 214 1012 c
242 1032.67 280.17 1050.17 328.5 1064.5 c
376.83 1078.83 428.67 1086 484 1086 c
567.33 1086 640.5 1074 703.5 1050 c
766.5 1026 813 993.5 843 952.5 c
873 911.5 893.67 856.67 905 788 c
729 764 905 788 729 764 c
721 818.67 697.83 861.33 659.5 892 c
621.17 922.67 567 938 497 938 c
414.33 938 355.33 924.33 320 897 c
284.67 869.67 267 837.67 267 801 c
267 777.67 274.33 756.67 289 738 c
303.67 718.67 326.67 702.67 358 690 c
376 683.33 429 668 517 644 c
644.33 610 733.17 582.17 783.5 560.5 c
833.83 538.83 873.33 507.33 902 466 c
930.67 424.67 945 373.33 945 312 c
945 252 927.5 195.5 892.5 142.5 c
857.5 89.5 807 48.5 741 19.5 c
675 -9.5 600.33 -24 517 -24 c
379 -24 273.83 4.67 201.5 62 c
129.17 119.33 83 204.33 63 317 c
closepath } bind def
/s116 {
528 161 m
554 2 528 161 554 2 c
503.33 -8.67 458 -14 418 -14 c
352.67 -14 302 -3.67 266 17 c
230 37.67 204.67 64.83 190 98.5 c
175.33 132.17 168 203 168 311 c
168 922 168 311 168 922 c
36 922 168 922 36 922 c
36 1062 36 922 36 1062 c
168 1062 36 1062 168 1062 c
168 1325 168 1062 168 1325 c
347 1433 168 1325 347 1433 c
347 1062 347 1433 347 1062 c
528 1062 347 1062 528 1062 c
528 922 528 1062 528 922 c
347 922 528 922 347 922 c
347 301 347 922 347 301 c
347 249.67 350.17 216.67 356.5 202 c
362.83 187.33 373.17 175.67 387.5 167 c
401.83 158.33 422.33 154 449 154 c
469 154 495.33 156.33 528 161 c
closepath } bind def
/s117 {
831 0 m
831 156 831 0 831 156 c
748.33 36 636 -24 494 -24 c
431.33 -24 372.83 -12 318.5 12 c
264.17 36 223.83 66.17 197.5 102.5 c
171.17 138.83 152.67 183.33 142 236 c
134.67 271.33 131 327.33 131 404 c
131 1062 131 404 131 1062 c
311 1062 131 1062 311 1062 c
311 473 311 1062 311 473 c
311 379 314.67 315.67 322 283 c
333.33 235.67 357.33 198.5 394 171.5 c
430.67 144.5 476 131 530 131 c
584 131 634.67 144.83 682 172.5 c
729.33 200.17 762.83 237.83 782.5 285.5 c
802.17 333.17 812 402.33 812 493 c
812 1062 812 493 812 1062 c
992 1062 812 1062 992 1062 c
992 0 992 1062 992 0 c
831 0 992 0 831 0 c
closepath } bind def
/s121 {
127 -409 m
107 -240 127 -409 107 -240 c
146.33 -250.67 180.67 -256 210 -256 c
250 -256 282 -249.33 306 -236 c
330 -222.67 349.67 -204 365 -180 c
376.33 -162 394.67 -117.33 420 -46 c
423.33 -36 428.67 -21.33 436 -2 c
33 1062 436 -2 33 1062 c
227 1062 33 1062 227 1062 c
448 447 227 1062 448 447 c
476.67 369 502.33 287 525 201 c
545.67 283.67 570.33 364.33 599 443 c
826 1062 599 443 826 1062 c
1006 1062 826 1062 1006 1062 c
602 -18 1006 1062 602 -18 c
558.67 -134.67 525 -215 501 -259 c
469 -318.33 432.33 -361.83 391 -389.5 c
349.67 -417.17 300.33 -431 243 -431 c
208.33 -431 169.67 -423.67 127 -409 c
closepath } bind def
end
/BuildGlyph {
 exch dup /Metrics get 2 index get 0 setcharwidth
/CharProcs get exch 2 copy known not{pop/.notdef}if get exec fill}bind def
/BuildChar {
1 index /Encoding get exch get
1 index /BuildGlyph get exec
} bind def
currentdict end /MC2_Arial exch definefont pop
%%EndFont
%%BeginFont: /MC3_Symbol
12 dict begin
/FontInfo 8 dict dup begin
/ItalicAngle 0 def
/UnderlinePosition -223.00 def
/UnderlineThickness 100.00 def
/StrikeoutPosition 530.00 def
/StrikeoutThickness 102.00 def
/isFixedPitch false def
end readonly def
/FontName /MC3_Symbol def
/FontType 3 def
/FontMatrix [1 2048 div 0 0 1 2048 div 0 0] def
/FontBBox [-1 -450 2279 2059] def
/Encoding 256 array def 0 1 255{Encoding exch/.notdef put}for
Encoding 32/s32 put
Encoding 40/s40 put
Encoding 41/s41 put
/BoundingBoxes 5 dict def
BoundingBoxes begin
/s32 [0 -450 512 2059] def
/s40 [0 -450 682 2059] def
/s41 [0 -450 682 2059] def
/s61472 [0 -450 0 2059] def
end
/Metrics 5 dict def
 Metrics begin
/s32 512 def
/s40 682 def
/s41 682 def
/s61472 0 def
end
/CharProcs 5 dict def
CharProcs begin
/.notdef {} def
/s40 {
636 -399 m
636 -442 636 -399 636 -442 c
462 -355.33 326.5 -228.17 229.5 -60.5 c
132.5 107.17 84 290.67 84 490 c
84 697.33 135 886.17 237 1056.5 c
339 1226.83 472 1348.67 636 1422 c
636 1380 636 1422 636 1380 c
554 1334.67 486.67 1272.67 434 1194 c
381.33 1115.33 342 1015.5 316 894.5 c
290 773.5 277 647.33 277 516 c
277 367.33 289 233 313 113 c
337 -7 373.67 -106.5 423 -185.5 c
472.33 -264.5 543.33 -335.67 636 -399 c
closepath } bind def
/s41 {
45 1380 m
45 1422 45 1380 45 1422 c
219 1336 354.5 1209.17 451.5 1041.5 c
548.5 873.83 597 690.33 597 491 c
597 283.67 546 94.67 444 -76 c
342 -246.67 209 -368.67 45 -442 c
45 -399 45 -442 45 -399 c
127.67 -353.67 195.33 -291.67 248 -213 c
300.67 -134.33 339.83 -34.67 365.5 86 c
391.17 206.67 404 333 404 465 c
404 613 392.17 747.17 368.5 867.5 c
344.83 987.83 308.17 1087.5 258.5 1166.5 c
208.83 1245.5 137.67 1316.67 45 1380 c
closepath } bind def
end
/BuildGlyph {
 exch dup /Metrics get 2 index get 0 setcharwidth
/CharProcs get exch 2 copy known not{pop/.notdef}if get exec fill}bind def
/BuildChar {
1 index /Encoding get exch get
1 index /BuildGlyph get exec
} bind def
currentdict end /MC3_Symbol exch definefont pop
%%EndFont
%%BeginFont: /MC4_Symbol
12 dict begin
/FontInfo 8 dict dup begin
/ItalicAngle 0 def
/UnderlinePosition -223.00 def
/UnderlineThickness 100.00 def
/StrikeoutPosition 530.00 def
/StrikeoutThickness 102.00 def
/isFixedPitch false def
end readonly def
/FontName /MC4_Symbol def
/FontType 3 def
/FontMatrix [1 2048 div 0 0 1 2048 div 0 0] def
/FontBBox [-1 -450 2279 2059] def
/Encoding 256 array def 0 1 255{Encoding exch/.notdef put}for
Encoding 32/s32 put
/BoundingBoxes 6 dict def
BoundingBoxes begin
/s32 [0 -450 512 2059] def
/s61472 [0 -450 0 2059] def
/s61501 [0 -450 0 2059] def
/s61554 [0 -450 0 2059] def
/s61556 [0 -450 0 2059] def
end
/Metrics 6 dict def
 Metrics begin
/s32 512 def
/s61472 0 def
/s61501 0 def
/s61554 0 def
/s61556 0 def
end
/CharProcs 6 dict def
CharProcs begin
/.notdef {} def
/s61501 {
37 759 m
1087 759 37 759 1087 759 c
1087 662 1087 759 1087 662 c
37 662 1087 662 37 662 c
37 759 37 662 37 759 c
closepath 37 386 m
1087 386 37 386 1087 386 c
1087 287 1087 386 1087 287 c
37 287 1087 287 37 287 c
37 386 37 287 37 386 c
closepath } bind def
/s61554 {
307 55 m
307 -62 307 55 307 -62 c
307 -226.67 296.67 -353.33 276 -442 c
105 -442 276 -442 105 -442 c
119 -399.33 128 -364.67 132 -338 c
138.67 -292.67 142 -235.67 142 -167 c
142 474 142 -167 142 474 c
142 612 185.33 725 272 813 c
358.67 900.33 468 944 600 944 c
750.67 944 865.33 890 944 782 c
1004.67 698 1035 603 1035 497 c
1035 377.67 998 267.67 924 167 c
826 35 702 -31 552 -31 c
498 -31 449 -23 405 -7 c
375.67 4.33 343 25 307 55 c
closepath 307 357 m
307 265.67 315.17 202 331.5 166 c
347.83 130 377.67 99.5 421 74.5 c
464.33 49.5 513.67 37 569 37 c
652.33 37 723 69.67 781 135 c
839 200.33 868 289.33 868 402 c
868 486.67 850.17 565.17 814.5 637.5 c
778.83 709.83 733.33 763.33 678 798 c
622.67 832.67 564.33 850 503 850 c
426.33 850 371.33 820.33 338 761 c
317.33 725.67 307 647.33 307 526 c
307 357 307 526 307 357 c
closepath } bind def
/s61556 {
813 916 m
813 769 813 916 813 769 c
501 769 813 769 501 769 c
478.33 549.67 467 399.33 467 318 c
467 253.33 479.17 206.5 503.5 177.5 c
527.83 148.5 558.33 134 595 134 c
622.33 134 646 143.33 666 162 c
686 180.67 700.67 212.67 710 258 c
745 258 710 258 745 258 c
733.67 148.67 709.33 73.17 672 31.5 c
634.67 -10.17 591 -31 541 -31 c
488.33 -31 444.33 -7.17 409 40.5 c
373.67 88.17 356 173.33 356 296 c
356 392.67 368 550.33 392 769 c
298 769 392 769 298 769 c
244 769 201.67 759.17 171 739.5 c
140.33 719.83 110 682.67 80 628 c
43 628 80 628 43 628 c
91 756 134 836 172 868 c
210 900 264 916 334 916 c
813 916 334 916 813 916 c
closepath } bind def
end
/BuildGlyph {
 exch dup /Metrics get 2 index get 0 setcharwidth
/CharProcs get exch 2 copy known not{pop/.notdef}if get exec fill}bind def
/BuildChar {
1 index /Encoding get exch get
1 index /BuildGlyph get exec
} bind def
currentdict end /MC4_Symbol exch definefont pop
%%EndFont
/clipproc{clippath{[{/m cvx}{/l cvx}{/c cvx}{/cp cvx}pathforall}stopped
{cleartomark[pathbbox exch 3 i sub exch 2 i sub/rectpath cvx}if]np}bd
/iclmtx mtx cmtx def/iclpath clipproc xd/clinit{pathproc initclip np iclpath cl np exec}bd
/clmove{pathproc 3 1 roll clippath pathproc 2 i neg 2 i neg tr initclip np exec cl tr np exec}bd
/clrect[gs np iclpath{pathbbox}stopped{0 0 771.85 590.88 }if gr]def
/cloper{mtx cmtx iclmtx smtx exch exec smtx}bd
/cland{{exch cvx exec}cloper}bd
/clcopy{{exch clinit cvx exec}cloper}bd
/cldiff{{exch pathbbox 4 -1 roll clrect 0 get 2 copy gt{exch}if pop 4 1 roll
 3 -1 roll clrect 1 get 2 copy gt{exch}if pop 3 1 roll
 2 -1 roll clrect 2 get 2 copy lt{exch}if pop 2 1 roll
 1 -1 roll clrect 3 get 2 copy lt{exch}if pop 1 1 roll
 exch 3 i sub exch 2 i sub rectpath cvx exec}cloper}bd
/icl{{clinit}cloper}bd
0.851119 0.854583 sc

/initmtx mtx cmtx def
initmtx smtx
[1.0000 0.0000 0.0000 1.0000 0.0000 0.0000 ] concat
 [0.281988 -0 0 -0.28084 0 691.427] concat
gs
418 2166 m
3152 2166 l
7 sw
1 sj
1 scap
st
436 2166 m
436 2147 l
st
454 2166 m
454 2147 l
st
473 2166 m
473 2147 l
st
491 2166 m
491 2147 l
st
509 2166 m
509 2147 l
st
527 2166 m
527 2147 l
st
546 2166 m
546 2147 l
st
564 2166 m
564 2147 l
st
582 2166 m
582 2147 l
st
618 2166 m
618 2147 l
st
637 2166 m
637 2147 l
st
655 2166 m
655 2147 l
st
673 2166 m
673 2147 l
st
691 2166 m
691 2147 l
st
710 2166 m
710 2147 l
st
728 2166 m
728 2147 l
st
746 2166 m
746 2147 l
st
764 2166 m
764 2147 l
st
801 2166 m
801 2147 l
st
819 2166 m
819 2147 l
st
837 2166 m
837 2147 l
st
855 2166 m
855 2147 l
st
874 2166 m
874 2147 l
st
892 2166 m
892 2147 l
st
910 2166 m
910 2147 l
st
928 2166 m
928 2147 l
st
947 2166 m
947 2147 l
st
983 2166 m
983 2147 l
st
1001 2166 m
1001 2147 l
st
1019 2166 m
1019 2147 l
st
1038 2166 m
1038 2147 l
st
1056 2166 m
1056 2147 l
st
1074 2166 m
1074 2147 l
st
1092 2166 m
1092 2147 l
st
1111 2166 m
1111 2147 l
st
1129 2166 m
1129 2147 l
st
1165 2166 m
1165 2147 l
st
1184 2166 m
1184 2147 l
st
1202 2166 m
1202 2147 l
st
1220 2166 m
1220 2147 l
st
1238 2166 m
1238 2147 l
st
1256 2166 m
1256 2147 l
st
1275 2166 m
1275 2147 l
st
1293 2166 m
1293 2147 l
st
1311 2166 m
1311 2147 l
st
1348 2166 m
1348 2147 l
st
1366 2166 m
1366 2147 l
st
1384 2166 m
1384 2147 l
st
1402 2166 m
1402 2147 l
st
1420 2166 m
1420 2147 l
st
1439 2166 m
1439 2147 l
st
1457 2166 m
1457 2147 l
st
1475 2166 m
1475 2147 l
st
1493 2166 m
1493 2147 l
st
1530 2166 m
1530 2147 l
st
1548 2166 m
1548 2147 l
st
1566 2166 m
1566 2147 l
st
1585 2166 m
1585 2147 l
st
1603 2166 m
1603 2147 l
st
1621 2166 m
1621 2147 l
st
1639 2166 m
1639 2147 l
st
1657 2166 m
1657 2147 l
st
1676 2166 m
1676 2147 l
st
1712 2166 m
1712 2147 l
st
1730 2166 m
1730 2147 l
st
1749 2166 m
1749 2147 l
st
1767 2166 m
1767 2147 l
st
1785 2166 m
1785 2147 l
st
1803 2166 m
1803 2147 l
st
1821 2166 m
1821 2147 l
st
1840 2166 m
1840 2147 l
st
1858 2166 m
1858 2147 l
st
1894 2166 m
1894 2147 l
st
1913 2166 m
1913 2147 l
st
1931 2166 m
1931 2147 l
st
1949 2166 m
1949 2147 l
st
1967 2166 m
1967 2147 l
st
1985 2166 m
1985 2147 l
st
2004 2166 m
2004 2147 l
st
2022 2166 m
2022 2147 l
st
2040 2166 m
2040 2147 l
st
2077 2166 m
2077 2147 l
st
2095 2166 m
2095 2147 l
st
2113 2166 m
2113 2147 l
st
2131 2166 m
2131 2147 l
st
2150 2166 m
2150 2147 l
st
2168 2166 m
2168 2147 l
st
2186 2166 m
2186 2147 l
st
2204 2166 m
2204 2147 l
st
2222 2166 m
2222 2147 l
st
2259 2166 m
2259 2147 l
st
2277 2166 m
2277 2147 l
st
2295 2166 m
2295 2147 l
st
2314 2166 m
2314 2147 l
st
2332 2166 m
2332 2147 l
st
2350 2166 m
2350 2147 l
st
2368 2166 m
2368 2147 l
st
2386 2166 m
2386 2147 l
st
2405 2166 m
2405 2147 l
st
2441 2166 m
2441 2147 l
st
2459 2166 m
2459 2147 l
st
2478 2166 m
2478 2147 l
st
2496 2166 m
2496 2147 l
st
2514 2166 m
2514 2147 l
st
2532 2166 m
2532 2147 l
st
2551 2166 m
2551 2147 l
st
2569 2166 m
2569 2147 l
st
2587 2166 m
2587 2147 l
st
2623 2166 m
2623 2147 l
st
2642 2166 m
2642 2147 l
st
2660 2166 m
2660 2147 l
st
2678 2166 m
2678 2147 l
st
2696 2166 m
2696 2147 l
st
2715 2166 m
2715 2147 l
st
2733 2166 m
2733 2147 l
st
2751 2166 m
2751 2147 l
st
2769 2166 m
2769 2147 l
st
2806 2166 m
2806 2147 l
st
2824 2166 m
2824 2147 l
st
2842 2166 m
2842 2147 l
st
2860 2166 m
2860 2147 l
st
2879 2166 m
2879 2147 l
st
2897 2166 m
2897 2147 l
st
2915 2166 m
2915 2147 l
st
2933 2166 m
2933 2147 l
st
2952 2166 m
2952 2147 l
st
2988 2166 m
2988 2147 l
st
3006 2166 m
3006 2147 l
st
3024 2166 m
3024 2147 l
st
3043 2166 m
3043 2147 l
st
3061 2166 m
3061 2147 l
st
3079 2166 m
3079 2147 l
st
3097 2166 m
3097 2147 l
st
3116 2166 m
3116 2147 l
st
3134 2166 m
3134 2147 l
st
418 2166 m
418 2128 l
st
600 2166 m
600 2128 l
st
783 2166 m
783 2128 l
st
965 2166 m
965 2128 l
st
1147 2166 m
1147 2128 l
st
1329 2166 m
1329 2128 l
st
1512 2166 m
1512 2128 l
st
1694 2166 m
1694 2128 l
st
1876 2166 m
1876 2128 l
st
2058 2166 m
2058 2128 l
st
2241 2166 m
2241 2128 l
st
2423 2166 m
2423 2128 l
st
2605 2166 m
2605 2128 l
st
2787 2166 m
2787 2128 l
st
2970 2166 m
2970 2128 l
st
3152 2166 m
3152 2128 l
st
418 49 m
3152 49 l
st
436 49 m
436 68 l
st
454 49 m
454 68 l
st
473 49 m
473 68 l
st
491 49 m
491 68 l
st
509 49 m
509 68 l
st
527 49 m
527 68 l
st
546 49 m
546 68 l
st
564 49 m
564 68 l
st
582 49 m
582 68 l
st
618 49 m
618 68 l
st
637 49 m
637 68 l
st
655 49 m
655 68 l
st
673 49 m
673 68 l
st
691 49 m
691 68 l
st
710 49 m
710 68 l
st
728 49 m
728 68 l
st
746 49 m
746 68 l
st
764 49 m
764 68 l
st
801 49 m
801 68 l
st
819 49 m
819 68 l
st
837 49 m
837 68 l
st
855 49 m
855 68 l
st
874 49 m
874 68 l
st
892 49 m
892 68 l
st
910 49 m
910 68 l
st
928 49 m
928 68 l
st
947 49 m
947 68 l
st
983 49 m
983 68 l
st
1001 49 m
1001 68 l
st
1019 49 m
1019 68 l
st
1038 49 m
1038 68 l
st
1056 49 m
1056 68 l
st
1074 49 m
1074 68 l
st
1092 49 m
1092 68 l
st
1111 49 m
1111 68 l
st
1129 49 m
1129 68 l
st
1165 49 m
1165 68 l
st
1184 49 m
1184 68 l
st
1202 49 m
1202 68 l
st
1220 49 m
1220 68 l
st
1238 49 m
1238 68 l
st
1256 49 m
1256 68 l
st
1275 49 m
1275 68 l
st
1293 49 m
1293 68 l
st
1311 49 m
1311 68 l
st
1348 49 m
1348 68 l
st
1366 49 m
1366 68 l
st
1384 49 m
1384 68 l
st
1402 49 m
1402 68 l
st
1420 49 m
1420 68 l
st
1439 49 m
1439 68 l
st
1457 49 m
1457 68 l
st
1475 49 m
1475 68 l
st
1493 49 m
1493 68 l
st
1530 49 m
1530 68 l
st
1548 49 m
1548 68 l
st
1566 49 m
1566 68 l
st
1585 49 m
1585 68 l
st
1603 49 m
1603 68 l
st
1621 49 m
1621 68 l
st
1639 49 m
1639 68 l
st
1657 49 m
1657 68 l
st
1676 49 m
1676 68 l
st
1712 49 m
1712 68 l
st
1730 49 m
1730 68 l
st
1749 49 m
1749 68 l
st
1767 49 m
1767 68 l
st
1785 49 m
1785 68 l
st
1803 49 m
1803 68 l
st
1821 49 m
1821 68 l
st
1840 49 m
1840 68 l
st
1858 49 m
1858 68 l
st
1894 49 m
1894 68 l
st
1913 49 m
1913 68 l
st
1931 49 m
1931 68 l
st
1949 49 m
1949 68 l
st
1967 49 m
1967 68 l
st
1985 49 m
1985 68 l
st
2004 49 m
2004 68 l
st
2022 49 m
2022 68 l
st
2040 49 m
2040 68 l
st
2077 49 m
2077 68 l
st
2095 49 m
2095 68 l
st
2113 49 m
2113 68 l
st
2131 49 m
2131 68 l
st
2150 49 m
2150 68 l
st
2168 49 m
2168 68 l
st
2186 49 m
2186 68 l
st
2204 49 m
2204 68 l
st
2222 49 m
2222 68 l
st
2259 49 m
2259 68 l
st
2277 49 m
2277 68 l
st
2295 49 m
2295 68 l
st
2314 49 m
2314 68 l
st
2332 49 m
2332 68 l
st
2350 49 m
2350 68 l
st
2368 49 m
2368 68 l
st
2386 49 m
2386 68 l
st
2405 49 m
2405 68 l
st
2441 49 m
2441 68 l
st
2459 49 m
2459 68 l
st
2478 49 m
2478 68 l
st
2496 49 m
2496 68 l
st
2514 49 m
2514 68 l
st
2532 49 m
2532 68 l
st
2551 49 m
2551 68 l
st
2569 49 m
2569 68 l
st
2587 49 m
2587 68 l
st
2623 49 m
2623 68 l
st
2642 49 m
2642 68 l
st
2660 49 m
2660 68 l
st
2678 49 m
2678 68 l
st
2696 49 m
2696 68 l
st
2715 49 m
2715 68 l
st
2733 49 m
2733 68 l
st
2751 49 m
2751 68 l
st
2769 49 m
2769 68 l
st
2806 49 m
2806 68 l
st
2824 49 m
2824 68 l
st
2842 49 m
2842 68 l
st
2860 49 m
2860 68 l
st
2879 49 m
2879 68 l
st
2897 49 m
2897 68 l
st
2915 49 m
2915 68 l
st
2933 49 m
2933 68 l
st
2952 49 m
2952 68 l
st
2988 49 m
2988 68 l
st
3006 49 m
3006 68 l
st
3024 49 m
3024 68 l
st
3043 49 m
3043 68 l
st
3061 49 m
3061 68 l
st
3079 49 m
3079 68 l
st
3097 49 m
3097 68 l
st
3116 49 m
3116 68 l
st
3134 49 m
3134 68 l
st
418 49 m
418 87 l
st
600 49 m
600 87 l
st
783 49 m
783 87 l
st
965 49 m
965 87 l
st
1147 49 m
1147 87 l
st
1329 49 m
1329 87 l
st
1512 49 m
1512 87 l
st
1694 49 m
1694 87 l
st
1876 49 m
1876 87 l
st
2058 49 m
2058 87 l
st
2241 49 m
2241 87 l
st
2423 49 m
2423 87 l
st
2605 49 m
2605 87 l
st
2787 49 m
2787 87 l
st
2970 49 m
2970 87 l
st
3152 49 m
3152 87 l
st
418 2166 m
418 49 l
st
418 2148 m
437 2148 l
st
418 2131 m
437 2131 l
st
418 2113 m
437 2113 l
st
418 2095 m
437 2095 l
st
418 2078 m
437 2078 l
st
418 2060 m
437 2060 l
st
418 2043 m
437 2043 l
st
418 2025 m
437 2025 l
st
418 2007 m
437 2007 l
st
418 1972 m
437 1972 l
st
418 1954 m
437 1954 l
st
418 1937 m
437 1937 l
st
418 1919 m
437 1919 l
st
418 1901 m
437 1901 l
st
418 1884 m
437 1884 l
st
418 1866 m
437 1866 l
st
418 1848 m
437 1848 l
st
418 1831 m
437 1831 l
st
418 1796 m
437 1796 l
st
418 1778 m
437 1778 l
st
418 1760 m
437 1760 l
st
418 1743 m
437 1743 l
st
418 1725 m
437 1725 l
st
418 1707 m
437 1707 l
st
418 1690 m
437 1690 l
st
418 1672 m
437 1672 l
st
418 1654 m
437 1654 l
st
418 1619 m
437 1619 l
st
418 1601 m
437 1601 l
st
418 1584 m
437 1584 l
st
418 1566 m
437 1566 l
st
418 1549 m
437 1549 l
st
418 1531 m
437 1531 l
st
418 1513 m
437 1513 l
st
418 1496 m
437 1496 l
st
418 1478 m
437 1478 l
st
418 1443 m
437 1443 l
st
418 1425 m
437 1425 l
st
418 1407 m
437 1407 l
st
418 1390 m
437 1390 l
st
418 1372 m
437 1372 l
st
418 1354 m
437 1354 l
st
418 1337 m
437 1337 l
st
418 1319 m
437 1319 l
st
418 1302 m
437 1302 l
st
418 1266 m
437 1266 l
st
418 1249 m
437 1249 l
st
418 1231 m
437 1231 l
st
418 1213 m
437 1213 l
st
418 1196 m
437 1196 l
st
418 1178 m
437 1178 l
st
418 1160 m
437 1160 l
st
418 1143 m
437 1143 l
st
418 1125 m
437 1125 l
st
418 1090 m
437 1090 l
st
418 1072 m
437 1072 l
st
418 1055 m
437 1055 l
st
418 1037 m
437 1037 l
st
418 1019 m
437 1019 l
st
418 1002 m
437 1002 l
st
418 984 m
437 984 l
st
418 966 m
437 966 l
st
418 949 m
437 949 l
st
418 913 m
437 913 l
st
418 896 m
437 896 l
st
418 878 m
437 878 l
st
418 861 m
437 861 l
st
418 843 m
437 843 l
st
418 825 m
437 825 l
st
418 808 m
437 808 l
st
418 790 m
437 790 l
st
418 772 m
437 772 l
st
418 737 m
437 737 l
st
418 719 m
437 719 l
st
418 702 m
437 702 l
st
418 684 m
437 684 l
st
418 666 m
437 666 l
st
418 649 m
437 649 l
st
418 631 m
437 631 l
st
418 614 m
437 614 l
st
418 596 m
437 596 l
st
418 561 m
437 561 l
st
418 543 m
437 543 l
st
418 525 m
437 525 l
st
418 508 m
437 508 l
st
418 490 m
437 490 l
st
418 472 m
437 472 l
st
418 455 m
437 455 l
st
418 437 m
437 437 l
st
418 419 m
437 419 l
st
418 384 m
437 384 l
st
418 367 m
437 367 l
st
418 349 m
437 349 l
st
418 331 m
437 331 l
st
418 314 m
437 314 l
st
418 296 m
437 296 l
st
418 278 m
437 278 l
st
418 261 m
437 261 l
st
418 243 m
437 243 l
st
418 208 m
437 208 l
st
418 190 m
437 190 l
st
418 172 m
437 172 l
st
418 155 m
437 155 l
st
418 137 m
437 137 l
st
418 120 m
437 120 l
st
418 102 m
437 102 l
st
418 84 m
437 84 l
st
418 67 m
437 67 l
st
418 2166 m
456 2166 l
st
418 1990 m
456 1990 l
st
418 1813 m
456 1813 l
st
418 1637 m
456 1637 l
st
418 1460 m
456 1460 l
st
418 1284 m
456 1284 l
st
418 1107 m
456 1107 l
st
418 931 m
456 931 l
st
418 755 m
456 755 l
st
418 578 m
456 578 l
st
418 402 m
456 402 l
st
418 225 m
456 225 l
st
418 49 m
456 49 l
st
3152 2166 m
3152 49 l
st
3152 2148 m
3133 2148 l
st
3152 2131 m
3133 2131 l
st
3152 2113 m
3133 2113 l
st
3152 2095 m
3133 2095 l
st
3152 2078 m
3133 2078 l
st
3152 2060 m
3133 2060 l
st
3152 2043 m
3133 2043 l
st
3152 2025 m
3133 2025 l
st
3152 2007 m
3133 2007 l
st
3152 1972 m
3133 1972 l
st
3152 1954 m
3133 1954 l
st
3152 1937 m
3133 1937 l
st
3152 1919 m
3133 1919 l
st
3152 1901 m
3133 1901 l
st
3152 1884 m
3133 1884 l
st
3152 1866 m
3133 1866 l
st
3152 1848 m
3133 1848 l
st
3152 1831 m
3133 1831 l
st
3152 1796 m
3133 1796 l
st
3152 1778 m
3133 1778 l
st
3152 1760 m
3133 1760 l
st
3152 1743 m
3133 1743 l
st
3152 1725 m
3133 1725 l
st
3152 1707 m
3133 1707 l
st
3152 1690 m
3133 1690 l
st
3152 1672 m
3133 1672 l
st
3152 1654 m
3133 1654 l
st
3152 1619 m
3133 1619 l
st
3152 1601 m
3133 1601 l
st
3152 1584 m
3133 1584 l
st
3152 1566 m
3133 1566 l
st
3152 1549 m
3133 1549 l
st
3152 1531 m
3133 1531 l
st
3152 1513 m
3133 1513 l
st
3152 1496 m
3133 1496 l
st
3152 1478 m
3133 1478 l
st
3152 1443 m
3133 1443 l
st
3152 1425 m
3133 1425 l
st
3152 1407 m
3133 1407 l
st
3152 1390 m
3133 1390 l
st
3152 1372 m
3133 1372 l
st
3152 1354 m
3133 1354 l
st
3152 1337 m
3133 1337 l
st
3152 1319 m
3133 1319 l
st
3152 1302 m
3133 1302 l
st
3152 1266 m
3133 1266 l
st
3152 1249 m
3133 1249 l
st
3152 1231 m
3133 1231 l
st
3152 1213 m
3133 1213 l
st
3152 1196 m
3133 1196 l
st
3152 1178 m
3133 1178 l
st
3152 1160 m
3133 1160 l
st
3152 1143 m
3133 1143 l
st
3152 1125 m
3133 1125 l
st
3152 1090 m
3133 1090 l
st
3152 1072 m
3133 1072 l
st
3152 1055 m
3133 1055 l
st
3152 1037 m
3133 1037 l
st
3152 1019 m
3133 1019 l
st
3152 1002 m
3133 1002 l
st
3152 984 m
3133 984 l
st
3152 966 m
3133 966 l
st
3152 949 m
3133 949 l
st
3152 913 m
3133 913 l
st
3152 896 m
3133 896 l
st
3152 878 m
3133 878 l
st
3152 861 m
3133 861 l
st
3152 843 m
3133 843 l
st
3152 825 m
3133 825 l
st
3152 808 m
3133 808 l
st
3152 790 m
3133 790 l
st
3152 772 m
3133 772 l
st
3152 737 m
3133 737 l
st
3152 719 m
3133 719 l
st
3152 702 m
3133 702 l
st
3152 684 m
3133 684 l
st
3152 666 m
3133 666 l
st
3152 649 m
3133 649 l
st
3152 631 m
3133 631 l
st
3152 614 m
3133 614 l
st
3152 596 m
3133 596 l
st
3152 561 m
3133 561 l
st
3152 543 m
3133 543 l
st
3152 525 m
3133 525 l
st
3152 508 m
3133 508 l
st
3152 490 m
3133 490 l
st
3152 472 m
3133 472 l
st
3152 455 m
3133 455 l
st
3152 437 m
3133 437 l
st
3152 419 m
3133 419 l
st
3152 384 m
3133 384 l
st
3152 367 m
3133 367 l
st
3152 349 m
3133 349 l
st
3152 331 m
3133 331 l
st
3152 314 m
3133 314 l
st
3152 296 m
3133 296 l
st
3152 278 m
3133 278 l
st
3152 261 m
3133 261 l
st
3152 243 m
3133 243 l
st
3152 208 m
3133 208 l
st
3152 190 m
3133 190 l
st
3152 172 m
3133 172 l
st
3152 155 m
3133 155 l
st
3152 137 m
3133 137 l
st
3152 120 m
3133 120 l
st
3152 102 m
3133 102 l
st
3152 84 m
3133 84 l
st
3152 67 m
3133 67 l
st
3152 2166 m
3114 2166 l
st
3152 1990 m
3114 1990 l
st
3152 1813 m
3114 1813 l
st
3152 1637 m
3114 1637 l
st
3152 1460 m
3114 1460 l
st
3152 1284 m
3114 1284 l
st
3152 1107 m
3114 1107 l
st
3152 931 m
3114 931 l
st
3152 755 m
3114 755 l
st
3152 578 m
3114 578 l
st
3152 402 m
3114 402 l
st
3152 225 m
3114 225 l
st
3152 49 m
3114 49 l
st
gs
gr
gs
gr
gs
1 -1 sc
/MC1_Arial 91 self 355 -2278 m
(0.0)[51 25 51 ] xs
1 -1 sc
gr
gs
gr
gs
gr
gs
1 -1 sc
/MC1_Arial 91 self 537 -2278 m
(0.2)[51 25 51 ] xs
1 -1 sc
gr
gs
gr
gs
gr
gs
1 -1 sc
/MC1_Arial 91 self 720 -2278 m
(0.4)[51 25 51 ] xs
1 -1 sc
gr
gs
gr
gs
gr
gs
1 -1 sc
/MC1_Arial 91 self 902 -2278 m
(0.6)[51 25 51 ] xs
1 -1 sc
gr
gs
gr
gs
gr
gs
1 -1 sc
/MC1_Arial 91 self 1084 -2278 m
(0.8)[51 25 51 ] xs
1 -1 sc
gr
gs
gr
gs
gr
gs
1 -1 sc
/MC1_Arial 91 self 1266 -2278 m
(1.0)[51 25 51 ] xs
1 -1 sc
gr
gs
gr
gs
gr
gs
1 -1 sc
/MC1_Arial 91 self 1449 -2278 m
(1.2)[51 25 51 ] xs
1 -1 sc
gr
gs
gr
gs
gr
gs
1 -1 sc
/MC1_Arial 91 self 1631 -2278 m
(1.4)[51 25 51 ] xs
1 -1 sc
gr
gs
gr
gs
gr
gs
1 -1 sc
/MC1_Arial 91 self 1813 -2278 m
(1.6)[51 25 51 ] xs
1 -1 sc
gr
gs
gr
gs
gr
gs
1 -1 sc
/MC1_Arial 91 self 1995 -2278 m
(1.8)[51 25 51 ] xs
1 -1 sc
gr
gs
gr
gs
gr
gs
1 -1 sc
/MC1_Arial 91 self 2178 -2278 m
(2.0)[51 25 51 ] xs
1 -1 sc
gr
gs
gr
gs
gr
gs
1 -1 sc
/MC1_Arial 91 self 2360 -2278 m
(2.2)[51 25 51 ] xs
1 -1 sc
gr
gs
gr
gs
gr
gs
1 -1 sc
/MC1_Arial 91 self 2542 -2278 m
(2.4)[51 25 51 ] xs
1 -1 sc
gr
gs
gr
gs
gr
gs
1 -1 sc
/MC1_Arial 91 self 2724 -2278 m
(2.6)[51 25 51 ] xs
1 -1 sc
gr
gs
gr
gs
gr
gs
1 -1 sc
/MC1_Arial 91 self 2907 -2278 m
(2.8)[51 25 51 ] xs
1 -1 sc
gr
gs
gr
gs
gr
gs
1 -1 sc
/MC1_Arial 91 self 3089 -2278 m
(3.0)[51 25 51 ] xs
1 -1 sc
gr
gs
gr
gs
gr
gs
1 -1 sc
/MC1_Arial 91 self 199 -2193 m
(0.00)[51 25 51 51 ] xs
1 -1 sc
gr
gs
gr
gs
gr
gs
1 -1 sc
/MC1_Arial 91 self 199 -2017 m
(0.01)[51 25 51 51 ] xs
1 -1 sc
gr
gs
gr
gs
gr
gs
1 -1 sc
/MC1_Arial 91 self 199 -1840 m
(0.02)[51 25 51 51 ] xs
1 -1 sc
gr
gs
gr
gs
gr
gs
1 -1 sc
/MC1_Arial 91 self 199 -1664 m
(0.03)[51 25 51 51 ] xs
1 -1 sc
gr
gs
gr
gs
gr
gs
1 -1 sc
/MC1_Arial 91 self 199 -1487 m
(0.04)[51 25 51 51 ] xs
1 -1 sc
gr
gs
gr
gs
gr
gs
1 -1 sc
/MC1_Arial 91 self 199 -1311 m
(0.05)[51 25 51 51 ] xs
1 -1 sc
gr
gs
gr
gs
gr
gs
1 -1 sc
/MC1_Arial 91 self 199 -1134 m
(0.06)[51 25 51 51 ] xs
1 -1 sc
gr
gs
gr
gs
gr
gs
1 -1 sc
/MC1_Arial 91 self 199 -958 m
(0.07)[51 25 51 51 ] xs
1 -1 sc
gr
gs
gr
gs
gr
gs
1 -1 sc
/MC1_Arial 91 self 199 -782 m
(0.08)[51 25 51 51 ] xs
1 -1 sc
gr
gs
gr
gs
gr
gs
1 -1 sc
/MC1_Arial 91 self 199 -605 m
(0.09)[51 25 51 51 ] xs
1 -1 sc
gr
gs
gr
gs
gr
gs
1 -1 sc
/MC1_Arial 91 self 199 -429 m
(0.10)[51 25 51 51 ] xs
1 -1 sc
gr
gs
gr
gs
gr
gs
1 -1 sc
/MC1_Arial 91 self 199 -252 m
(0.11)[51 25 51 51 ] xs
1 -1 sc
gr
gs
gr
gs
gr
gs
1 -1 sc
/MC1_Arial 91 self 199 -76 m
(0.12)[51 25 51 51 ] xs
1 -1 sc
gr
gs
gr
gs
gr
gs
gr
gs
gr
gs
gr
gs
gr
gs
gr
gs
gr
gs
gr
gs
gr
gs
gr
gs
gr
gs
gr
gs
gr
gs
gr
gs
gr
gs
gr
gs
gr
gs
gr
gs
gr
gs
gr
gs
gr
gs
gr
gs
gr
gs
gr
gs
gr
gs
gr
gs
gr
gs
gr
gs
gr
gs
gr
gs
gr
gs
gr
gs
pathproc 418 49 2735 2118 np rectpath
/eocl cland
np exec
gr
gs
pathproc 418 49 2735 2118 np rectpath
/eocl cland
np exec
gr
gs
pathproc 418 49 2735 2118 np rectpath
/eocl cland
np exec
464 448 m
503 436 m
516 433 l
3 sw
0 0 1 rgb
st
594 429 m
607 431 l
st
685 451 m
698 455 l
st
776 484 m
789 491 l
st
867 541 m
880 551 l
893 562 l
st
945 609 m
958 622 l
971 635 l
984 648 l
st
1036 708 m
1049 724 l
1062 741 l
1075 758 l
st
1128 835 m
1141 855 l
1154 875 l
1167 896 l
st
1219 981 m
1232 1003 l
1245 1025 l
1258 1047 l
st
1310 1137 m
1323 1159 l
1336 1181 l
1349 1203 l
st
1401 1291 m
1414 1313 l
1427 1335 l
1440 1356 l
st
1492 1440 m
1505 1460 l
1518 1480 l
1531 1500 l
st
1583 1575 m
1596 1593 l
1609 1610 l
1622 1628 l
st
1674 1693 m
1687 1708 l
1700 1723 l
1713 1737 l
st
1765 1792 m
1778 1804 l
1791 1817 l
1804 1829 l
st
1857 1875 m
1870 1885 l
1883 1895 l
st
1961 1950 m
1974 1958 l
st
2052 2000 m
2065 2006 l
st
2143 2039 m
2156 2044 l
st
2234 2070 m
2247 2074 l
st
2325 2093 m
2338 2096 l
st
2416 2111 m
2429 2113 l
st
2508 2125 m
2521 2126 l
st
2599 2135 m
2612 2136 l
st
2690 2142 m
2703 2143 l
st
2781 2148 m
2794 2149 l
st
2872 2152 m
2885 2153 l
st
2963 2155 m
2976 2156 l
st
3054 2158 m
3067 2158 l
st
3145 2160 m
3158 2160 l
st
np
464 448 23 0 360  a
cp
gs
eofi
gr
st
np
555 427 23 0 360  a
cp
gs
eofi
gr
st
np
646 440 23 0 360  a
cp
gs
eofi
gr
st
np
737 468 23 0 360  a
cp
gs
eofi
gr
st
np
828 513 23 0 360  a
cp
gs
eofi
gr
st
np
919 585 23 0 360  a
cp
gs
eofi
gr
st
np
1010 677 23 0 360  a
cp
gs
eofi
gr
st
np
1102 796 23 0 360  a
cp
gs
eofi
gr
st
np
1193 938 23 0 360  a
cp
gs
eofi
gr
st
np
1284 1092 23 0 360  a
cp
gs
eofi
gr
st
np
1375 1247 23 0 360  a
cp
gs
eofi
gr
st
np
1466 1399 23 0 360  a
cp
gs
eofi
gr
st
np
1557 1538 23 0 360  a
cp
gs
eofi
gr
st
np
1648 1661 23 0 360  a
cp
gs
eofi
gr
st
np
1739 1765 23 0 360  a
cp
gs
eofi
gr
st
np
1831 1853 23 0 360  a
cp
gs
eofi
gr
st
np
1922 1924 23 0 360  a
cp
gs
eofi
gr
st
np
2013 1980 23 0 360  a
cp
gs
eofi
gr
st
np
2104 2023 23 0 360  a
cp
gs
eofi
gr
st
np
2195 2058 23 0 360  a
cp
gs
eofi
gr
st
np
2286 2084 23 0 360  a
cp
gs
eofi
gr
st
np
2377 2104 23 0 360  a
cp
gs
eofi
gr
st
np
2469 2119 23 0 360  a
cp
gs
eofi
gr
st
np
2560 2131 23 0 360  a
cp
gs
eofi
gr
st
np
2651 2139 23 0 360  a
cp
gs
eofi
gr
st
np
2742 2146 23 0 360  a
cp
gs
eofi
gr
st
np
2833 2151 23 0 360  a
cp
gs
eofi
gr
st
np
2924 2154 23 0 360  a
cp
gs
eofi
gr
st
np
3015 2157 23 0 360  a
cp
gs
eofi
gr
st
np
3106 2159 23 0 360  a
cp
gs
eofi
gr
st
np
3198 2161 23 0 360  a
cp
gs
eofi
gr
st
gr
gs
pathproc 418 49 2735 2118 np rectpath
/eocl cland
np exec
464 429 m
464 426 l
3 sw
0 0 1 rgb
st
452 429 m
476 429 l
st
464 466 m
464 470 l
st
452 466 m
476 466 l
st
555 420 m
555 405 l
st
543 420 m
567 420 l
st
555 434 m
555 449 l
st
543 434 m
567 434 l
st
646 436 m
646 418 l
st
634 436 m
658 436 l
st
646 444 m
646 462 l
st
634 444 m
658 444 l
st
737 465 m
737 446 l
st
725 465 m
749 465 l
st
737 471 m
737 490 l
st
725 471 m
749 471 l
st
828 510 m
828 491 l
st
816 510 m
840 510 l
st
828 515 m
828 535 l
st
816 515 m
840 515 l
st
919 584 m
919 563 l
st
907 584 m
931 584 l
st
919 587 m
919 607 l
st
907 587 m
931 587 l
st
1010 675 m
1010 655 l
st
998 675 m
1022 675 l
st
1010 678 m
1010 699 l
st
998 678 m
1022 678 l
st
1102 795 m
1102 774 l
st
1090 795 m
1114 795 l
st
1102 797 m
1102 818 l
st
1090 797 m
1114 797 l
st
1193 937 m
1193 916 l
st
1181 937 m
1205 937 l
st
1193 939 m
1193 960 l
st
1181 939 m
1205 939 l
st
1284 1091 m
1284 1070 l
st
1272 1091 m
1296 1091 l
st
1284 1093 m
1284 1114 l
st
1272 1093 m
1296 1093 l
st
1375 1246 m
1375 1225 l
st
1363 1246 m
1387 1246 l
st
1375 1248 m
1375 1269 l
st
1363 1248 m
1387 1248 l
st
1466 1398 m
1466 1377 l
st
1454 1398 m
1478 1398 l
st
1466 1399 m
1466 1421 l
st
1454 1399 m
1478 1399 l
st
1557 1537 m
1557 1516 l
st
1545 1537 m
1569 1537 l
st
1557 1538 m
1557 1560 l
st
1545 1538 m
1569 1538 l
st
1648 1661 m
1648 1683 l
st
1636 1661 m
1660 1661 l
st
1648 1661 m
1648 1683 l
st
1636 1661 m
1660 1661 l
st
1739 1765 m
1739 1787 l
st
1727 1765 m
1751 1765 l
st
1739 1766 m
1739 1787 l
st
1727 1766 m
1751 1766 l
st
1831 1852 m
1831 1831 l
st
1819 1852 m
1843 1852 l
st
1831 1853 m
1831 1875 l
st
1819 1853 m
1843 1853 l
st
1922 1924 m
1922 1946 l
st
1910 1924 m
1934 1924 l
st
1922 1924 m
1922 1946 l
st
1910 1924 m
1934 1924 l
st
2013 1980 m
2013 2002 l
st
2001 1980 m
2025 1980 l
st
2013 1980 m
2013 2002 l
st
2001 1980 m
2025 1980 l
st
2104 2023 m
2104 2045 l
st
2092 2023 m
2116 2023 l
st
2104 2024 m
2104 2045 l
st
2092 2024 m
2116 2024 l
st
2195 2058 m
2195 2080 l
st
2183 2058 m
2207 2058 l
st
2195 2058 m
2195 2080 l
st
2183 2058 m
2207 2058 l
st
2286 2084 m
2286 2106 l
st
2274 2084 m
2298 2084 l
st
2286 2084 m
2286 2106 l
st
2274 2084 m
2298 2084 l
st
2377 2104 m
2377 2126 l
st
2365 2104 m
2389 2104 l
st
2377 2104 m
2377 2126 l
st
2365 2104 m
2389 2104 l
st
gr
gs
pathproc 418 49 2735 2118 np rectpath
/eocl cland
np exec
gr
gs
pathproc 418 49 2735 2118 np rectpath
/eocl cland
np exec
gr
gs
pathproc 418 49 2735 2118 np rectpath
/eocl cland
np exec
464 414 m
490 417 m
503 419 l
516 420 l
529 421 l
3 sw
0 1 1 rgb
st
581 424 m
594 424 l
607 425 l
620 426 l
st
672 433 m
685 436 l
698 440 l
711 444 l
st
763 466 m
776 472 l
789 479 l
802 487 l
st
854 523 m
867 533 l
880 544 l
893 555 l
st
945 602 m
958 614 l
971 627 l
984 640 l
st
1036 700 m
1049 717 l
1062 734 l
1075 752 l
st
1128 828 m
1141 847 l
1154 867 l
1167 887 l
st
1219 973 m
1232 995 l
1245 1018 l
1258 1041 l
1271 1063 l
1284 1086 l
st
1310 1131 m
1323 1153 l
1336 1175 l
1349 1197 l
st
1388 1265 m
1401 1288 l
1414 1310 l
1427 1333 l
1440 1355 l
st
1492 1440 m
1505 1460 l
1518 1480 l
1531 1499 l
st
1583 1574 m
1596 1592 l
1609 1609 l
1622 1626 l
st
1674 1692 m
1687 1707 l
1700 1722 l
1713 1736 l
st
1765 1791 m
1778 1803 l
1791 1816 l
1804 1828 l
st
1857 1874 m
1870 1885 l
1883 1895 l
1896 1905 l
st
1948 1941 m
1961 1949 l
1974 1957 l
1987 1965 l
st
2039 1993 m
2052 2000 l
2065 2006 l
2078 2012 l
st
2130 2035 m
2143 2040 l
2156 2045 l
2169 2049 l
st
2221 2066 m
2234 2070 l
2247 2074 l
2260 2078 l
st
2312 2091 m
2325 2094 l
2338 2097 l
2351 2099 l
st
2403 2109 m
2416 2111 l
2429 2113 l
2442 2115 l
st
2495 2123 m
2508 2125 l
2521 2126 l
2534 2128 l
st
2586 2134 m
2599 2135 l
2612 2136 l
2625 2138 l
st
2677 2142 m
2690 2143 l
2703 2144 l
2716 2144 l
st
2768 2148 m
2781 2148 l
2794 2149 l
2807 2150 l
st
2859 2152 m
2872 2153 l
2885 2153 l
2898 2154 l
st
2950 2156 m
2963 2156 l
2976 2156 l
2989 2157 l
st
3041 2158 m
3054 2158 l
3067 2158 l
3080 2159 l
st
3132 2160 m
3145 2160 l
3158 2160 l
3171 2160 l
st
442 414 m
464 392 l
486 414 l
464 436 l
cp
gs
eofi
gr
2 sw
st
533 423 m
555 401 l
577 423 l
555 445 l
cp
gs
eofi
gr
st
624 428 m
646 406 l
668 428 l
646 450 l
cp
gs
eofi
gr
st
715 454 m
737 432 l
759 454 l
737 476 l
cp
gs
eofi
gr
st
806 504 m
828 482 l
850 504 l
828 526 l
cp
gs
eofi
gr
st
897 578 m
919 556 l
941 578 l
919 600 l
cp
gs
eofi
gr
st
988 669 m
1010 647 l
1032 669 l
1010 691 l
cp
gs
eofi
gr
st
1080 790 m
1102 768 l
1124 790 l
1102 812 l
cp
gs
eofi
gr
st
1171 929 m
1193 907 l
1215 929 l
1193 951 l
cp
gs
eofi
gr
st
1262 1086 m
1284 1064 l
1306 1086 l
1284 1108 l
cp
gs
eofi
gr
st
1353 1242 m
1375 1220 l
1397 1242 l
1375 1264 l
cp
gs
eofi
gr
st
1444 1399 m
1466 1377 l
1488 1399 l
1466 1421 l
cp
gs
eofi
gr
st
1535 1537 m
1557 1515 l
1579 1537 l
1557 1559 l
cp
gs
eofi
gr
st
1626 1660 m
1648 1638 l
1670 1660 l
1648 1682 l
cp
gs
eofi
gr
st
1717 1764 m
1739 1742 l
1761 1764 l
1739 1786 l
cp
gs
eofi
gr
st
1809 1852 m
1831 1830 l
1853 1852 l
1831 1874 l
cp
gs
eofi
gr
st
1900 1924 m
1922 1902 l
1944 1924 l
1922 1946 l
cp
gs
eofi
gr
st
1991 1979 m
2013 1957 l
2035 1979 l
2013 2001 l
cp
gs
eofi
gr
st
2082 2024 m
2104 2002 l
2126 2024 l
2104 2046 l
cp
gs
eofi
gr
st
2173 2058 m
2195 2036 l
2217 2058 l
2195 2080 l
cp
gs
eofi
gr
st
2264 2085 m
2286 2063 l
2308 2085 l
2286 2107 l
cp
gs
eofi
gr
st
2355 2104 m
2377 2082 l
2399 2104 l
2377 2126 l
cp
gs
eofi
gr
st
2447 2119 m
2469 2097 l
2491 2119 l
2469 2141 l
cp
gs
eofi
gr
st
2538 2131 m
2560 2109 l
2582 2131 l
2560 2153 l
cp
gs
eofi
gr
st
2629 2140 m
2651 2118 l
2673 2140 l
2651 2162 l
cp
gs
eofi
gr
st
2720 2146 m
2742 2124 l
2764 2146 l
2742 2168 l
cp
gs
eofi
gr
st
2811 2151 m
2833 2129 l
2855 2151 l
2833 2173 l
cp
gs
eofi
gr
st
2902 2155 m
2924 2133 l
2946 2155 l
2924 2177 l
cp
gs
eofi
gr
st
2993 2157 m
3015 2135 l
3037 2157 l
3015 2179 l
cp
gs
eofi
gr
st
3084 2159 m
3106 2137 l
3128 2159 l
3106 2181 l
cp
gs
eofi
gr
st
3176 2161 m
3198 2139 l
3220 2161 l
3198 2183 l
cp
gs
eofi
gr
st
gr
gs
pathproc 418 49 2735 2118 np rectpath
/eocl cland
np exec
464 380 m
464 392 l
3 sw
0 1 1 rgb
st
447 380 m
481 380 l
st
464 448 m
464 436 l
st
447 448 m
481 448 l
st
555 410 m
555 401 l
st
538 410 m
572 410 l
st
555 436 m
555 445 l
st
538 436 m
572 436 l
st
646 421 m
646 406 l
st
629 421 m
663 421 l
st
646 436 m
646 450 l
st
629 436 m
663 436 l
st
737 448 m
737 432 l
st
720 448 m
754 448 l
st
737 459 m
737 476 l
st
720 459 m
754 459 l
st
828 500 m
828 482 l
st
811 500 m
845 500 l
st
828 508 m
828 526 l
st
811 508 m
845 508 l
st
919 574 m
919 556 l
st
902 574 m
936 574 l
st
919 581 m
919 600 l
st
902 581 m
936 581 l
st
1010 667 m
1010 647 l
st
993 667 m
1027 667 l
st
1010 672 m
1010 691 l
st
993 672 m
1027 672 l
st
1102 787 m
1102 768 l
st
1085 787 m
1119 787 l
st
1102 792 m
1102 812 l
st
1085 792 m
1119 792 l
st
1193 927 m
1193 907 l
st
1176 927 m
1210 927 l
st
1193 931 m
1193 951 l
st
1176 931 m
1210 931 l
st
1284 1084 m
1284 1064 l
st
1267 1084 m
1301 1084 l
st
1284 1087 m
1284 1108 l
st
1267 1087 m
1301 1087 l
st
1375 1241 m
1375 1220 l
st
1358 1241 m
1392 1241 l
st
1375 1244 m
1375 1264 l
st
1358 1244 m
1392 1244 l
st
1466 1398 m
1466 1377 l
st
1449 1398 m
1483 1398 l
st
1466 1400 m
1466 1421 l
st
1449 1400 m
1483 1400 l
st
1557 1536 m
1557 1515 l
st
1540 1536 m
1574 1536 l
st
1557 1538 m
1557 1559 l
st
1540 1538 m
1574 1538 l
st
1648 1659 m
1648 1638 l
st
1631 1659 m
1665 1659 l
st
1648 1661 m
1648 1682 l
st
1631 1661 m
1665 1661 l
st
1739 1764 m
1739 1786 l
st
1722 1764 m
1756 1764 l
st
1739 1765 m
1739 1786 l
st
1722 1765 m
1756 1765 l
st
1831 1851 m
1831 1830 l
st
1814 1851 m
1848 1851 l
st
1831 1853 m
1831 1874 l
st
1814 1853 m
1848 1853 l
st
1922 1923 m
1922 1902 l
st
1905 1923 m
1939 1923 l
st
1922 1924 m
1922 1946 l
st
1905 1924 m
1939 1924 l
st
2013 1979 m
2013 2001 l
st
1996 1979 m
2030 1979 l
st
2013 1980 m
2013 2001 l
st
1996 1980 m
2030 1980 l
st
2104 2024 m
2104 2046 l
st
2087 2024 m
2121 2024 l
st
2104 2024 m
2104 2046 l
st
2087 2024 m
2121 2024 l
st
2195 2058 m
2195 2080 l
st
2178 2058 m
2212 2058 l
st
2195 2058 m
2195 2080 l
st
2178 2058 m
2212 2058 l
st
2286 2084 m
2286 2063 l
st
2269 2084 m
2303 2084 l
st
2286 2085 m
2286 2107 l
st
2269 2085 m
2303 2085 l
st
2377 2104 m
2377 2126 l
st
2360 2104 m
2394 2104 l
st
2377 2105 m
2377 2126 l
st
2360 2105 m
2394 2105 l
st
2469 2119 m
2469 2141 l
st
2452 2119 m
2486 2119 l
st
2469 2120 m
2469 2141 l
st
2452 2120 m
2486 2120 l
st
2560 2131 m
2560 2153 l
st
2543 2131 m
2577 2131 l
st
2560 2131 m
2560 2153 l
st
2543 2131 m
2577 2131 l
st
2651 2140 m
2651 2162 l
st
2634 2140 m
2668 2140 l
st
2651 2140 m
2651 2162 l
st
2634 2140 m
2668 2140 l
st
gr
gs
pathproc 418 49 2735 2118 np rectpath
/eocl cland
np exec
464 1295 m
464 1274 l
3 sw
st
445 1295 m
483 1295 l
st
464 1313 m
464 1334 l
st
445 1313 m
483 1313 l
st
555 1290 m
555 1264 l
st
536 1290 m
574 1290 l
st
555 1297 m
555 1324 l
st
536 1297 m
574 1297 l
st
646 1298 m
646 1270 l
st
627 1298 m
665 1298 l
st
646 1302 m
646 1330 l
st
627 1302 m
665 1302 l
st
737 1313 m
737 1285 l
st
718 1313 m
756 1313 l
st
737 1316 m
737 1345 l
st
718 1316 m
756 1316 l
st
828 1336 m
828 1307 l
st
809 1336 m
847 1336 l
st
828 1338 m
828 1367 l
st
809 1338 m
847 1338 l
st
919 1373 m
919 1344 l
st
900 1373 m
938 1373 l
st
919 1375 m
919 1404 l
st
900 1375 m
938 1375 l
st
1010 1419 m
1010 1390 l
st
991 1419 m
1029 1419 l
st
1010 1420 m
1010 1450 l
st
991 1420 m
1029 1420 l
st
1102 1479 m
1102 1450 l
st
1083 1479 m
1121 1479 l
st
1102 1480 m
1102 1510 l
st
1083 1480 m
1121 1480 l
st
1193 1550 m
1193 1521 l
st
1174 1550 m
1212 1550 l
st
1193 1551 m
1193 1581 l
st
1174 1551 m
1212 1551 l
st
1284 1628 m
1284 1658 l
st
1265 1628 m
1303 1628 l
st
1284 1628 m
1284 1658 l
st
1265 1628 m
1303 1628 l
st
1375 1706 m
1375 1736 l
st
1356 1706 m
1394 1706 l
st
1375 1706 m
1375 1736 l
st
1356 1706 m
1394 1706 l
st
1466 1782 m
1466 1812 l
st
1447 1782 m
1485 1782 l
st
1466 1782 m
1466 1812 l
st
1447 1782 m
1485 1782 l
st
1557 1852 m
1557 1882 l
st
1538 1852 m
1576 1852 l
st
1557 1852 m
1557 1882 l
st
1538 1852 m
1576 1852 l
st
1648 1913 m
1648 1943 l
st
1629 1913 m
1667 1913 l
st
1648 1914 m
1648 1943 l
st
1629 1914 m
1667 1914 l
st
1739 1965 m
1739 1936 l
st
1720 1965 m
1758 1965 l
st
1739 1966 m
1739 1996 l
st
1720 1966 m
1758 1966 l
st
1831 2009 m
1831 2039 l
st
1812 2009 m
1850 2009 l
st
1831 2010 m
1831 2039 l
st
1812 2010 m
1850 2010 l
st
1922 2045 m
1922 2075 l
st
1903 2045 m
1941 2045 l
st
1922 2045 m
1922 2075 l
st
1903 2045 m
1941 2045 l
st
2013 2073 m
2013 2103 l
st
1994 2073 m
2032 2073 l
st
2013 2073 m
2013 2103 l
st
1994 2073 m
2032 2073 l
st
gr
gs
pathproc 418 49 2735 2118 np rectpath
/eocl cland
np exec
503 1298 m
515 1297 l
3 sw
st
594 1295 m
606 1296 l
st
685 1306 m
697 1308 l
st
776 1323 m
788 1326 l
st
867 1351 m
879 1357 l
st
958 1392 m
970 1398 l
st
1049 1444 m
1061 1451 l
st
1073 1460 m
1074 1460 l
st
1141 1509 m
1151 1517 l
st
1164 1528 m
1166 1529 l
st
1219 1573 m
1229 1581 l
st
1241 1592 m
1251 1600 l
st
1310 1650 m
1320 1659 l
st
1332 1670 m
1342 1678 l
st
1401 1728 m
1411 1736 l
st
1423 1747 m
1433 1755 l
st
1492 1803 m
1503 1811 l
st
1515 1821 m
1517 1822 l
st
1596 1879 m
1607 1887 l
st
1687 1937 m
1699 1943 l
st
1778 1985 m
1790 1991 l
st
1870 2025 m
1882 2031 l
st
1961 2058 m
1973 2062 l
st
2052 2083 m
2064 2086 l
st
2143 2103 m
2155 2105 l
st
2234 2118 m
2246 2120 l
st
2325 2130 m
2337 2131 l
st
2416 2139 m
2428 2140 l
st
2508 2145 m
2520 2146 l
st
2599 2150 m
2611 2151 l
st
2690 2154 m
2702 2155 l
st
2781 2157 m
2793 2157 l
st
2872 2159 m
2884 2159 l
st
2963 2161 m
2975 2161 l
st
3054 2162 m
3066 2163 l
st
3145 2163 m
3157 2164 l
st
490 1289 m
464 1335 l
437 1289 l
cp
gs
eofi
gr
st
581 1279 m
555 1325 l
528 1279 l
cp
gs
eofi
gr
st
672 1285 m
646 1331 l
619 1285 l
cp
gs
eofi
gr
st
763 1300 m
737 1346 l
710 1300 l
cp
gs
eofi
gr
st
854 1322 m
828 1368 l
801 1322 l
cp
gs
eofi
gr
st
945 1359 m
919 1405 l
892 1359 l
cp
gs
eofi
gr
st
1036 1405 m
1010 1451 l
983 1405 l
cp
gs
eofi
gr
st
1128 1465 m
1102 1511 l
1075 1465 l
cp
gs
eofi
gr
st
1219 1536 m
1193 1582 l
1166 1536 l
cp
gs
eofi
gr
st
1310 1613 m
1284 1659 l
1257 1613 l
cp
gs
eofi
gr
st
1401 1691 m
1375 1737 l
1348 1691 l
cp
gs
eofi
gr
st
1492 1767 m
1466 1813 l
1439 1767 l
cp
gs
eofi
gr
st
1583 1837 m
1557 1883 l
1530 1837 l
cp
gs
eofi
gr
st
1674 1898 m
1648 1944 l
1621 1898 l
cp
gs
eofi
gr
st
1765 1951 m
1739 1997 l
1712 1951 l
cp
gs
eofi
gr
st
1857 1994 m
1831 2040 l
1804 1994 l
cp
gs
eofi
gr
st
1948 2030 m
1922 2076 l
1895 2030 l
cp
gs
eofi
gr
st
2039 2058 m
2013 2104 l
1986 2058 l
cp
gs
eofi
gr
st
2130 2080 m
2104 2126 l
2077 2080 l
cp
gs
eofi
gr
st
2221 2097 m
2195 2143 l
2168 2097 l
cp
gs
eofi
gr
st
2312 2110 m
2286 2156 l
2259 2110 l
cp
gs
eofi
gr
st
2403 2120 m
2377 2166 l
2350 2120 l
cp
gs
eofi
gr
st
2495 2128 m
2469 2174 l
2442 2128 l
cp
gs
eofi
gr
st
2586 2133 m
2560 2179 l
2533 2133 l
cp
gs
eofi
gr
st
2677 2138 m
2651 2184 l
2624 2138 l
cp
gs
eofi
gr
st
2768 2141 m
2742 2187 l
2715 2141 l
cp
gs
eofi
gr
st
2859 2143 m
2833 2189 l
2806 2143 l
cp
gs
eofi
gr
st
2950 2145 m
2924 2191 l
2897 2145 l
cp
gs
eofi
gr
st
3041 2147 m
3015 2193 l
2988 2147 l
cp
gs
eofi
gr
st
3132 2148 m
3106 2194 l
3079 2148 l
cp
gs
eofi
gr
st
3224 2149 m
3198 2195 l
3171 2149 l
cp
gs
eofi
gr
st
gr
gs
pathproc 418 49 2735 2118 np rectpath
/eocl cland
np exec
464 1301 m
464 1281 l
3 sw
st
450 1301 m
478 1301 l
st
464 1320 m
464 1341 l
st
450 1320 m
478 1320 l
st
555 1296 m
555 1270 l
st
541 1296 m
569 1296 l
st
555 1303 m
555 1330 l
st
541 1303 m
569 1303 l
st
646 1304 m
646 1276 l
st
632 1304 m
660 1304 l
st
646 1309 m
646 1336 l
st
632 1309 m
660 1309 l
st
737 1319 m
737 1290 l
st
723 1319 m
751 1319 l
st
737 1322 m
737 1350 l
st
723 1322 m
751 1322 l
st
828 1341 m
828 1312 l
st
814 1341 m
842 1341 l
st
828 1343 m
828 1372 l
st
814 1343 m
842 1343 l
st
919 1378 m
919 1408 l
st
905 1378 m
933 1378 l
st
919 1379 m
919 1408 l
st
905 1379 m
933 1379 l
st
1010 1423 m
1010 1394 l
st
996 1423 m
1024 1423 l
st
1010 1424 m
1010 1454 l
st
996 1424 m
1024 1424 l
st
1102 1482 m
1102 1453 l
st
1088 1482 m
1116 1482 l
st
1102 1483 m
1102 1513 l
st
1088 1483 m
1116 1483 l
st
1193 1553 m
1193 1583 l
st
1179 1553 m
1207 1553 l
st
1193 1554 m
1193 1583 l
st
1179 1554 m
1207 1554 l
st
1284 1630 m
1284 1660 l
st
1270 1630 m
1298 1630 l
st
1284 1630 m
1284 1660 l
st
1270 1630 m
1298 1630 l
st
1375 1707 m
1375 1737 l
st
1361 1707 m
1389 1707 l
st
1375 1708 m
1375 1737 l
st
1361 1708 m
1389 1708 l
st
1466 1783 m
1466 1813 l
st
1452 1783 m
1480 1783 l
st
1466 1783 m
1466 1813 l
st
1452 1783 m
1480 1783 l
st
1557 1852 m
1557 1882 l
st
1543 1852 m
1571 1852 l
st
1557 1853 m
1557 1882 l
st
1543 1853 m
1571 1853 l
st
1648 1914 m
1648 1944 l
st
1634 1914 m
1662 1914 l
st
1648 1914 m
1648 1944 l
st
1634 1914 m
1662 1914 l
st
1739 1966 m
1739 1996 l
st
1725 1966 m
1753 1966 l
st
1739 1966 m
1739 1996 l
st
1725 1966 m
1753 1966 l
st
1831 2009 m
1831 2039 l
st
1817 2009 m
1845 2009 l
st
1831 2010 m
1831 2039 l
st
1817 2010 m
1845 2010 l
st
1922 2045 m
1922 2075 l
st
1908 2045 m
1936 2045 l
st
1922 2045 m
1922 2075 l
st
1908 2045 m
1936 2045 l
st
2013 2073 m
2013 2103 l
st
1999 2073 m
2027 2073 l
st
2013 2073 m
2013 2103 l
st
1999 2073 m
2027 2073 l
st
gr
gs
pathproc 418 49 2735 2118 np rectpath
/eocl cland
np exec
503 1305 m
506 1305 l
3 sw
st
594 1301 m
597 1301 l
st
685 1311 m
688 1311 l
st
776 1328 m
779 1329 l
st
867 1356 m
870 1357 l
st
958 1396 m
961 1398 l
st
1049 1447 m
1052 1449 l
st
1064 1457 m
1067 1459 l
st
1141 1512 m
1144 1514 l
st
1155 1523 m
1158 1525 l
st
1219 1575 m
1222 1578 l
st
1233 1587 m
1235 1589 l
st
1246 1598 m
1248 1600 l
st
1310 1652 m
1313 1655 l
st
1324 1664 m
1326 1666 l
st
1337 1675 m
1339 1677 l
st
1401 1729 m
1404 1732 l
st
1415 1741 m
1417 1743 l
st
1428 1752 m
1430 1754 l
st
1505 1813 m
1508 1815 l
st
1596 1880 m
1599 1882 l
st
1687 1937 m
1690 1939 l
st
1778 1985 m
1781 1986 l
st
1870 2025 m
1873 2026 l
st
1961 2058 m
1964 2059 l
st
2052 2083 m
2055 2084 l
st
2143 2103 m
2146 2103 l
st
2234 2118 m
2237 2118 l
st
2325 2130 m
2328 2130 l
st
2416 2139 m
2419 2139 l
st
2508 2145 m
2511 2145 l
st
2599 2150 m
2602 2150 l
st
2690 2154 m
2693 2154 l
st
2781 2157 m
2784 2157 l
st
2872 2159 m
2875 2159 l
st
2963 2161 m
2966 2161 l
st
3054 2162 m
3057 2162 l
st
3145 2163 m
3148 2163 l
st
464 1280 m
490 1326 l
437 1326 l
cp
gs
eofi
gr
st
555 1269 m
581 1315 l
528 1315 l
cp
gs
eofi
gr
st
646 1275 m
672 1321 l
619 1321 l
cp
gs
eofi
gr
st
737 1289 m
763 1335 l
710 1335 l
cp
gs
eofi
gr
st
828 1311 m
854 1357 l
801 1357 l
cp
gs
eofi
gr
st
919 1347 m
945 1393 l
892 1393 l
cp
gs
eofi
gr
st
1010 1393 m
1036 1439 l
983 1439 l
cp
gs
eofi
gr
st
1102 1452 m
1128 1498 l
1075 1498 l
cp
gs
eofi
gr
st
1193 1522 m
1219 1568 l
1166 1568 l
cp
gs
eofi
gr
st
1284 1599 m
1310 1645 l
1257 1645 l
cp
gs
eofi
gr
st
1375 1676 m
1401 1722 l
1348 1722 l
cp
gs
eofi
gr
st
1466 1752 m
1492 1798 l
1439 1798 l
cp
gs
eofi
gr
st
1557 1821 m
1583 1867 l
1530 1867 l
cp
gs
eofi
gr
st
1648 1883 m
1674 1929 l
1621 1929 l
cp
gs
eofi
gr
st
1739 1935 m
1765 1981 l
1712 1981 l
cp
gs
eofi
gr
st
1831 1978 m
1857 2024 l
1804 2024 l
cp
gs
eofi
gr
st
1922 2014 m
1948 2060 l
1895 2060 l
cp
gs
eofi
gr
st
2013 2042 m
2039 2088 l
1986 2088 l
cp
gs
eofi
gr
st
2104 2064 m
2130 2110 l
2077 2110 l
cp
gs
eofi
gr
st
2195 2081 m
2221 2127 l
2168 2127 l
cp
gs
eofi
gr
st
2286 2094 m
2312 2140 l
2259 2140 l
cp
gs
eofi
gr
st
2377 2104 m
2403 2150 l
2350 2150 l
cp
gs
eofi
gr
st
2469 2112 m
2495 2158 l
2442 2158 l
cp
gs
eofi
gr
st
2560 2117 m
2586 2163 l
2533 2163 l
cp
gs
eofi
gr
st
2651 2122 m
2677 2168 l
2624 2168 l
cp
gs
eofi
gr
st
2742 2125 m
2768 2171 l
2715 2171 l
cp
gs
eofi
gr
st
2833 2127 m
2859 2173 l
2806 2173 l
cp
gs
eofi
gr
st
2924 2129 m
2950 2175 l
2897 2175 l
cp
gs
eofi
gr
st
3015 2131 m
3041 2177 l
2988 2177 l
cp
gs
eofi
gr
st
3106 2132 m
3132 2178 l
3079 2178 l
cp
gs
eofi
gr
st
3198 2132 m
3224 2178 l
3171 2178 l
cp
gs
eofi
gr
st
gr
gs
pathproc 418 49 2735 2118 np rectpath
/eocl cland
np exec
gr
gs
pathproc 418 49 2735 2118 np rectpath
/eocl cland
np exec
gr
gs
pathproc 418 49 2735 2118 np rectpath
/eocl cland
np exec
gr
gs
pathproc 418 49 2735 2118 np rectpath
/eocl cland
np exec
gr
gs
gs
1 -1 sc
104 -1794 tr
90 ro
/MC2_Arial 101 self 0 0 m
(One-particle number density)[79 56 56 34 56 56 34 28 22 51 22 56 28 56 56 84 56 56 34 28 56 56 56 51 22 28 51 ] xs
1 -1 sc
gr
gs
1 -1 sc
104 -526 tr
90 ro
/MC3_Symbol 101 self 0 0 m
/s61472 25 xgls
1 -1 sc
gr
gs
1 -1 sc
104 -501 tr
90 ro
/MC3_Symbol 101 self 0 0 m
(\()[34 ] xs
1 -1 sc
gr
gs
1 -1 sc
104 -467 tr
90 ro
/MC2_Arial 101 self 0 0 m
(fm)[28 84 ] xs
1 -1 sc
gr
gs
1 -1 sc
55 -355 tr
90 ro
/MC2_Arial 61 self 0 0 m
(-3)[20 34 ] xs
1 -1 sc
gr
gs
1 -1 sc
104 -301 tr
90 ro
/MC3_Symbol 101 self 0 0 m
(\))[34 ] xs
1 -1 sc
gr
gr
gs
1 -1 sc
/MC1_Arial 101 self 1664 -2438 m
(r \(fm\))[34 28 34 28 85 34 ] xs
1 -1 sc
gr
gs
gs
gr
gs
gs
2025 416 m
2108 416 l
3 sw
0 0 1 rgb
st
2168 416 m
2251 416 l
st
gr
np
2138 417 22 0 360  a
cp
gs
0 0 1 rgb
eofi
gr
3 sw
0 0 1 rgb
st
gr
1 -1 sc
/MC1_Arial 101 self 2251 -451 m
( )[28 ] xs
1 -1 sc
1 -1 sc
/MC4_Symbol 101 self 2279 -451 m
/s61554 55 xgls
/s61472 25 xgls
1 -1 sc
1 -1 sc
/MC1_Arial 101 self 2359 -451 m
(@ )[103 28 ] xs
1 -1 sc
1 -1 sc
/MC4_Symbol 101 self 2490 -451 m
/s61556 42 xgls
/s61472 25 xgls
/s61501 55 xgls
1 -1 sc
1 -1 sc
0 0 1 rgb
2612 -451 m
/s61472 25 xgls
1 -1 sc
1 -1 sc
0 0 0 rgb
/MC1_Arial 101 self 2637 -451 m
(0.2 MeV)[56 28 56 28 83 56 67 ] xs
1 -1 sc
1 -1 sc
/MC1_Arial 61 self 3011 -402 m
(-1)[20 34 ] xs
1 -1 sc
gs
gr
gs
gs
2025 555 m
2112 555 l
3 sw
0 1 1 rgb
st
2164 555 m
2251 555 l
st
gr
2116 556 m
2138 534 l
2160 556 l
2138 578 l
cp
gs
0 1 1 rgb
eofi
gr
2 sw
0 1 1 rgb
st
gr
1 -1 sc
/MC1_Arial 101 self 2251 -590 m
( )[28 ] xs
1 -1 sc
1 -1 sc
/MC4_Symbol 101 self 2279 -590 m
/s61554 55 xgls
1 -1 sc
1 -1 sc
/MC1_Arial 101 self 2334 -590 m
( @ )[28 103 28 ] xs
1 -1 sc
1 -1 sc
/MC4_Symbol 101 self 2493 -590 m
/s61556 42 xgls
/s61472 25 xgls
/s61501 55 xgls
/s61472 25 xgls
1 -1 sc
1 -1 sc
/MC1_Arial 101 self 2640 -590 m
(0.3 MeV)[56 28 56 28 83 56 67 ] xs
1 -1 sc
1 -1 sc
/MC1_Arial 61 self 3014 -541 m
(-1)[20 34 ] xs
1 -1 sc
1 -1 sc
/MC1_Arial 101 self 2025 -714 m
(     )[28 28 28 28 28 ] xs
1 -1 sc
gs
gr
gs
gs
2025 815 m
2038 815 l
3 sw
st
2053 815 m
2066 815 l
st
2081 815 m
2094 815 l
st
2168 815 m
2181 815 l
st
2196 815 m
2209 815 l
st
2224 815 m
2237 815 l
st
gr
2163 801 m
2138 846 l
2112 801 l
cp
gs
eofi
gr
3 sw
st
gr
1 -1 sc
2251 -850 m
( )[28 ] xs
1 -1 sc
1 -1 sc
/MC4_Symbol 101 self 2279 -850 m
/s61554 55 xgls
1 -1 sc
1 -1 sc
/MC1_Arial 61 self 2334 -885 m
(n)[34 ] xs
1 -1 sc
gs
gr
gs
gs
2025 980 m
2028 980 l
3 sw
st
2042 980 m
2045 980 l
st
2059 980 m
2062 980 l
st
2076 980 m
2079 980 l
st
2093 980 m
2096 980 l
st
2168 980 m
2171 980 l
st
2185 980 m
2188 980 l
st
2202 980 m
2205 980 l
st
2219 980 m
2222 980 l
st
2236 980 m
2239 980 l
st
gr
2138 951 m
2163 996 l
2112 996 l
cp
gs
eofi
gr
3 sw
st
gr
1 -1 sc
/MC1_Arial 101 self 2251 -1015 m
( )[28 ] xs
1 -1 sc
1 -1 sc
/MC4_Symbol 101 self 2279 -1015 m
/s61554 55 xgls
1 -1 sc
1 -1 sc
/MC1_Arial 61 self 2334 -1050 m
(p)[34 ] xs
1 -1 sc
gr
gs
1 -1 sc
/MC1_Arial 61 self 2900 -182 m
(4)[34 ] xs
1 -1 sc
1 -1 sc
/MC1_Arial 101 self 2934 -231 m
(He)[73 56 ] xs
1 -1 sc
gr
gr
Save0 restore end
showpage
%%EOF
