%!PS-Adobe-3.0 EPSF-3.0
%%BoundingBox: 0 0 842 595
%%LanguageLevel: 2
%%Creator: OriginLab Corporation
%%Title: (C:\Users\Rong\Desktop\energyN2LO.eps)
%%CreationDate: Thu Jul 16 19:37:04 2020
%%EndComments

/OriginLab::PSL1 128 dict dup begin def
/Save0 save def
%%BeginResource: procset OriginLab::PSL1
/wd{1 index where{pop pop pop}{bind def}ifelse}bind def
/setcmykcolor{1 sub 4 1 roll 3{3 index add neg dup 0 lt{pop 0}if 3 1 roll}repeat setrgbcolor pop}wd
/selectfont{dup type/arraytype eq{exch findfont exch makefont setfont}{exch findfont exch scalefont setfont}ifelse}wd
/xshow{1 index length 0 le{}{currentpoint exch 3 index length 1 sub 0 exch 1 exch{dup 5 index exch 1 getinterval show 3 index exch get add 2 copy exch moveto}for pop pop}ifelse pop pop}wd
/glyphshow{matrix currentmatrix exch currentfont dup/FontMatrix get concat currentpoint translate
 dup/Metrics get 2 index get 0 4 2 roll gsave/CharProcs get exch 2 copy known not{pop/.notdef}if
 get exec fill grestore moveto setmatrix}wd
/grayimage/image load def/rgbtogray{cvx exec dup length 3 idiv 1 sub 0 exch 1 exch{dup 3 mul dup 3 index exch get 255 div .3 mul exch
 1 add dup 4 index exch get 255 div .59 mul exch 1 add 4 index exch get 255 div .11 mul add add
 255 mul dup 255 gt{255}if round cvi 2 index 3 1 roll put}for dup length 3 idiv 0 exch getinterval}bind def
/colorimage{0 setgray pop pop cvlit/rgbtogray cvx 2 packedarray cvx grayimage}wd
/bd{bind def}bind def/ld{load def}bd/ed{exch def}bd/xd{cvx def}bd
/np/newpath ld/a/arc ld/m/moveto ld/l/lineto ld/c/curveto ld/rm/rmoveto ld/rl/rlineto ld/rc/rcurveto ld/cp/closepath ld/cpt/currentpoint ld
/tr/translate ld/sc/scale ld/ro/rotate ld/t/transform ld/it/itransform ld/dt/dtransform ld/idt/idtransform ld
/mtx/matrix ld/cmtx/currentmatrix ld/dmtx/defaultmatrix ld/smtx/setmatrix ld/catmtx/concatmatrix ld
/sw/setlinewidth ld/scap/setlinecap ld/sj/setlinejoin ld/sm/setmiterlimit ld/sd/setdash ld/rgb/setrgbcolor ld/crgb/currentrgbcolor ld/cmyk/setcmykcolor ld/gs/gsave ld/gr/grestore ld
/st/stroke ld/fi/fill ld/eofi/eofill ld/cl/clip ld/eocl/eoclip ld
/df/definefont ld/ff/findfont ld/sf/setfont ld/scf/scalefont ld/self/selectfont ld/cf/currentfont ld
/s/show ld/xs/xshow ld/gls/glyphshow ld/xgls{cpt 3 1 roll add exch 3 -1 roll gls m}bd
/cd/currentdict ld/i/index ld
/DrawBox{4 2 roll m 1 index 0 rl 0 exch rl neg 0 rl cp}bd
/plus.re { 6 { 3 index } repeat moveto 0 exch rlineto 0 rlineto pop pop neg 0 exch rlineto pop lineto closepath } def
/DrawBcc{4 2 roll m 2 copy 0 lt exch 0 lt xor{dup 0 exch rl exch 0 rl neg 0 exch rl}{exch dup 0 rl exch 0 exch rl neg 0 rl}ifelse cp}bd
/rectline{dup type/arraytype eq{dup length 0 exch 4 exch 4 sub{0 1 3{3 copy add get 4 1 roll pop}for pop 5 1 roll DrawBox}for pop}{DrawBox}ifelse}bd
/rectpath{dup type/arraytype eq{dup length 0 exch 4 exch 4 sub{0 1 3{3 copy add get 4 1 roll pop}for pop 5 1 roll DrawBcc}for pop}{DrawBcc}ifelse}bd
/pathproc{[{/m cvx}{/l cvx}{/c cvx}{/cp cvx}pathforall]cvx}bd
/L1img/image ld/L1idx[{0}
 {dup 7 and 3 1 roll -3 bitshift get exch 7 sub 1 mul bitshift  1 and}bind 1 index dup
 {dup 1 and 3 1 roll -1 bitshift get exch 1 sub 4 mul bitshift 15 and}bind 1 index dup dup
 {get}bind]def
/image{dup type/dicttype eq {dup/ImgCS get 0 get/Indexed eq}{false}ifelse
 {begin Width Height 8 ImageMatrix {rgb_string rgb_lookup
 cd/DataSource get dup type/filetype eq
 {mystring readstring pop}{exec}ifelse
 dup length 0 ne
 {L1idx BitsPerComponent get 0 1 Width 1 sub
 {3 copy exch exec exch 3 mul exch
 3 mul dup 5 index exch get exch 1 add dup 6 index exch get exch 1 add 6 index exch get
 7 index exch 4 index 2 add exch put 6 index exch 3 index 1 add exch put 5 index exch 2 index exch put pop
 }for pop pop pop }{pop pop pop ()}ifelse }false 3 colorimage end} {dup type/dicttype eq
 {{dup mark exch L1img pop pop}stopped{cleartomark begin Width Height BitsPerComponent ImageMatrix
 {cd/DataSource get dup type/filetype eq {mystring readstring pop}{exec}ifelse
 }false 3 colorimage end} if}{L1img}ifelse}ifelse
 }bd
/L1imgmask/imagemask ld/imagemask{dup type/dicttype eq
 {{dup mark exch L1imgmask pop pop}stopped {cleartomark begin Width Height polarityflag ImageMatrix
 {cd/DataSource get dup type/filetype eq {mystring readstring pop}{exec}ifelse
 }L1imgmask end}if}{L1imgmask}ifelse
 }bd
% Gradient function
/GradientStep 1 150 div def
/GradientStartRGB { /R1 exch def /G1 exch def /B1 exch def } def
/GradientEndRGB { /R2 exch def /G2 exch def /B2 exch def
/GradientSteps GradientLength GradientStep div def
/GradientRStep R2 R1 sub GradientSteps div def
/GradientGStep G2 G1 sub GradientSteps div def
/GradientBStep B2 B1 sub GradientSteps div def
} def
/GradientStepRGB { /R1 R1 GradientRStep add def
/G1 G1 GradientGStep add def
/B1 B1 GradientBStep add def
R1 G1 B1 setrgbcolor
} def
%%EndResource
/rectclip{np rectpath clip np}wd
/rectfill{gs np rectpath fi gr}wd
/rectstroke{gs np dup type/arraytype eq{dup length 6 eq}{false}ifelse{1 index type/arraytype eq{exch}{5 1 roll}ifelse rectline concat st}{rectline st}ifelse gr}wd
%%BeginResource: procset OriginLab::Image
/OriginLab::Image 32 dict dup begin
/BinProc{[currentfile mystring /readstring cvx /pop cvx] cvx bind}bd
/HexProc{[currentfile mystring /readhexstring cvx /pop cvx] cvx bind}bd
/Ascii85Proc{currentfile /ASCII85Decode filter}bd
/LZWA85{currentfile /ASCII85Decode filter /LZWDecode filter}bd
/ImgProcArray[/BinProc /HexProc /Ascii85Proc /LZWA85]def
/ImgDict{/ImgDict 16 dict def ImgDict dup begin /ImageType 1 def /MultipleDataSource false def end}bd
/L2Dec{{[1 0]}{[0 1]}ifelse}bd
/BegImg{ /Img_sv save def
 /ImgDir ed ImgProcArray exch get /ImgProc exch ld
 dup /polarityflag ed L2Dec /polarity ed /smoothflag ed
 tr /dx 2 index def /dy 1 index abs def sc
 string /mystring ed /bpc ed /ih ed /iw ed
 }bd
/EndImg {Img_sv restore}bd
/DoXImg{ /rgb_lookup ed /hival ed ImgDict dup begin
 [/Indexed /DeviceRGB hival rgb_lookup] /L1img where{pop/ImgCS ed}{setcolorspace}ifelse
 /rgb_string iw 3 mul string def
 /Width iw def
 /Height ih def
 /Decode [0 1 bpc{2 mul}repeat 1 sub] def
 /ImageMatrix
  ImgDir 0 eq{[iw 0 0 ih 0 0]}if
  ImgDir 1 eq{[iw neg 0 0 ih iw 0]}if
  ImgDir 2 eq{[iw 0 0 ih neg 0 ih]}if
  ImgDir 3 eq{[iw neg 0 0 ih neg iw ih]}if
  def
 /DataSource ImgProc def
 /BitsPerComponent bpc def
 /Interpolate smoothflag def
 end image}bd
/DoImg{ ImgDict dup begin
 [/DeviceRGB] /L1img where{pop/ImgCS ed}{setcolorspace}ifelse
 /rgb_string iw 3 mul string def
 /Width iw def
 /Height ih def
 /Decode [0 1 0 1 0 1] def
 /ImageMatrix
  ImgDir 0 eq{[iw 0 0 ih 0 0]}if
  ImgDir 1 eq{[iw neg 0 0 ih iw 0]}if
  ImgDir 2 eq{[iw 0 0 ih neg 0 ih]}if
  ImgDir 3 eq{[iw neg 0 0 ih neg iw ih]}if
  def
 /DataSource ImgProc def
 /BitsPerComponent 8 def
 /Interpolate smoothflag def
 end image}bd
end def
%%EndResource
/initmtx mtx cmtx def
%%BeginFont: /MC1_Arial
12 dict begin
/FontInfo 8 dict dup begin
/ItalicAngle 0 def
/UnderlinePosition -217.00 def
/UnderlineThickness 150.00 def
/StrikeoutPosition 530.00 def
/StrikeoutThickness 102.00 def
/isFixedPitch false def
end readonly def
/FontName /MC1_Arial def
/FontType 3 def
/FontMatrix [1 2048 div 0 0 1 2048 div 0 0] def
/FontBBox [-1361 -665 4096 2129] def
/Encoding 256 array def 0 1 255{Encoding exch/.notdef put}for
Encoding 32/s32 put
Encoding 40/s40 put
Encoding 41/s41 put
Encoding 46/s46 put
Encoding 48/s48 put
Encoding 49/s49 put
Encoding 50/s50 put
Encoding 51/s51 put
Encoding 52/s52 put
Encoding 53/s53 put
Encoding 54/s54 put
Encoding 55/s55 put
Encoding 56/s56 put
Encoding 57/s57 put
Encoding 61/s61 put
Encoding 65/s65 put
Encoding 67/s67 put
Encoding 68/s68 put
Encoding 73/s73 put
Encoding 77/s77 put
Encoding 78/s78 put
Encoding 80/s80 put
Encoding 102/s102 put
Encoding 109/s109 put
Encoding 114/s114 put
/BoundingBoxes 26 dict def
BoundingBoxes begin
/s32 [0 -434 569 1854] def
/s40 [0 -434 682 1854] def
/s41 [0 -434 682 1854] def
/s46 [0 -434 569 1854] def
/s48 [0 -434 1139 1854] def
/s49 [0 -434 1139 1854] def
/s50 [0 -434 1139 1854] def
/s51 [0 -434 1139 1854] def
/s52 [0 -434 1139 1854] def
/s53 [0 -434 1139 1854] def
/s54 [0 -434 1139 1854] def
/s55 [0 -434 1139 1854] def
/s56 [0 -434 1139 1854] def
/s57 [0 -434 1139 1854] def
/s61 [0 -434 1196 1854] def
/s65 [-3 -434 1366 1854] def
/s67 [0 -434 1479 1854] def
/s68 [0 -434 1479 1854] def
/s73 [0 -434 569 1854] def
/s77 [0 -434 1706 1854] def
/s78 [0 -434 1479 1854] def
/s80 [0 -434 1366 1854] def
/s102 [0 -434 569 1854] def
/s109 [0 -434 1706 1854] def
/s114 [0 -434 682 1854] def
end
/Metrics 26 dict def
 Metrics begin
/s32 569 def
/s40 682 def
/s41 682 def
/s46 569 def
/s48 1139 def
/s49 1139 def
/s50 1139 def
/s51 1139 def
/s52 1139 def
/s53 1139 def
/s54 1139 def
/s55 1139 def
/s56 1139 def
/s57 1139 def
/s61 1196 def
/s65 1366 def
/s67 1479 def
/s68 1479 def
/s73 569 def
/s77 1706 def
/s78 1479 def
/s80 1366 def
/s102 569 def
/s109 1706 def
/s114 682 def
end
/CharProcs 26 dict def
CharProcs begin
/.notdef {} def
/s40 {
479 -431 m
379.67 -305.67 295.67 -159 227 9 c
158.33 177 124 351 124 531 c
124 689.67 149.67 841.67 201 987 c
261 1155.67 353.67 1323.67 479 1491 c
608 1491 479 1491 608 1491 c
527.33 1352.33 474 1253.33 448 1194 c
407.33 1102 375.33 1006 352 906 c
323.33 781.33 309 656 309 530 c
309 209.33 408.67 -111 608 -431 c
479 -431 608 -431 479 -431 c
closepath } bind def
/s41 {
253 -431 m
124 -431 253 -431 124 -431 c
323.33 -111 423 209.33 423 530 c
423 655.33 408.67 779.67 380 903 c
357.33 1003 325.67 1099 285 1191 c
259 1251 205.33 1351 124 1491 c
253 1491 124 1491 253 1491 c
378.33 1323.67 471 1155.67 531 987 c
582.33 841.67 608 689.67 608 531 c
608 351 573.5 177 504.5 9 c
435.5 -159 351.67 -305.67 253 -431 c
closepath } bind def
/s46 {
186 0 m
186 205 186 0 186 205 c
391 205 186 205 391 205 c
391 0 391 205 391 0 c
186 0 391 0 186 0 c
closepath } bind def
/s48 {
85 723 m
85 896.33 102.83 1035.83 138.5 1141.5 c
174.17 1247.17 227.17 1328.67 297.5 1386 c
367.83 1443.33 456.33 1472 563 1472 c
641.67 1472 710.67 1456.17 770 1424.5 c
829.33 1392.83 878.33 1347.17 917 1287.5 c
955.67 1227.83 986 1155.17 1008 1069.5 c
1030 983.83 1041 868.33 1041 723 c
1041 551 1023.33 412.17 988 306.5 c
952.67 200.83 899.83 119.17 829.5 61.5 c
759.17 3.83 670.33 -25 563 -25 c
421.67 -25 310.67 25.67 230 127 c
133.33 249 85 447.67 85 723 c
closepath 270 723 m
270 482.33 298.17 322.17 354.5 242.5 c
410.83 162.83 480.33 123 563 123 c
645.67 123 715.17 163 771.5 243 c
827.83 323 856 483 856 723 c
856 964.33 827.83 1124.67 771.5 1204 c
715.17 1283.33 645 1323 561 1323 c
478.33 1323 412.33 1288 363 1218 c
301 1128.67 270 963.67 270 723 c
closepath } bind def
/s49 {
763 0 m
583 0 763 0 583 0 c
583 1147 583 0 583 1147 c
539.67 1105.67 482.83 1064.33 412.5 1023 c
342.17 981.67 279 950.67 223 930 c
223 1104 223 930 223 1104 c
323.67 1151.33 411.67 1208.67 487 1276 c
562.33 1343.33 615.67 1408.67 647 1472 c
763 1472 647 1472 763 1472 c
763 0 763 1472 763 0 c
closepath } bind def
/s50 {
1031 173 m
1031 0 1031 173 1031 0 c
62 0 1031 0 62 0 c
60.67 43.33 67.67 85 83 125 c
107.67 191 147.17 256 201.5 320 c
255.83 384 334.33 458 437 542 c
596.33 672.67 704 776.17 760 852.5 c
816 928.83 844 1001 844 1069 c
844 1140.33 818.5 1200.5 767.5 1249.5 c
716.5 1298.5 650 1323 568 1323 c
481.33 1323 412 1297 360 1245 c
308 1193 281.67 1121 281 1029 c
96 1048 281 1029 96 1048 c
108.67 1186 156.33 1291.17 239 1363.5 c
321.67 1435.83 432.67 1472 572 1472 c
712.67 1472 824 1433 906 1355 c
988 1277 1029 1180.33 1029 1065 c
1029 1006.33 1017 948.67 993 892 c
969 835.33 929.17 775.67 873.5 713 c
817.83 650.33 725.33 564.33 596 455 c
488 364.33 418.67 302.83 388 270.5 c
357.33 238.17 332 205.67 312 173 c
1031 173 312 173 1031 173 c
closepath } bind def
/s51 {
86 387 m
266 411 86 387 266 411 c
286.67 309 321.83 235.5 371.5 190.5 c
421.17 145.5 481.67 123 553 123 c
637.67 123 709.17 152.33 767.5 211 c
825.83 269.67 855 342.33 855 429 c
855 511.67 828 579.83 774 633.5 c
720 687.17 651.33 714 568 714 c
534 714 491.67 707.33 441 694 c
461 852 441 694 461 852 c
473 850.67 482.67 850 490 850 c
566.67 850 635.67 870 697 910 c
758.33 950 789 1011.67 789 1095 c
789 1161 766.67 1215.67 722 1259 c
677.33 1302.33 619.67 1324 549 1324 c
479 1324 420.67 1302 374 1258 c
327.33 1214 297.33 1148 284 1060 c
104 1092 284 1060 104 1092 c
126 1212.67 176 1306.17 254 1372.5 c
332 1438.83 429 1472 545 1472 c
625 1472 698.67 1454.83 766 1420.5 c
833.33 1386.17 884.83 1339.33 920.5 1280 c
956.17 1220.67 974 1157.67 974 1091 c
974 1027.67 957 970 923 918 c
889 866 838.67 824.67 772 794 c
858.67 774 926 732.5 974 669.5 c
1022 606.5 1046 527.67 1046 433 c
1046 305 999.33 196.5 906 107.5 c
812.67 18.5 694.67 -26 552 -26 c
423.33 -26 316.5 12.33 231.5 89 c
146.5 165.67 98 265 86 387 c
closepath } bind def
/s52 {
662 0 m
662 351 662 0 662 351 c
26 351 662 351 26 351 c
26 516 26 351 26 516 c
695 1466 26 516 695 1466 c
842 1466 695 1466 842 1466 c
842 516 842 1466 842 516 c
1040 516 842 516 1040 516 c
1040 351 1040 516 1040 351 c
842 351 1040 351 842 351 c
842 0 842 351 842 0 c
662 0 842 0 662 0 c
closepath 662 516 m
662 1177 662 516 662 1177 c
203 516 662 1177 203 516 c
662 516 203 516 662 516 c
closepath } bind def
/s53 {
85 384 m
274 400 85 384 274 400 c
288 308 320.5 238.83 371.5 192.5 c
422.5 146.17 484 123 556 123 c
642.67 123 716 155.67 776 221 c
836 286.33 866 373 866 481 c
866 583.67 837.17 664.67 779.5 724 c
721.83 783.33 646.33 813 553 813 c
495 813 442.67 799.83 396 773.5 c
349.33 747.17 312.67 713 286 671 c
117 693 286 671 117 693 c
259 1446 117 693 259 1446 c
988 1446 259 1446 988 1446 c
988 1274 988 1446 988 1274 c
403 1274 988 1274 403 1274 c
324 880 403 1274 324 880 c
412 941.33 504.33 972 601 972 c
729 972 837 927.67 925 839 c
1013 750.33 1057 636.33 1057 497 c
1057 364.33 1018.33 249.67 941 153 c
847 34.33 718.67 -25 556 -25 c
422.67 -25 313.83 12.33 229.5 87 c
145.17 161.67 97 260.67 85 384 c
closepath } bind def
/s54 {
1019 1107 m
840 1093 1019 1107 840 1093 c
824 1163.67 801.33 1215 772 1247 c
723.33 1298.33 663.33 1324 592 1324 c
534.67 1324 484.33 1308 441 1276 c
384.33 1234.67 339.67 1174.33 307 1095 c
274.33 1015.67 257.33 902.67 256 756 c
299.33 822 352.33 871 415 903 c
477.67 935 543.33 951 612 951 c
732 951 834.17 906.83 918.5 818.5 c
1002.83 730.17 1045 616 1045 476 c
1045 384 1025.17 298.5 985.5 219.5 c
945.83 140.5 891.33 80 822 38 c
752.67 -4 674 -25 586 -25 c
436 -25 313.67 30.17 219 140.5 c
124.33 250.83 77 432.67 77 686 c
77 969.33 129.33 1175.33 234 1304 c
325.33 1416 448.33 1472 603 1472 c
718.33 1472 812.83 1439.67 886.5 1375 c
960.17 1310.33 1004.33 1221 1019 1107 c
closepath 284 475 m
284 413 297.17 353.67 323.5 297 c
349.83 240.33 386.67 197.17 434 167.5 c
481.33 137.83 531 123 583 123 c
659 123 724.33 153.67 779 215 c
833.67 276.33 861 359.67 861 465 c
861 566.33 834 646.17 780 704.5 c
726 762.83 658 792 576 792 c
494.67 792 425.67 762.83 369 704.5 c
312.33 646.17 284 569.67 284 475 c
closepath } bind def
/s55 {
97 1274 m
97 1447 97 1274 97 1447 c
1046 1447 97 1447 1046 1447 c
1046 1307 1046 1447 1046 1307 c
952.67 1207.67 860.17 1075.67 768.5 911 c
676.83 746.33 606 577 556 403 c
520 280.33 497 146 487 0 c
302 0 487 0 302 0 c
304 115.33 326.67 254.67 370 418 c
413.33 581.33 475.5 738.83 556.5 890.5 c
637.5 1042.17 723.67 1170 815 1274 c
97 1274 815 1274 97 1274 c
closepath } bind def
/s56 {
362 795 m
287.33 822.33 232 861.33 196 912 c
160 962.67 142 1023.33 142 1094 c
142 1200.67 180.33 1290.33 257 1363 c
333.67 1435.67 435.67 1472 563 1472 c
691 1472 794 1434.83 872 1360.5 c
950 1286.17 989 1195.67 989 1089 c
989 1021 971.17 961.83 935.5 911.5 c
899.83 861.17 845.67 822.33 773 795 c
863 765.67 931.5 718.33 978.5 653 c
1025.5 587.67 1049 509.67 1049 419 c
1049 293.67 1004.67 188.33 916 103 c
827.33 17.67 710.67 -25 566 -25 c
421.33 -25 304.67 17.83 216 103.5 c
127.33 189.17 83 296 83 424 c
83 519.33 107.17 599.17 155.5 663.5 c
203.83 727.83 272.67 771.67 362 795 c
closepath 326 1100 m
326 1030.67 348.33 974 393 930 c
437.67 886 495.67 864 567 864 c
636.33 864 693.17 885.83 737.5 929.5 c
781.83 973.17 804 1026.67 804 1090 c
804 1156 781.17 1211.5 735.5 1256.5 c
689.83 1301.5 633 1324 565 1324 c
496.33 1324 439.33 1302 394 1258 c
348.67 1214 326 1161.33 326 1100 c
closepath 268 423 m
268 371.67 280.17 322 304.5 274 c
328.83 226 365 188.83 413 162.5 c
461 136.17 512.67 123 568 123 c
654 123 725 150.67 781 206 c
837 261.33 865 331.67 865 417 c
865 503.67 836.17 575.33 778.5 632 c
720.83 688.67 648.67 717 562 717 c
477.33 717 407.17 689 351.5 633 c
295.83 577 268 507 268 423 c
closepath } bind def
/s57 {
112 339 m
285 355 112 339 285 355 c
299.67 273.67 327.67 214.67 369 178 c
410.33 141.33 463.33 123 528 123 c
583.33 123 631.83 135.67 673.5 161 c
715.17 186.33 749.33 220.17 776 262.5 c
802.67 304.83 825 362 843 434 c
861 506 870 579.33 870 654 c
870 662 869.67 674 869 690 c
833 632.67 783.83 586.17 721.5 550.5 c
659.17 514.83 591.67 497 519 497 c
397.67 497 295 541 211 629 c
127 717 85 833 85 977 c
85 1125.67 128.83 1245.33 216.5 1336 c
304.17 1426.67 414 1472 546 1472 c
641.33 1472 728.5 1446.33 807.5 1395 c
886.5 1343.67 946.5 1270.5 987.5 1175.5 c
1028.5 1080.5 1049 943 1049 763 c
1049 575.67 1028.67 426.5 988 315.5 c
947.33 204.5 886.83 120 806.5 62 c
726.17 4 632 -25 524 -25 c
409.33 -25 315.67 6.83 243 70.5 c
170.33 134.17 126.67 223.67 112 339 c
closepath 849 986 m
849 1089.33 821.5 1171.33 766.5 1232 c
711.5 1292.67 645.33 1323 568 1323 c
488 1323 418.33 1290.33 359 1225 c
299.67 1159.67 270 1075 270 971 c
270 877.67 298.17 801.83 354.5 743.5 c
410.83 685.17 480.33 656 563 656 c
646.33 656 714.83 685.17 768.5 743.5 c
822.17 801.83 849 882.67 849 986 c
closepath } bind def
/s61 {
1082 862 m
114 862 1082 862 114 862 c
114 1030 114 862 114 1030 c
1082 1030 114 1030 1082 1030 c
1082 862 1082 1030 1082 862 c
closepath 1082 417 m
114 417 1082 417 114 417 c
114 585 114 417 114 585 c
1082 585 114 585 1082 585 c
1082 417 1082 585 1082 417 c
closepath } bind def
/s65 {
-3 0 m
560 1466 -3 0 560 1466 c
769 1466 560 1466 769 1466 c
1369 0 769 1466 1369 0 c
1148 0 1369 0 1148 0 c
977 444 1148 0 977 444 c
364 444 977 444 364 444 c
203 0 364 444 203 0 c
-3 0 203 0 -3 0 c
closepath 420 602 m
917 602 420 602 917 602 c
764 1008 917 602 764 1008 c
717.33 1131.33 682.67 1232.67 660 1312 c
641.33 1218 615 1124.67 581 1032 c
420 602 581 1032 420 602 c
closepath } bind def
/s67 {
1204 514 m
1398 465 1204 514 1398 465 c
1357.33 305.67 1284.17 184.17 1178.5 100.5 c
1072.83 16.83 943.67 -25 791 -25 c
633 -25 504.5 7.17 405.5 71.5 c
306.5 135.83 231.17 229 179.5 351 c
127.83 473 102 604 102 744 c
102 896.67 131.17 1029.83 189.5 1143.5 c
247.83 1257.17 330.83 1343.5 438.5 1402.5 c
546.17 1461.5 664.67 1491 794 1491 c
940.67 1491 1064 1453.67 1164 1379 c
1264 1304.33 1333.67 1199.33 1373 1064 c
1182 1019 1373 1064 1182 1019 c
1148 1125.67 1098.67 1203.33 1034 1252 c
969.33 1300.67 888 1325 790 1325 c
677.33 1325 583.17 1298 507.5 1244 c
431.83 1190 378.67 1117.5 348 1026.5 c
317.33 935.5 302 841.67 302 745 c
302 620.33 320.17 511.5 356.5 418.5 c
392.83 325.5 449.33 256 526 210 c
602.67 164 685.67 141 775 141 c
883.67 141 975.67 172.33 1051 235 c
1126.33 297.67 1177.33 390.67 1204 514 c
closepath } bind def
/s68 {
158 0 m
158 1466 158 0 158 1466 c
663 1466 158 1466 663 1466 c
777 1466 864 1459 924 1445 c
1008 1425.67 1079.67 1390.67 1139 1340 c
1216.33 1274.67 1274.17 1191.17 1312.5 1089.5 c
1350.83 987.83 1370 871.67 1370 741 c
1370 629.67 1357 531 1331 445 c
1305 359 1271.67 287.83 1231 231.5 c
1190.33 175.17 1145.83 130.83 1097.5 98.5 c
1049.17 66.17 990.83 41.67 922.5 25 c
854.17 8.33 775.67 0 687 0 c
158 0 687 0 158 0 c
closepath 352 173 m
665 173 352 173 665 173 c
761.67 173 837.5 182 892.5 200 c
947.5 218 991.33 243.33 1024 276 c
1070 322 1105.83 383.83 1131.5 461.5 c
1157.17 539.17 1170 633.33 1170 744 c
1170 897.33 1144.83 1015.17 1094.5 1097.5 c
1044.17 1179.83 983 1235 911 1263 c
859 1283 775.33 1293 660 1293 c
352 1293 660 1293 352 1293 c
352 173 352 1293 352 173 c
closepath } bind def
/s73 {
191 0 m
191 1466 191 0 191 1466 c
385 1466 191 1466 385 1466 c
385 0 385 1466 385 0 c
191 0 385 0 191 0 c
closepath } bind def
/s77 {
152 0 m
152 1466 152 0 152 1466 c
444 1466 152 1466 444 1466 c
791 428 444 1466 791 428 c
823 331.33 846.33 259 861 211 c
877.67 264.33 903.67 342.67 939 446 c
1290 1466 939 446 1290 1466 c
1551 1466 1290 1466 1551 1466 c
1551 0 1551 1466 1551 0 c
1364 0 1551 0 1364 0 c
1364 1227 1364 0 1364 1227 c
938 0 1364 1227 938 0 c
763 0 938 0 763 0 c
339 1248 763 0 339 1248 c
339 0 339 1248 339 0 c
152 0 339 0 152 0 c
closepath } bind def
/s78 {
156 0 m
156 1466 156 0 156 1466 c
355 1466 156 1466 355 1466 c
1125 315 355 1466 1125 315 c
1125 1466 1125 315 1125 1466 c
1311 1466 1125 1466 1311 1466 c
1311 0 1311 1466 1311 0 c
1112 0 1311 0 1112 0 c
342 1152 1112 0 342 1152 c
342 0 342 1152 342 0 c
156 0 342 0 156 0 c
closepath } bind def
/s80 {
158 0 m
158 1466 158 0 158 1466 c
711 1466 158 1466 711 1466 c
808.33 1466 882.67 1461.33 934 1452 c
1006 1440 1066.33 1417.17 1115 1383.5 c
1163.67 1349.83 1202.83 1302.67 1232.5 1242 c
1262.17 1181.33 1277 1114.67 1277 1042 c
1277 917.33 1237.33 811.83 1158 725.5 c
1078.67 639.17 935.33 596 728 596 c
352 596 728 596 352 596 c
352 0 352 596 352 0 c
158 0 352 0 158 0 c
closepath 352 769 m
731 769 352 769 731 769 c
856.33 769 945.33 792.33 998 839 c
1050.67 885.67 1077 951.33 1077 1036 c
1077 1097.33 1061.5 1149.83 1030.5 1193.5 c
999.5 1237.17 958.67 1266 908 1280 c
875.33 1288.67 815 1293 727 1293 c
352 1293 727 1293 352 1293 c
352 769 352 1293 352 769 c
closepath } bind def
/s102 {
178 0 m
178 922 178 0 178 922 c
19 922 178 922 19 922 c
19 1062 19 922 19 1062 c
178 1062 19 1062 178 1062 c
178 1175 178 1062 178 1175 c
178 1246.33 184.33 1299.33 197 1334 c
214.33 1380.67 244.83 1418.5 288.5 1447.5 c
332.17 1476.5 393.33 1491 472 1491 c
522.67 1491 578.67 1485 640 1473 c
613 1316 640 1473 613 1316 c
575.67 1322.67 540.33 1326 507 1326 c
452.33 1326 413.67 1314.33 391 1291 c
368.33 1267.67 357 1224 357 1160 c
357 1062 357 1160 357 1062 c
564 1062 357 1062 564 1062 c
564 922 564 1062 564 922 c
357 922 564 922 357 922 c
357 0 357 922 357 0 c
178 0 357 0 178 0 c
closepath } bind def
/s109 {
135 0 m
135 1062 135 0 135 1062 c
296 1062 135 1062 296 1062 c
296 913 296 1062 296 913 c
329.33 965 373.67 1006.83 429 1038.5 c
484.33 1070.17 547.33 1086 618 1086 c
696.67 1086 761.17 1069.67 811.5 1037 c
861.83 1004.33 897.33 958.67 918 900 c
1002 1024 1111.33 1086 1246 1086 c
1351.33 1086 1432.33 1056.83 1489 998.5 c
1545.67 940.17 1574 850.33 1574 729 c
1574 0 1574 729 1574 0 c
1395 0 1574 0 1395 0 c
1395 669 1395 0 1395 669 c
1395 741 1389.17 792.83 1377.5 824.5 c
1365.83 856.17 1344.67 881.67 1314 901 c
1283.33 920.33 1247.33 930 1206 930 c
1131.33 930 1069.33 905.17 1020 855.5 c
970.67 805.83 946 726.33 946 617 c
946 0 946 617 946 0 c
766 0 946 0 766 0 c
766 690 766 0 766 690 c
766 770 751.33 830 722 870 c
692.67 910 644.67 930 578 930 c
527.33 930 480.5 916.67 437.5 890 c
394.5 863.33 363.33 824.33 344 773 c
324.67 721.67 315 647.67 315 551 c
315 0 315 551 315 0 c
135 0 315 0 135 0 c
closepath } bind def
/s114 {
133 0 m
133 1062 133 0 133 1062 c
295 1062 133 1062 295 1062 c
295 901 295 1062 295 901 c
336.33 976.33 374.5 1026 409.5 1050 c
444.5 1074 483 1086 525 1086 c
585.67 1086 647.33 1066.67 710 1028 c
648 861 710 1028 648 861 c
604 887 560 900 516 900 c
476.67 900 441.33 888.17 410 864.5 c
378.67 840.83 356.33 808 343 766 c
323 702 313 632 313 556 c
313 0 313 556 313 0 c
133 0 313 0 133 0 c
closepath } bind def
end
/BuildGlyph {
 exch dup /Metrics get 2 index get 0 setcharwidth
/CharProcs get exch 2 copy known not{pop/.notdef}if get exec fill}bind def
/BuildChar {
1 index /Encoding get exch get
1 index /BuildGlyph get exec
} bind def
currentdict end /MC1_Arial exch definefont pop
%%EndFont
%%BeginFont: /MC2_Symbol
12 dict begin
/FontInfo 8 dict dup begin
/ItalicAngle 0 def
/UnderlinePosition -223.00 def
/UnderlineThickness 100.00 def
/StrikeoutPosition 530.00 def
/StrikeoutThickness 102.00 def
/isFixedPitch false def
end readonly def
/FontName /MC2_Symbol def
/FontType 3 def
/FontMatrix [1 2048 div 0 0 1 2048 div 0 0] def
/FontBBox [-1 -450 2279 2059] def
/Encoding 256 array def 0 1 255{Encoding exch/.notdef put}for
Encoding 32/s32 put
/BoundingBoxes 3 dict def
BoundingBoxes begin
/s32 [0 -450 512 2059] def
/s61554 [0 -450 0 2059] def
end
/Metrics 3 dict def
 Metrics begin
/s32 512 def
/s61554 0 def
end
/CharProcs 3 dict def
CharProcs begin
/.notdef {} def
/s61554 {
307 55 m
307 -62 307 55 307 -62 c
307 -226.67 296.67 -353.33 276 -442 c
105 -442 276 -442 105 -442 c
119 -399.33 128 -364.67 132 -338 c
138.67 -292.67 142 -235.67 142 -167 c
142 474 142 -167 142 474 c
142 612 185.33 725 272 813 c
358.67 900.33 468 944 600 944 c
750.67 944 865.33 890 944 782 c
1004.67 698 1035 603 1035 497 c
1035 377.67 998 267.67 924 167 c
826 35 702 -31 552 -31 c
498 -31 449 -23 405 -7 c
375.67 4.33 343 25 307 55 c
closepath 307 357 m
307 265.67 315.17 202 331.5 166 c
347.83 130 377.67 99.5 421 74.5 c
464.33 49.5 513.67 37 569 37 c
652.33 37 723 69.67 781 135 c
839 200.33 868 289.33 868 402 c
868 486.67 850.17 565.17 814.5 637.5 c
778.83 709.83 733.33 763.33 678 798 c
622.67 832.67 564.33 850 503 850 c
426.33 850 371.33 820.33 338 761 c
317.33 725.67 307 647.33 307 526 c
307 357 307 526 307 357 c
closepath } bind def
end
/BuildGlyph {
 exch dup /Metrics get 2 index get 0 setcharwidth
/CharProcs get exch 2 copy known not{pop/.notdef}if get exec fill}bind def
/BuildChar {
1 index /Encoding get exch get
1 index /BuildGlyph get exec
} bind def
currentdict end /MC2_Symbol exch definefont pop
%%EndFont
%%BeginFont: /MC3_Arial
12 dict begin
/FontInfo 8 dict dup begin
/ItalicAngle 0 def
/UnderlinePosition -217.00 def
/UnderlineThickness 150.00 def
/StrikeoutPosition 530.00 def
/StrikeoutThickness 102.00 def
/isFixedPitch false def
end readonly def
/FontName /MC3_Arial def
/FontType 3 def
/FontMatrix [1 2048 div 0 0 1 2048 div 0 0] def
/FontBBox [-1361 -665 4096 2129] def
/Encoding 256 array def 0 1 255{Encoding exch/.notdef put}for
Encoding 32/s32 put
Encoding 40/s40 put
Encoding 41/s41 put
Encoding 45/s45 put
Encoding 51/s51 put
Encoding 102/s102 put
Encoding 109/s109 put
Encoding 114/s114 put
/BoundingBoxes 9 dict def
BoundingBoxes begin
/s32 [0 -434 569 1854] def
/s40 [0 -434 682 1854] def
/s41 [0 -434 682 1854] def
/s45 [0 -434 682 1854] def
/s51 [0 -434 1139 1854] def
/s102 [0 -434 569 1854] def
/s109 [0 -434 1706 1854] def
/s114 [0 -434 682 1854] def
end
/Metrics 9 dict def
 Metrics begin
/s32 569 def
/s40 682 def
/s41 682 def
/s45 682 def
/s51 1139 def
/s102 569 def
/s109 1706 def
/s114 682 def
end
/CharProcs 9 dict def
CharProcs begin
/.notdef {} def
/s40 {
479 -431 m
379.67 -305.67 295.67 -159 227 9 c
158.33 177 124 351 124 531 c
124 689.67 149.67 841.67 201 987 c
261 1155.67 353.67 1323.67 479 1491 c
608 1491 479 1491 608 1491 c
527.33 1352.33 474 1253.33 448 1194 c
407.33 1102 375.33 1006 352 906 c
323.33 781.33 309 656 309 530 c
309 209.33 408.67 -111 608 -431 c
479 -431 608 -431 479 -431 c
closepath } bind def
/s41 {
253 -431 m
124 -431 253 -431 124 -431 c
323.33 -111 423 209.33 423 530 c
423 655.33 408.67 779.67 380 903 c
357.33 1003 325.67 1099 285 1191 c
259 1251 205.33 1351 124 1491 c
253 1491 124 1491 253 1491 c
378.33 1323.67 471 1155.67 531 987 c
582.33 841.67 608 689.67 608 531 c
608 351 573.5 177 504.5 9 c
435.5 -159 351.67 -305.67 253 -431 c
closepath } bind def
/s45 {
65 440 m
65 621 65 440 65 621 c
618 621 65 621 618 621 c
618 440 618 621 618 440 c
65 440 618 440 65 440 c
closepath } bind def
/s51 {
86 387 m
266 411 86 387 266 411 c
286.67 309 321.83 235.5 371.5 190.5 c
421.17 145.5 481.67 123 553 123 c
637.67 123 709.17 152.33 767.5 211 c
825.83 269.67 855 342.33 855 429 c
855 511.67 828 579.83 774 633.5 c
720 687.17 651.33 714 568 714 c
534 714 491.67 707.33 441 694 c
461 852 441 694 461 852 c
473 850.67 482.67 850 490 850 c
566.67 850 635.67 870 697 910 c
758.33 950 789 1011.67 789 1095 c
789 1161 766.67 1215.67 722 1259 c
677.33 1302.33 619.67 1324 549 1324 c
479 1324 420.67 1302 374 1258 c
327.33 1214 297.33 1148 284 1060 c
104 1092 284 1060 104 1092 c
126 1212.67 176 1306.17 254 1372.5 c
332 1438.83 429 1472 545 1472 c
625 1472 698.67 1454.83 766 1420.5 c
833.33 1386.17 884.83 1339.33 920.5 1280 c
956.17 1220.67 974 1157.67 974 1091 c
974 1027.67 957 970 923 918 c
889 866 838.67 824.67 772 794 c
858.67 774 926 732.5 974 669.5 c
1022 606.5 1046 527.67 1046 433 c
1046 305 999.33 196.5 906 107.5 c
812.67 18.5 694.67 -26 552 -26 c
423.33 -26 316.5 12.33 231.5 89 c
146.5 165.67 98 265 86 387 c
closepath } bind def
/s102 {
178 0 m
178 922 178 0 178 922 c
19 922 178 922 19 922 c
19 1062 19 922 19 1062 c
178 1062 19 1062 178 1062 c
178 1175 178 1062 178 1175 c
178 1246.33 184.33 1299.33 197 1334 c
214.33 1380.67 244.83 1418.5 288.5 1447.5 c
332.17 1476.5 393.33 1491 472 1491 c
522.67 1491 578.67 1485 640 1473 c
613 1316 640 1473 613 1316 c
575.67 1322.67 540.33 1326 507 1326 c
452.33 1326 413.67 1314.33 391 1291 c
368.33 1267.67 357 1224 357 1160 c
357 1062 357 1160 357 1062 c
564 1062 357 1062 564 1062 c
564 922 564 1062 564 922 c
357 922 564 922 357 922 c
357 0 357 922 357 0 c
178 0 357 0 178 0 c
closepath } bind def
/s109 {
135 0 m
135 1062 135 0 135 1062 c
296 1062 135 1062 296 1062 c
296 913 296 1062 296 913 c
329.33 965 373.67 1006.83 429 1038.5 c
484.33 1070.17 547.33 1086 618 1086 c
696.67 1086 761.17 1069.67 811.5 1037 c
861.83 1004.33 897.33 958.67 918 900 c
1002 1024 1111.33 1086 1246 1086 c
1351.33 1086 1432.33 1056.83 1489 998.5 c
1545.67 940.17 1574 850.33 1574 729 c
1574 0 1574 729 1574 0 c
1395 0 1574 0 1395 0 c
1395 669 1395 0 1395 669 c
1395 741 1389.17 792.83 1377.5 824.5 c
1365.83 856.17 1344.67 881.67 1314 901 c
1283.33 920.33 1247.33 930 1206 930 c
1131.33 930 1069.33 905.17 1020 855.5 c
970.67 805.83 946 726.33 946 617 c
946 0 946 617 946 0 c
766 0 946 0 766 0 c
766 690 766 0 766 690 c
766 770 751.33 830 722 870 c
692.67 910 644.67 930 578 930 c
527.33 930 480.5 916.67 437.5 890 c
394.5 863.33 363.33 824.33 344 773 c
324.67 721.67 315 647.67 315 551 c
315 0 315 551 315 0 c
135 0 315 0 135 0 c
closepath } bind def
/s114 {
133 0 m
133 1062 133 0 133 1062 c
295 1062 133 1062 295 1062 c
295 901 295 1062 295 901 c
336.33 976.33 374.5 1026 409.5 1050 c
444.5 1074 483 1086 525 1086 c
585.67 1086 647.33 1066.67 710 1028 c
648 861 710 1028 648 861 c
604 887 560 900 516 900 c
476.67 900 441.33 888.17 410 864.5 c
378.67 840.83 356.33 808 343 766 c
323 702 313 632 313 556 c
313 0 313 556 313 0 c
133 0 313 0 133 0 c
closepath } bind def
end
/BuildGlyph {
 exch dup /Metrics get 2 index get 0 setcharwidth
/CharProcs get exch 2 copy known not{pop/.notdef}if get exec fill}bind def
/BuildChar {
1 index /Encoding get exch get
1 index /BuildGlyph get exec
} bind def
currentdict end /MC3_Arial exch definefont pop
%%EndFont
/clipproc{clippath{[{/m cvx}{/l cvx}{/c cvx}{/cp cvx}pathforall}stopped
{cleartomark[pathbbox exch 3 i sub exch 2 i sub/rectpath cvx}if]np}bd
/iclmtx mtx cmtx def/iclpath clipproc xd/clinit{pathproc initclip np iclpath cl np exec}bd
/clmove{pathproc 3 1 roll clippath pathproc 2 i neg 2 i neg tr initclip np exec cl tr np exec}bd
/clrect[gs np iclpath{pathbbox}stopped{0 0 841.69 594.96 }if gr]def
/cloper{mtx cmtx iclmtx smtx exch exec smtx}bd
/cland{{exch cvx exec}cloper}bd
/clcopy{{exch clinit cvx exec}cloper}bd
/cldiff{{exch pathbbox 4 -1 roll clrect 0 get 2 copy gt{exch}if pop 4 1 roll
 3 -1 roll clrect 1 get 2 copy gt{exch}if pop 3 1 roll
 2 -1 roll clrect 2 get 2 copy lt{exch}if pop 2 1 roll
 1 -1 roll clrect 3 get 2 copy lt{exch}if pop 1 1 roll
 exch 3 i sub exch 2 i sub rectpath cvx exec}cloper}bd
/icl{{clinit}cloper}bd
0.851119 0.854601 sc

/initmtx mtx cmtx def
initmtx smtx
[1.0000 0.0000 0.0000 1.0000 0.0000 0.0000 ] concat
 [0.281988 -0 0 -0.28084 0 696.189] concat
gs
421 2181 m
3402 2181 l
7 sw
1 sj
1 scap
st
520 2181 m
520 2162 l
st
620 2181 m
620 2162 l
st
719 2181 m
719 2162 l
st
818 2181 m
818 2162 l
st
1017 2181 m
1017 2162 l
st
1117 2181 m
1117 2162 l
st
1216 2181 m
1216 2162 l
st
1315 2181 m
1315 2162 l
st
1514 2181 m
1514 2162 l
st
1613 2181 m
1613 2162 l
st
1713 2181 m
1713 2162 l
st
1812 2181 m
1812 2162 l
st
2011 2181 m
2011 2162 l
st
2110 2181 m
2110 2162 l
st
2210 2181 m
2210 2162 l
st
2309 2181 m
2309 2162 l
st
2508 2181 m
2508 2162 l
st
2607 2181 m
2607 2162 l
st
2706 2181 m
2706 2162 l
st
2806 2181 m
2806 2162 l
st
3005 2181 m
3005 2162 l
st
3104 2181 m
3104 2162 l
st
3203 2181 m
3203 2162 l
st
3303 2181 m
3303 2162 l
st
421 2181 m
421 2143 l
st
918 2181 m
918 2143 l
st
1415 2181 m
1415 2143 l
st
1912 2181 m
1912 2143 l
st
2408 2181 m
2408 2143 l
st
2905 2181 m
2905 2143 l
st
3402 2181 m
3402 2143 l
st
421 74 m
3402 74 l
st
520 74 m
520 93 l
st
620 74 m
620 93 l
st
719 74 m
719 93 l
st
818 74 m
818 93 l
st
1017 74 m
1017 93 l
st
1117 74 m
1117 93 l
st
1216 74 m
1216 93 l
st
1315 74 m
1315 93 l
st
1514 74 m
1514 93 l
st
1613 74 m
1613 93 l
st
1713 74 m
1713 93 l
st
1812 74 m
1812 93 l
st
2011 74 m
2011 93 l
st
2110 74 m
2110 93 l
st
2210 74 m
2210 93 l
st
2309 74 m
2309 93 l
st
2508 74 m
2508 93 l
st
2607 74 m
2607 93 l
st
2706 74 m
2706 93 l
st
2806 74 m
2806 93 l
st
3005 74 m
3005 93 l
st
3104 74 m
3104 93 l
st
3203 74 m
3203 93 l
st
3303 74 m
3303 93 l
st
421 74 m
421 112 l
st
918 74 m
918 112 l
st
1415 74 m
1415 112 l
st
1912 74 m
1912 112 l
st
2408 74 m
2408 112 l
st
2905 74 m
2905 112 l
st
3402 74 m
3402 112 l
st
421 2181 m
421 74 l
st
421 2166 m
440 2166 l
st
421 2152 m
440 2152 l
st
421 2137 m
440 2137 l
st
421 2123 m
440 2123 l
st
421 2108 m
440 2108 l
st
421 2094 m
440 2094 l
st
421 2079 m
440 2079 l
st
421 2065 m
440 2065 l
st
421 2050 m
440 2050 l
st
421 2021 m
440 2021 l
st
421 2007 m
440 2007 l
st
421 1992 m
440 1992 l
st
421 1978 m
440 1978 l
st
421 1963 m
440 1963 l
st
421 1949 m
440 1949 l
st
421 1934 m
440 1934 l
st
421 1919 m
440 1919 l
st
421 1905 m
440 1905 l
st
421 1876 m
440 1876 l
st
421 1861 m
440 1861 l
st
421 1847 m
440 1847 l
st
421 1832 m
440 1832 l
st
421 1818 m
440 1818 l
st
421 1803 m
440 1803 l
st
421 1789 m
440 1789 l
st
421 1774 m
440 1774 l
st
421 1760 m
440 1760 l
st
421 1731 m
440 1731 l
st
421 1716 m
440 1716 l
st
421 1701 m
440 1701 l
st
421 1687 m
440 1687 l
st
421 1672 m
440 1672 l
st
421 1658 m
440 1658 l
st
421 1643 m
440 1643 l
st
421 1629 m
440 1629 l
st
421 1614 m
440 1614 l
st
421 1585 m
440 1585 l
st
421 1571 m
440 1571 l
st
421 1556 m
440 1556 l
st
421 1542 m
440 1542 l
st
421 1527 m
440 1527 l
st
421 1513 m
440 1513 l
st
421 1498 m
440 1498 l
st
421 1484 m
440 1484 l
st
421 1469 m
440 1469 l
st
421 1440 m
440 1440 l
st
421 1425 m
440 1425 l
st
421 1411 m
440 1411 l
st
421 1396 m
440 1396 l
st
421 1382 m
440 1382 l
st
421 1367 m
440 1367 l
st
421 1353 m
440 1353 l
st
421 1338 m
440 1338 l
st
421 1324 m
440 1324 l
st
421 1295 m
440 1295 l
st
421 1280 m
440 1280 l
st
421 1266 m
440 1266 l
st
421 1251 m
440 1251 l
st
421 1236 m
440 1236 l
st
421 1222 m
440 1222 l
st
421 1207 m
440 1207 l
st
421 1193 m
440 1193 l
st
421 1178 m
440 1178 l
st
421 1149 m
440 1149 l
st
421 1135 m
440 1135 l
st
421 1120 m
440 1120 l
st
421 1106 m
440 1106 l
st
421 1091 m
440 1091 l
st
421 1077 m
440 1077 l
st
421 1062 m
440 1062 l
st
421 1048 m
440 1048 l
st
421 1033 m
440 1033 l
st
421 1004 m
440 1004 l
st
421 989 m
440 989 l
st
421 975 m
440 975 l
st
421 960 m
440 960 l
st
421 946 m
440 946 l
st
421 931 m
440 931 l
st
421 917 m
440 917 l
st
421 902 m
440 902 l
st
421 888 m
440 888 l
st
421 859 m
440 859 l
st
421 844 m
440 844 l
st
421 830 m
440 830 l
st
421 815 m
440 815 l
st
421 801 m
440 801 l
st
421 786 m
440 786 l
st
421 771 m
440 771 l
st
421 757 m
440 757 l
st
421 742 m
440 742 l
st
421 713 m
440 713 l
st
421 699 m
440 699 l
st
421 684 m
440 684 l
st
421 670 m
440 670 l
st
421 655 m
440 655 l
st
421 641 m
440 641 l
st
421 626 m
440 626 l
st
421 612 m
440 612 l
st
421 597 m
440 597 l
st
421 568 m
440 568 l
st
421 554 m
440 554 l
st
421 539 m
440 539 l
st
421 524 m
440 524 l
st
421 510 m
440 510 l
st
421 495 m
440 495 l
st
421 481 m
440 481 l
st
421 466 m
440 466 l
st
421 452 m
440 452 l
st
421 423 m
440 423 l
st
421 408 m
440 408 l
st
421 394 m
440 394 l
st
421 379 m
440 379 l
st
421 365 m
440 365 l
st
421 350 m
440 350 l
st
421 336 m
440 336 l
st
421 321 m
440 321 l
st
421 306 m
440 306 l
st
421 277 m
440 277 l
st
421 263 m
440 263 l
st
421 248 m
440 248 l
st
421 234 m
440 234 l
st
421 219 m
440 219 l
st
421 205 m
440 205 l
st
421 190 m
440 190 l
st
421 176 m
440 176 l
st
421 161 m
440 161 l
st
421 132 m
440 132 l
st
421 118 m
440 118 l
st
421 103 m
440 103 l
st
421 89 m
440 89 l
st
421 74 m
440 74 l
st
421 2181 m
459 2181 l
st
421 2036 m
459 2036 l
st
421 1890 m
459 1890 l
st
421 1745 m
459 1745 l
st
421 1600 m
459 1600 l
st
421 1454 m
459 1454 l
st
421 1309 m
459 1309 l
st
421 1164 m
459 1164 l
st
421 1019 m
459 1019 l
st
421 873 m
459 873 l
st
421 728 m
459 728 l
st
421 583 m
459 583 l
st
421 437 m
459 437 l
st
421 292 m
459 292 l
st
421 147 m
459 147 l
st
3402 2181 m
3402 74 l
st
3402 2166 m
3383 2166 l
st
3402 2152 m
3383 2152 l
st
3402 2137 m
3383 2137 l
st
3402 2123 m
3383 2123 l
st
3402 2108 m
3383 2108 l
st
3402 2094 m
3383 2094 l
st
3402 2079 m
3383 2079 l
st
3402 2065 m
3383 2065 l
st
3402 2050 m
3383 2050 l
st
3402 2021 m
3383 2021 l
st
3402 2007 m
3383 2007 l
st
3402 1992 m
3383 1992 l
st
3402 1978 m
3383 1978 l
st
3402 1963 m
3383 1963 l
st
3402 1949 m
3383 1949 l
st
3402 1934 m
3383 1934 l
st
3402 1919 m
3383 1919 l
st
3402 1905 m
3383 1905 l
st
3402 1876 m
3383 1876 l
st
3402 1861 m
3383 1861 l
st
3402 1847 m
3383 1847 l
st
3402 1832 m
3383 1832 l
st
3402 1818 m
3383 1818 l
st
3402 1803 m
3383 1803 l
st
3402 1789 m
3383 1789 l
st
3402 1774 m
3383 1774 l
st
3402 1760 m
3383 1760 l
st
3402 1731 m
3383 1731 l
st
3402 1716 m
3383 1716 l
st
3402 1701 m
3383 1701 l
st
3402 1687 m
3383 1687 l
st
3402 1672 m
3383 1672 l
st
3402 1658 m
3383 1658 l
st
3402 1643 m
3383 1643 l
st
3402 1629 m
3383 1629 l
st
3402 1614 m
3383 1614 l
st
3402 1585 m
3383 1585 l
st
3402 1571 m
3383 1571 l
st
3402 1556 m
3383 1556 l
st
3402 1542 m
3383 1542 l
st
3402 1527 m
3383 1527 l
st
3402 1513 m
3383 1513 l
st
3402 1498 m
3383 1498 l
st
3402 1484 m
3383 1484 l
st
3402 1469 m
3383 1469 l
st
3402 1440 m
3383 1440 l
st
3402 1425 m
3383 1425 l
st
3402 1411 m
3383 1411 l
st
3402 1396 m
3383 1396 l
st
3402 1382 m
3383 1382 l
st
3402 1367 m
3383 1367 l
st
3402 1353 m
3383 1353 l
st
3402 1338 m
3383 1338 l
st
3402 1324 m
3383 1324 l
st
3402 1295 m
3383 1295 l
st
3402 1280 m
3383 1280 l
st
3402 1266 m
3383 1266 l
st
3402 1251 m
3383 1251 l
st
3402 1236 m
3383 1236 l
st
3402 1222 m
3383 1222 l
st
3402 1207 m
3383 1207 l
st
3402 1193 m
3383 1193 l
st
3402 1178 m
3383 1178 l
st
3402 1149 m
3383 1149 l
st
3402 1135 m
3383 1135 l
st
3402 1120 m
3383 1120 l
st
3402 1106 m
3383 1106 l
st
3402 1091 m
3383 1091 l
st
3402 1077 m
3383 1077 l
st
3402 1062 m
3383 1062 l
st
3402 1048 m
3383 1048 l
st
3402 1033 m
3383 1033 l
st
3402 1004 m
3383 1004 l
st
3402 989 m
3383 989 l
st
3402 975 m
3383 975 l
st
3402 960 m
3383 960 l
st
3402 946 m
3383 946 l
st
3402 931 m
3383 931 l
st
3402 917 m
3383 917 l
st
3402 902 m
3383 902 l
st
3402 888 m
3383 888 l
st
3402 859 m
3383 859 l
st
3402 844 m
3383 844 l
st
3402 830 m
3383 830 l
st
3402 815 m
3383 815 l
st
3402 801 m
3383 801 l
st
3402 786 m
3383 786 l
st
3402 771 m
3383 771 l
st
3402 757 m
3383 757 l
st
3402 742 m
3383 742 l
st
3402 713 m
3383 713 l
st
3402 699 m
3383 699 l
st
3402 684 m
3383 684 l
st
3402 670 m
3383 670 l
st
3402 655 m
3383 655 l
st
3402 641 m
3383 641 l
st
3402 626 m
3383 626 l
st
3402 612 m
3383 612 l
st
3402 597 m
3383 597 l
st
3402 568 m
3383 568 l
st
3402 554 m
3383 554 l
st
3402 539 m
3383 539 l
st
3402 524 m
3383 524 l
st
3402 510 m
3383 510 l
st
3402 495 m
3383 495 l
st
3402 481 m
3383 481 l
st
3402 466 m
3383 466 l
st
3402 452 m
3383 452 l
st
3402 423 m
3383 423 l
st
3402 408 m
3383 408 l
st
3402 394 m
3383 394 l
st
3402 379 m
3383 379 l
st
3402 365 m
3383 365 l
st
3402 350 m
3383 350 l
st
3402 336 m
3383 336 l
st
3402 321 m
3383 321 l
st
3402 306 m
3383 306 l
st
3402 277 m
3383 277 l
st
3402 263 m
3383 263 l
st
3402 248 m
3383 248 l
st
3402 234 m
3383 234 l
st
3402 219 m
3383 219 l
st
3402 205 m
3383 205 l
st
3402 190 m
3383 190 l
st
3402 176 m
3383 176 l
st
3402 161 m
3383 161 l
st
3402 132 m
3383 132 l
st
3402 118 m
3383 118 l
st
3402 103 m
3383 103 l
st
3402 89 m
3383 89 l
st
3402 74 m
3383 74 l
st
3402 2181 m
3364 2181 l
st
3402 2036 m
3364 2036 l
st
3402 1890 m
3364 1890 l
st
3402 1745 m
3364 1745 l
st
3402 1600 m
3364 1600 l
st
3402 1454 m
3364 1454 l
st
3402 1309 m
3364 1309 l
st
3402 1164 m
3364 1164 l
st
3402 1019 m
3364 1019 l
st
3402 873 m
3364 873 l
st
3402 728 m
3364 728 l
st
3402 583 m
3364 583 l
st
3402 437 m
3364 437 l
st
3402 292 m
3364 292 l
st
3402 147 m
3364 147 l
st
gs
gr
gs
gr
gs
1 -1 sc
/MC1_Arial 83 self 364 -2287 m
(0.0)[46 23 46 ] xs
1 -1 sc
gr
gs
gr
gs
gr
gs
1 -1 sc
/MC1_Arial 83 self 861 -2287 m
(0.5)[46 23 46 ] xs
1 -1 sc
gr
gs
gr
gs
gr
gs
1 -1 sc
/MC1_Arial 83 self 1358 -2287 m
(1.0)[46 23 46 ] xs
1 -1 sc
gr
gs
gr
gs
gr
gs
1 -1 sc
/MC1_Arial 83 self 1855 -2287 m
(1.5)[46 23 46 ] xs
1 -1 sc
gr
gs
gr
gs
gr
gs
1 -1 sc
/MC1_Arial 83 self 2351 -2287 m
(2.0)[46 23 46 ] xs
1 -1 sc
gr
gs
gr
gs
gr
gs
1 -1 sc
/MC1_Arial 83 self 2848 -2287 m
(2.5)[46 23 46 ] xs
1 -1 sc
gr
gs
gr
gs
gr
gs
1 -1 sc
/MC1_Arial 83 self 3345 -2287 m
(3.0)[46 23 46 ] xs
1 -1 sc
gr
gs
gr
gs
gr
gs
1 -1 sc
/MC1_Arial 83 self 219 -2206 m
(0.00)[46 23 46 46 ] xs
1 -1 sc
gr
gs
gr
gs
gr
gs
1 -1 sc
/MC1_Arial 83 self 219 -2061 m
(0.01)[46 23 46 46 ] xs
1 -1 sc
gr
gs
gr
gs
gr
gs
1 -1 sc
/MC1_Arial 83 self 219 -1915 m
(0.02)[46 23 46 46 ] xs
1 -1 sc
gr
gs
gr
gs
gr
gs
1 -1 sc
/MC1_Arial 83 self 219 -1770 m
(0.03)[46 23 46 46 ] xs
1 -1 sc
gr
gs
gr
gs
gr
gs
1 -1 sc
/MC1_Arial 83 self 219 -1625 m
(0.04)[46 23 46 46 ] xs
1 -1 sc
gr
gs
gr
gs
gr
gs
1 -1 sc
/MC1_Arial 83 self 219 -1479 m
(0.05)[46 23 46 46 ] xs
1 -1 sc
gr
gs
gr
gs
gr
gs
1 -1 sc
/MC1_Arial 83 self 219 -1334 m
(0.06)[46 23 46 46 ] xs
1 -1 sc
gr
gs
gr
gs
gr
gs
1 -1 sc
/MC1_Arial 83 self 219 -1189 m
(0.07)[46 23 46 46 ] xs
1 -1 sc
gr
gs
gr
gs
gr
gs
1 -1 sc
/MC1_Arial 83 self 219 -1044 m
(0.08)[46 23 46 46 ] xs
1 -1 sc
gr
gs
gr
gs
gr
gs
1 -1 sc
/MC1_Arial 83 self 219 -898 m
(0.09)[46 23 46 46 ] xs
1 -1 sc
gr
gs
gr
gs
gr
gs
1 -1 sc
/MC1_Arial 83 self 219 -753 m
(0.10)[46 23 46 46 ] xs
1 -1 sc
gr
gs
gr
gs
gr
gs
1 -1 sc
/MC1_Arial 83 self 219 -608 m
(0.11)[46 23 46 46 ] xs
1 -1 sc
gr
gs
gr
gs
gr
gs
1 -1 sc
/MC1_Arial 83 self 219 -462 m
(0.12)[46 23 46 46 ] xs
1 -1 sc
gr
gs
gr
gs
gr
gs
1 -1 sc
/MC1_Arial 83 self 219 -317 m
(0.13)[46 23 46 46 ] xs
1 -1 sc
gr
gs
gr
gs
gr
gs
1 -1 sc
/MC1_Arial 83 self 219 -172 m
(0.14)[46 23 46 46 ] xs
1 -1 sc
gr
gs
gr
gs
gr
gs
gr
gs
gr
gs
gr
gs
gr
gs
gr
gs
gr
gs
gr
gs
gr
gs
gr
gs
gr
gs
gr
gs
gr
gs
gr
gs
gr
gs
gr
gs
gr
gs
gr
gs
gr
gs
gr
gs
gr
gs
gr
gs
gr
gs
gr
gs
gr
gs
pathproc 421 74 2982 2108 np rectpath
/eocl cland
np exec
np
500 392 18 0 360  a
cp
6 sw
0 0 1 rgb
st
np
580 484 18 0 360  a
cp
st
np
659 522 18 0 360  a
cp
st
np
739 600 18 0 360  a
cp
st
np
818 657 18 0 360  a
cp
st
np
898 725 18 0 360  a
cp
st
np
977 780 18 0 360  a
cp
st
np
1057 894 18 0 360  a
cp
st
np
1136 973 18 0 360  a
cp
st
np
1216 1054 18 0 360  a
cp
st
np
1295 1167 18 0 360  a
cp
st
np
1375 1285 18 0 360  a
cp
st
np
1454 1415 18 0 360  a
cp
st
np
1534 1519 18 0 360  a
cp
st
np
1613 1632 18 0 360  a
cp
st
np
1693 1723 18 0 360  a
cp
st
np
1772 1807 18 0 360  a
cp
st
np
1852 1871 18 0 360  a
cp
st
np
1931 1927 18 0 360  a
cp
st
np
2011 1977 18 0 360  a
cp
st
np
2090 2015 18 0 360  a
cp
st
np
2170 2051 18 0 360  a
cp
st
np
2249 2080 18 0 360  a
cp
st
np
2329 2103 18 0 360  a
cp
st
np
2408 2121 18 0 360  a
cp
st
np
2488 2134 18 0 360  a
cp
st
np
2567 2145 18 0 360  a
cp
st
np
2647 2152 18 0 360  a
cp
st
np
2726 2158 18 0 360  a
cp
st
np
2806 2163 18 0 360  a
cp
st
np
2885 2167 18 0 360  a
cp
st
np
2965 2170 18 0 360  a
cp
st
np
3044 2173 18 0 360  a
cp
st
np
3124 2175 18 0 360  a
cp
st
np
3203 2177 18 0 360  a
cp
st
np
3283 2178 18 0 360  a
cp
st
np
3362 2179 18 0 360  a
cp
st
np
3442 2179 18 0 360  a
cp
st
gr
gs
pathproc 421 74 2982 2108 np rectpath
/eocl cland
np exec
np
500 600 18 0 360  a
cp
6 sw
0 1 0 rgb
st
np
580 666 18 0 360  a
cp
st
np
659 678 18 0 360  a
cp
st
np
739 688 18 0 360  a
cp
st
np
818 765 18 0 360  a
cp
st
np
898 817 18 0 360  a
cp
st
np
977 874 18 0 360  a
cp
st
np
1057 954 18 0 360  a
cp
st
np
1136 1034 18 0 360  a
cp
st
np
1216 1129 18 0 360  a
cp
st
np
1295 1235 18 0 360  a
cp
st
np
1375 1340 18 0 360  a
cp
st
np
1454 1446 18 0 360  a
cp
st
np
1534 1542 18 0 360  a
cp
st
np
1613 1633 18 0 360  a
cp
st
np
1693 1711 18 0 360  a
cp
st
np
1772 1782 18 0 360  a
cp
st
np
1852 1846 18 0 360  a
cp
st
np
1931 1909 18 0 360  a
cp
st
np
2011 1959 18 0 360  a
cp
st
np
2090 1998 18 0 360  a
cp
st
np
2170 2032 18 0 360  a
cp
st
np
2249 2064 18 0 360  a
cp
st
np
2329 2088 18 0 360  a
cp
st
np
2408 2111 18 0 360  a
cp
st
np
2488 2129 18 0 360  a
cp
st
np
2567 2140 18 0 360  a
cp
st
np
2647 2151 18 0 360  a
cp
st
np
2726 2160 18 0 360  a
cp
st
np
2806 2166 18 0 360  a
cp
st
np
2885 2170 18 0 360  a
cp
st
np
2965 2173 18 0 360  a
cp
st
np
3044 2175 18 0 360  a
cp
st
np
3124 2177 18 0 360  a
cp
st
np
3203 2178 18 0 360  a
cp
st
np
3283 2180 18 0 360  a
cp
st
np
3362 2180 18 0 360  a
cp
st
np
3442 2180 18 0 360  a
cp
st
gr
gs
pathproc 421 74 2982 2108 np rectpath
/eocl cland
np exec
np
500 287 18 0 360  a
cp
6 sw
1 0 0 rgb
st
np
580 338 18 0 360  a
cp
st
np
659 426 18 0 360  a
cp
st
np
739 539 18 0 360  a
cp
st
np
818 561 18 0 360  a
cp
st
np
898 588 18 0 360  a
cp
st
np
977 683 18 0 360  a
cp
st
np
1057 769 18 0 360  a
cp
st
np
1136 878 18 0 360  a
cp
st
np
1216 1026 18 0 360  a
cp
st
np
1295 1172 18 0 360  a
cp
st
np
1375 1295 18 0 360  a
cp
st
np
1454 1410 18 0 360  a
cp
st
np
1534 1519 18 0 360  a
cp
st
np
1613 1619 18 0 360  a
cp
st
np
1693 1715 18 0 360  a
cp
st
np
1772 1792 18 0 360  a
cp
st
np
1852 1863 18 0 360  a
cp
st
np
1931 1926 18 0 360  a
cp
st
np
2011 1979 18 0 360  a
cp
st
np
2090 2024 18 0 360  a
cp
st
np
2170 2058 18 0 360  a
cp
st
np
2249 2086 18 0 360  a
cp
st
np
2329 2108 18 0 360  a
cp
st
np
2408 2126 18 0 360  a
cp
st
np
2488 2136 18 0 360  a
cp
st
np
2567 2147 18 0 360  a
cp
st
np
2647 2157 18 0 360  a
cp
st
np
2726 2162 18 0 360  a
cp
st
np
2806 2167 18 0 360  a
cp
st
np
2885 2171 18 0 360  a
cp
st
np
2965 2173 18 0 360  a
cp
st
np
3044 2175 18 0 360  a
cp
st
np
3124 2177 18 0 360  a
cp
st
np
3203 2178 18 0 360  a
cp
st
np
3283 2179 18 0 360  a
cp
st
np
3362 2180 18 0 360  a
cp
st
np
3442 2180 18 0 360  a
cp
st
gr
gs
pathproc 421 74 2982 2108 np rectpath
/eocl cland
np exec
500 177 m
500 269 l
5 sw
1 0 0 rgb
st
481 177 m
519 177 l
st
500 397 m
500 305 l
st
481 397 m
519 397 l
st
580 267 m
580 320 l
st
561 267 m
599 267 l
st
580 408 m
580 356 l
st
561 408 m
599 408 l
st
659 378 m
659 408 l
st
640 378 m
678 378 l
st
659 474 m
659 444 l
st
640 474 m
678 474 l
st
739 503 m
739 521 l
st
720 503 m
758 503 l
st
739 575 m
739 557 l
st
720 575 m
758 575 l
st
818 533 m
818 543 l
st
799 533 m
837 533 l
st
818 589 m
818 579 l
st
799 589 m
837 589 l
st
898 563 m
898 570 l
st
879 563 m
917 563 l
st
898 612 m
898 606 l
st
879 612 m
917 612 l
st
977 662 m
977 665 l
st
958 662 m
996 662 l
st
977 705 m
977 701 l
st
958 705 m
996 705 l
st
1057 751 m
1057 751 l
st
1038 751 m
1076 751 l
st
1057 787 m
1057 787 l
st
1038 787 m
1076 787 l
st
1136 863 m
1136 860 l
st
1117 863 m
1155 863 l
st
1136 894 m
1136 896 l
st
1117 894 m
1155 894 l
st
1216 1012 m
1216 1008 l
st
1197 1012 m
1235 1012 l
st
1216 1040 m
1216 1044 l
st
1197 1040 m
1235 1040 l
st
1295 1161 m
1295 1154 l
st
1276 1161 m
1314 1161 l
st
1295 1183 m
1295 1190 l
st
1276 1183 m
1314 1183 l
st
1375 1285 m
1375 1277 l
st
1356 1285 m
1394 1285 l
st
1375 1305 m
1375 1313 l
st
1356 1305 m
1394 1305 l
st
1454 1401 m
1454 1392 l
st
1435 1401 m
1473 1401 l
st
1454 1418 m
1454 1428 l
st
1435 1418 m
1473 1418 l
st
1534 1512 m
1534 1501 l
st
1515 1512 m
1553 1512 l
st
1534 1526 m
1534 1537 l
st
1515 1526 m
1553 1526 l
st
1613 1612 m
1613 1601 l
st
1594 1612 m
1632 1612 l
st
1613 1625 m
1613 1637 l
st
1594 1625 m
1632 1625 l
st
1693 1709 m
1693 1697 l
st
1674 1709 m
1712 1709 l
st
1693 1720 m
1693 1733 l
st
1674 1720 m
1712 1720 l
st
1772 1787 m
1772 1774 l
st
1753 1787 m
1791 1787 l
st
1772 1796 m
1772 1810 l
st
1753 1796 m
1791 1796 l
st
1852 1859 m
1852 1845 l
st
1833 1859 m
1871 1859 l
st
1852 1868 m
1852 1881 l
st
1833 1868 m
1871 1868 l
st
1931 1922 m
1931 1908 l
st
1912 1922 m
1950 1922 l
st
1931 1930 m
1931 1944 l
st
1912 1930 m
1950 1930 l
st
2011 1976 m
2011 1961 l
st
1992 1976 m
2030 1976 l
st
2011 1982 m
2011 1997 l
st
1992 1982 m
2030 1982 l
st
2090 2021 m
2090 2006 l
st
2071 2021 m
2109 2021 l
st
2090 2026 m
2090 2042 l
st
2071 2026 m
2109 2026 l
st
2170 2056 m
2170 2040 l
st
2151 2056 m
2189 2056 l
st
2170 2060 m
2170 2076 l
st
2151 2060 m
2189 2060 l
st
2249 2084 m
2249 2068 l
st
2230 2084 m
2268 2084 l
st
2249 2088 m
2249 2104 l
st
2230 2088 m
2268 2088 l
st
2329 2107 m
2329 2090 l
st
2310 2107 m
2348 2107 l
st
2329 2110 m
2329 2126 l
st
2310 2110 m
2348 2110 l
st
2408 2125 m
2408 2108 l
st
2389 2125 m
2427 2125 l
st
2408 2128 m
2408 2144 l
st
2389 2128 m
2427 2128 l
st
2488 2135 m
2488 2118 l
st
2469 2135 m
2507 2135 l
st
2488 2137 m
2488 2154 l
st
2469 2137 m
2507 2137 l
st
2567 2146 m
2567 2129 l
st
2548 2146 m
2586 2146 l
st
2567 2148 m
2567 2165 l
st
2548 2148 m
2586 2148 l
st
2647 2156 m
2647 2139 l
st
2628 2156 m
2666 2156 l
st
2647 2158 m
2647 2175 l
st
2628 2158 m
2666 2158 l
st
2726 2162 m
2726 2180 l
st
2707 2162 m
2745 2162 l
st
2726 2163 m
2726 2180 l
st
2707 2163 m
2745 2163 l
st
2806 2167 m
2806 2185 l
st
2787 2167 m
2825 2167 l
st
2806 2168 m
2806 2185 l
st
2787 2168 m
2825 2168 l
st
2885 2170 m
2885 2153 l
st
2866 2170 m
2904 2170 l
st
2885 2171 m
2885 2189 l
st
2866 2171 m
2904 2171 l
st
2965 2173 m
2965 2191 l
st
2946 2173 m
2984 2173 l
st
2965 2174 m
2965 2191 l
st
2946 2174 m
2984 2174 l
st
3044 2175 m
3044 2193 l
st
3025 2175 m
3063 2175 l
st
3044 2175 m
3044 2193 l
st
3025 2175 m
3063 2175 l
st
3124 2176 m
3124 2159 l
st
3105 2176 m
3143 2176 l
st
3124 2177 m
3124 2195 l
st
3105 2177 m
3143 2177 l
st
3203 2178 m
3203 2196 l
st
3184 2178 m
3222 2178 l
st
3203 2179 m
3203 2196 l
st
3184 2179 m
3222 2179 l
st
3283 2179 m
3283 2197 l
st
3264 2179 m
3302 2179 l
st
3283 2180 m
3283 2197 l
st
3264 2180 m
3302 2180 l
st
3362 2180 m
3362 2198 l
st
3343 2180 m
3381 2180 l
st
3362 2180 m
3362 2198 l
st
3343 2180 m
3381 2180 l
st
3442 2180 m
3442 2198 l
st
3423 2180 m
3461 2180 l
st
3442 2180 m
3442 2198 l
st
3423 2180 m
3461 2180 l
st
gr
gs
pathproc 421 74 2982 2108 np rectpath
/eocl cland
np exec
500 523 m
500 582 l
5 sw
0 1 0 rgb
st
481 523 m
519 523 l
st
500 678 m
500 618 l
st
481 678 m
519 678 l
st
580 619 m
580 648 l
st
561 619 m
599 619 l
st
580 713 m
580 684 l
st
561 713 m
599 713 l
st
659 642 m
659 660 l
st
640 642 m
678 642 l
st
659 714 m
659 696 l
st
640 714 m
678 714 l
st
739 658 m
739 670 l
st
720 658 m
758 658 l
st
739 717 m
739 706 l
st
720 717 m
758 717 l
st
818 742 m
818 747 l
st
799 742 m
837 742 l
st
818 788 m
818 783 l
st
799 788 m
837 788 l
st
898 798 m
898 799 l
st
879 798 m
917 798 l
st
898 836 m
898 835 l
st
879 836 m
917 836 l
st
977 857 m
977 856 l
st
958 857 m
996 857 l
st
977 890 m
977 892 l
st
958 890 m
996 890 l
st
1057 940 m
1057 936 l
st
1038 940 m
1076 940 l
st
1057 968 m
1057 972 l
st
1038 968 m
1076 968 l
st
1136 1022 m
1136 1016 l
st
1117 1022 m
1155 1022 l
st
1136 1047 m
1136 1052 l
st
1117 1047 m
1155 1047 l
st
1216 1119 m
1216 1111 l
st
1197 1119 m
1235 1119 l
st
1216 1140 m
1216 1147 l
st
1197 1140 m
1235 1140 l
st
1295 1226 m
1295 1217 l
st
1276 1226 m
1314 1226 l
st
1295 1243 m
1295 1253 l
st
1276 1243 m
1314 1243 l
st
1375 1332 m
1375 1322 l
st
1356 1332 m
1394 1332 l
st
1375 1348 m
1375 1358 l
st
1356 1348 m
1394 1348 l
st
1454 1439 m
1454 1428 l
st
1435 1439 m
1473 1439 l
st
1454 1452 m
1454 1464 l
st
1435 1452 m
1473 1452 l
st
1534 1536 m
1534 1524 l
st
1515 1536 m
1553 1536 l
st
1534 1548 m
1534 1560 l
st
1515 1548 m
1553 1548 l
st
1613 1628 m
1613 1615 l
st
1594 1628 m
1632 1628 l
st
1613 1639 m
1613 1651 l
st
1594 1639 m
1632 1639 l
st
1693 1706 m
1693 1693 l
st
1674 1706 m
1712 1706 l
st
1693 1715 m
1693 1729 l
st
1674 1715 m
1712 1715 l
st
1772 1778 m
1772 1764 l
st
1753 1778 m
1791 1778 l
st
1772 1787 m
1772 1800 l
st
1753 1787 m
1791 1787 l
st
1852 1842 m
1852 1828 l
st
1833 1842 m
1871 1842 l
st
1852 1850 m
1852 1864 l
st
1833 1850 m
1871 1850 l
st
1931 1906 m
1931 1891 l
st
1912 1906 m
1950 1906 l
st
1931 1913 m
1931 1927 l
st
1912 1913 m
1950 1913 l
st
2011 1956 m
2011 1941 l
st
1992 1956 m
2030 1956 l
st
2011 1962 m
2011 1977 l
st
1992 1962 m
2030 1962 l
st
2090 1995 m
2090 1980 l
st
2071 1995 m
2109 1995 l
st
2090 2001 m
2090 2016 l
st
2071 2001 m
2109 2001 l
st
2170 2029 m
2170 2014 l
st
2151 2029 m
2189 2029 l
st
2170 2034 m
2170 2050 l
st
2151 2034 m
2189 2034 l
st
2249 2062 m
2249 2046 l
st
2230 2062 m
2268 2062 l
st
2249 2066 m
2249 2082 l
st
2230 2066 m
2268 2066 l
st
2329 2086 m
2329 2070 l
st
2310 2086 m
2348 2086 l
st
2329 2089 m
2329 2106 l
st
2310 2089 m
2348 2089 l
st
2408 2110 m
2408 2093 l
st
2389 2110 m
2427 2110 l
st
2408 2112 m
2408 2129 l
st
2389 2112 m
2427 2112 l
st
2488 2127 m
2488 2111 l
st
2469 2127 m
2507 2127 l
st
2488 2130 m
2488 2147 l
st
2469 2130 m
2507 2130 l
st
2567 2139 m
2567 2122 l
st
2548 2139 m
2586 2139 l
st
2567 2142 m
2567 2158 l
st
2548 2142 m
2586 2142 l
st
2647 2150 m
2647 2133 l
st
2628 2150 m
2666 2150 l
st
2647 2152 m
2647 2169 l
st
2628 2152 m
2666 2152 l
st
2726 2159 m
2726 2142 l
st
2707 2159 m
2745 2159 l
st
2726 2161 m
2726 2178 l
st
2707 2161 m
2745 2161 l
st
2806 2166 m
2806 2184 l
st
2787 2166 m
2825 2166 l
st
2806 2167 m
2806 2184 l
st
2787 2167 m
2825 2167 l
st
2885 2169 m
2885 2152 l
st
2866 2169 m
2904 2169 l
st
2885 2170 m
2885 2188 l
st
2866 2170 m
2904 2170 l
st
2965 2172 m
2965 2155 l
st
2946 2172 m
2984 2172 l
st
2965 2174 m
2965 2191 l
st
2946 2174 m
2984 2174 l
st
3044 2174 m
3044 2157 l
st
3025 2174 m
3063 2174 l
st
3044 2175 m
3044 2193 l
st
3025 2175 m
3063 2175 l
st
3124 2177 m
3124 2195 l
st
3105 2177 m
3143 2177 l
st
3124 2178 m
3124 2195 l
st
3105 2178 m
3143 2178 l
st
3203 2178 m
3203 2196 l
st
3184 2178 m
3222 2178 l
st
3203 2179 m
3203 2196 l
st
3184 2179 m
3222 2179 l
st
3283 2179 m
3283 2162 l
st
3264 2179 m
3302 2179 l
st
3283 2180 m
3283 2198 l
st
3264 2180 m
3302 2180 l
st
3362 2180 m
3362 2198 l
st
3343 2180 m
3381 2180 l
st
3362 2180 m
3362 2198 l
st
3343 2180 m
3381 2180 l
st
3442 2180 m
3442 2198 l
st
3423 2180 m
3461 2180 l
st
3442 2181 m
3442 2198 l
st
3423 2181 m
3461 2181 l
st
gr
gs
pathproc 421 74 2982 2108 np rectpath
/eocl cland
np exec
gr
gs
pathproc 421 74 2982 2108 np rectpath
/eocl cland
np exec
500 280 m
500 374 l
5 sw
0 0 1 rgb
st
481 280 m
519 280 l
st
500 504 m
500 410 l
st
481 504 m
519 504 l
st
580 410 m
580 466 l
st
561 410 m
599 410 l
st
580 558 m
580 502 l
st
561 558 m
599 558 l
st
659 470 m
659 504 l
st
640 470 m
678 470 l
st
659 574 m
659 540 l
st
640 574 m
678 574 l
st
739 559 m
739 582 l
st
720 559 m
758 559 l
st
739 640 m
739 618 l
st
720 640 m
758 640 l
st
818 622 m
818 639 l
st
799 622 m
837 622 l
st
818 692 m
818 675 l
st
799 692 m
837 692 l
st
898 696 m
898 707 l
st
879 696 m
917 696 l
st
898 753 m
898 743 l
st
879 753 m
917 753 l
st
977 756 m
977 762 l
st
958 756 m
996 756 l
st
977 804 m
977 798 l
st
958 804 m
996 804 l
st
1057 873 m
1057 876 l
st
1038 873 m
1076 873 l
st
1057 914 m
1057 912 l
st
1038 914 m
1076 914 l
st
1136 957 m
1136 955 l
st
1117 957 m
1155 957 l
st
1136 988 m
1136 991 l
st
1117 988 m
1155 988 l
st
1216 1042 m
1216 1036 l
st
1197 1042 m
1235 1042 l
st
1216 1067 m
1216 1072 l
st
1197 1067 m
1235 1067 l
st
1295 1155 m
1295 1149 l
st
1276 1155 m
1314 1155 l
st
1295 1178 m
1295 1185 l
st
1276 1178 m
1314 1178 l
st
1375 1275 m
1375 1267 l
st
1356 1275 m
1394 1275 l
st
1375 1295 m
1375 1303 l
st
1356 1295 m
1394 1295 l
st
1454 1407 m
1454 1397 l
st
1435 1407 m
1473 1407 l
st
1454 1423 m
1454 1433 l
st
1435 1423 m
1473 1423 l
st
1534 1512 m
1534 1501 l
st
1515 1512 m
1553 1512 l
st
1534 1526 m
1534 1537 l
st
1515 1526 m
1553 1526 l
st
1613 1626 m
1613 1614 l
st
1594 1626 m
1632 1626 l
st
1613 1639 m
1613 1650 l
st
1594 1639 m
1632 1639 l
st
1693 1718 m
1693 1705 l
st
1674 1718 m
1712 1718 l
st
1693 1729 m
1693 1741 l
st
1674 1729 m
1712 1729 l
st
1772 1803 m
1772 1789 l
st
1753 1803 m
1791 1803 l
st
1772 1812 m
1772 1825 l
st
1753 1812 m
1791 1812 l
st
1852 1867 m
1852 1853 l
st
1833 1867 m
1871 1867 l
st
1852 1875 m
1852 1889 l
st
1833 1875 m
1871 1875 l
st
1931 1924 m
1931 1909 l
st
1912 1924 m
1950 1924 l
st
1931 1931 m
1931 1945 l
st
1912 1931 m
1950 1931 l
st
2011 1974 m
2011 1959 l
st
1992 1974 m
2030 1974 l
st
2011 1979 m
2011 1995 l
st
1992 1979 m
2030 1979 l
st
2090 2013 m
2090 1997 l
st
2071 2013 m
2109 2013 l
st
2090 2018 m
2090 2033 l
st
2071 2018 m
2109 2018 l
st
2170 2049 m
2170 2033 l
st
2151 2049 m
2189 2049 l
st
2170 2054 m
2170 2069 l
st
2151 2054 m
2189 2054 l
st
2249 2078 m
2249 2062 l
st
2230 2078 m
2268 2078 l
st
2249 2082 m
2249 2098 l
st
2230 2082 m
2268 2082 l
st
2329 2101 m
2329 2085 l
st
2310 2101 m
2348 2101 l
st
2329 2104 m
2329 2121 l
st
2310 2104 m
2348 2104 l
st
2408 2119 m
2408 2103 l
st
2389 2119 m
2427 2119 l
st
2408 2122 m
2408 2139 l
st
2389 2122 m
2427 2122 l
st
2488 2133 m
2488 2116 l
st
2469 2133 m
2507 2133 l
st
2488 2135 m
2488 2152 l
st
2469 2135 m
2507 2135 l
st
2567 2144 m
2567 2127 l
st
2548 2144 m
2586 2144 l
st
2567 2146 m
2567 2163 l
st
2548 2146 m
2586 2146 l
st
2647 2152 m
2647 2170 l
st
2628 2152 m
2666 2152 l
st
2647 2153 m
2647 2170 l
st
2628 2153 m
2666 2153 l
st
2726 2157 m
2726 2140 l
st
2707 2157 m
2745 2157 l
st
2726 2159 m
2726 2176 l
st
2707 2159 m
2745 2159 l
st
2806 2162 m
2806 2145 l
st
2787 2162 m
2825 2162 l
st
2806 2163 m
2806 2181 l
st
2787 2163 m
2825 2163 l
st
2885 2167 m
2885 2185 l
st
2866 2167 m
2904 2167 l
st
2885 2168 m
2885 2185 l
st
2866 2168 m
2904 2168 l
st
2965 2170 m
2965 2188 l
st
2946 2170 m
2984 2170 l
st
2965 2171 m
2965 2188 l
st
2946 2171 m
2984 2171 l
st
3044 2172 m
3044 2155 l
st
3025 2172 m
3063 2172 l
st
3044 2173 m
3044 2191 l
st
3025 2173 m
3063 2173 l
st
3124 2175 m
3124 2193 l
st
3105 2175 m
3143 2175 l
st
3124 2176 m
3124 2193 l
st
3105 2176 m
3143 2176 l
st
3203 2177 m
3203 2195 l
st
3184 2177 m
3222 2177 l
st
3203 2177 m
3203 2195 l
st
3184 2177 m
3222 2177 l
st
3283 2178 m
3283 2196 l
st
3264 2178 m
3302 2178 l
st
3283 2178 m
3283 2196 l
st
3264 2178 m
3302 2178 l
st
3362 2179 m
3362 2197 l
st
3343 2179 m
3381 2179 l
st
3362 2179 m
3362 2197 l
st
3343 2179 m
3381 2179 l
st
3442 2179 m
3442 2197 l
st
3423 2179 m
3461 2179 l
st
3442 2180 m
3442 2197 l
st
3423 2180 m
3461 2180 l
st
gr
gs
pathproc 421 74 2982 2108 np rectpath
/eocl cland
np exec
np
466 291 15 0 360  a
cp
gs
0 0 1 rgb
eofi
gr
2 sw
0 0 1 rgb
st
np
556 335 15 0 360  a
cp
gs
eofi
gr
st
np
647 376 15 0 360  a
cp
gs
eofi
gr
st
np
737 423 15 0 360  a
cp
gs
eofi
gr
st
np
827 502 15 0 360  a
cp
gs
eofi
gr
st
np
918 593 15 0 360  a
cp
gs
eofi
gr
st
np
1008 692 15 0 360  a
cp
gs
eofi
gr
st
np
1099 811 15 0 360  a
cp
gs
eofi
gr
st
np
1189 942 15 0 360  a
cp
gs
eofi
gr
st
np
1279 1084 15 0 360  a
cp
gs
eofi
gr
st
np
1370 1225 15 0 360  a
cp
gs
eofi
gr
st
np
1460 1368 15 0 360  a
cp
gs
eofi
gr
st
np
1550 1500 15 0 360  a
cp
gs
eofi
gr
st
np
1640 1620 15 0 360  a
cp
gs
eofi
gr
st
np
1731 1730 15 0 360  a
cp
gs
eofi
gr
st
np
1821 1821 15 0 360  a
cp
gs
eofi
gr
st
np
1912 1897 15 0 360  a
cp
gs
eofi
gr
st
np
2002 1959 15 0 360  a
cp
gs
eofi
gr
st
np
2092 2010 15 0 360  a
cp
gs
eofi
gr
st
np
2183 2049 15 0 360  a
cp
gs
eofi
gr
st
np
2273 2081 15 0 360  a
cp
gs
eofi
gr
st
np
2363 2105 15 0 360  a
cp
gs
eofi
gr
st
np
2453 2123 15 0 360  a
cp
gs
eofi
gr
st
np
2544 2137 15 0 360  a
cp
gs
eofi
gr
st
np
2634 2148 15 0 360  a
cp
gs
eofi
gr
st
np
2724 2156 15 0 360  a
cp
gs
eofi
gr
st
np
2815 2162 15 0 360  a
cp
gs
eofi
gr
st
np
2905 2167 15 0 360  a
cp
gs
eofi
gr
st
np
2996 2171 15 0 360  a
cp
gs
eofi
gr
st
np
3086 2173 15 0 360  a
cp
gs
eofi
gr
st
np
3176 2175 15 0 360  a
cp
gs
eofi
gr
st
np
3267 2177 15 0 360  a
cp
gs
eofi
gr
st
np
3357 2178 15 0 360  a
cp
gs
eofi
gr
st
np
3447 2179 15 0 360  a
cp
gs
eofi
gr
st
gr
gs
pathproc 421 74 2982 2108 np rectpath
/eocl cland
np exec
466 245 m
466 277 l
3 sw
0 0 1 rgb
st
459 245 m
473 245 l
st
466 338 m
466 305 l
st
459 338 m
473 338 l
st
556 318 m
556 321 l
st
549 318 m
563 318 l
st
556 352 m
556 349 l
st
549 352 m
563 352 l
st
647 365 m
647 362 l
st
640 365 m
654 365 l
st
647 386 m
647 390 l
st
640 386 m
654 386 l
st
737 415 m
737 409 l
st
730 415 m
744 415 l
st
737 430 m
737 437 l
st
730 430 m
744 430 l
st
827 496 m
827 488 l
st
820 496 m
834 496 l
st
827 507 m
827 516 l
st
820 507 m
834 507 l
st
918 589 m
918 579 l
st
911 589 m
925 589 l
st
918 597 m
918 607 l
st
911 597 m
925 597 l
st
1008 689 m
1008 678 l
st
1001 689 m
1015 689 l
st
1008 696 m
1008 706 l
st
1001 696 m
1015 696 l
st
1099 808 m
1099 797 l
st
1092 808 m
1106 808 l
st
1099 814 m
1099 825 l
st
1092 814 m
1106 814 l
st
1189 940 m
1189 928 l
st
1182 940 m
1196 940 l
st
1189 945 m
1189 956 l
st
1182 945 m
1196 945 l
st
1279 1082 m
1279 1070 l
st
1272 1082 m
1286 1082 l
st
1279 1086 m
1279 1098 l
st
1272 1086 m
1286 1086 l
st
1370 1224 m
1370 1211 l
st
1363 1224 m
1377 1224 l
st
1370 1227 m
1370 1239 l
st
1363 1227 m
1377 1227 l
st
1460 1366 m
1460 1354 l
st
1453 1366 m
1467 1366 l
st
1460 1369 m
1460 1382 l
st
1453 1369 m
1467 1369 l
st
1550 1498 m
1550 1486 l
st
1543 1498 m
1557 1498 l
st
1550 1501 m
1550 1514 l
st
1543 1501 m
1557 1501 l
st
1640 1619 m
1640 1606 l
st
1633 1619 m
1647 1619 l
st
1640 1621 m
1640 1634 l
st
1633 1621 m
1647 1621 l
st
1731 1729 m
1731 1716 l
st
1724 1729 m
1738 1729 l
st
1731 1731 m
1731 1744 l
st
1724 1731 m
1738 1731 l
st
1821 1820 m
1821 1807 l
st
1814 1820 m
1828 1820 l
st
1821 1821 m
1821 1835 l
st
1814 1821 m
1828 1821 l
st
1912 1897 m
1912 1911 l
st
1905 1897 m
1919 1897 l
st
1912 1898 m
1912 1911 l
st
1905 1898 m
1919 1898 l
st
2002 1958 m
2002 1945 l
st
1995 1958 m
2009 1958 l
st
2002 1959 m
2002 1973 l
st
1995 1959 m
2009 1959 l
st
2092 2010 m
2092 2024 l
st
2085 2010 m
2099 2010 l
st
2092 2011 m
2092 2024 l
st
2085 2011 m
2099 2011 l
st
2183 2049 m
2183 2063 l
st
2176 2049 m
2190 2049 l
st
2183 2050 m
2183 2063 l
st
2176 2050 m
2190 2050 l
st
2273 2080 m
2273 2067 l
st
2266 2080 m
2280 2080 l
st
2273 2081 m
2273 2095 l
st
2266 2081 m
2280 2081 l
st
2363 2104 m
2363 2091 l
st
2356 2104 m
2370 2104 l
st
2363 2105 m
2363 2119 l
st
2356 2105 m
2370 2105 l
st
2453 2123 m
2453 2137 l
st
2446 2123 m
2460 2123 l
st
2453 2123 m
2453 2137 l
st
2446 2123 m
2460 2123 l
st
2544 2137 m
2544 2151 l
st
2537 2137 m
2551 2137 l
st
2544 2138 m
2544 2151 l
st
2537 2138 m
2551 2138 l
st
2634 2148 m
2634 2162 l
st
2627 2148 m
2641 2148 l
st
2634 2148 m
2634 2162 l
st
2627 2148 m
2641 2148 l
st
2724 2156 m
2724 2170 l
st
2717 2156 m
2731 2156 l
st
2724 2156 m
2724 2170 l
st
2717 2156 m
2731 2156 l
st
2815 2162 m
2815 2176 l
st
2808 2162 m
2822 2162 l
st
2815 2163 m
2815 2176 l
st
2808 2163 m
2822 2163 l
st
2905 2167 m
2905 2181 l
st
2898 2167 m
2912 2167 l
st
2905 2167 m
2905 2181 l
st
2898 2167 m
2912 2167 l
st
gr
gs
pathproc 421 74 2982 2108 np rectpath
/eocl cland
np exec
np
466 326 15 0 360  a
cp
gs
1 0 0 rgb
eofi
gr
2 sw
1 0 0 rgb
st
np
556 323 15 0 360  a
cp
gs
eofi
gr
st
np
647 371 15 0 360  a
cp
gs
eofi
gr
st
np
737 423 15 0 360  a
cp
gs
eofi
gr
st
np
827 495 15 0 360  a
cp
gs
eofi
gr
st
np
918 591 15 0 360  a
cp
gs
eofi
gr
st
np
1008 691 15 0 360  a
cp
gs
eofi
gr
st
np
1099 814 15 0 360  a
cp
gs
eofi
gr
st
np
1189 942 15 0 360  a
cp
gs
eofi
gr
st
np
1279 1079 15 0 360  a
cp
gs
eofi
gr
st
np
1370 1225 15 0 360  a
cp
gs
eofi
gr
st
np
1460 1365 15 0 360  a
cp
gs
eofi
gr
st
np
1550 1500 15 0 360  a
cp
gs
eofi
gr
st
np
1640 1621 15 0 360  a
cp
gs
eofi
gr
st
np
1731 1729 15 0 360  a
cp
gs
eofi
gr
st
np
1821 1822 15 0 360  a
cp
gs
eofi
gr
st
np
1912 1898 15 0 360  a
cp
gs
eofi
gr
st
np
2002 1958 15 0 360  a
cp
gs
eofi
gr
st
np
2092 2010 15 0 360  a
cp
gs
eofi
gr
st
np
2183 2050 15 0 360  a
cp
gs
eofi
gr
st
np
2273 2081 15 0 360  a
cp
gs
eofi
gr
st
np
2363 2105 15 0 360  a
cp
gs
eofi
gr
st
np
2453 2124 15 0 360  a
cp
gs
eofi
gr
st
np
2544 2138 15 0 360  a
cp
gs
eofi
gr
st
np
2634 2148 15 0 360  a
cp
gs
eofi
gr
st
np
2724 2156 15 0 360  a
cp
gs
eofi
gr
st
np
2815 2163 15 0 360  a
cp
gs
eofi
gr
st
np
2905 2167 15 0 360  a
cp
gs
eofi
gr
st
np
2996 2171 15 0 360  a
cp
gs
eofi
gr
st
np
3086 2173 15 0 360  a
cp
gs
eofi
gr
st
np
3176 2175 15 0 360  a
cp
gs
eofi
gr
st
np
3267 2176 15 0 360  a
cp
gs
eofi
gr
st
np
3357 2178 15 0 360  a
cp
gs
eofi
gr
st
np
3447 2179 15 0 360  a
cp
gs
eofi
gr
st
gr
gs
pathproc 421 74 2982 2108 np rectpath
/eocl cland
np exec
np
466 328 15 0 360  a
cp
gs
0 1 0 rgb
eofi
gr
2 sw
0 1 0 rgb
st
np
556 325 15 0 360  a
cp
gs
eofi
gr
st
np
647 381 15 0 360  a
cp
gs
eofi
gr
st
np
737 444 15 0 360  a
cp
gs
eofi
gr
st
np
827 501 15 0 360  a
cp
gs
eofi
gr
st
np
918 585 15 0 360  a
cp
gs
eofi
gr
st
np
1008 687 15 0 360  a
cp
gs
eofi
gr
st
np
1099 808 15 0 360  a
cp
gs
eofi
gr
st
np
1189 942 15 0 360  a
cp
gs
eofi
gr
st
np
1279 1083 15 0 360  a
cp
gs
eofi
gr
st
np
1370 1228 15 0 360  a
cp
gs
eofi
gr
st
np
1460 1368 15 0 360  a
cp
gs
eofi
gr
st
np
1550 1501 15 0 360  a
cp
gs
eofi
gr
st
np
1640 1623 15 0 360  a
cp
gs
eofi
gr
st
np
1731 1728 15 0 360  a
cp
gs
eofi
gr
st
np
1821 1819 15 0 360  a
cp
gs
eofi
gr
st
np
1912 1896 15 0 360  a
cp
gs
eofi
gr
st
np
2002 1960 15 0 360  a
cp
gs
eofi
gr
st
np
2092 2010 15 0 360  a
cp
gs
eofi
gr
st
np
2183 2049 15 0 360  a
cp
gs
eofi
gr
st
np
2273 2081 15 0 360  a
cp
gs
eofi
gr
st
np
2363 2105 15 0 360  a
cp
gs
eofi
gr
st
np
2453 2123 15 0 360  a
cp
gs
eofi
gr
st
np
2544 2137 15 0 360  a
cp
gs
eofi
gr
st
np
2634 2148 15 0 360  a
cp
gs
eofi
gr
st
np
2724 2156 15 0 360  a
cp
gs
eofi
gr
st
np
2815 2163 15 0 360  a
cp
gs
eofi
gr
st
np
2905 2167 15 0 360  a
cp
gs
eofi
gr
st
np
2996 2171 15 0 360  a
cp
gs
eofi
gr
st
np
3086 2173 15 0 360  a
cp
gs
eofi
gr
st
np
3176 2175 15 0 360  a
cp
gs
eofi
gr
st
np
3267 2177 15 0 360  a
cp
gs
eofi
gr
st
np
3357 2178 15 0 360  a
cp
gs
eofi
gr
st
np
3447 2179 15 0 360  a
cp
gs
eofi
gr
st
gr
gs
pathproc 421 74 2982 2108 np rectpath
/eocl cland
np exec
466 282 m
466 314 l
3 sw
0 1 0 rgb
st
459 282 m
473 282 l
st
466 375 m
466 342 l
st
459 375 m
473 375 l
st
556 307 m
556 311 l
st
549 307 m
563 307 l
st
556 342 m
556 339 l
st
549 342 m
563 342 l
st
647 370 m
647 367 l
st
640 370 m
654 370 l
st
647 391 m
647 395 l
st
640 391 m
654 391 l
st
737 437 m
737 430 l
st
730 437 m
744 437 l
st
737 451 m
737 458 l
st
730 451 m
744 451 l
st
827 496 m
827 487 l
st
820 496 m
834 496 l
st
827 507 m
827 515 l
st
820 507 m
834 507 l
st
918 581 m
918 571 l
st
911 581 m
925 581 l
st
918 590 m
918 599 l
st
911 590 m
925 590 l
st
1008 683 m
1008 673 l
st
1001 683 m
1015 683 l
st
1008 691 m
1008 701 l
st
1001 691 m
1015 691 l
st
1099 805 m
1099 794 l
st
1092 805 m
1106 805 l
st
1099 811 m
1099 822 l
st
1092 811 m
1106 811 l
st
1189 939 m
1189 928 l
st
1182 939 m
1196 939 l
st
1189 944 m
1189 956 l
st
1182 944 m
1196 944 l
st
1279 1081 m
1279 1069 l
st
1272 1081 m
1286 1081 l
st
1279 1085 m
1279 1097 l
st
1272 1085 m
1286 1085 l
st
1370 1226 m
1370 1214 l
st
1363 1226 m
1377 1226 l
st
1370 1230 m
1370 1242 l
st
1363 1230 m
1377 1230 l
st
1460 1366 m
1460 1354 l
st
1453 1366 m
1467 1366 l
st
1460 1369 m
1460 1382 l
st
1453 1369 m
1467 1369 l
st
1550 1499 m
1550 1487 l
st
1543 1499 m
1557 1499 l
st
1550 1502 m
1550 1515 l
st
1543 1502 m
1557 1502 l
st
1640 1622 m
1640 1609 l
st
1633 1622 m
1647 1622 l
st
1640 1624 m
1640 1637 l
st
1633 1624 m
1647 1624 l
st
1731 1727 m
1731 1714 l
st
1724 1727 m
1738 1727 l
st
1731 1729 m
1731 1742 l
st
1724 1729 m
1738 1729 l
st
1821 1818 m
1821 1805 l
st
1814 1818 m
1828 1818 l
st
1821 1820 m
1821 1833 l
st
1814 1820 m
1828 1820 l
st
1912 1896 m
1912 1910 l
st
1905 1896 m
1919 1896 l
st
1912 1897 m
1912 1910 l
st
1905 1897 m
1919 1897 l
st
2002 1960 m
2002 1974 l
st
1995 1960 m
2009 1960 l
st
2002 1961 m
2002 1974 l
st
1995 1961 m
2009 1961 l
st
2092 2009 m
2092 1996 l
st
2085 2009 m
2099 2009 l
st
2092 2010 m
2092 2024 l
st
2085 2010 m
2099 2010 l
st
2183 2049 m
2183 2063 l
st
2176 2049 m
2190 2049 l
st
2183 2049 m
2183 2063 l
st
2176 2049 m
2190 2049 l
st
2273 2081 m
2273 2095 l
st
2266 2081 m
2280 2081 l
st
2273 2081 m
2273 2095 l
st
2266 2081 m
2280 2081 l
st
2363 2105 m
2363 2119 l
st
2356 2105 m
2370 2105 l
st
2363 2105 m
2363 2119 l
st
2356 2105 m
2370 2105 l
st
2453 2123 m
2453 2137 l
st
2446 2123 m
2460 2123 l
st
2453 2123 m
2453 2137 l
st
2446 2123 m
2460 2123 l
st
2544 2137 m
2544 2151 l
st
2537 2137 m
2551 2137 l
st
2544 2138 m
2544 2151 l
st
2537 2138 m
2551 2138 l
st
2634 2148 m
2634 2162 l
st
2627 2148 m
2641 2148 l
st
2634 2148 m
2634 2162 l
st
2627 2148 m
2641 2148 l
st
2724 2156 m
2724 2170 l
st
2717 2156 m
2731 2156 l
st
2724 2156 m
2724 2170 l
st
2717 2156 m
2731 2156 l
st
2815 2162 m
2815 2149 l
st
2808 2162 m
2822 2162 l
st
2815 2163 m
2815 2177 l
st
2808 2163 m
2822 2163 l
st
2905 2167 m
2905 2181 l
st
2898 2167 m
2912 2167 l
st
2905 2167 m
2905 2181 l
st
2898 2167 m
2912 2167 l
st
gr
gs
pathproc 421 74 2982 2108 np rectpath
/eocl cland
np exec
466 280 m
466 312 l
3 sw
1 0 0 rgb
st
459 280 m
473 280 l
st
466 372 m
466 340 l
st
459 372 m
473 372 l
st
556 306 m
556 309 l
st
549 306 m
563 306 l
st
556 341 m
556 337 l
st
549 341 m
563 341 l
st
647 361 m
647 357 l
st
640 361 m
654 361 l
st
647 382 m
647 385 l
st
640 382 m
654 382 l
st
737 415 m
737 409 l
st
730 415 m
744 415 l
st
737 430 m
737 437 l
st
730 430 m
744 430 l
st
827 490 m
827 481 l
st
820 490 m
834 490 l
st
827 501 m
827 509 l
st
820 501 m
834 501 l
st
918 586 m
918 577 l
st
911 586 m
925 586 l
st
918 595 m
918 605 l
st
911 595 m
925 595 l
st
1008 688 m
1008 677 l
st
1001 688 m
1015 688 l
st
1008 695 m
1008 705 l
st
1001 695 m
1015 695 l
st
1099 811 m
1099 800 l
st
1092 811 m
1106 811 l
st
1099 817 m
1099 828 l
st
1092 817 m
1106 817 l
st
1189 940 m
1189 928 l
st
1182 940 m
1196 940 l
st
1189 945 m
1189 956 l
st
1182 945 m
1196 945 l
st
1279 1076 m
1279 1065 l
st
1272 1076 m
1286 1076 l
st
1279 1081 m
1279 1093 l
st
1272 1081 m
1286 1081 l
st
1370 1223 m
1370 1211 l
st
1363 1223 m
1377 1223 l
st
1370 1226 m
1370 1239 l
st
1363 1226 m
1377 1226 l
st
1460 1364 m
1460 1351 l
st
1453 1364 m
1467 1364 l
st
1460 1367 m
1460 1379 l
st
1453 1367 m
1467 1367 l
st
1550 1498 m
1550 1486 l
st
1543 1498 m
1557 1498 l
st
1550 1501 m
1550 1514 l
st
1543 1501 m
1557 1501 l
st
1640 1620 m
1640 1607 l
st
1633 1620 m
1647 1620 l
st
1640 1622 m
1640 1635 l
st
1633 1622 m
1647 1622 l
st
1731 1728 m
1731 1715 l
st
1724 1728 m
1738 1728 l
st
1731 1730 m
1731 1743 l
st
1724 1730 m
1738 1730 l
st
1821 1821 m
1821 1808 l
st
1814 1821 m
1828 1821 l
st
1821 1822 m
1821 1836 l
st
1814 1822 m
1828 1822 l
st
1912 1897 m
1912 1884 l
st
1905 1897 m
1919 1897 l
st
1912 1898 m
1912 1912 l
st
1905 1898 m
1919 1898 l
st
2002 1958 m
2002 1972 l
st
1995 1958 m
2009 1958 l
st
2002 1959 m
2002 1972 l
st
1995 1959 m
2009 1959 l
st
2092 2009 m
2092 1996 l
st
2085 2009 m
2099 2009 l
st
2092 2010 m
2092 2024 l
st
2085 2010 m
2099 2010 l
st
2183 2050 m
2183 2064 l
st
2176 2050 m
2190 2050 l
st
2183 2050 m
2183 2064 l
st
2176 2050 m
2190 2050 l
st
2273 2081 m
2273 2095 l
st
2266 2081 m
2280 2081 l
st
2273 2081 m
2273 2095 l
st
2266 2081 m
2280 2081 l
st
2363 2105 m
2363 2119 l
st
2356 2105 m
2370 2105 l
st
2363 2105 m
2363 2119 l
st
2356 2105 m
2370 2105 l
st
2453 2123 m
2453 2110 l
st
2446 2123 m
2460 2123 l
st
2453 2124 m
2453 2138 l
st
2446 2124 m
2460 2124 l
st
2544 2137 m
2544 2124 l
st
2537 2137 m
2551 2137 l
st
2544 2138 m
2544 2152 l
st
2537 2138 m
2551 2138 l
st
2634 2148 m
2634 2162 l
st
2627 2148 m
2641 2148 l
st
2634 2148 m
2634 2162 l
st
2627 2148 m
2641 2148 l
st
2724 2156 m
2724 2170 l
st
2717 2156 m
2731 2156 l
st
2724 2157 m
2724 2170 l
st
2717 2157 m
2731 2157 l
st
2815 2162 m
2815 2149 l
st
2808 2162 m
2822 2162 l
st
2815 2163 m
2815 2177 l
st
2808 2163 m
2822 2163 l
st
2905 2167 m
2905 2181 l
st
2898 2167 m
2912 2167 l
st
2905 2167 m
2905 2181 l
st
2898 2167 m
2912 2167 l
st
gr
gs
gs
1 -1 sc
105 -1273 tr
90 ro
/MC2_Symbol 101 self 0 0 m
/s61554 55 xgls
1 -1 sc
gr
gs
1 -1 sc
105 -1218 tr
90 ro
/MC3_Arial 101 self 0 0 m
(\(r\) \(fm)[34 34 34 28 34 28 84 ] xs
1 -1 sc
gr
gs
1 -1 sc
56 -942 tr
90 ro
/MC3_Arial 61 self 0 0 m
(-3)[20 34 ] xs
1 -1 sc
gr
gs
1 -1 sc
105 -888 tr
90 ro
/MC3_Arial 101 self 0 0 m
(\))[34 ] xs
1 -1 sc
gr
gr
gs
1 -1 sc
/MC1_Arial 101 self 1790 -2442 m
(r \(fm\))[34 28 34 28 85 34 ] xs
1 -1 sc
gr
gs
1 -1 sc
/MC1_Arial 120 self 2247 -292 m
(A=4    DMC    PIMC)[80 70 67 33 33 33 33 87 100 87 33 33 33 33 80 33 100 87 ] xs
1 -1 sc
1 -1 sc
2247 -439 m
(Nr.1    )[87 40 33 67 33 33 33 33 ] xs
1 -1 sc
gs
gr
gs
np
2740 399 19 0 360  a
cp
5 sw
0 0 1 rgb
st
gr
1 -1 sc
2874 -439 m
(    )[33 33 33 33 ] xs
1 -1 sc
gs
gr
gs
np
3140 399 14 0 360  a
cp
gs
0 0 1 rgb
eofi
gr
2 sw
0 0 1 rgb
st
gr
1 -1 sc
2247 -586 m
(Nr.2    )[87 40 33 67 33 33 33 33 ] xs
1 -1 sc
gs
gr
gs
np
2740 546 19 0 360  a
cp
5 sw
0 1 0 rgb
st
gr
1 -1 sc
2874 -586 m
(    )[33 33 33 33 ] xs
1 -1 sc
gs
gr
gs
np
3140 546 14 0 360  a
cp
gs
0 1 0 rgb
eofi
gr
2 sw
0 1 0 rgb
st
gr
1 -1 sc
2247 -733 m
(Nr.3    )[87 40 33 67 33 33 33 33 ] xs
1 -1 sc
gs
gr
gs
np
2740 693 19 0 360  a
cp
5 sw
1 0 0 rgb
st
gr
1 -1 sc
2874 -733 m
(    )[33 33 33 33 ] xs
1 -1 sc
gs
gr
gs
np
3140 693 14 0 360  a
cp
gs
1 0 0 rgb
eofi
gr
2 sw
1 0 0 rgb
st
gr
gr
gr
Save0 restore end
showpage
%%EOF
