%!PS-Adobe-3.0 EPSF-3.0
%%BoundingBox: 0 0 772 591
%%LanguageLevel: 2
%%Creator: OriginLab Corporation
%%Title: (C:\Users\Rong\Desktop\SignProblemImprove.eps)
%%CreationDate: Mon Jun 01 00:58:11 2020
%%EndComments

/OriginLab::PSL1 128 dict dup begin def
/Save0 save def
%%BeginResource: procset OriginLab::PSL1
/wd{1 index where{pop pop pop}{bind def}ifelse}bind def
/setcmykcolor{1 sub 4 1 roll 3{3 index add neg dup 0 lt{pop 0}if 3 1 roll}repeat setrgbcolor pop}wd
/selectfont{dup type/arraytype eq{exch findfont exch makefont setfont}{exch findfont exch scalefont setfont}ifelse}wd
/xshow{1 index length 0 le{}{currentpoint exch 3 index length 1 sub 0 exch 1 exch{dup 5 index exch 1 getinterval show 3 index exch get add 2 copy exch moveto}for pop pop}ifelse pop pop}wd
/glyphshow{matrix currentmatrix exch currentfont dup/FontMatrix get concat currentpoint translate
 dup/Metrics get 2 index get 0 4 2 roll gsave/CharProcs get exch 2 copy known not{pop/.notdef}if
 get exec fill grestore moveto setmatrix}wd
/grayimage/image load def/rgbtogray{cvx exec dup length 3 idiv 1 sub 0 exch 1 exch{dup 3 mul dup 3 index exch get 255 div .3 mul exch
 1 add dup 4 index exch get 255 div .59 mul exch 1 add 4 index exch get 255 div .11 mul add add
 255 mul dup 255 gt{255}if round cvi 2 index 3 1 roll put}for dup length 3 idiv 0 exch getinterval}bind def
/colorimage{0 setgray pop pop cvlit/rgbtogray cvx 2 packedarray cvx grayimage}wd
/bd{bind def}bind def/ld{load def}bd/ed{exch def}bd/xd{cvx def}bd
/np/newpath ld/a/arc ld/m/moveto ld/l/lineto ld/c/curveto ld/rm/rmoveto ld/rl/rlineto ld/rc/rcurveto ld/cp/closepath ld/cpt/currentpoint ld
/tr/translate ld/sc/scale ld/ro/rotate ld/t/transform ld/it/itransform ld/dt/dtransform ld/idt/idtransform ld
/mtx/matrix ld/cmtx/currentmatrix ld/dmtx/defaultmatrix ld/smtx/setmatrix ld/catmtx/concatmatrix ld
/sw/setlinewidth ld/scap/setlinecap ld/sj/setlinejoin ld/sm/setmiterlimit ld/sd/setdash ld/rgb/setrgbcolor ld/crgb/currentrgbcolor ld/cmyk/setcmykcolor ld/gs/gsave ld/gr/grestore ld
/st/stroke ld/fi/fill ld/eofi/eofill ld/cl/clip ld/eocl/eoclip ld
/df/definefont ld/ff/findfont ld/sf/setfont ld/scf/scalefont ld/self/selectfont ld/cf/currentfont ld
/s/show ld/xs/xshow ld/gls/glyphshow ld/xgls{cpt 3 1 roll add exch 3 -1 roll gls m}bd
/cd/currentdict ld/i/index ld
/DrawBox{4 2 roll m 1 index 0 rl 0 exch rl neg 0 rl cp}bd
/plus.re { 6 { 3 index } repeat moveto 0 exch rlineto 0 rlineto pop pop neg 0 exch rlineto pop lineto closepath } def
/DrawBcc{4 2 roll m 2 copy 0 lt exch 0 lt xor{dup 0 exch rl exch 0 rl neg 0 exch rl}{exch dup 0 rl exch 0 exch rl neg 0 rl}ifelse cp}bd
/rectline{dup type/arraytype eq{dup length 0 exch 4 exch 4 sub{0 1 3{3 copy add get 4 1 roll pop}for pop 5 1 roll DrawBox}for pop}{DrawBox}ifelse}bd
/rectpath{dup type/arraytype eq{dup length 0 exch 4 exch 4 sub{0 1 3{3 copy add get 4 1 roll pop}for pop 5 1 roll DrawBcc}for pop}{DrawBcc}ifelse}bd
/pathproc{[{/m cvx}{/l cvx}{/c cvx}{/cp cvx}pathforall]cvx}bd
/L1img/image ld/L1idx[{0}
 {dup 7 and 3 1 roll -3 bitshift get exch 7 sub 1 mul bitshift  1 and}bind 1 index dup
 {dup 1 and 3 1 roll -1 bitshift get exch 1 sub 4 mul bitshift 15 and}bind 1 index dup dup
 {get}bind]def
/image{dup type/dicttype eq {dup/ImgCS get 0 get/Indexed eq}{false}ifelse
 {begin Width Height 8 ImageMatrix {rgb_string rgb_lookup
 cd/DataSource get dup type/filetype eq
 {mystring readstring pop}{exec}ifelse
 dup length 0 ne
 {L1idx BitsPerComponent get 0 1 Width 1 sub
 {3 copy exch exec exch 3 mul exch
 3 mul dup 5 index exch get exch 1 add dup 6 index exch get exch 1 add 6 index exch get
 7 index exch 4 index 2 add exch put 6 index exch 3 index 1 add exch put 5 index exch 2 index exch put pop
 }for pop pop pop }{pop pop pop ()}ifelse }false 3 colorimage end} {dup type/dicttype eq
 {{dup mark exch L1img pop pop}stopped{cleartomark begin Width Height BitsPerComponent ImageMatrix
 {cd/DataSource get dup type/filetype eq {mystring readstring pop}{exec}ifelse
 }false 3 colorimage end} if}{L1img}ifelse}ifelse
 }bd
/L1imgmask/imagemask ld/imagemask{dup type/dicttype eq
 {{dup mark exch L1imgmask pop pop}stopped {cleartomark begin Width Height polarityflag ImageMatrix
 {cd/DataSource get dup type/filetype eq {mystring readstring pop}{exec}ifelse
 }L1imgmask end}if}{L1imgmask}ifelse
 }bd
% Gradient function
/GradientStep 1 150 div def
/GradientStartRGB { /R1 exch def /G1 exch def /B1 exch def } def
/GradientEndRGB { /R2 exch def /G2 exch def /B2 exch def
/GradientSteps GradientLength GradientStep div def
/GradientRStep R2 R1 sub GradientSteps div def
/GradientGStep G2 G1 sub GradientSteps div def
/GradientBStep B2 B1 sub GradientSteps div def
} def
/GradientStepRGB { /R1 R1 GradientRStep add def
/G1 G1 GradientGStep add def
/B1 B1 GradientBStep add def
R1 G1 B1 setrgbcolor
} def
%%EndResource
/rectclip{np rectpath clip np}wd
/rectfill{gs np rectpath fi gr}wd
/rectstroke{gs np dup type/arraytype eq{dup length 6 eq}{false}ifelse{1 index type/arraytype eq{exch}{5 1 roll}ifelse rectline concat st}{rectline st}ifelse gr}wd
%%BeginResource: procset OriginLab::Image
/OriginLab::Image 32 dict dup begin
/BinProc{[currentfile mystring /readstring cvx /pop cvx] cvx bind}bd
/HexProc{[currentfile mystring /readhexstring cvx /pop cvx] cvx bind}bd
/Ascii85Proc{currentfile /ASCII85Decode filter}bd
/LZWA85{currentfile /ASCII85Decode filter /LZWDecode filter}bd
/ImgProcArray[/BinProc /HexProc /Ascii85Proc /LZWA85]def
/ImgDict{/ImgDict 16 dict def ImgDict dup begin /ImageType 1 def /MultipleDataSource false def end}bd
/L2Dec{{[1 0]}{[0 1]}ifelse}bd
/BegImg{ /Img_sv save def
 /ImgDir ed ImgProcArray exch get /ImgProc exch ld
 dup /polarityflag ed L2Dec /polarity ed /smoothflag ed
 tr /dx 2 index def /dy 1 index abs def sc
 string /mystring ed /bpc ed /ih ed /iw ed
 }bd
/EndImg {Img_sv restore}bd
/DoXImg{ /rgb_lookup ed /hival ed ImgDict dup begin
 [/Indexed /DeviceRGB hival rgb_lookup] /L1img where{pop/ImgCS ed}{setcolorspace}ifelse
 /rgb_string iw 3 mul string def
 /Width iw def
 /Height ih def
 /Decode [0 1 bpc{2 mul}repeat 1 sub] def
 /ImageMatrix
  ImgDir 0 eq{[iw 0 0 ih 0 0]}if
  ImgDir 1 eq{[iw neg 0 0 ih iw 0]}if
  ImgDir 2 eq{[iw 0 0 ih neg 0 ih]}if
  ImgDir 3 eq{[iw neg 0 0 ih neg iw ih]}if
  def
 /DataSource ImgProc def
 /BitsPerComponent bpc def
 /Interpolate smoothflag def
 end image}bd
/DoImg{ ImgDict dup begin
 [/DeviceRGB] /L1img where{pop/ImgCS ed}{setcolorspace}ifelse
 /rgb_string iw 3 mul string def
 /Width iw def
 /Height ih def
 /Decode [0 1 0 1 0 1] def
 /ImageMatrix
  ImgDir 0 eq{[iw 0 0 ih 0 0]}if
  ImgDir 1 eq{[iw neg 0 0 ih iw 0]}if
  ImgDir 2 eq{[iw 0 0 ih neg 0 ih]}if
  ImgDir 3 eq{[iw neg 0 0 ih neg iw ih]}if
  def
 /DataSource ImgProc def
 /BitsPerComponent 8 def
 /Interpolate smoothflag def
 end image}bd
end def
%%EndResource
/initmtx mtx cmtx def
%%BeginFont: /MC1_Arial
12 dict begin
/FontInfo 8 dict dup begin
/ItalicAngle 0 def
/UnderlinePosition -217.00 def
/UnderlineThickness 150.00 def
/StrikeoutPosition 530.00 def
/StrikeoutThickness 102.00 def
/isFixedPitch false def
end readonly def
/FontName /MC1_Arial def
/FontType 3 def
/FontMatrix [1 2048 div 0 0 1 2048 div 0 0] def
/FontBBox [-1361 -665 4096 2129] def
/Encoding 256 array def 0 1 255{Encoding exch/.notdef put}for
Encoding 32/s32 put
Encoding 40/s40 put
Encoding 41/s41 put
Encoding 43/s43 put
Encoding 45/s45 put
Encoding 47/s47 put
Encoding 48/s48 put
Encoding 49/s49 put
Encoding 50/s50 put
Encoding 51/s51 put
Encoding 52/s52 put
Encoding 53/s53 put
Encoding 54/s54 put
Encoding 55/s55 put
Encoding 56/s56 put
Encoding 57/s57 put
Encoding 61/s61 put
Encoding 99/s99 put
Encoding 102/s102 put
Encoding 111/s111 put
Encoding 112/s112 put
Encoding 115/s115 put
Encoding 120/s120 put
Encoding 124/s124 put
/BoundingBoxes 25 dict def
BoundingBoxes begin
/s32 [0 -434 569 1854] def
/s40 [0 -434 682 1854] def
/s41 [0 -434 682 1854] def
/s43 [0 -434 1196 1854] def
/s45 [0 -434 682 1854] def
/s47 [0 -434 569 1854] def
/s48 [0 -434 1139 1854] def
/s49 [0 -434 1139 1854] def
/s50 [0 -434 1139 1854] def
/s51 [0 -434 1139 1854] def
/s52 [0 -434 1139 1854] def
/s53 [0 -434 1139 1854] def
/s54 [0 -434 1139 1854] def
/s55 [0 -434 1139 1854] def
/s56 [0 -434 1139 1854] def
/s57 [0 -434 1139 1854] def
/s61 [0 -434 1196 1854] def
/s99 [0 -434 1024 1854] def
/s102 [0 -434 569 1854] def
/s111 [0 -434 1139 1854] def
/s112 [0 -434 1139 1854] def
/s115 [0 -434 1024 1854] def
/s120 [0 -434 1024 1854] def
/s124 [0 -434 532 1854] def
end
/Metrics 25 dict def
 Metrics begin
/s32 569 def
/s40 682 def
/s41 682 def
/s43 1196 def
/s45 682 def
/s47 569 def
/s48 1139 def
/s49 1139 def
/s50 1139 def
/s51 1139 def
/s52 1139 def
/s53 1139 def
/s54 1139 def
/s55 1139 def
/s56 1139 def
/s57 1139 def
/s61 1196 def
/s99 1024 def
/s102 569 def
/s111 1139 def
/s112 1139 def
/s115 1024 def
/s120 1024 def
/s124 532 def
end
/CharProcs 25 dict def
CharProcs begin
/.notdef {} def
/s40 {
479 -431 m
379.67 -305.67 295.67 -159 227 9 c
158.33 177 124 351 124 531 c
124 689.67 149.67 841.67 201 987 c
261 1155.67 353.67 1323.67 479 1491 c
608 1491 479 1491 608 1491 c
527.33 1352.33 474 1253.33 448 1194 c
407.33 1102 375.33 1006 352 906 c
323.33 781.33 309 656 309 530 c
309 209.33 408.67 -111 608 -431 c
479 -431 608 -431 479 -431 c
closepath } bind def
/s41 {
253 -431 m
124 -431 253 -431 124 -431 c
323.33 -111 423 209.33 423 530 c
423 655.33 408.67 779.67 380 903 c
357.33 1003 325.67 1099 285 1191 c
259 1251 205.33 1351 124 1491 c
253 1491 124 1491 253 1491 c
378.33 1323.67 471 1155.67 531 987 c
582.33 841.67 608 689.67 608 531 c
608 351 573.5 177 504.5 9 c
435.5 -159 351.67 -305.67 253 -431 c
closepath } bind def
/s43 {
513 237 m
513 639 513 237 513 639 c
114 639 513 639 114 639 c
114 807 114 639 114 807 c
513 807 114 807 513 807 c
513 1206 513 807 513 1206 c
683 1206 513 1206 683 1206 c
683 807 683 1206 683 807 c
1082 807 683 807 1082 807 c
1082 639 1082 807 1082 639 c
683 639 1082 639 683 639 c
683 237 683 639 683 237 c
513 237 683 237 513 237 c
closepath } bind def
/s45 {
65 440 m
65 621 65 440 65 621 c
618 621 65 621 618 621 c
618 440 618 621 618 440 c
65 440 618 440 65 440 c
closepath } bind def
/s47 {
0 -25 m
425 1491 0 -25 425 1491 c
569 1491 425 1491 569 1491 c
145 -25 569 1491 145 -25 c
0 -25 145 -25 0 -25 c
closepath } bind def
/s48 {
85 723 m
85 896.33 102.83 1035.83 138.5 1141.5 c
174.17 1247.17 227.17 1328.67 297.5 1386 c
367.83 1443.33 456.33 1472 563 1472 c
641.67 1472 710.67 1456.17 770 1424.5 c
829.33 1392.83 878.33 1347.17 917 1287.5 c
955.67 1227.83 986 1155.17 1008 1069.5 c
1030 983.83 1041 868.33 1041 723 c
1041 551 1023.33 412.17 988 306.5 c
952.67 200.83 899.83 119.17 829.5 61.5 c
759.17 3.83 670.33 -25 563 -25 c
421.67 -25 310.67 25.67 230 127 c
133.33 249 85 447.67 85 723 c
closepath 270 723 m
270 482.33 298.17 322.17 354.5 242.5 c
410.83 162.83 480.33 123 563 123 c
645.67 123 715.17 163 771.5 243 c
827.83 323 856 483 856 723 c
856 964.33 827.83 1124.67 771.5 1204 c
715.17 1283.33 645 1323 561 1323 c
478.33 1323 412.33 1288 363 1218 c
301 1128.67 270 963.67 270 723 c
closepath } bind def
/s49 {
763 0 m
583 0 763 0 583 0 c
583 1147 583 0 583 1147 c
539.67 1105.67 482.83 1064.33 412.5 1023 c
342.17 981.67 279 950.67 223 930 c
223 1104 223 930 223 1104 c
323.67 1151.33 411.67 1208.67 487 1276 c
562.33 1343.33 615.67 1408.67 647 1472 c
763 1472 647 1472 763 1472 c
763 0 763 1472 763 0 c
closepath } bind def
/s50 {
1031 173 m
1031 0 1031 173 1031 0 c
62 0 1031 0 62 0 c
60.67 43.33 67.67 85 83 125 c
107.67 191 147.17 256 201.5 320 c
255.83 384 334.33 458 437 542 c
596.33 672.67 704 776.17 760 852.5 c
816 928.83 844 1001 844 1069 c
844 1140.33 818.5 1200.5 767.5 1249.5 c
716.5 1298.5 650 1323 568 1323 c
481.33 1323 412 1297 360 1245 c
308 1193 281.67 1121 281 1029 c
96 1048 281 1029 96 1048 c
108.67 1186 156.33 1291.17 239 1363.5 c
321.67 1435.83 432.67 1472 572 1472 c
712.67 1472 824 1433 906 1355 c
988 1277 1029 1180.33 1029 1065 c
1029 1006.33 1017 948.67 993 892 c
969 835.33 929.17 775.67 873.5 713 c
817.83 650.33 725.33 564.33 596 455 c
488 364.33 418.67 302.83 388 270.5 c
357.33 238.17 332 205.67 312 173 c
1031 173 312 173 1031 173 c
closepath } bind def
/s51 {
86 387 m
266 411 86 387 266 411 c
286.67 309 321.83 235.5 371.5 190.5 c
421.17 145.5 481.67 123 553 123 c
637.67 123 709.17 152.33 767.5 211 c
825.83 269.67 855 342.33 855 429 c
855 511.67 828 579.83 774 633.5 c
720 687.17 651.33 714 568 714 c
534 714 491.67 707.33 441 694 c
461 852 441 694 461 852 c
473 850.67 482.67 850 490 850 c
566.67 850 635.67 870 697 910 c
758.33 950 789 1011.67 789 1095 c
789 1161 766.67 1215.67 722 1259 c
677.33 1302.33 619.67 1324 549 1324 c
479 1324 420.67 1302 374 1258 c
327.33 1214 297.33 1148 284 1060 c
104 1092 284 1060 104 1092 c
126 1212.67 176 1306.17 254 1372.5 c
332 1438.83 429 1472 545 1472 c
625 1472 698.67 1454.83 766 1420.5 c
833.33 1386.17 884.83 1339.33 920.5 1280 c
956.17 1220.67 974 1157.67 974 1091 c
974 1027.67 957 970 923 918 c
889 866 838.67 824.67 772 794 c
858.67 774 926 732.5 974 669.5 c
1022 606.5 1046 527.67 1046 433 c
1046 305 999.33 196.5 906 107.5 c
812.67 18.5 694.67 -26 552 -26 c
423.33 -26 316.5 12.33 231.5 89 c
146.5 165.67 98 265 86 387 c
closepath } bind def
/s52 {
662 0 m
662 351 662 0 662 351 c
26 351 662 351 26 351 c
26 516 26 351 26 516 c
695 1466 26 516 695 1466 c
842 1466 695 1466 842 1466 c
842 516 842 1466 842 516 c
1040 516 842 516 1040 516 c
1040 351 1040 516 1040 351 c
842 351 1040 351 842 351 c
842 0 842 351 842 0 c
662 0 842 0 662 0 c
closepath 662 516 m
662 1177 662 516 662 1177 c
203 516 662 1177 203 516 c
662 516 203 516 662 516 c
closepath } bind def
/s53 {
85 384 m
274 400 85 384 274 400 c
288 308 320.5 238.83 371.5 192.5 c
422.5 146.17 484 123 556 123 c
642.67 123 716 155.67 776 221 c
836 286.33 866 373 866 481 c
866 583.67 837.17 664.67 779.5 724 c
721.83 783.33 646.33 813 553 813 c
495 813 442.67 799.83 396 773.5 c
349.33 747.17 312.67 713 286 671 c
117 693 286 671 117 693 c
259 1446 117 693 259 1446 c
988 1446 259 1446 988 1446 c
988 1274 988 1446 988 1274 c
403 1274 988 1274 403 1274 c
324 880 403 1274 324 880 c
412 941.33 504.33 972 601 972 c
729 972 837 927.67 925 839 c
1013 750.33 1057 636.33 1057 497 c
1057 364.33 1018.33 249.67 941 153 c
847 34.33 718.67 -25 556 -25 c
422.67 -25 313.83 12.33 229.5 87 c
145.17 161.67 97 260.67 85 384 c
closepath } bind def
/s54 {
1019 1107 m
840 1093 1019 1107 840 1093 c
824 1163.67 801.33 1215 772 1247 c
723.33 1298.33 663.33 1324 592 1324 c
534.67 1324 484.33 1308 441 1276 c
384.33 1234.67 339.67 1174.33 307 1095 c
274.33 1015.67 257.33 902.67 256 756 c
299.33 822 352.33 871 415 903 c
477.67 935 543.33 951 612 951 c
732 951 834.17 906.83 918.5 818.5 c
1002.83 730.17 1045 616 1045 476 c
1045 384 1025.17 298.5 985.5 219.5 c
945.83 140.5 891.33 80 822 38 c
752.67 -4 674 -25 586 -25 c
436 -25 313.67 30.17 219 140.5 c
124.33 250.83 77 432.67 77 686 c
77 969.33 129.33 1175.33 234 1304 c
325.33 1416 448.33 1472 603 1472 c
718.33 1472 812.83 1439.67 886.5 1375 c
960.17 1310.33 1004.33 1221 1019 1107 c
closepath 284 475 m
284 413 297.17 353.67 323.5 297 c
349.83 240.33 386.67 197.17 434 167.5 c
481.33 137.83 531 123 583 123 c
659 123 724.33 153.67 779 215 c
833.67 276.33 861 359.67 861 465 c
861 566.33 834 646.17 780 704.5 c
726 762.83 658 792 576 792 c
494.67 792 425.67 762.83 369 704.5 c
312.33 646.17 284 569.67 284 475 c
closepath } bind def
/s55 {
97 1274 m
97 1447 97 1274 97 1447 c
1046 1447 97 1447 1046 1447 c
1046 1307 1046 1447 1046 1307 c
952.67 1207.67 860.17 1075.67 768.5 911 c
676.83 746.33 606 577 556 403 c
520 280.33 497 146 487 0 c
302 0 487 0 302 0 c
304 115.33 326.67 254.67 370 418 c
413.33 581.33 475.5 738.83 556.5 890.5 c
637.5 1042.17 723.67 1170 815 1274 c
97 1274 815 1274 97 1274 c
closepath } bind def
/s56 {
362 795 m
287.33 822.33 232 861.33 196 912 c
160 962.67 142 1023.33 142 1094 c
142 1200.67 180.33 1290.33 257 1363 c
333.67 1435.67 435.67 1472 563 1472 c
691 1472 794 1434.83 872 1360.5 c
950 1286.17 989 1195.67 989 1089 c
989 1021 971.17 961.83 935.5 911.5 c
899.83 861.17 845.67 822.33 773 795 c
863 765.67 931.5 718.33 978.5 653 c
1025.5 587.67 1049 509.67 1049 419 c
1049 293.67 1004.67 188.33 916 103 c
827.33 17.67 710.67 -25 566 -25 c
421.33 -25 304.67 17.83 216 103.5 c
127.33 189.17 83 296 83 424 c
83 519.33 107.17 599.17 155.5 663.5 c
203.83 727.83 272.67 771.67 362 795 c
closepath 326 1100 m
326 1030.67 348.33 974 393 930 c
437.67 886 495.67 864 567 864 c
636.33 864 693.17 885.83 737.5 929.5 c
781.83 973.17 804 1026.67 804 1090 c
804 1156 781.17 1211.5 735.5 1256.5 c
689.83 1301.5 633 1324 565 1324 c
496.33 1324 439.33 1302 394 1258 c
348.67 1214 326 1161.33 326 1100 c
closepath 268 423 m
268 371.67 280.17 322 304.5 274 c
328.83 226 365 188.83 413 162.5 c
461 136.17 512.67 123 568 123 c
654 123 725 150.67 781 206 c
837 261.33 865 331.67 865 417 c
865 503.67 836.17 575.33 778.5 632 c
720.83 688.67 648.67 717 562 717 c
477.33 717 407.17 689 351.5 633 c
295.83 577 268 507 268 423 c
closepath } bind def
/s57 {
112 339 m
285 355 112 339 285 355 c
299.67 273.67 327.67 214.67 369 178 c
410.33 141.33 463.33 123 528 123 c
583.33 123 631.83 135.67 673.5 161 c
715.17 186.33 749.33 220.17 776 262.5 c
802.67 304.83 825 362 843 434 c
861 506 870 579.33 870 654 c
870 662 869.67 674 869 690 c
833 632.67 783.83 586.17 721.5 550.5 c
659.17 514.83 591.67 497 519 497 c
397.67 497 295 541 211 629 c
127 717 85 833 85 977 c
85 1125.67 128.83 1245.33 216.5 1336 c
304.17 1426.67 414 1472 546 1472 c
641.33 1472 728.5 1446.33 807.5 1395 c
886.5 1343.67 946.5 1270.5 987.5 1175.5 c
1028.5 1080.5 1049 943 1049 763 c
1049 575.67 1028.67 426.5 988 315.5 c
947.33 204.5 886.83 120 806.5 62 c
726.17 4 632 -25 524 -25 c
409.33 -25 315.67 6.83 243 70.5 c
170.33 134.17 126.67 223.67 112 339 c
closepath 849 986 m
849 1089.33 821.5 1171.33 766.5 1232 c
711.5 1292.67 645.33 1323 568 1323 c
488 1323 418.33 1290.33 359 1225 c
299.67 1159.67 270 1075 270 971 c
270 877.67 298.17 801.83 354.5 743.5 c
410.83 685.17 480.33 656 563 656 c
646.33 656 714.83 685.17 768.5 743.5 c
822.17 801.83 849 882.67 849 986 c
closepath } bind def
/s61 {
1082 862 m
114 862 1082 862 114 862 c
114 1030 114 862 114 1030 c
1082 1030 114 1030 1082 1030 c
1082 862 1082 1030 1082 862 c
closepath 1082 417 m
114 417 1082 417 114 417 c
114 585 114 417 114 585 c
1082 585 114 585 1082 585 c
1082 417 1082 585 1082 417 c
closepath } bind def
/s99 {
828 389 m
1005 366 828 389 1005 366 c
985.67 244 936.17 148.5 856.5 79.5 c
776.83 10.5 679 -24 563 -24 c
417.67 -24 300.83 23.5 212.5 118.5 c
124.17 213.5 80 349.67 80 527 c
80 641.67 99 742 137 828 c
175 914 232.83 978.5 310.5 1021.5 c
388.17 1064.5 472.67 1086 564 1086 c
679.33 1086 773.67 1056.83 847 998.5 c
920.33 940.17 967.33 857.33 988 750 c
813 723 988 750 813 723 c
796.33 794.33 766.83 848 724.5 884 c
682.17 920 631 938 571 938 c
480.33 938 406.67 905.5 350 840.5 c
293.33 775.5 265 672.67 265 532 c
265 389.33 292.33 285.67 347 221 c
401.67 156.33 473 124 561 124 c
631.67 124 690.67 145.67 738 189 c
785.33 232.33 815.33 299 828 389 c
closepath } bind def
/s102 {
178 0 m
178 922 178 0 178 922 c
19 922 178 922 19 922 c
19 1062 19 922 19 1062 c
178 1062 19 1062 178 1062 c
178 1175 178 1062 178 1175 c
178 1246.33 184.33 1299.33 197 1334 c
214.33 1380.67 244.83 1418.5 288.5 1447.5 c
332.17 1476.5 393.33 1491 472 1491 c
522.67 1491 578.67 1485 640 1473 c
613 1316 640 1473 613 1316 c
575.67 1322.67 540.33 1326 507 1326 c
452.33 1326 413.67 1314.33 391 1291 c
368.33 1267.67 357 1224 357 1160 c
357 1062 357 1160 357 1062 c
564 1062 357 1062 564 1062 c
564 922 564 1062 564 922 c
357 922 564 922 357 922 c
357 0 357 922 357 0 c
178 0 357 0 178 0 c
closepath } bind def
/s111 {
68 531 m
68 727.67 122.67 873.33 232 968 c
323.33 1046.67 434.67 1086 566 1086 c
712 1086 831.33 1038.17 924 942.5 c
1016.67 846.83 1063 714.67 1063 546 c
1063 409.33 1042.5 301.83 1001.5 223.5 c
960.5 145.17 900.83 84.33 822.5 41 c
744.17 -2.33 658.67 -24 566 -24 c
417.33 -24 297.17 23.67 205.5 119 c
113.83 214.33 68 351.67 68 531 c
closepath 253 531 m
253 395 282.67 293.17 342 225.5 c
401.33 157.83 476 124 566 124 c
655.33 124 729.67 158 789 226 c
848.33 294 878 397.67 878 537 c
878 668.33 848.17 767.83 788.5 835.5 c
728.83 903.17 654.67 937 566 937 c
476 937 401.33 903.33 342 836 c
282.67 768.67 253 667 253 531 c
closepath } bind def
/s112 {
135 -407 m
135 1062 135 -407 135 1062 c
299 1062 135 1062 299 1062 c
299 924 299 1062 299 924 c
337.67 978 381.33 1018.5 430 1045.5 c
478.67 1072.5 537.67 1086 607 1086 c
697.67 1086 777.67 1062.67 847 1016 c
916.33 969.33 968.67 903.5 1004 818.5 c
1039.33 733.5 1057 640.33 1057 539 c
1057 430.33 1037.5 332.5 998.5 245.5 c
959.5 158.5 902.83 91.83 828.5 45.5 c
754.17 -0.83 676 -24 594 -24 c
534 -24 480.17 -11.33 432.5 14 c
384.83 39.33 345.67 71.33 315 110 c
315 -407 315 110 315 -407 c
135 -407 315 -407 135 -407 c
closepath 298 525 m
298 388.33 325.67 287.33 381 222 c
436.33 156.67 503.33 124 582 124 c
662 124 730.5 157.83 787.5 225.5 c
844.5 293.17 873 398 873 540 c
873 675.33 845.17 776.67 789.5 844 c
733.83 911.33 667.33 945 590 945 c
513.33 945 445.5 909.17 386.5 837.5 c
327.5 765.83 298 661.67 298 525 c
closepath } bind def
/s115 {
63 317 m
241 345 63 317 241 345 c
251 273.67 278.83 219 324.5 181 c
370.17 143 434 124 516 124 c
598.67 124 660 140.83 700 174.5 c
740 208.17 760 247.67 760 293 c
760 333.67 742.33 365.67 707 389 c
682.33 405 621 425.33 523 450 c
391 483.33 299.5 512.17 248.5 536.5 c
197.5 560.83 158.83 594.5 132.5 637.5 c
106.17 680.5 93 728 93 780 c
93 827.33 103.83 871.17 125.5 911.5 c
147.17 951.83 176.67 985.33 214 1012 c
242 1032.67 280.17 1050.17 328.5 1064.5 c
376.83 1078.83 428.67 1086 484 1086 c
567.33 1086 640.5 1074 703.5 1050 c
766.5 1026 813 993.5 843 952.5 c
873 911.5 893.67 856.67 905 788 c
729 764 905 788 729 764 c
721 818.67 697.83 861.33 659.5 892 c
621.17 922.67 567 938 497 938 c
414.33 938 355.33 924.33 320 897 c
284.67 869.67 267 837.67 267 801 c
267 777.67 274.33 756.67 289 738 c
303.67 718.67 326.67 702.67 358 690 c
376 683.33 429 668 517 644 c
644.33 610 733.17 582.17 783.5 560.5 c
833.83 538.83 873.33 507.33 902 466 c
930.67 424.67 945 373.33 945 312 c
945 252 927.5 195.5 892.5 142.5 c
857.5 89.5 807 48.5 741 19.5 c
675 -9.5 600.33 -24 517 -24 c
379 -24 273.83 4.67 201.5 62 c
129.17 119.33 83 204.33 63 317 c
closepath } bind def
/s120 {
15 0 m
403 552 15 0 403 552 c
44 1062 403 552 44 1062 c
269 1062 44 1062 269 1062 c
432 813 269 1062 432 813 c
462.67 765.67 487.33 726 506 694 c
535.33 738 562.33 777 587 811 c
766 1062 587 811 766 1062 c
981 1062 766 1062 981 1062 c
614 562 981 1062 614 562 c
1009 0 614 562 1009 0 c
788 0 1009 0 788 0 c
570 330 788 0 570 330 c
512 419 570 330 512 419 c
233 0 512 419 233 0 c
15 0 233 0 15 0 c
closepath } bind def
/s124 {
188 -431 m
188 1491 188 -431 188 1491 c
345 1491 188 1491 345 1491 c
345 -431 345 1491 345 -431 c
188 -431 345 -431 188 -431 c
closepath } bind def
end
/BuildGlyph {
 exch dup /Metrics get 2 index get 0 setcharwidth
/CharProcs get exch 2 copy known not{pop/.notdef}if get exec fill}bind def
/BuildChar {
1 index /Encoding get exch get
1 index /BuildGlyph get exec
} bind def
currentdict end /MC1_Arial exch definefont pop
%%EndFont
%%BeginFont: /MC2_Arial
12 dict begin
/FontInfo 8 dict dup begin
/ItalicAngle 0 def
/UnderlinePosition -217.00 def
/UnderlineThickness 150.00 def
/StrikeoutPosition 530.00 def
/StrikeoutThickness 102.00 def
/isFixedPitch false def
end readonly def
/FontName /MC2_Arial def
/FontType 3 def
/FontMatrix [1 2048 div 0 0 1 2048 div 0 0] def
/FontBBox [-1361 -665 4096 2129] def
/Encoding 256 array def 0 1 255{Encoding exch/.notdef put}for
Encoding 32/s32 put
Encoding 70/s70 put
Encoding 99/s99 put
Encoding 105/s105 put
Encoding 110/s110 put
Encoding 111/s111 put
Encoding 115/s115 put
Encoding 116/s116 put
Encoding 117/s117 put
/BoundingBoxes 10 dict def
BoundingBoxes begin
/s32 [0 -434 569 1854] def
/s70 [0 -434 1251 1854] def
/s99 [0 -434 1024 1854] def
/s105 [0 -434 455 1854] def
/s110 [0 -434 1139 1854] def
/s111 [0 -434 1139 1854] def
/s115 [0 -434 1024 1854] def
/s116 [0 -434 569 1854] def
/s117 [0 -434 1139 1854] def
end
/Metrics 10 dict def
 Metrics begin
/s32 569 def
/s70 1251 def
/s99 1024 def
/s105 455 def
/s110 1139 def
/s111 1139 def
/s115 1024 def
/s116 569 def
/s117 1139 def
end
/CharProcs 10 dict def
CharProcs begin
/.notdef {} def
/s70 {
168 0 m
168 1466 168 0 168 1466 c
1157 1466 168 1466 1157 1466 c
1157 1293 1157 1466 1157 1293 c
362 1293 1157 1293 362 1293 c
362 839 362 1293 362 839 c
1050 839 362 839 1050 839 c
1050 666 1050 839 1050 666 c
362 666 1050 666 362 666 c
362 0 362 666 362 0 c
168 0 362 0 168 0 c
closepath } bind def
/s99 {
828 389 m
1005 366 828 389 1005 366 c
985.67 244 936.17 148.5 856.5 79.5 c
776.83 10.5 679 -24 563 -24 c
417.67 -24 300.83 23.5 212.5 118.5 c
124.17 213.5 80 349.67 80 527 c
80 641.67 99 742 137 828 c
175 914 232.83 978.5 310.5 1021.5 c
388.17 1064.5 472.67 1086 564 1086 c
679.33 1086 773.67 1056.83 847 998.5 c
920.33 940.17 967.33 857.33 988 750 c
813 723 988 750 813 723 c
796.33 794.33 766.83 848 724.5 884 c
682.17 920 631 938 571 938 c
480.33 938 406.67 905.5 350 840.5 c
293.33 775.5 265 672.67 265 532 c
265 389.33 292.33 285.67 347 221 c
401.67 156.33 473 124 561 124 c
631.67 124 690.67 145.67 738 189 c
785.33 232.33 815.33 299 828 389 c
closepath } bind def
/s105 {
136 1259 m
136 1466 136 1259 136 1466 c
316 1466 136 1466 316 1466 c
316 1259 316 1466 316 1259 c
136 1259 316 1259 136 1259 c
closepath 136 0 m
136 1062 136 0 136 1062 c
316 1062 136 1062 316 1062 c
316 0 316 1062 316 0 c
136 0 316 0 136 0 c
closepath } bind def
/s110 {
135 0 m
135 1062 135 0 135 1062 c
297 1062 135 1062 297 1062 c
297 911 297 1062 297 911 c
375 1027.67 487.67 1086 635 1086 c
699 1086 757.83 1074.5 811.5 1051.5 c
865.17 1028.5 905.33 998.33 932 961 c
958.67 923.67 977.33 879.33 988 828 c
994.67 794.67 998 736.33 998 653 c
998 0 998 653 998 0 c
818 0 998 0 818 0 c
818 646 818 0 818 646 c
818 719.33 811 774.17 797 810.5 c
783 846.83 758.17 875.83 722.5 897.5 c
686.83 919.17 645 930 597 930 c
520.33 930 454.17 905.67 398.5 857 c
342.83 808.33 315 716 315 580 c
315 0 315 580 315 0 c
135 0 315 0 135 0 c
closepath } bind def
/s111 {
68 531 m
68 727.67 122.67 873.33 232 968 c
323.33 1046.67 434.67 1086 566 1086 c
712 1086 831.33 1038.17 924 942.5 c
1016.67 846.83 1063 714.67 1063 546 c
1063 409.33 1042.5 301.83 1001.5 223.5 c
960.5 145.17 900.83 84.33 822.5 41 c
744.17 -2.33 658.67 -24 566 -24 c
417.33 -24 297.17 23.67 205.5 119 c
113.83 214.33 68 351.67 68 531 c
closepath 253 531 m
253 395 282.67 293.17 342 225.5 c
401.33 157.83 476 124 566 124 c
655.33 124 729.67 158 789 226 c
848.33 294 878 397.67 878 537 c
878 668.33 848.17 767.83 788.5 835.5 c
728.83 903.17 654.67 937 566 937 c
476 937 401.33 903.33 342 836 c
282.67 768.67 253 667 253 531 c
closepath } bind def
/s115 {
63 317 m
241 345 63 317 241 345 c
251 273.67 278.83 219 324.5 181 c
370.17 143 434 124 516 124 c
598.67 124 660 140.83 700 174.5 c
740 208.17 760 247.67 760 293 c
760 333.67 742.33 365.67 707 389 c
682.33 405 621 425.33 523 450 c
391 483.33 299.5 512.17 248.5 536.5 c
197.5 560.83 158.83 594.5 132.5 637.5 c
106.17 680.5 93 728 93 780 c
93 827.33 103.83 871.17 125.5 911.5 c
147.17 951.83 176.67 985.33 214 1012 c
242 1032.67 280.17 1050.17 328.5 1064.5 c
376.83 1078.83 428.67 1086 484 1086 c
567.33 1086 640.5 1074 703.5 1050 c
766.5 1026 813 993.5 843 952.5 c
873 911.5 893.67 856.67 905 788 c
729 764 905 788 729 764 c
721 818.67 697.83 861.33 659.5 892 c
621.17 922.67 567 938 497 938 c
414.33 938 355.33 924.33 320 897 c
284.67 869.67 267 837.67 267 801 c
267 777.67 274.33 756.67 289 738 c
303.67 718.67 326.67 702.67 358 690 c
376 683.33 429 668 517 644 c
644.33 610 733.17 582.17 783.5 560.5 c
833.83 538.83 873.33 507.33 902 466 c
930.67 424.67 945 373.33 945 312 c
945 252 927.5 195.5 892.5 142.5 c
857.5 89.5 807 48.5 741 19.5 c
675 -9.5 600.33 -24 517 -24 c
379 -24 273.83 4.67 201.5 62 c
129.17 119.33 83 204.33 63 317 c
closepath } bind def
/s116 {
528 161 m
554 2 528 161 554 2 c
503.33 -8.67 458 -14 418 -14 c
352.67 -14 302 -3.67 266 17 c
230 37.67 204.67 64.83 190 98.5 c
175.33 132.17 168 203 168 311 c
168 922 168 311 168 922 c
36 922 168 922 36 922 c
36 1062 36 922 36 1062 c
168 1062 36 1062 168 1062 c
168 1325 168 1062 168 1325 c
347 1433 168 1325 347 1433 c
347 1062 347 1433 347 1062 c
528 1062 347 1062 528 1062 c
528 922 528 1062 528 922 c
347 922 528 922 347 922 c
347 301 347 922 347 301 c
347 249.67 350.17 216.67 356.5 202 c
362.83 187.33 373.17 175.67 387.5 167 c
401.83 158.33 422.33 154 449 154 c
469 154 495.33 156.33 528 161 c
closepath } bind def
/s117 {
831 0 m
831 156 831 0 831 156 c
748.33 36 636 -24 494 -24 c
431.33 -24 372.83 -12 318.5 12 c
264.17 36 223.83 66.17 197.5 102.5 c
171.17 138.83 152.67 183.33 142 236 c
134.67 271.33 131 327.33 131 404 c
131 1062 131 404 131 1062 c
311 1062 131 1062 311 1062 c
311 473 311 1062 311 473 c
311 379 314.67 315.67 322 283 c
333.33 235.67 357.33 198.5 394 171.5 c
430.67 144.5 476 131 530 131 c
584 131 634.67 144.83 682 172.5 c
729.33 200.17 762.83 237.83 782.5 285.5 c
802.17 333.17 812 402.33 812 493 c
812 1062 812 493 812 1062 c
992 1062 812 1062 992 1062 c
992 0 992 1062 992 0 c
831 0 992 0 831 0 c
closepath } bind def
end
/BuildGlyph {
 exch dup /Metrics get 2 index get 0 setcharwidth
/CharProcs get exch 2 copy known not{pop/.notdef}if get exec fill}bind def
/BuildChar {
1 index /Encoding get exch get
1 index /BuildGlyph get exec
} bind def
currentdict end /MC2_Arial exch definefont pop
%%EndFont
%%BeginFont: /MC3_Symbol
12 dict begin
/FontInfo 8 dict dup begin
/ItalicAngle 0 def
/UnderlinePosition -223.00 def
/UnderlineThickness 100.00 def
/StrikeoutPosition 530.00 def
/StrikeoutThickness 102.00 def
/isFixedPitch false def
end readonly def
/FontName /MC3_Symbol def
/FontType 3 def
/FontMatrix [1 2048 div 0 0 1 2048 div 0 0] def
/FontBBox [-1 -450 2279 2059] def
/Encoding 256 array def 0 1 255{Encoding exch/.notdef put}for
Encoding 32/s32 put
/BoundingBoxes 3 dict def
BoundingBoxes begin
/s32 [0 -450 512 2059] def
/s61552 [0 -450 0 2059] def
end
/Metrics 3 dict def
 Metrics begin
/s32 512 def
/s61552 0 def
end
/CharProcs 3 dict def
CharProcs begin
/.notdef {} def
/s61552 {
1049 916 m
1049 771 1049 916 1049 771 c
807 771 1049 771 807 771 c
783.67 618.33 772 472 772 332 c
772 263.33 784 214.17 808 184.5 c
832 154.83 862 140 898 140 c
926.67 140 951.67 150 973 170 c
994.33 190 1008 219 1014 257 c
1049 257 1014 257 1049 257 c
1037.67 151.67 1012.5 77.33 973.5 34 c
934.5 -9.33 890.67 -31 842 -31 c
790 -31 746.67 -7.33 712 40 c
677.33 87.33 660 175.67 660 305 c
660 386.33 672.67 541.67 698 771 c
438 771 698 771 438 771 c
417.33 421.67 392.33 200.67 363 108 c
333.67 15.33 293.33 -31 242 -31 c
218 -31 198.17 -23 182.5 -7 c
166.83 9 159 29 159 53 c
159 70.33 161.67 85.33 167 98 c
174.33 115.33 190 139.67 214 171 c
254.67 225 283 281.67 299 341 c
327.67 442.33 346.33 585.67 355 771 c
309 771 355 771 309 771 c
260.33 771 224 763 200 747 c
161.33 723 126 683 94 627 c
55 627 94 627 55 627 c
92.33 742.33 136 822 186 866 c
224 899.33 277.33 916 346 916 c
1049 916 346 916 1049 916 c
closepath } bind def
end
/BuildGlyph {
 exch dup /Metrics get 2 index get 0 setcharwidth
/CharProcs get exch 2 copy known not{pop/.notdef}if get exec fill}bind def
/BuildChar {
1 index /Encoding get exch get
1 index /BuildGlyph get exec
} bind def
currentdict end /MC3_Symbol exch definefont pop
%%EndFont
/clipproc{clippath{[{/m cvx}{/l cvx}{/c cvx}{/cp cvx}pathforall}stopped
{cleartomark[pathbbox exch 3 i sub exch 2 i sub/rectpath cvx}if]np}bd
/iclmtx mtx cmtx def/iclpath clipproc xd/clinit{pathproc initclip np iclpath cl np exec}bd
/clmove{pathproc 3 1 roll clippath pathproc 2 i neg 2 i neg tr initclip np exec cl tr np exec}bd
/clrect[gs np iclpath{pathbbox}stopped{0 0 771.85 590.88 }if gr]def
/cloper{mtx cmtx iclmtx smtx exch exec smtx}bd
/cland{{exch cvx exec}cloper}bd
/clcopy{{exch clinit cvx exec}cloper}bd
/cldiff{{exch pathbbox 4 -1 roll clrect 0 get 2 copy gt{exch}if pop 4 1 roll
 3 -1 roll clrect 1 get 2 copy gt{exch}if pop 3 1 roll
 2 -1 roll clrect 2 get 2 copy lt{exch}if pop 2 1 roll
 1 -1 roll clrect 3 get 2 copy lt{exch}if pop 1 1 roll
 exch 3 i sub exch 2 i sub rectpath cvx exec}cloper}bd
/icl{{clinit}cloper}bd
0.851119 0.854583 sc

/initmtx mtx cmtx def
initmtx smtx
[1.0000 0.0000 0.0000 1.0000 0.0000 0.0000 ] concat
 [0.281988 -0 0 -0.28084 0 691.427] concat
gs
322 2216 m
3056 2216 l
7 sw
1 sj
1 scap
st
459 2216 m
459 2197 l
st
732 2216 m
732 2197 l
st
1006 2216 m
1006 2197 l
st
1279 2216 m
1279 2197 l
st
1552 2216 m
1552 2197 l
st
1826 2216 m
1826 2197 l
st
2099 2216 m
2099 2197 l
st
2373 2216 m
2373 2197 l
st
2646 2216 m
2646 2197 l
st
2919 2216 m
2919 2197 l
st
322 2216 m
322 2178 l
st
595 2216 m
595 2178 l
st
869 2216 m
869 2178 l
st
1142 2216 m
1142 2178 l
st
1416 2216 m
1416 2178 l
st
1689 2216 m
1689 2178 l
st
1962 2216 m
1962 2178 l
st
2236 2216 m
2236 2178 l
st
2509 2216 m
2509 2178 l
st
2783 2216 m
2783 2178 l
st
3056 2216 m
3056 2178 l
st
322 123 m
3056 123 l
st
459 123 m
459 142 l
st
732 123 m
732 142 l
st
1006 123 m
1006 142 l
st
1279 123 m
1279 142 l
st
1552 123 m
1552 142 l
st
1826 123 m
1826 142 l
st
2099 123 m
2099 142 l
st
2373 123 m
2373 142 l
st
2646 123 m
2646 142 l
st
2919 123 m
2919 142 l
st
322 123 m
322 161 l
st
595 123 m
595 161 l
st
869 123 m
869 161 l
st
1142 123 m
1142 161 l
st
1416 123 m
1416 161 l
st
1689 123 m
1689 161 l
st
1962 123 m
1962 161 l
st
2236 123 m
2236 161 l
st
2509 123 m
2509 161 l
st
2783 123 m
2783 161 l
st
3056 123 m
3056 161 l
st
322 2216 m
322 123 l
st
322 2207 m
341 2207 l
st
322 2163 m
341 2163 l
st
322 2119 m
341 2119 l
st
322 2076 m
341 2076 l
st
322 2032 m
341 2032 l
st
322 1988 m
341 1988 l
st
322 1944 m
341 1944 l
st
322 1856 m
341 1856 l
st
322 1812 m
341 1812 l
st
322 1768 m
341 1768 l
st
322 1725 m
341 1725 l
st
322 1681 m
341 1681 l
st
322 1637 m
341 1637 l
st
322 1593 m
341 1593 l
st
322 1549 m
341 1549 l
st
322 1461 m
341 1461 l
st
322 1417 m
341 1417 l
st
322 1374 m
341 1374 l
st
322 1330 m
341 1330 l
st
322 1286 m
341 1286 l
st
322 1242 m
341 1242 l
st
322 1198 m
341 1198 l
st
322 1154 m
341 1154 l
st
322 1066 m
341 1066 l
st
322 1023 m
341 1023 l
st
322 979 m
341 979 l
st
322 935 m
341 935 l
st
322 891 m
341 891 l
st
322 847 m
341 847 l
st
322 803 m
341 803 l
st
322 759 m
341 759 l
st
322 671 m
341 671 l
st
322 628 m
341 628 l
st
322 584 m
341 584 l
st
322 540 m
341 540 l
st
322 496 m
341 496 l
st
322 452 m
341 452 l
st
322 408 m
341 408 l
st
322 364 m
341 364 l
st
322 277 m
341 277 l
st
322 233 m
341 233 l
st
322 189 m
341 189 l
st
322 145 m
341 145 l
st
322 1900 m
360 1900 l
st
322 1505 m
360 1505 l
st
322 1110 m
360 1110 l
st
322 715 m
360 715 l
st
322 320 m
360 320 l
st
3056 2216 m
3056 123 l
st
3056 2207 m
3037 2207 l
st
3056 2163 m
3037 2163 l
st
3056 2119 m
3037 2119 l
st
3056 2076 m
3037 2076 l
st
3056 2032 m
3037 2032 l
st
3056 1988 m
3037 1988 l
st
3056 1944 m
3037 1944 l
st
3056 1856 m
3037 1856 l
st
3056 1812 m
3037 1812 l
st
3056 1768 m
3037 1768 l
st
3056 1725 m
3037 1725 l
st
3056 1681 m
3037 1681 l
st
3056 1637 m
3037 1637 l
st
3056 1593 m
3037 1593 l
st
3056 1549 m
3037 1549 l
st
3056 1461 m
3037 1461 l
st
3056 1417 m
3037 1417 l
st
3056 1374 m
3037 1374 l
st
3056 1330 m
3037 1330 l
st
3056 1286 m
3037 1286 l
st
3056 1242 m
3037 1242 l
st
3056 1198 m
3037 1198 l
st
3056 1154 m
3037 1154 l
st
3056 1066 m
3037 1066 l
st
3056 1023 m
3037 1023 l
st
3056 979 m
3037 979 l
st
3056 935 m
3037 935 l
st
3056 891 m
3037 891 l
st
3056 847 m
3037 847 l
st
3056 803 m
3037 803 l
st
3056 759 m
3037 759 l
st
3056 671 m
3037 671 l
st
3056 628 m
3037 628 l
st
3056 584 m
3037 584 l
st
3056 540 m
3037 540 l
st
3056 496 m
3037 496 l
st
3056 452 m
3037 452 l
st
3056 408 m
3037 408 l
st
3056 364 m
3037 364 l
st
3056 277 m
3037 277 l
st
3056 233 m
3037 233 l
st
3056 189 m
3037 189 l
st
3056 145 m
3037 145 l
st
3056 1900 m
3018 1900 l
st
3056 1505 m
3018 1505 l
st
3056 1110 m
3018 1110 l
st
3056 715 m
3018 715 l
st
3056 320 m
3018 320 l
st
gs
gr
gs
gr
gs
1 -1 sc
/MC1_Arial 83 self 299 -2322 m
(0)[46 ] xs
1 -1 sc
gr
gs
gr
gs
gr
gs
1 -1 sc
/MC1_Arial 83 self 572 -2322 m
(1)[46 ] xs
1 -1 sc
gr
gs
gr
gs
gr
gs
1 -1 sc
/MC1_Arial 83 self 846 -2322 m
(2)[46 ] xs
1 -1 sc
gr
gs
gr
gs
gr
gs
1 -1 sc
/MC1_Arial 83 self 1119 -2322 m
(3)[46 ] xs
1 -1 sc
gr
gs
gr
gs
gr
gs
1 -1 sc
/MC1_Arial 83 self 1393 -2322 m
(4)[46 ] xs
1 -1 sc
gr
gs
gr
gs
gr
gs
1 -1 sc
/MC1_Arial 83 self 1666 -2322 m
(5)[46 ] xs
1 -1 sc
gr
gs
gr
gs
gr
gs
1 -1 sc
/MC1_Arial 83 self 1939 -2322 m
(6)[46 ] xs
1 -1 sc
gr
gs
gr
gs
gr
gs
1 -1 sc
/MC1_Arial 83 self 2213 -2322 m
(7)[46 ] xs
1 -1 sc
gr
gs
gr
gs
gr
gs
1 -1 sc
/MC1_Arial 83 self 2486 -2322 m
(8)[46 ] xs
1 -1 sc
gr
gs
gr
gs
gr
gs
1 -1 sc
/MC1_Arial 83 self 2760 -2322 m
(9)[46 ] xs
1 -1 sc
gr
gs
gr
gs
gr
gs
1 -1 sc
/MC1_Arial 83 self 3010 -2322 m
(10)[46 46 ] xs
1 -1 sc
gr
gs
gr
gs
gr
gs
1 -1 sc
/MC1_Arial 83 self 207 -1925 m
(-1)[28 46 ] xs
1 -1 sc
gr
gs
gr
gs
gr
gs
1 -1 sc
/MC1_Arial 83 self 235 -1530 m
(0)[46 ] xs
1 -1 sc
gr
gs
gr
gs
gr
gs
1 -1 sc
/MC1_Arial 83 self 235 -1135 m
(1)[46 ] xs
1 -1 sc
gr
gs
gr
gs
gr
gs
1 -1 sc
/MC1_Arial 83 self 235 -740 m
(2)[46 ] xs
1 -1 sc
gr
gs
gr
gs
gr
gs
1 -1 sc
/MC1_Arial 83 self 235 -345 m
(3)[46 ] xs
1 -1 sc
gr
gs
gr
gs
gr
gs
gr
gs
gr
gs
gr
gs
gr
gs
gr
gs
gr
gs
gr
gs
gr
gs
gr
gs
gr
gs
gr
gs
gr
gs
gr
gs
gr
gs
gr
gs
gr
gs
gr
gs
gr
gs
pathproc 322 123 2735 2094 np rectpath
/eocl cland
np exec
322 1374 m
341 1373 l
5 sw
0 0 1 rgb
st
354 1371 m
359 1370 l
st
371 1366 m
376 1364 l
st
389 1359 m
406 1351 l
st
417 1345 m
421 1342 l
st
431 1335 m
435 1331 l
st
445 1322 m
458 1308 l
st
467 1298 m
470 1294 l
st
478 1283 m
481 1279 l
st
489 1267 m
498 1251 l
st
506 1239 m
508 1235 l
st
514 1224 m
517 1219 l
st
523 1207 m
532 1190 l
st
538 1178 m
540 1174 l
st
547 1163 m
550 1158 l
st
557 1146 m
568 1131 l
st
576 1121 m
578 1118 l
st
591 1112 m
595 1111 l
st
608 1116 m
621 1128 l
st
629 1138 m
632 1142 l
st
639 1154 m
641 1158 l
st
648 1170 m
657 1187 l
st
663 1198 m
666 1203 l
st
672 1214 m
674 1219 l
st
681 1231 m
690 1247 l
st
696 1258 m
700 1263 l
st
706 1274 m
709 1278 l
st
718 1289 m
729 1303 l
st
738 1313 m
740 1316 l
st
750 1325 m
754 1329 l
st
766 1339 m
782 1350 l
st
794 1356 m
798 1358 l
st
810 1363 m
815 1365 l
st
829 1369 m
847 1372 l
st
860 1373 m
865 1373 l
st
878 1373 m
883 1372 l
st
897 1371 m
915 1367 l
st
928 1363 m
933 1361 l
st
945 1355 m
949 1353 l
st
961 1346 m
976 1335 l
st
986 1327 m
990 1323 l
st
999 1315 m
1003 1311 l
st
1012 1300 m
1024 1284 l
st
1031 1274 m
1034 1270 l
st
1041 1258 m
1044 1254 l
st
1051 1242 m
1060 1225 l
st
1066 1214 m
1069 1209 l
st
1075 1198 m
1077 1193 l
st
1084 1181 m
1093 1164 l
st
1100 1152 m
1103 1148 l
st
1109 1137 m
1112 1133 l
st
1121 1123 m
1140 1113 l
st
1150 1112 m
1154 1115 l
st
1165 1123 m
1168 1127 l
st
1176 1139 m
1186 1155 l
st
1193 1167 m
1195 1171 l
st
1202 1183 m
1204 1187 l
st
1211 1200 m
1219 1216 l
st
1225 1228 m
1228 1232 l
st
1234 1244 m
1237 1248 l
st
1244 1260 m
1255 1276 l
st
1262 1286 m
1265 1290 l
st
1272 1300 m
1275 1304 l
st
1285 1315 m
1300 1329 l
st
1310 1337 m
1314 1340 l
st
1325 1347 m
1329 1350 l
st
1342 1356 m
1360 1364 l
st
1372 1368 m
1377 1369 l
st
1390 1371 m
1395 1372 l
st
1409 1373 m
1428 1373 l
st
1441 1372 m
1446 1371 l
st
1459 1368 m
1463 1367 l
st
1477 1362 m
1494 1354 l
st
1505 1348 m
1509 1345 l
st
1519 1339 m
1523 1335 l
st
1534 1326 m
1548 1312 l
st
1557 1302 m
1560 1298 l
st
1568 1288 m
1571 1284 l
st
1579 1272 m
1589 1256 l
st
1596 1244 m
1598 1240 l
st
1605 1229 m
1608 1224 l
st
1614 1212 m
1623 1195 l
st
1629 1184 m
1632 1179 l
st
1637 1168 m
1640 1163 l
st
1647 1151 m
1657 1135 l
st
1664 1126 m
1668 1123 l
st
1678 1114 m
1683 1112 l
st
1697 1112 m
1711 1124 l
st
1720 1134 m
1723 1138 l
st
1730 1149 m
1732 1153 l
st
1740 1166 m
1748 1183 l
st
1754 1194 m
1757 1199 l
st
1763 1210 m
1765 1215 l
st
1772 1227 m
1781 1243 l
st
1788 1255 m
1791 1259 l
st
1798 1270 m
1800 1274 l
st
1808 1286 m
1820 1301 l
st
1828 1310 m
1831 1313 l
st
1841 1323 m
1844 1326 l
st
1855 1335 m
1872 1347 l
st
1883 1353 m
1888 1356 l
st
1899 1361 m
1904 1363 l
st
1918 1368 m
1936 1372 l
st
1949 1373 m
1954 1373 l
st
1967 1373 m
1972 1373 l
st
1986 1372 m
2005 1368 l
st
2017 1364 m
2021 1363 l
st
2033 1358 m
2038 1355 l
st
2050 1349 m
2065 1339 l
st
2076 1330 m
2080 1327 l
st
2089 1319 m
2093 1315 l
st
2102 1305 m
2113 1290 l
st
2121 1279 m
2124 1275 l
st
2131 1264 m
2134 1260 l
st
2142 1247 m
2151 1231 l
st
2158 1219 m
2160 1215 l
st
2166 1203 m
2168 1199 l
st
2174 1186 m
2184 1169 l
st
2190 1158 m
2192 1154 l
st
2199 1143 m
2202 1139 l
st
2210 1127 m
2225 1115 l
st
2237 1112 m
2242 1114 l
st
2252 1118 m
2255 1121 l
st
2265 1132 m
2275 1148 l
st
2282 1159 m
2284 1163 l
st
2291 1175 m
2293 1179 l
st
2300 1192 m
2309 1209 l
st
2315 1220 m
2317 1224 l
st
2324 1236 m
2326 1240 l
st
2333 1252 m
2343 1268 l
st
2350 1278 m
2353 1283 l
st
2361 1293 m
2364 1297 l
st
2373 1308 m
2385 1321 l
st
2396 1331 m
2400 1334 l
st
2410 1341 m
2415 1345 l
st
2427 1352 m
2444 1360 l
st
2457 1365 m
2461 1366 l
st
2474 1370 m
2479 1371 l
st
2493 1372 m
2512 1373 l
st
2525 1373 m
2530 1372 l
st
2543 1370 m
2548 1369 l
st
2561 1366 m
2579 1359 l
st
2590 1353 m
2595 1350 l
st
2606 1343 m
2610 1340 l
st
2620 1332 m
2635 1319 l
st
2643 1310 m
2647 1306 l
st
2655 1296 m
2658 1292 l
st
2667 1280 m
2678 1264 l
st
2685 1253 m
2687 1249 l
st
2694 1237 m
2696 1233 l
st
2703 1221 m
2712 1204 l
st
2718 1193 m
2721 1188 l
st
2727 1177 m
2729 1172 l
st
2736 1160 m
2744 1145 l
st
2752 1134 m
2755 1130 l
st
2764 1120 m
2768 1118 l
st
2781 1110 m
2798 1117 l
st
2806 1126 m
2810 1130 l
st
2818 1141 m
2821 1146 l
st
2828 1158 m
2838 1175 l
st
2844 1186 m
2846 1191 l
st
2852 1202 m
2855 1207 l
st
2861 1219 m
2871 1236 l
st
2877 1247 m
2880 1251 l
st
2886 1262 m
2889 1267 l
st
2897 1278 m
2908 1294 l
st
2916 1304 m
2919 1307 l
st
2928 1317 m
2931 1320 l
st
2942 1330 m
2957 1342 l
st
2969 1350 m
2973 1352 l
st
2985 1358 m
2990 1360 l
st
3003 1365 m
3022 1370 l
st
3035 1373 m
3040 1373 l
st
3053 1374 m
3055 1374 l
st
gr
gs
pathproc 322 123 2735 2094 np rectpath
/eocl cland
np exec
322 1110 m
341 1110 l
5 sw
st
354 1110 m
359 1110 l
st
372 1110 m
377 1110 l
st
391 1110 m
410 1110 l
st
423 1110 m
428 1110 l
st
441 1110 m
446 1110 l
st
460 1110 m
479 1110 l
st
492 1110 m
497 1110 l
st
510 1110 m
515 1110 l
st
529 1110 m
548 1110 l
st
561 1110 m
566 1110 l
st
579 1110 m
584 1110 l
st
598 1110 m
617 1110 l
st
630 1110 m
635 1110 l
st
648 1110 m
653 1110 l
st
667 1110 m
686 1110 l
st
699 1110 m
704 1110 l
st
717 1110 m
722 1110 l
st
736 1110 m
755 1110 l
st
768 1110 m
773 1110 l
st
786 1110 m
791 1110 l
st
805 1110 m
824 1110 l
st
837 1110 m
842 1110 l
st
855 1110 m
860 1110 l
st
874 1110 m
893 1110 l
st
906 1110 m
911 1110 l
st
924 1110 m
929 1110 l
st
943 1110 m
962 1110 l
st
975 1110 m
980 1110 l
st
993 1110 m
998 1110 l
st
1012 1110 m
1031 1110 l
st
1044 1110 m
1049 1110 l
st
1062 1110 m
1067 1110 l
st
1081 1110 m
1100 1110 l
st
1113 1110 m
1118 1110 l
st
1131 1110 m
1136 1110 l
st
1150 1110 m
1169 1110 l
st
1182 1110 m
1187 1110 l
st
1200 1110 m
1205 1110 l
st
1219 1110 m
1238 1110 l
st
1251 1110 m
1256 1110 l
st
1269 1110 m
1274 1110 l
st
1288 1110 m
1307 1110 l
st
1320 1110 m
1325 1110 l
st
1338 1110 m
1343 1110 l
st
1357 1110 m
1376 1110 l
st
1389 1110 m
1394 1110 l
st
1407 1110 m
1412 1110 l
st
1426 1110 m
1445 1110 l
st
1458 1110 m
1463 1110 l
st
1476 1110 m
1481 1110 l
st
1495 1110 m
1514 1110 l
st
1527 1110 m
1532 1110 l
st
1545 1110 m
1550 1110 l
st
1564 1110 m
1583 1110 l
st
1596 1110 m
1601 1110 l
st
1614 1110 m
1619 1110 l
st
1633 1110 m
1652 1110 l
st
1665 1110 m
1670 1110 l
st
1683 1110 m
1688 1110 l
st
1702 1110 m
1721 1110 l
st
1734 1110 m
1739 1110 l
st
1752 1110 m
1757 1110 l
st
1771 1110 m
1790 1110 l
st
1803 1110 m
1808 1110 l
st
1821 1110 m
1826 1110 l
st
1840 1110 m
1859 1110 l
st
1872 1110 m
1877 1110 l
st
1890 1110 m
1895 1110 l
st
1909 1110 m
1928 1110 l
st
1941 1110 m
1946 1110 l
st
1959 1110 m
1964 1110 l
st
1978 1110 m
1997 1110 l
st
2010 1110 m
2015 1110 l
st
2028 1110 m
2033 1110 l
st
2047 1110 m
2066 1110 l
st
2079 1110 m
2084 1110 l
st
2097 1110 m
2102 1110 l
st
2116 1110 m
2135 1110 l
st
2148 1110 m
2153 1110 l
st
2166 1110 m
2171 1110 l
st
2185 1110 m
2204 1110 l
st
2217 1110 m
2222 1110 l
st
2235 1110 m
2240 1110 l
st
2254 1110 m
2273 1110 l
st
2286 1110 m
2291 1110 l
st
2304 1110 m
2309 1110 l
st
2323 1110 m
2342 1110 l
st
2355 1110 m
2360 1110 l
st
2373 1110 m
2378 1110 l
st
2392 1110 m
2411 1110 l
st
2424 1110 m
2429 1110 l
st
2442 1110 m
2447 1110 l
st
2461 1110 m
2480 1110 l
st
2493 1110 m
2498 1110 l
st
2511 1110 m
2516 1110 l
st
2530 1110 m
2549 1110 l
st
2562 1110 m
2567 1110 l
st
2580 1110 m
2585 1110 l
st
2599 1110 m
2618 1110 l
st
2631 1110 m
2636 1110 l
st
2649 1110 m
2654 1110 l
st
2668 1110 m
2687 1110 l
st
2700 1110 m
2705 1110 l
st
2718 1110 m
2723 1110 l
st
2737 1110 m
2756 1110 l
st
2769 1110 m
2774 1110 l
st
2787 1110 m
2792 1110 l
st
2806 1110 m
2825 1110 l
st
2838 1110 m
2843 1110 l
st
2856 1110 m
2861 1110 l
st
2875 1110 m
2894 1110 l
st
2907 1110 m
2912 1110 l
st
2925 1110 m
2930 1110 l
st
2944 1110 m
2963 1110 l
st
2976 1110 m
2981 1110 l
st
2994 1110 m
2999 1110 l
st
3013 1110 m
3032 1110 l
st
3045 1110 m
3050 1110 l
st
gr
gs
pathproc 322 123 2735 2094 np rectpath
/eocl cland
np exec
322 1110 m
330 1116 l
5 sw
0 1 0 rgb
st
340 1123 m
347 1128 l
st
354 1138 m
358 1146 l
st
363 1157 m
367 1165 l
st
372 1176 m
376 1184 l
st
380 1196 m
382 1204 l
st
386 1216 m
389 1225 l
st
392 1236 m
395 1245 l
st
399 1256 m
402 1265 l
st
405 1276 m
407 1285 l
st
410 1297 m
412 1305 l
st
415 1317 m
417 1326 l
st
420 1338 m
422 1346 l
st
425 1358 m
427 1367 l
st
430 1378 m
432 1387 l
st
435 1399 m
437 1408 l
st
439 1419 m
441 1428 l
st
444 1440 m
446 1449 l
st
448 1460 m
450 1469 l
st
453 1481 m
455 1490 l
st
458 1501 m
460 1510 l
st
463 1522 m
465 1531 l
st
467 1542 m
469 1551 l
st
472 1563 m
474 1572 l
st
477 1584 m
478 1592 l
st
481 1604 m
483 1613 l
st
486 1625 m
488 1633 l
st
491 1645 m
493 1654 l
st
496 1665 m
498 1674 l
st
501 1686 m
503 1695 l
st
506 1706 m
508 1715 l
st
511 1727 m
513 1735 l
st
516 1747 m
519 1755 l
st
522 1767 m
525 1775 l
st
529 1787 m
532 1795 l
st
536 1807 m
538 1815 l
st
542 1827 m
546 1835 l
st
551 1846 m
555 1854 l
st
561 1864 m
565 1872 l
st
570 1883 m
578 1888 l
st
588 1894 m
596 1899 l
st
606 1893 m
612 1888 l
st
622 1879 m
628 1872 l
st
633 1861 m
636 1853 l
st
641 1842 m
645 1834 l
st
650 1823 m
654 1814 l
st
657 1802 m
660 1794 l
st
663 1782 m
666 1774 l
st
669 1762 m
672 1753 l
st
676 1742 m
678 1733 l
st
681 1722 m
684 1713 l
st
687 1701 m
689 1693 l
st
692 1681 m
694 1672 l
st
697 1660 m
699 1652 l
st
702 1640 m
704 1631 l
st
707 1620 m
709 1611 l
st
711 1599 m
713 1590 l
st
716 1579 m
718 1570 l
st
720 1558 m
722 1549 l
st
725 1537 m
727 1529 l
st
729 1517 m
731 1508 l
st
734 1496 m
736 1488 l
st
738 1476 m
740 1467 l
st
743 1455 m
745 1447 l
st
748 1435 m
750 1426 l
st
753 1414 m
755 1405 l
st
757 1394 m
759 1385 l
st
762 1373 m
764 1364 l
st
767 1352 m
769 1343 l
st
772 1331 m
774 1323 l
st
777 1311 m
779 1302 l
st
782 1291 m
784 1282 l
st
787 1270 m
789 1262 l
st
793 1250 m
796 1242 l
st
800 1230 m
802 1222 l
st
807 1210 m
809 1202 l
st
813 1190 m
816 1182 l
st
820 1171 m
825 1163 l
st
830 1153 m
835 1145 l
st
841 1134 m
845 1126 l
st
855 1119 m
863 1116 l
st
874 1111 m
880 1117 l
st
889 1126 m
896 1133 l
st
904 1144 m
908 1152 l
st
912 1163 m
916 1171 l
st
921 1182 m
925 1191 l
st
930 1202 m
932 1210 l
st
935 1222 m
938 1231 l
st
941 1242 m
944 1251 l
st
947 1262 m
950 1271 l
st
953 1283 m
955 1291 l
st
958 1303 m
961 1312 l
st
963 1323 m
966 1332 l
st
968 1344 m
971 1353 l
st
973 1364 m
976 1373 l
st
978 1385 m
980 1393 l
st
983 1405 m
985 1414 l
st
988 1426 m
990 1435 l
st
992 1446 m
994 1455 l
st
997 1467 m
999 1476 l
st
1001 1487 m
1003 1496 l
st
1006 1508 m
1008 1517 l
st
1010 1528 m
1012 1537 l
st
1015 1549 m
1017 1558 l
st
1020 1569 m
1022 1578 l
st
1024 1590 m
1026 1599 l
st
1029 1611 m
1031 1619 l
st
1034 1631 m
1036 1640 l
st
1039 1652 m
1041 1660 l
st
1044 1672 m
1046 1681 l
st
1049 1692 m
1051 1701 l
st
1055 1713 m
1057 1721 l
st
1060 1733 m
1062 1742 l
st
1065 1753 m
1067 1762 l
st
1071 1773 m
1074 1782 l
st
1078 1793 m
1081 1802 l
st
1085 1813 m
1088 1822 l
st
1091 1833 m
1094 1842 l
st
1100 1852 m
1105 1860 l
st
1111 1870 m
1116 1878 l
st
1122 1888 m
1130 1892 l
st
1142 1896 m
1150 1898 l
st
1158 1889 m
1164 1882 l
st
1173 1873 m
1179 1864 l
st
1184 1853 m
1187 1845 l
st
1192 1834 m
1195 1825 l
st
1200 1814 m
1203 1806 l
st
1207 1794 m
1210 1786 l
st
1213 1774 m
1216 1765 l
st
1219 1754 m
1221 1745 l
st
1224 1734 m
1227 1725 l
st
1230 1713 m
1232 1705 l
st
1235 1693 m
1238 1684 l
st
1240 1672 m
1242 1664 l
st
1245 1652 m
1247 1643 l
st
1250 1632 m
1252 1623 l
st
1255 1611 m
1257 1602 l
st
1260 1591 m
1262 1582 l
st
1265 1570 m
1267 1561 l
st
1269 1550 m
1271 1541 l
st
1274 1529 m
1276 1520 l
st
1278 1509 m
1280 1500 l
st
1283 1488 m
1285 1479 l
st
1288 1467 m
1289 1459 l
st
1292 1447 m
1294 1438 l
st
1297 1426 m
1299 1418 l
st
1301 1406 m
1303 1397 l
st
1306 1385 m
1308 1377 l
st
1311 1365 m
1313 1356 l
st
1315 1344 m
1317 1336 l
st
1321 1324 m
1323 1315 l
st
1326 1304 m
1328 1295 l
st
1332 1283 m
1334 1275 l
st
1337 1263 m
1339 1254 l
st
1342 1243 m
1345 1234 l
st
1349 1223 m
1352 1214 l
st
1356 1203 m
1359 1195 l
st
1363 1183 m
1366 1175 l
st
1370 1163 m
1374 1156 l
st
1380 1146 m
1385 1138 l
st
1392 1128 m
1397 1120 l
st
1408 1116 m
1417 1114 l
st
1428 1114 m
1434 1122 l
st
1440 1131 m
1446 1139 l
st
1453 1148 m
1457 1157 l
st
1462 1168 m
1465 1176 l
st
1469 1187 m
1473 1196 l
st
1477 1207 m
1480 1215 l
st
1484 1227 m
1487 1236 l
st
1490 1247 m
1492 1256 l
st
1495 1268 m
1497 1276 l
st
1501 1288 m
1503 1297 l
st
1506 1308 m
1508 1317 l
st
1511 1329 m
1513 1337 l
st
1516 1349 m
1518 1358 l
st
1521 1370 m
1523 1378 l
st
1526 1390 m
1528 1399 l
st
1531 1411 m
1533 1419 l
st
1536 1431 m
1538 1440 l
st
1540 1452 m
1542 1460 l
st
1545 1472 m
1547 1481 l
st
1550 1493 m
1551 1501 l
st
1554 1513 m
1556 1522 l
st
1559 1534 m
1561 1542 l
st
1563 1554 m
1565 1563 l
st
1568 1575 m
1570 1583 l
st
1573 1595 m
1575 1604 l
st
1577 1616 m
1579 1624 l
st
1582 1636 m
1584 1645 l
st
1587 1657 m
1588 1665 l
st
1591 1677 m
1593 1686 l
st
1596 1697 m
1599 1706 l
st
1602 1718 m
1604 1726 l
st
1608 1738 m
1610 1747 l
st
1613 1758 m
1616 1767 l
st
1619 1779 m
1622 1787 l
st
1626 1798 m
1629 1807 l
st
1634 1818 m
1637 1826 l
st
1641 1838 m
1644 1846 l
st
1649 1857 m
1654 1865 l
st
1661 1875 m
1666 1882 l
st
1673 1892 m
1681 1895 l
st
1693 1895 m
1702 1895 l
st
1709 1886 m
1715 1878 l
st
1722 1868 m
1727 1861 l
st
1732 1850 m
1736 1841 l
st
1740 1830 m
1743 1821 l
st
1747 1810 m
1750 1802 l
st
1755 1790 m
1758 1782 l
st
1761 1770 m
1764 1761 l
st
1767 1750 m
1769 1741 l
st
1772 1730 m
1775 1721 l
st
1778 1709 m
1780 1701 l
st
1784 1689 m
1786 1680 l
st
1789 1668 m
1791 1660 l
st
1793 1648 m
1795 1639 l
st
1798 1627 m
1800 1619 l
st
1803 1607 m
1805 1598 l
st
1807 1586 m
1809 1578 l
st
1812 1566 m
1814 1557 l
st
1817 1545 m
1818 1537 l
st
1821 1525 m
1823 1516 l
st
1826 1504 m
1828 1496 l
st
1830 1484 m
1832 1475 l
st
1835 1463 m
1837 1455 l
st
1840 1443 m
1842 1434 l
st
1845 1422 m
1846 1414 l
st
1849 1402 m
1851 1393 l
st
1854 1381 m
1856 1373 l
st
1859 1361 m
1861 1352 l
st
1864 1340 m
1866 1332 l
st
1869 1320 m
1871 1311 l
st
1874 1300 m
1877 1291 l
st
1880 1279 m
1882 1271 l
st
1885 1259 m
1888 1250 l
st
1891 1239 m
1893 1230 l
st
1896 1218 m
1900 1210 l
st
1904 1198 m
1908 1190 l
st
1912 1179 m
1916 1170 l
st
1920 1159 m
1923 1151 l
st
1930 1141 m
1935 1134 l
st
1943 1124 m
1948 1117 l
st
1959 1114 m
1968 1115 l
st
1980 1118 m
1985 1126 l
st
1991 1136 m
1997 1144 l
st
2003 1154 m
2008 1162 l
st
2012 1174 m
2015 1182 l
st
2019 1194 m
2022 1202 l
st
2026 1213 m
2029 1222 l
st
2033 1233 m
2035 1242 l
st
2039 1254 m
2041 1262 l
st
2044 1274 m
2046 1283 l
st
2049 1294 m
2052 1303 l
st
2055 1315 m
2057 1323 l
st
2060 1335 m
2063 1344 l
st
2065 1355 m
2067 1364 l
st
2070 1376 m
2072 1385 l
st
2074 1396 m
2076 1405 l
st
2079 1417 m
2081 1426 l
st
2084 1437 m
2086 1446 l
st
2088 1458 m
2090 1467 l
st
2093 1478 m
2095 1487 l
st
2098 1499 m
2100 1508 l
st
2102 1519 m
2104 1528 l
st
2107 1540 m
2109 1549 l
st
2111 1561 m
2113 1569 l
st
2116 1581 m
2118 1590 l
st
2121 1602 m
2123 1610 l
st
2126 1622 m
2128 1631 l
st
2130 1642 m
2133 1651 l
st
2135 1663 m
2138 1672 l
st
2140 1683 m
2142 1692 l
st
2145 1704 m
2148 1712 l
st
2151 1724 m
2153 1733 l
st
2157 1744 m
2159 1753 l
st
2162 1764 m
2165 1773 l
st
2168 1785 m
2170 1793 l
st
2174 1805 m
2178 1813 l
st
2182 1824 m
2186 1832 l
st
2191 1844 m
2194 1852 l
st
2198 1863 m
2203 1870 l
st
2211 1879 m
2217 1886 l
st
2225 1895 m
2233 1897 l
st
2245 1893 m
2254 1890 l
st
2260 1881 m
2265 1873 l
st
2271 1863 m
2276 1855 l
st
2282 1845 m
2286 1836 l
st
2289 1825 m
2292 1816 l
st
2296 1805 m
2299 1796 l
st
2303 1785 m
2306 1776 l
st
2310 1765 m
2312 1756 l
st
2315 1745 m
2317 1736 l
st
2321 1724 m
2323 1716 l
st
2326 1704 m
2328 1695 l
st
2331 1684 m
2334 1675 l
st
2337 1663 m
2339 1654 l
st
2341 1643 m
2344 1634 l
st
2346 1622 m
2348 1613 l
st
2351 1602 m
2353 1593 l
st
2356 1581 m
2358 1572 l
st
2360 1561 m
2362 1552 l
st
2365 1540 m
2367 1531 l
st
2369 1520 m
2371 1511 l
st
2374 1499 m
2376 1490 l
st
2378 1479 m
2380 1470 l
st
2383 1458 m
2385 1449 l
st
2388 1437 m
2389 1429 l
st
2392 1417 m
2394 1408 l
st
2397 1396 m
2399 1388 l
st
2402 1376 m
2404 1367 l
st
2407 1356 m
2409 1347 l
st
2412 1335 m
2414 1326 l
st
2417 1315 m
2419 1306 l
st
2422 1294 m
2424 1286 l
st
2428 1274 m
2430 1265 l
st
2433 1254 m
2436 1245 l
st
2439 1234 m
2442 1225 l
st
2445 1213 m
2447 1205 l
st
2452 1194 m
2456 1185 l
st
2461 1174 m
2464 1166 l
st
2469 1155 m
2472 1147 l
st
2477 1138 m
2483 1132 l
st
2492 1123 m
2499 1116 l
st
2510 1114 m
2518 1117 l
st
2529 1122 m
2534 1129 l
st
2540 1139 m
2544 1147 l
st
2551 1158 m
2555 1166 l
st
2560 1177 m
2563 1186 l
st
2567 1197 m
2570 1206 l
st
2574 1217 m
2577 1226 l
st
2581 1237 m
2584 1246 l
st
2587 1257 m
2589 1266 l
st
2592 1278 m
2594 1286 l
st
2597 1298 m
2600 1307 l
st
2602 1318 m
2605 1327 l
st
2608 1339 m
2610 1348 l
st
2613 1359 m
2615 1368 l
st
2618 1380 m
2620 1389 l
st
2622 1400 m
2624 1409 l
st
2627 1421 m
2629 1430 l
st
2632 1441 m
2634 1450 l
st
2636 1462 m
2639 1471 l
st
2641 1482 m
2643 1491 l
st
2646 1503 m
2648 1512 l
st
2650 1523 m
2652 1532 l
st
2655 1544 m
2657 1553 l
st
2659 1564 m
2661 1573 l
st
2664 1585 m
2666 1594 l
st
2668 1606 m
2670 1614 l
st
2673 1626 m
2675 1635 l
st
2678 1646 m
2680 1655 l
st
2683 1667 m
2685 1676 l
st
2688 1687 m
2690 1696 l
st
2693 1708 m
2695 1716 l
st
2698 1728 m
2701 1737 l
st
2704 1748 m
2707 1757 l
st
2710 1768 m
2713 1777 l
st
2716 1788 m
2719 1797 l
st
2723 1809 m
2725 1817 l
st
2730 1828 m
2734 1836 l
st
2739 1847 m
2743 1855 l
st
2747 1866 m
2751 1874 l
st
2760 1883 m
2767 1889 l
st
2776 1897 m
2784 1898 l
st
2794 1892 m
2802 1887 l
st
2810 1878 m
2814 1870 l
st
2820 1859 m
2824 1851 l
st
2829 1841 m
2833 1833 l
st
2838 1821 m
2841 1813 l
st
2844 1801 m
2847 1793 l
st
2851 1781 m
2854 1773 l
st
2857 1761 m
2860 1753 l
st
2864 1741 m
2866 1732 l
st
2869 1721 m
2871 1712 l
st
2874 1700 m
2876 1691 l
st
2879 1680 m
2881 1671 l
st
2884 1659 m
2886 1651 l
st
2889 1639 m
2891 1630 l
st
2894 1618 m
2895 1610 l
st
2898 1598 m
2900 1589 l
st
2903 1577 m
2905 1569 l
st
2908 1557 m
2910 1548 l
st
2912 1536 m
2914 1528 l
st
2917 1516 m
2919 1507 l
st
2922 1495 m
2923 1487 l
st
2926 1475 m
2928 1466 l
st
2931 1454 m
2933 1446 l
st
2936 1434 m
2938 1425 l
st
2940 1413 m
2942 1404 l
st
2945 1393 m
2947 1384 l
st
2950 1372 m
2952 1364 l
st
2955 1352 m
2957 1343 l
st
2960 1331 m
2962 1323 l
st
2965 1311 m
2967 1302 l
st
2969 1291 m
2972 1282 l
st
2975 1270 m
2977 1262 l
st
2981 1250 m
2984 1242 l
st
2987 1230 m
2990 1221 l
st
2994 1210 m
2997 1201 l
st
3000 1190 m
3003 1182 l
st
3009 1171 m
3012 1163 l
st
3018 1152 m
3021 1144 l
st
3027 1133 m
3033 1126 l
st
3043 1119 m
3050 1114 l
st
gr
gs
pathproc 322 123 2735 2094 np rectpath
/eocl cland
np exec
322 320 m
340 333 l
5 sw
1 0 0 rgb
st
356 353 m
366 373 l
st
377 396 m
383 417 l
st
391 441 m
397 462 l
st
405 486 m
410 507 l
st
416 531 m
421 553 l
st
427 577 m
432 598 l
st
438 623 m
442 644 l
st
448 669 m
453 690 l
st
458 715 m
463 736 l
st
469 760 m
474 782 l
st
479 806 m
484 828 l
st
490 852 m
495 873 l
st
501 898 m
506 919 l
st
512 943 m
518 964 l
st
526 988 m
533 1009 l
st
540 1033 m
549 1052 l
st
561 1075 m
571 1094 l
st
592 1106 m
609 1101 l
st
629 1080 m
638 1060 l
st
648 1037 m
656 1016 l
st
663 992 m
670 971 l
st
677 947 m
683 926 l
st
689 901 m
694 880 l
st
700 856 m
706 834 l
st
711 810 m
716 789 l
st
721 764 m
726 743 l
st
731 718 m
736 697 l
st
742 672 m
746 651 l
st
752 626 m
757 605 l
st
762 581 m
768 559 l
st
774 535 m
779 514 l
st
785 489 m
790 468 l
st
798 444 m
806 423 l
st
813 400 m
821 380 l
st
833 358 m
844 339 l
st
864 325 m
879 326 l
st
897 344 m
909 365 l
st
919 388 m
928 408 l
st
935 432 m
941 453 l
st
948 477 m
954 498 l
st
961 523 m
966 544 l
st
972 568 m
977 590 l
st
983 614 m
988 635 l
st
993 660 m
998 681 l
st
1003 706 m
1008 727 l
st
1013 752 m
1018 773 l
st
1024 798 m
1029 819 l
st
1034 843 m
1039 865 l
st
1046 889 m
1051 910 l
st
1058 935 m
1063 956 l
st
1070 980 m
1077 1000 l
st
1085 1024 m
1092 1045 l
st
1103 1067 m
1114 1086 l
st
1132 1103 m
1150 1108 l
st
1167 1089 m
1181 1069 l
st
1191 1046 m
1200 1025 l
st
1209 1001 m
1214 980 l
st
1221 956 m
1227 935 l
st
1234 910 m
1239 889 l
st
1245 864 m
1250 843 l
st
1255 819 m
1261 797 l
st
1266 773 m
1271 751 l
st
1277 727 m
1281 706 l
st
1287 681 m
1292 660 l
st
1297 635 m
1302 614 l
st
1308 589 m
1312 568 l
st
1318 544 m
1324 522 l
st
1330 498 m
1336 477 l
st
1342 453 m
1349 432 l
st
1358 408 m
1365 388 l
st
1373 367 m
1386 348 l
st
1404 327 m
1425 324 l
st
1441 342 m
1456 363 l
st
1465 386 m
1473 407 l
st
1482 430 m
1488 451 l
st
1494 475 m
1500 497 l
st
1507 521 m
1512 542 l
st
1518 567 m
1523 588 l
st
1529 612 m
1534 634 l
st
1539 658 m
1544 680 l
st
1550 704 m
1555 726 l
st
1560 750 m
1565 771 l
st
1570 796 m
1575 817 l
st
1581 842 m
1586 863 l
st
1591 888 m
1597 909 l
st
1604 933 m
1609 954 l
st
1616 978 m
1623 999 l
st
1631 1022 m
1639 1043 l
st
1648 1066 m
1660 1084 l
st
1675 1105 m
1697 1105 l
st
1713 1090 m
1726 1072 l
st
1737 1048 m
1744 1028 l
st
1753 1004 m
1760 983 l
st
1767 959 m
1773 938 l
st
1780 914 m
1786 892 l
st
1791 868 m
1796 847 l
st
1802 822 m
1806 801 l
st
1812 776 m
1817 755 l
st
1822 730 m
1827 709 l
st
1832 685 m
1837 663 l
st
1843 639 m
1848 617 l
st
1854 593 m
1859 572 l
st
1865 547 m
1870 526 l
st
1876 502 m
1882 480 l
st
1889 456 m
1895 435 l
st
1903 412 m
1911 391 l
st
1920 368 m
1930 351 l
st
1946 331 m
1966 326 l
st
1984 336 m
1997 355 l
st
2010 378 m
2017 399 l
st
2026 423 m
2033 443 l
st
2040 468 m
2045 489 l
st
2052 513 m
2057 534 l
st
2064 559 m
2068 580 l
st
2074 605 m
2079 626 l
st
2084 651 m
2089 672 l
st
2094 696 m
2099 718 l
st
2105 742 m
2110 764 l
st
2115 788 m
2120 810 l
st
2126 834 m
2131 855 l
st
2137 880 m
2142 901 l
st
2148 925 m
2154 946 l
st
2161 971 m
2167 992 l
st
2174 1015 m
2182 1035 l
st
2192 1058 m
2200 1077 l
st
2217 1096 m
2237 1106 l
st
2257 1097 m
2268 1079 l
st
2281 1057 m
2289 1036 l
st
2297 1012 m
2304 991 l
st
2312 967 m
2317 946 l
st
2324 922 m
2330 900 l
st
2336 876 m
2341 855 l
st
2347 830 m
2352 809 l
st
2357 785 m
2362 763 l
st
2368 739 m
2372 717 l
st
2378 693 m
2382 671 l
st
2388 647 m
2392 625 l
st
2398 601 m
2403 580 l
st
2409 555 m
2414 534 l
st
2420 510 m
2426 488 l
st
2433 464 m
2439 443 l
st
2446 419 m
2454 399 l
st
2464 376 m
2473 356 l
st
2487 338 m
2503 322 l
st
2526 331 m
2539 347 l
st
2551 369 m
2561 390 l
st
2569 414 m
2576 434 l
st
2584 458 m
2590 480 l
st
2596 504 m
2602 525 l
st
2608 549 m
2613 571 l
st
2619 595 m
2624 617 l
st
2629 641 m
2634 663 l
st
2640 687 m
2644 708 l
st
2650 733 m
2654 754 l
st
2660 779 m
2664 800 l
st
2670 825 m
2675 846 l
st
2681 870 m
2687 892 l
st
2693 916 m
2698 937 l
st
2705 961 m
2712 982 l
st
2719 1006 m
2725 1026 l
st
2735 1049 m
2744 1069 l
st
2754 1088 m
2771 1102 l
st
2793 1102 m
2810 1089 l
st
2821 1067 m
2832 1047 l
st
2841 1023 m
2848 1002 l
st
2855 979 m
2862 958 l
st
2868 933 m
2874 912 l
st
2879 888 m
2885 866 l
st
2891 842 m
2895 821 l
st
2901 796 m
2906 775 l
st
2912 750 m
2916 729 l
st
2922 704 m
2927 683 l
st
2932 658 m
2937 637 l
st
2943 613 m
2948 591 l
st
2953 567 m
2959 545 l
st
2965 521 m
2970 500 l
st
2976 476 m
2983 455 l
st
2990 431 m
2997 410 l
st
3006 387 m
3015 367 l
st
3026 345 m
3041 331 l
st
gr
gs
pathproc 322 123 2735 2094 np rectpath
/eocl cland
np exec
322 1505 m
322 1505 m
350 1505 l
377 1505 l
405 1505 l
432 1505 l
460 1505 l
488 1505 l
515 1505 l
543 1505 l
571 1505 l
598 1505 l
626 1505 l
653 1505 l
681 1505 l
709 1505 l
736 1505 l
764 1505 l
791 1505 l
819 1505 l
847 1505 l
874 1505 l
902 1505 l
930 1505 l
957 1505 l
985 1505 l
1012 1505 l
1040 1505 l
1068 1505 l
1095 1505 l
1123 1505 l
1150 1505 l
1178 1505 l
1206 1505 l
1233 1505 l
1261 1505 l
1289 1505 l
1316 1505 l
1344 1505 l
1371 1505 l
1399 1505 l
1427 1505 l
1454 1505 l
1482 1505 l
1509 1505 l
1537 1505 l
1565 1505 l
1592 1505 l
1620 1505 l
1648 1505 l
1675 1505 l
1703 1505 l
1730 1505 l
1758 1505 l
1786 1505 l
1813 1505 l
1841 1505 l
1869 1505 l
1896 1505 l
1924 1505 l
1951 1505 l
1979 1505 l
2007 1505 l
2034 1505 l
2062 1505 l
2089 1505 l
2117 1505 l
2145 1505 l
2172 1505 l
2200 1505 l
2228 1505 l
2255 1505 l
2283 1505 l
2310 1505 l
2338 1505 l
2366 1505 l
2393 1505 l
2421 1505 l
2448 1505 l
2476 1505 l
2504 1505 l
2531 1505 l
2559 1505 l
2587 1505 l
2614 1505 l
2642 1505 l
2669 1505 l
2697 1505 l
2725 1505 l
2752 1505 l
2780 1505 l
2807 1505 l
2835 1505 l
2863 1505 l
2890 1505 l
2918 1505 l
2946 1505 l
2973 1505 l
3001 1505 l
3028 1505 l
3056 1505 l
5 sw
st
gr
gs
gs
1 -1 sc
130 -1344 tr
90 ro
/MC2_Arial 101 self 0 0 m
(Functions)[62 56 56 51 28 22 56 56 51 ] xs
1 -1 sc
gr
gr
gs
1 -1 sc
/MC1_Arial 101 self 1589 -2451 m
(x \()[50 28 34 ] xs
1 -1 sc
1 -1 sc
/MC3_Symbol 101 self 1701 -2451 m
/s61552 54 xgls
1 -1 sc
1 -1 sc
/MC1_Arial 101 self 1755 -2451 m
(\))[34 ] xs
1 -1 sc
gr
gs
gs
gr
gs
gs
425 2076 m
444 2076 l
5 sw
0 0 1 rgb
st
457 2076 m
462 2076 l
st
475 2076 m
480 2076 l
st
494 2076 m
513 2076 l
st
526 2076 m
531 2076 l
st
544 2076 m
549 2076 l
st
563 2076 m
582 2076 l
st
595 2076 m
600 2076 l
st
613 2076 m
618 2076 l
st
632 2076 m
650 2076 l
st
gr
gr
1 -1 sc
/MC1_Arial 101 self 651 -2111 m
( f\(x\)=1/|2+cos\(x\)|    )[28 28 34 50 34 59 56 28 26 56 59 51 56 51 34 50 34 26 28 28 28 28 ] xs
1 -1 sc
gs
gr
gs
gs
1523 2076 m
1545 2076 l
5 sw
1 0 0 rgb
st
1570 2076 m
1592 2076 l
st
1617 2076 m
1639 2076 l
st
1664 2076 m
1686 2076 l
st
1711 2076 m
1733 2076 l
st
gr
gr
1 -1 sc
1749 -2111 m
( p\(x\)=|2+cos\(x\)| )[28 56 34 50 34 59 26 56 59 51 56 51 34 50 34 26 28 ] xs
1 -1 sc
gs
gr
gs
gs
2481 2076 m
2490 2076 l
5 sw
0 1 0 rgb
st
2502 2076 m
2511 2076 l
st
2523 2076 m
2532 2076 l
st
2544 2076 m
2553 2076 l
st
2565 2076 m
2574 2076 l
st
2586 2076 m
2595 2076 l
st
2607 2076 m
2616 2076 l
st
2628 2076 m
2637 2076 l
st
2649 2076 m
2658 2076 l
st
2670 2076 m
2679 2076 l
st
2691 2076 m
2700 2076 l
st
gr
gr
1 -1 sc
2707 -2111 m
( cos\(x\))[28 51 56 51 34 50 34 ] xs
1 -1 sc
gr
gr
Save0 restore end
showpage
%%EOF
